{
  ////////////////////////////////////////////////////////////////////////////////////
  //
  //  飞蛇骨刺
  //
  ////////////////////////////////////////////////////////////////////////////////////
  "Chrysopelea_Attack01_Bullet": {
    "$type": "ConfigGadget",
    "common": {
      "effectAttachShape": {
        "$type": "ConfigEffectAttachBox",
        "emitFrom": "Volume",
        "scaleX": 1,
        "scaleY": 1,
        "scaleZ": 1
      },
      "scale": 1
    },
    "combat": {
      "property": {
        "useCreatorProperty": true, // 是否继承创造者的数值
        "HP": 999999,
        "attack": 10.0,
        "defense": 999999,
        "isInvincible": true,
        "isGhostToAllied": true,
        "isGhostToEnemy": true
      },
      "combatLock": {
        "denyLockOn": true
      },
      "beHit": {
        "hitBloodEffect": "",
        "muteAllHit": true,
        "muteAllHitEffect": true,
        "muteAllHitText": true
      }
    },
    "move": {
      "$type": "ConfigItanoCircusBulletMove",
      "speed": 10.0,
      "delay": 0.0,
      "acceleration": 1.0,
      "maxSpeed": 20.0,
      "minSpeed": 10.0,
      "guidanceSpeedChange": false,
      "itanoCircusStartAngler": 0,
      "guidanceDelay": 0,
      "anglerVelocity": 200.0,
      "guidanceDuration": 0.2,
      "guidanceMinAnglerVelocity": 0.0,
      "canBornInWater": true,
      "updateAngle": {
        "$type": "ConfigBulletMoveAngleByVelocity"
      }
    },
    // 生命周期管理
    "timer": {
      "lifeInfinite": false, //如果未触发是否一致存在
      "lifeTime": 6.0 //存在时间
    },
    // 子弹参数
    "gadget": {
      "$type": "ConfigBulletPattern",
      "collision": {
        "targetType": "Enemy",
        "triggerType": "TriggerOnce",
        "ignoreScene": false
      },
      "triggerActions": [
        {
          "$type": "ConfigGadgetTriggerAbility",
          "abilityName": "Monster_Chrysopelea_Attack01_Bullet"
        }
      ]
    },
    "abilities": [
      {
        "abilityName": "Monster_Chrysopelea_Attack01_Bullet"
      }
    ]
  },
  ////////////////////////////////////////////////////////////////////////////////////
  //
  //  飞蛇-魔兽复用Attack01
  //
  ////////////////////////////////////////////////////////////////////////////////////
  "Chrysopelea_Sacred_Attack01_Bullet": {
    "$type": "ConfigGadget",
    "common": {
      "effectAttachShape": {
        "$type": "ConfigEffectAttachBox",
        "emitFrom": "Volume",
        "scaleX": 1,
        "scaleY": 1,
        "scaleZ": 1
      },
      "scale": 1
    },
    "combat": {
      "property": {
        "useCreatorProperty": true, // 是否继承创造者的数值
        "HP": 999999,
        "attack": 10.0,
        "defense": 999999,
        "isInvincible": true,
        "isGhostToAllied": true,
        "isGhostToEnemy": true
      },
      "combatLock": {
        "denyLockOn": true
      },
      "beHit": {
        "hitBloodEffect": "",
        "muteAllHit": true,
        "muteAllHitEffect": true,
        "muteAllHitText": true
      }
    },
    "move": {
      "$type": "ConfigItanoCircusBulletMove",
      "speed": 8.0,
      "delay": 0.0,
      "acceleration": 1.0,
      "maxSpeed": 16.0,
      "minSpeed": 5.0,
      "guidanceSpeedChange": false,
      "itanoCircusStartAngler": 0,
      "guidanceDelay": 99,
      "anglerVelocity": 0.0,
      "guidanceDuration": 0.0,
      "guidanceMinAnglerVelocity": 0.0,
      "canBornInWater": true,
      "updateAngle": {
        "$type": "ConfigBulletMoveAngleByVelocity"
      }
    },
    // 生命周期管理
    "timer": {
      "lifeInfinite": false, //如果未触发是否一致存在
      "lifeTime": 8.0 //存在时间
    },
    // 子弹参数
    "gadget": {
      "$type": "ConfigBulletPattern",
      "collision": {
        "targetType": "Enemy",
        "triggerType": "TriggerOnce",
        "ignoreScene": false
      },
      "triggerActions": [
        {
          "$type": "ConfigGadgetTriggerAbility",
          "abilityName": "Monster_Chrysopelea_Sacred_AnimalAttack01_Bullet"
        }
      ]
    },
    "abilities": [
      {
        "abilityName": "Monster_Chrysopelea_Sacred_AnimalAttack01_Bullet"
      }
    ]
  },
  /////////////////////////////////////////////////////////
  //
  // SacredAttack01 风场
  //
  /////////////////////////////////////////////////////////
  "Chrysopelea_Sacred_Attack01_WindZone": {
    "$type": "ConfigGadget",
    "canRemoveByClient": true,
    "combat": {
      "property": {
        "useCreatorProperty": true, // 是否继承创造者的数值
        "HP": 999999,
        "attack": 10,
        "defense": 0,
        "isInvincible": true,
        "isGhostToAllied": true,
        "isGhostToEnemy": true,
        "canTriggerBullet": true
      },
      "combatLock": {
        "denyLockOn": true
      }
    },
    "timer": {
      "lifeInfinite": false, //如果未触发是否一致存在
      "lifeTime": 5 //存在时间f
    },
    "abilities": [
      {
        "abilityID": "WindArea",
        "abilityName": "Monster_Chrysopelea_Sacred_Attack01_WindZone"
      }
    ]
  },
  ////////////////////////////////////////////////////////////////
  //
  //   SacredAttack02 风刃
  //
  ////////////////////////////////////////////////////////////////
  "Chrysopelea_Sacred_Attack02_WindBlade": {
    "$type": "ConfigGadget",
    "common": {
      "effectAttachShape": {
        "$type": "ConfigEffectAttachBox",
        "emitFrom": "Volume",
        "scaleX": 1.0,
        "scaleY": 1.0,
        "scaleZ": 1.0
      }
    },
    "combat": {
      "property": {
        "useCreatorProperty": true, // 是否继承创造者的数值
        "isLockHP": true,
        "canTriggerBullet": false
      },
      "combatLock": {
        "denyLockOn": true
      },
      "beHit": {
        "hitBloodEffect": "",
        "muteAllHit": true,
        "muteAllHitEffect": true,
        "muteAllHitText": true
      }
    },
    // 子弹线性移动
    "move": {
      "$type": "ConfigLinerBulletMove",
      "speed": 20,
      "maxSpeed": 40,
      "acceleration": 10,
      "updateAngle": {
        "$type": "ConfigBulletMoveAngleByVelocity"
      },
      "canBornInWater": true,
      "velocityForce": {
        "excludeForces": ["WindZoneType"]
      }
    },
    "timer": {
      "lifeInfinite": false, //如果未触发是否一致存在
      "lifeTime": 4 //存在时间
    },
    // 子弹参数
    "gadget": {
      "$type": "ConfigBulletPattern",
      "collision": {
        "targetType": "Enemy",
        "triggerType": "TriggerNoRepeat",
        "ignoreScene": true
      },
      "triggerActions": [
        {
          "$type": "ConfigGadgetTriggerAbility",
          "abilityName": "Monster_Chrysopelea_Sacred_Attack02_WindBlade"
        }
      ]
    },
    "abilities": [
      {
        "abilityName": "Monster_Chrysopelea_Sacred_Attack02_WindBlade"
      }
    ]
  },
  /////////////////////////////////////////////////////////
  //
  // SacredAttack04 风场
  //
  /////////////////////////////////////////////////////////
  "Chrysopelea_Sacred_Attack04_WindZone": {
    "$type": "ConfigGadget",
    "canRemoveByClient": true,
    "combat": {
      "property": {
        "useCreatorProperty": true, // 是否继承创造者的数值
        "HP": 999999,
        "attack": 10,
        "defense": 0,
        "isInvincible": true,
        "isGhostToAllied": true,
        "isGhostToEnemy": true,
        "canTriggerBullet": true
      },
      "combatLock": {
        "denyLockOn": true
      }
    },
    "timer": {
      "lifeInfinite": false, //如果未触发是否一致存在
      "lifeTime": 5 //存在时间f
    },
    "abilities": [
      {
        "abilityID": "WindArea",
        "abilityName": "Monster_Chrysopelea_Sacred_Attack04_WindZone"
      }
    ]
  },
  ////////////////////////////////////////////////////////////////////////////////////
  //
  //  SacredAttack05 核爆子弹
  //
  ////////////////////////////////////////////////////////////////////////////////////
  "Chrysopelea_Sacred_Attack05_Bullet": {
    "$type": "ConfigGadget",
    "common": {
      "effectAttachShape": {
        "$type": "ConfigEffectAttachBox",
        "emitFrom": "Volume",
        "scaleX": 1,
        "scaleY": 1,
        "scaleZ": 1
      },
      "scale": 1
    },
    "combat": {
      "property": {
        "useCreatorProperty": true, // 是否继承创造者的数值
        "HP": 999999,
        "attack": 10.0,
        "defense": 999999,
        "isInvincible": true,
        "isGhostToAllied": true,
        "isGhostToEnemy": true
      },
      "combatLock": {
        "denyLockOn": true
      },
      "beHit": {
        "hitBloodEffect": "",
        "muteAllHit": true,
        "muteAllHitEffect": true,
        "muteAllHitText": true
      }
    },
    "move": {
      "$type": "ConfigItanoCircusBulletMove",
      "speed": 4.0,
      "delay": 0.0,
      "acceleration": 3.0,
      "maxSpeed": 15.0,
      "minSpeed": 4.0,
      "guidanceSpeedChange": false,
      "itanoCircusStartAngler": 0,
      "guidanceDelay": 0.2,
      "anglerVelocity": 240.0,
      "guidanceDuration": 1.3,
      "guidanceMinAnglerVelocity": 0.0,
      "canBornInWater": true,
      "updateAngle": {
        "$type": "ConfigBulletMoveAngleByVelocity"
      }
    },
    // 生命周期管理
    "timer": {
      "lifeInfinite": false, //如果未触发是否一致存在
      "lifeTime": 8.0 //存在时间
    },
    // 子弹参数
    "gadget": {
      "$type": "ConfigBulletPattern",
      "collision": {
        "targetType": "Enemy",
        "triggerType": "TriggerOnce",
        "ignoreScene": false
      },
      "triggerActions": [
        {
          "$type": "ConfigGadgetTriggerAbility",
          "abilityName": "Monster_Chrysopelea_Sacred_Attack05_Bullet"
        }
      ],
      "triggerLifeOverActions": [
        {
          "$type": "ConfigGadgetTriggerAbility",
          "abilityName": "Monster_Chrysopelea_Sacred_Attack05_Bullet"
        }
      ]
    },
    "abilities": [
      {
        "abilityName": "Monster_Chrysopelea_Sacred_Attack05_Bullet"
      }
    ]
  },
  ////////////////////////////////////////////////////////////////
  //
  //   SacredAttack05 风刃
  //
  ////////////////////////////////////////////////////////////////
  "Chrysopelea_Sacred_Attack05_WindBlade": {
    "$type": "ConfigGadget",
    "common": {
      "effectAttachShape": {
        "$type": "ConfigEffectAttachBox",
        "emitFrom": "Volume",
        "scaleX": 1.0,
        "scaleY": 1.0,
        "scaleZ": 1.0
      }
    },
    "combat": {
      "property": {
        "useCreatorProperty": true, // 是否继承创造者的数值
        "isLockHP": true,
        "canTriggerBullet": false
      },
      "combatLock": {
        "denyLockOn": true
      },
      "beHit": {
        "hitBloodEffect": "",
        "muteAllHit": true,
        "muteAllHitEffect": true,
        "muteAllHitText": true
      }
    },
    // 子弹线性移动
    "move": {
      "$type": "ConfigLinerBulletMove",
      "speed": 25,
      "maxSpeed": 40,
      "acceleration": 10,
      "updateAngle": {
        "$type": "ConfigBulletMoveAngleByVelocity"
      },
      "canBornInWater": true,
      "velocityForce": {
        "excludeForces": ["WindZoneType"]
      }
    },
    "timer": {
      "lifeInfinite": false, //如果未触发是否一致存在
      "lifeTime": 4 //存在时间
    },
    // 子弹参数
    "gadget": {
      "$type": "ConfigBulletPattern",
      "collision": {
        "targetType": "Enemy",
        "triggerType": "TriggerNoRepeat",
        "ignoreScene": true
      },
      "triggerActions": [
        {
          "$type": "ConfigGadgetTriggerAbility",
          "abilityName": "Monster_Chrysopelea_Sacred_Attack05_WindBlade"
        }
      ]
    },
    "abilities": [
      {
        "abilityName": "Monster_Chrysopelea_Sacred_Attack05_WindBlade"
      }
    ]
  },
  ////////////////////////////////////////////////////////////////////////////////////
  //
  //  毒蝎魔神能量探测子弹
  //
  ////////////////////////////////////////////////////////////////////////////////////
  "Chrysopelea_Sacred_SacredEnergy_Detect": {
    "$type": "ConfigGadget",
    "common": {
      "effectAttachShape": {
        "$type": "ConfigEffectAttachBox",
        "emitFrom": "Volume",
        "scaleX": 1,
        "scaleY": 1,
        "scaleZ": 1
      },
      "scale": 1
    },
    "combat": {
      "property": {
        "useCreatorProperty": true, // 是否继承创造者的数值
        "HP": 999999,
        "attack": 0.0,
        "defense": 999999,
        "isInvincible": true,
        "isGhostToAllied": true,
        "isGhostToEnemy": true
      },
      "combatLock": {
        "denyLockOn": true
      },
      "beHit": {
        "hitBloodEffect": "",
        "muteAllHit": true,
        "muteAllHitEffect": true,
        "muteAllHitText": true
      }
    },
    "move": {
      "$type": "ConfigLinerBulletMove",
      "speed": 40.0
    },
    // 生命周期管理
    "timer": {
      "lifeInfinite": false,
      "lifeTime": 0.1
    },
    // 子弹参数
    "gadget": {
      "$type": "ConfigBulletPattern",
      "collision": {
        "targetType": "Enemy",
        "triggerType": "TriggerOnce",
        "ignoreScene": false
      },
      "triggerActions": [
        {
          "$type": "ConfigGadgetTriggerAbility",
          "abilityName": "Monster_Chrysopelea_Sacred_SacredEnergy_Create"
        }
      ],
      "triggerLifeOverActions": [
        {
          "$type": "ConfigGadgetTriggerAbility",
          "abilityName": "Monster_Chrysopelea_Sacred_SacredEnergy_CreateO"
        }
      ]
    },
    "abilities": [
      {
        "abilityName": "Monster_Chrysopelea_Sacred_SacredEnergy_Create"
      },
      {
        "abilityName": "Monster_Chrysopelea_Sacred_SacredEnergy_CreateO"
      }
    ]
  },
  ////////////////////////////////////////////////////////////////////////////////////
  //
  //  毒蝎能量蓄积子弹
  //
  ////////////////////////////////////////////////////////////////////////////////////
  "Chrysopelea_Sacred_SacredEnergy_Accum": {
    "$type": "ConfigGadget",
    "common": {
      "effectAttachShape": {
        "$type": "ConfigEffectAttachBox",
        "emitFrom": "Volume",
        "scaleX": 1.0,
        "scaleY": 1.0,
        "scaleZ": 1.0
      }
    },
    "combat": {
      "property": {
        "useCreatorProperty": true, // 是否继承创造者的数值
        "HP": 999999,
        "attack": 10.0,
        "defense": 999999,
        "isInvincible": true,
        "isGhostToAllied": true,
        "isGhostToEnemy": true
      },
      "combatLock": {
        "denyLockOn": true
      },
      "beHit": {
        "hitBloodEffect": "",
        "muteAllHit": true,
        "muteAllHitEffect": true,
        "muteAllHitText": true
      },
      "simulatePhysics": {
        "enable": false
      }
    },
    // 子弹移动
    "move": {
      "$type": "ConfigMultiBulletMove"
    },
    // 生命周期管理
    "timer": {
      "lifeInfinite": false, //如果未触发是否一致存在
      "lifeTime": 5.0 //存在时间
    },
    // 子弹参数
    "gadget": {
      "$type": "ConfigMultiBulletPattern",
      "multiBulletConfig": {
        "$type": "ConfigEffectItanoCircusBullet",
        "effectPattern": "Eff_Monster_Chrysopelea_Sacred_SacredAttack05_SacredEnergy_Bullet"
      },
      "collision": {
        "targetType": "None",
        "triggerType": "TriggerOnce",
        "ignoreScene": true
      },
      "killByOther": true
    },
    "abilities": [
      {
        "abilityName": "Monster_Chrysopelea_Sacred_SacredEnergy_Accum"
      }
    ]
  },
  ////////////////////////////////////////////////////////////////////////////////////
  //
  //  飞蛇-魔神能量创生物
  //
  ////////////////////////////////////////////////////////////////////////////////////
  "Chrysopelea_Sacred_SacredEnergy_Gadget": {
    "$type": "ConfigGadget",
    "common": {
      "effectAttachShape": {
        "$type": "ConfigEffectAttachBox",
        "emitFrom": "Volume",
        "scaleX": 1.0,
        "scaleY": 1.0,
        "scaleZ": 1.0
      }
    },
    "billboard": {
      "$type": "ConfigCombatBillboard",
      "attachPoint": "BillboardAttach",
      "offset": {
        "x": 0,
        "y": 0,
        "z": 0
      },
      "radiusOffset": 3.0,
      "enableSelfAdapt": false,
      "showDistance": 48,
      "forceShowDistance": 48,
      "showHPBar": true,
      "shieldBarOnly": true,
      "size": "Grand"
    },
    "specialPoint": {
      "bulletAim": "BulletAimPoint",
      "hitPoints": ["BulletAimPoint"],
      "selectedPoints": ["BulletAimPoint"]
    },
    "combat": {
      "property": {
        "useCreatorProperty": true, // 是否继承创造者的数值
        "HP": 999999,
        "attack": 10.0,
        "defense": 999999,
        "isLockHP": true,
        "isGhostToAllied": false,
        "isGhostToEnemy": false
      },
      "combatLock": {
        "denyLockOn": false,
        "lockType": "Avatar&Monster_Lv4"
      },
      "beHit": {
        "hitBloodEffect": "",
        "hitAutoRedirect": false,
        "muteAllHit": false,
        "muteAllHitEffect": true,
        "muteAllHitText": true
      }
    },
    // 生命周期管理
    "timer": {
      "lifeInfinite": false, //如果未触发是否一致存在
      "lifeTime": 11.5 //存在时间
    },
    "abilities": [
      {
        "abilityName": "Monster_Chrysopelea_Sacred_SacredEnergy_Gadget"
      }
    ]
  },
  ////////////////////////////////////////////////////////////////
  //
  //  飞蛇-魔神能量子弹
  //
  ////////////////////////////////////////////////////////////////
  "Chrysopelea_Sacred_SacredEnergy_Bullet": {
    "$type": "ConfigGadget",
    "common": {
      "effectAttachShape": {
        "$type": "ConfigEffectAttachBox",
        "emitFrom": "Volume",
        "scaleX": 1.0,
        "scaleY": 1.0,
        "scaleZ": 1.0
      }
    },
    "combat": {
      "property": {
        "useCreatorProperty": true, // 是否继承创造者的数值
        "HP": 999999,
        "attack": 10.0,
        "defense": 999999,
        "isInvincible": true,
        "isGhostToAllied": true,
        "isGhostToEnemy": true
      },
      "combatLock": {
        "denyLockOn": true
      },
      "beHit": {
        "hitBloodEffect": "",
        "muteAllHit": true,
        "muteAllHitEffect": true,
        "muteAllHitText": true
      }
    },
    // 子弹移动
    "move": {
      "$type": "ConfigTrackBulletMove",
      "delay": 0.4,
      "speed": 10,
      "acceleration": 10,
      "maxSpeed": 20,
      "updateAngle": {
        "$type": "ConfigBulletMoveAngleByVelocity"
      },
      "traceOnYAxis": true,
      "destroyWhenTargetDie": false,
      "canBornInWater": true
    },
    // 生命周期管理
    "timer": {
      "lifeInfinite": false, //如果未触发是否一致存在
      "lifeTime": 7.5 //存在时间
    },
    // 子弹参数
    "gadget": {
      "$type": "ConfigBulletPattern",
      "collision": {
        "targetType": "Enemy",
        "triggerType": "TriggerNoRepeat",
        "ignoreScene": true
      },
      "triggerActions": [
        {
          "$type": "ConfigGadgetTriggerAbility",
          "abilityName": "Monster_Chrysopelea_Sacred_SacredEnergy_Bullet"
        }
      ],
      "killByOther": true
    },
    "abilities": [
      {
        "abilityName": "Monster_Chrysopelea_Sacred_SacredEnergy_Bullet"
      }
    ]
  },
  ////////////////////////////////////////////////////////////////
  //
  //  飞蛇-魔神能量怪物子弹
  //
  ////////////////////////////////////////////////////////////////
  "Chrysopelea_Sacred_SacredEnergy_Bullet_ToMonster": {
    "$type": "ConfigGadget",
    "common": {
      "effectAttachShape": {
        "$type": "ConfigEffectAttachBox",
        "emitFrom": "Volume",
        "scaleX": 1.0,
        "scaleY": 1.0,
        "scaleZ": 1.0
      }
    },
    "combat": {
      "property": {
        "useCreatorProperty": true, // 是否继承创造者的数值
        "HP": 999999,
        "attack": 10.0,
        "defense": 999999,
        "isInvincible": true,
        "isGhostToAllied": true,
        "isGhostToEnemy": true
      },
      "combatLock": {
        "denyLockOn": true
      },
      "beHit": {
        "hitBloodEffect": "",
        "muteAllHit": true,
        "muteAllHitEffect": true,
        "muteAllHitText": true
      }
    },
    // 子弹移动
    "move": {
      "$type": "ConfigTrackBulletMove",
      "delay": 0.4,
      "speed": 10,
      "acceleration": 10,
      "maxSpeed": 20,
      "updateAngle": {
        "$type": "ConfigBulletMoveAngleByVelocity"
      },
      "traceOnYAxis": true,
      "destroyWhenTargetDie": false,
      "canBornInWater": true
    },
    // 生命周期管理
    "timer": {
      "lifeInfinite": false, //如果未触发是否一致存在
      "lifeTime": 10.0 //存在时间
    },
    // 子弹参数
    "gadget": {
      "$type": "ConfigBulletPattern",
      "collision": {
        "targetType": "AllExceptSelf",
        "triggerType": "TriggerNoRepeat",
        "ignoreScene": true
      },
      "triggerActions": [
        {
          "$type": "ConfigGadgetTriggerAbility",
          "abilityName": "Monster_Chrysopelea_Sacred_SacredEnergy_Bullet_ToMonster"
        }
      ],
      "killByOther": true
    },
    "abilities": [
      {
        "abilityName": "Monster_Chrysopelea_Sacred_SacredEnergy_Bullet_ToMonster"
      }
    ]
  }
}
