{
  ////////////////////////////////////////////////////////////////
  //
  //  Apep_Stage1_Forearm_CrashAttack01
  //
  ////////////////////////////////////////////////////////////////
  "Apep_Stage1_Forearm_CrashAttack01": {
    "$type": "ConfigGadget",
    "common": {
      "effectAttachShape": {
        "$type": "ConfigEffectAttachBox",
        "emitFrom": "Volume",
        "scaleX": 1.0,
        "scaleY": 1.0,
        "scaleZ": 1.0
      }
    },
    "combat": {
      "property": {
        "useCreatorProperty": true, // 是否继承创造者的数值
        "HP": 999999,
        "attack": 10.0,
        "defense": 999999,
        "isInvincible": true,
        "isGhostToAllied": true,
        "isGhostToEnemy": true
      },
      "combatLock": {
        "denyLockOn": true
      },
      "beHit": {
        "hitBloodEffect": "",
        "muteAllHit": true,
        "muteAllHitEffect": true,
        "muteAllHitText": true
      }
    },
    "stateLayers": {
      "defaultLayer": {
        "$type": "ConfigNormalStateLayer",
        "stateIDs": {
          "CrashAttack01": {
            "$type": "ConfigMonsterStateIDInfo",
            "animatorStates": {
              "CrashAttack01": []
            },
            "canSteer": true,
            "canSyncMove": true
          }
        }
      }
    },
    // 生命周期管理
    "timer": {
      "lifeInfinite": false, //如果未触发是否一致存在
      "lifeTime": 5.0 //存在时间
    },
    "abilities": [
      {
        "abilityName": "Apep_Stage1_Forearm_CrashAttack01"
      }
    ]
  },
  ////////////////////////////////////////////////////////////////
  //
  //  Apep_Stage1_Forearm_CrashAttack02
  //
  ////////////////////////////////////////////////////////////////
  "Apep_Stage1_Forearm_CrashAttack02": {
    "$type": "ConfigGadget",
    "common": {
      "effectAttachShape": {
        "$type": "ConfigEffectAttachBox",
        "emitFrom": "Volume",
        "scaleX": 1.0,
        "scaleY": 1.0,
        "scaleZ": 1.0
      }
    },
    "combat": {
      "property": {
        "useCreatorProperty": true, // 是否继承创造者的数值
        "HP": 999999,
        "attack": 10.0,
        "defense": 999999,
        "isInvincible": true,
        "isGhostToAllied": true,
        "isGhostToEnemy": true
      },
      "combatLock": {
        "denyLockOn": true
      },
      "beHit": {
        "hitBloodEffect": "",
        "muteAllHit": true,
        "muteAllHitEffect": true,
        "muteAllHitText": true
      }
    },
    "stateLayers": {
      "defaultLayer": {
        "$type": "ConfigNormalStateLayer",
        "stateIDs": {
          "CrashAttack02": {
            "$type": "ConfigMonsterStateIDInfo",
            "animatorStates": {
              "CrashAttack02": []
            },
            "canSteer": true,
            "canSyncMove": true
          }
        }
      }
    },
    // 生命周期管理
    "timer": {
      "lifeInfinite": false, //如果未触发是否一致存在
      "lifeTime": 5.0 //存在时间
    },
    "abilities": [
      {
        "abilityName": "Apep_Stage1_Forearm_CrashAttack02"
      }
    ]
  },
  ////////////////////////////////////////////////////////////////
  //
  //  Apep_Stage1_Forearm_CrashAttack03
  //
  ////////////////////////////////////////////////////////////////
  "Apep_Stage1_Forearm_CrashAttack03": {
    "$type": "ConfigGadget",
    "common": {
      "effectAttachShape": {
        "$type": "ConfigEffectAttachBox",
        "emitFrom": "Volume",
        "scaleX": 1.0,
        "scaleY": 1.0,
        "scaleZ": 1.0
      }
    },
    "combat": {
      "property": {
        "useCreatorProperty": true, // 是否继承创造者的数值
        "HP": 999999,
        "attack": 10.0,
        "defense": 999999,
        "isInvincible": true,
        "isGhostToAllied": true,
        "isGhostToEnemy": true
      },
      "combatLock": {
        "denyLockOn": true
      },
      "beHit": {
        "hitBloodEffect": "",
        "muteAllHit": true,
        "muteAllHitEffect": true,
        "muteAllHitText": true
      }
    },
    "stateLayers": {
      "defaultLayer": {
        "$type": "ConfigNormalStateLayer",
        "stateIDs": {
          "CrashAttack03": {
            "$type": "ConfigMonsterStateIDInfo",
            "animatorStates": {
              "CrashAttack03": []
            },
            "canSteer": true,
            "canSyncMove": true
          }
        }
      }
    },
    // 生命周期管理
    "timer": {
      "lifeInfinite": false, //如果未触发是否一致存在
      "lifeTime": 5.0 //存在时间
    },
    "abilities": [
      {
        "abilityName": "Apep_Stage1_Forearm_CrashAttack03"
      }
    ]
  },
  ////////////////////////////////////////////////////////////////
  //
  //  Apep_Stage1_Forearm_CrashAttack04
  //
  ////////////////////////////////////////////////////////////////
  "Apep_Stage1_Forearm_CrashAttack04": {
    "$type": "ConfigGadget",
    "common": {
      "effectAttachShape": {
        "$type": "ConfigEffectAttachBox",
        "emitFrom": "Volume",
        "scaleX": 1.0,
        "scaleY": 1.0,
        "scaleZ": 1.0
      }
    },
    "combat": {
      "property": {
        "useCreatorProperty": true, // 是否继承创造者的数值
        "HP": 999999,
        "attack": 10.0,
        "defense": 999999,
        "isInvincible": true,
        "isGhostToAllied": true,
        "isGhostToEnemy": true
      },
      "combatLock": {
        "denyLockOn": true
      },
      "beHit": {
        "hitBloodEffect": "",
        "muteAllHit": true,
        "muteAllHitEffect": true,
        "muteAllHitText": true
      }
    },
    "stateLayers": {
      "defaultLayer": {
        "$type": "ConfigNormalStateLayer",
        "stateIDs": {
          "CrashAttack04": {
            "$type": "ConfigMonsterStateIDInfo",
            "animatorStates": {
              "CrashAttack04": []
            },
            "canSteer": true,
            "canSyncMove": true
          }
        }
      }
    },
    // 生命周期管理
    "timer": {
      "lifeInfinite": false, //如果未触发是否一致存在
      "lifeTime": 5.0 //存在时间
    },
    "abilities": [
      {
        "abilityName": "Apep_Stage1_Forearm_CrashAttack04"
      }
    ]
  },
  ////////////////////////////////////////////////////////////////
  //
  //  Apep_Stage3_BlinkAttack_PositionGadget
  //
  ////////////////////////////////////////////////////////////////
  "Apep_Stage3_BlinkAttack_PositionGadget": {
    "$type": "ConfigGadget",
    "common": {
      "effectAttachShape": {
        "$type": "ConfigEffectAttachBox",
        "emitFrom": "Volume",
        "scaleX": 1.0,
        "scaleY": 1.0,
        "scaleZ": 1.0
      }
    },
    "combat": {
      "property": {
        "useCreatorProperty": true, // 是否继承创造者的数值
        "HP": 999999,
        "attack": 10.0,
        "defense": 999999,
        "isInvincible": true,
        "isGhostToAllied": true,
        "isGhostToEnemy": true
      },
      "combatLock": {
        "denyLockOn": true
      },
      "beHit": {
        "hitBloodEffect": "",
        "muteAllHit": true,
        "muteAllHitEffect": true,
        "muteAllHitText": true
      }
    },
    // 生命周期管理
    "timer": {
      "lifeInfinite": false, //如果未触发是否一致存在
      "lifeTime": 5.0 //存在时间
    },
    "abilities": [
      // {
      // 	"abilityName":"Apep_Stage3_RangeAttack3_DamageGadget",
      // },
    ]
  },
  ////////////////////////////////////////////////////////////////
  //
  //  Apep_Stage3_RangeAttack2_Bullet
  //
  ////////////////////////////////////////////////////////////////
  "Apep_Stage3_RangeAttack2_Bullet": {
    "$type": "ConfigGadget",
    "common": {
      "effectAttachShape": {
        "$type": "ConfigEffectAttachBox",
        "emitFrom": "Volume",
        "scaleX": 1.0,
        "scaleY": 1.0,
        "scaleZ": 1.0
      }
    },
    "combat": {
      "property": {
        "useCreatorProperty": true, // 是否继承创造者的数值
        "HP": 999999,
        "attack": 10.0,
        "defense": 999999,
        "isInvincible": true,
        "isGhostToAllied": true,
        "isGhostToEnemy": true
      },
      "combatLock": {
        "denyLockOn": true
      },
      "beHit": {
        "hitBloodEffect": "",
        "muteAllHit": true,
        "muteAllHitEffect": true,
        "muteAllHitText": true
      },
      "simulatePhysics": {
        "enable": true
      }
    },
    // 子弹移动
    "move": {
      "$type": "ConfigMultiBulletMove"
    },
    // 生命周期管理
    "timer": {
      "lifeInfinite": false, //如果未触发是否一致存在
      "lifeTime": 12.0 //存在时间
    },
    // 子弹参数
    "gadget": {
      "$type": "ConfigMultiBulletPattern",
      "multiBulletConfig": {
        "$type": "ConfigEffectItanoCircusBullet",
        "effectPattern": "Eff_Monster_Apep_Stage3_RangeAttack2_Bullet"
      },
      "collision": {
        "targetType": "Enemy",
        "triggerType": "TriggerOnce"
      },
      "triggerActions": [
        {
          "$type": "ConfigGadgetTriggerAbility",
          "abilityName": "Apep_Stage3_RangeAttack2_Bullet"
        }
      ],
      "triggerLifeOverActions": [
        {
          "$type": "ConfigGadgetTriggerAbility",
          "abilityName": "Apep_Stage3_RangeAttack2_Bullet"
        }
      ],
      "killByOther": true
    },
    "abilities": [
      {
        "abilityName": "Apep_Stage3_RangeAttack2_Bullet"
      }
    ]
  },
  ////////////////////////////////////////////////////////////////
  //
  //  Apep_Stage3_RangeAttack3_TrackBullet
  //
  ////////////////////////////////////////////////////////////////
  "Apep_Stage3_RangeAttack3_TrackBullet": {
    "$type": "ConfigGadget",
    "common": {
      "scale": 1.0,
      "effectAttachShape": {
        "$type": "ConfigEffectAttachBox",
        "emitFrom": "Volume",
        "scaleX": 1.0,
        "scaleY": 1.0,
        "scaleZ": 1.0
      }
    },
    "combat": {
      "property": {
        "useCreatorProperty": true, // 是否继承创造者的数值
        "HP": 999999,
        "attack": 15.0,
        "defense": 999999,
        "isInvincible": true,
        "isGhostToAllied": true,
        "isGhostToEnemy": false,
        "canTriggerBullet": false
      },
      "combatLock": {
        "denyLockOn": true
      },
      "beHit": {
        "hitBloodEffect": "",
        "muteAllHit": false,
        "hitAutoRedirect": false,
        "muteAllHitEffect": false,
        "muteAllHitText": true
      }
    },
    // 子弹线性移动
    "move": {
      "$type": "ConfigTrackBulletMove",
      "delay": 1,
      "speed": 3.0,
      "acceleration": 1,
      "stickToGround": {
        "$type": "ConfigMoveStickToGround",
        "heightToGround": 0.6,
        "flexibleRange": 0.1,
        "maxStepHeight": 4,
        "maxSlopeAngle": 75,
        "isStickToWater": false,
        "unstickWhenDownSlide": "Keep",
        "unstickWhenUpSlide": "Keep"
      },
      "maxSpeed": 5,
      "minSpeed": 3,
      "traceOnYAxis": false,
      "anglerVelocity": 3600.0,
      "canBornInWater": false
    },
    // "gadget" :
    // {
    // 	"$type" : "ConfigBulletPattern",
    // 	"collision" :
    // 	{
    // 		"targetType" : "Enemy",
    // 		"triggerType": "TriggerNoRepeat",
    // 		"ignoreScene": true,
    // 		"ignoreWater": false,
    // 	},
    // 	"triggerActions" :
    // 	[
    // 	],
    // },
    "field": {
      "concernType": "AllAvatars",
      // "shape": "CircleR15",
      "startCheckTime": 0.0, //触发开始延时
      "checkInterval": 0.1, //触发间隔
      "triggerInfinite": true, //是否永远触发
      "lifeInfinite": true //是否一致存在
      // "lifeTime" : 500,			//存在时间
    },
    "timer": {
      "lifeInfinite": false, //如果未触发是否一致存在
      "lifeTime": 8.0 //存在时间
    },
    "abilities": [
      {
        "abilityName": "Apep_Stage3_RangeAttack3_TrackBullet"
      }
    ]
  },
  ////////////////////////////////////////////////////////////////
  //
  //  Apep_Stage3_RangeAttack3_DamageGadget_FirstAttack
  //
  ////////////////////////////////////////////////////////////////
  "Apep_Stage3_RangeAttack3_DamageGadget_FirstAttack": {
    "$type": "ConfigGadget",
    "common": {
      "effectAttachShape": {
        "$type": "ConfigEffectAttachBox",
        "emitFrom": "Volume",
        "scaleX": 1.0,
        "scaleY": 1.0,
        "scaleZ": 1.0
      }
    },
    "combat": {
      "property": {
        "useCreatorProperty": true, // 是否继承创造者的数值
        "HP": 999999,
        "attack": 10.0,
        "defense": 999999,
        "isInvincible": true,
        "isGhostToAllied": true,
        "isGhostToEnemy": true
      },
      "combatLock": {
        "denyLockOn": true
      },
      "beHit": {
        "hitBloodEffect": "",
        "muteAllHit": true,
        "muteAllHitEffect": true,
        "muteAllHitText": true
      }
    },
    // 生命周期管理
    "timer": {
      "lifeInfinite": false, //如果未触发是否一致存在
      "lifeTime": 5.0 //存在时间
    },
    "abilities": [
      {
        "abilityName": "Apep_Stage3_RangeAttack3_DamageGadget_FirstAttack"
      }
    ]
  },
  ////////////////////////////////////////////////////////////////
  //
  //  Apep_Stage3_RangeAttack3_DamageGadget_RepeatAttack
  //
  ////////////////////////////////////////////////////////////////
  "Apep_Stage3_RangeAttack3_DamageGadget_RepeatAttack": {
    "$type": "ConfigGadget",
    "common": {
      "effectAttachShape": {
        "$type": "ConfigEffectAttachBox",
        "emitFrom": "Volume",
        "scaleX": 1.0,
        "scaleY": 1.0,
        "scaleZ": 1.0
      }
    },
    "combat": {
      "property": {
        "useCreatorProperty": true, // 是否继承创造者的数值
        "HP": 999999,
        "attack": 10.0,
        "defense": 999999,
        "isInvincible": true,
        "isGhostToAllied": true,
        "isGhostToEnemy": true
      },
      "combatLock": {
        "denyLockOn": true
      },
      "beHit": {
        "hitBloodEffect": "",
        "muteAllHit": true,
        "muteAllHitEffect": true,
        "muteAllHitText": true
      }
    },
    // 生命周期管理
    "timer": {
      "lifeInfinite": false, //如果未触发是否一致存在
      "lifeTime": 5.0 //存在时间
    },
    "abilities": [
      {
        "abilityName": "Apep_Stage3_RangeAttack3_DamageGadget_RepeatAttack"
      }
    ]
  }
}
