{
  //////////////////////////////////////////////////////////////////////////////////////////////////
  //
  // 30米监测器
  //
  //////////////////////////////////////////////////////////////////////////////////////////////////
  "SceneObj_Environment_Field_30": {
    "$type": "ConfigGadget",
    "combat": {
      "property": {
        "useCreatorProperty": false,
        "HP": 99999,
        "attack": 20,
        "defense": 0,
        "weight": 50,
        "isInvincible": true,
        "isLockHP": true,
        "isGhostToAllied": false,
        "isGhostToEnemy": false,
        "canTriggerBullet": true
      },
      "combatLock": {
        "denyLockOn": true,
        "lockType": "Gadget_Lv1"
      },
      "beHit": {
        "hitBloodEffect": "",
        "hitAutoRedirect": false,
        "muteAllHit": false,
        "muteAllHitEffect": false,
        "muteAllHitText": true
      }
    },
    "abilities": [
      {
        "abilityID": "Ability_01",

        "abilityName": "SceneObj_Environment_Field_30"
      }
    ]
  },
  //////////////////////////////////////////////////////////////////////////////////////////////////
  //
  //竞技场守卫
  //
  //////////////////////////////////////////////////////////////////////////////////////////////////
  "SceneObj_Environment_Other_AreaGuardian": {
    "$type": "ConfigGadget",
    "keepModifierOutSight": true,
    "combat": {
      "property": {
        "useCreatorProperty": false,
        "HP": 99999,
        "attack": 20,
        "defense": 0,
        "weight": 50,
        "isInvincible": false,
        "isLockHP": true,
        "isGhostToAllied": false,
        "isGhostToEnemy": false,
        "canTriggerBullet": true
      },
      "combatLock": {
        "denyLockOn": true,
        "lockType": "Gadget_Lv1"
      },
      "beHit": {
        "hitBloodEffect": "",
        "hitAutoRedirect": false,
        "muteAllHit": false,
        "muteAllHitEffect": false,
        "muteAllHitText": true
      }
    }
  },

  //////////////////////////////////////////////////////////////////////////////////////////////////
  //
  //遗迹猎者（仿竞技场守卫）
  //
  //////////////////////////////////////////////////////////////////////////////////////////////////
  "SceneObj_Environment_Other_Formathr": {
    "$type": "ConfigGadget",
    "keepModifierOutSight": true,
    "combat": {
      "property": {
        "useCreatorProperty": false,
        "HP": 99999,
        "attack": 20,
        "defense": 0,
        "weight": 50,
        "isInvincible": false,
        "isLockHP": true,
        "isGhostToAllied": false,
        "isGhostToEnemy": false,
        "canTriggerBullet": true
      },
      "combatLock": {
        "denyLockOn": true,
        "lockType": "Gadget_Lv1"
      },
      "beHit": {
        "hitBloodEffect": "",
        "hitAutoRedirect": false,
        "muteAllHit": false,
        "muteAllHitEffect": false,
        "muteAllHitText": true
      }
    }
  },

  //////////////////////////////////////////////////////////////////////////////////////////////////
  //
  //猎鹿人今日推荐
  //
  //////////////////////////////////////////////////////////////////////////////////////////////////
  "SceneObj_Environment_Bulletin1": {
    "$type": "ConfigGadget",
    "hasModel": false,
    "uiInteract": {
      "gadgetUIBtnCfgPath": "TEST/TEST_Bulletin_Btn",
      "uiName": "UI_BULLETIN_QTE_TITLE1"
    }
  },

  //////////////////////////////////////////////////////////////////////////////////////////////////
  //
  //晨曦酒庄招募书
  //
  //////////////////////////////////////////////////////////////////////////////////////////////////
  "SceneObj_Environment_Bulletin2": {
    "$type": "ConfigGadget",
    "hasModel": false,
    "uiInteract": {
      "gadgetUIBtnCfgPath": "TEST/TEST_Bulletin_Btn",
      "uiName": "UI_BULLETIN_QTE_TITLE2"
    }
  },

  //////////////////////////////////////////////////////////////////////////////////////////////////
  //
  //降魔印查看
  //
  //////////////////////////////////////////////////////////////////////////////////////////////////
  "SceneObj_Environment_Bulletin3": {
    "$type": "ConfigGadget",
    "hasModel": false,
    "uiInteract": {
      "gadgetUIBtnCfgPath": "TEST/TEST_Bulletin_Btn",
      "uiName": "UI_BULLETIN_QTE_TITLE3"
    }
  },

  //////////////////////////////////////////////////////////////////////////////////////////////////
  //
  //1.4风花节作诗笔记查看
  //
  //////////////////////////////////////////////////////////////////////////////////////////////////
  "SceneObj_Environment_Bulletin6": {
    "$type": "ConfigGadget",
    "hasModel": false,
    "uiInteract": {
      "gadgetUIBtnCfgPath": "TEST/TEST_Bulletin_Btn",
      "uiName": "UI_BULLETIN_QTE_TITLE6"
    }
  },

  //////////////////////////////////////////////////////////////////////////////////////////////////
  //
  //镀金旅团的覆灭信件6
  //
  //////////////////////////////////////////////////////////////////////////////////////////////////
  "SceneObj_Environment_Bulletin9": {
    "$type": "ConfigGadget",
    "hasModel": false,
    "uiInteract": {
      "gadgetUIBtnCfgPath": "TEST/TEST_Bulletin_Btn",
      "uiName": "UI_BULLETIN_QTE_TITLE9"
    }
  },
  //////////////////////////////////////////////////////////////////////////////////////////////////
  //
  //镀金旅团的覆灭信件5
  //
  //////////////////////////////////////////////////////////////////////////////////////////////////
  "SceneObj_Environment_Bulletin10": {
    "$type": "ConfigGadget",
    "hasModel": false,
    "uiInteract": {
      "gadgetUIBtnCfgPath": "TEST/TEST_Bulletin_Btn",
      "uiName": "UI_BULLETIN_QTE_TITLE10"
    }
  },
  //////////////////////////////////////////////////////////////////////////////////////////////////
  //
  //镀金旅团的覆灭信件4
  //
  //////////////////////////////////////////////////////////////////////////////////////////////////
  "SceneObj_Environment_Bulletin11": {
    "$type": "ConfigGadget",
    "hasModel": false,
    "uiInteract": {
      "gadgetUIBtnCfgPath": "TEST/TEST_Bulletin_Btn",
      "uiName": "UI_BULLETIN_QTE_TITLE11"
    }
  },
  //////////////////////////////////////////////////////////////////////////////////////////////////
  //
  //镀金旅团的覆灭信件3
  //
  //////////////////////////////////////////////////////////////////////////////////////////////////
  "SceneObj_Environment_Bulletin12": {
    "$type": "ConfigGadget",
    "hasModel": false,
    "uiInteract": {
      "gadgetUIBtnCfgPath": "TEST/TEST_Bulletin_Btn",
      "uiName": "UI_BULLETIN_QTE_TITLE12"
    }
  },
  //////////////////////////////////////////////////////////////////////////////////////////////////
  //
  //镀金旅团的覆灭信件2
  //
  //////////////////////////////////////////////////////////////////////////////////////////////////
  "SceneObj_Environment_Bulletin13": {
    "$type": "ConfigGadget",
    "hasModel": false,
    "uiInteract": {
      "gadgetUIBtnCfgPath": "TEST/TEST_Bulletin_Btn",
      "uiName": "UI_BULLETIN_QTE_TITLE13"
    }
  },
  //////////////////////////////////////////////////////////////////////////////////////////////////
  //
  //镀金旅团的覆灭信件1
  //
  //////////////////////////////////////////////////////////////////////////////////////////////////
  "SceneObj_Environment_Bulletin14": {
    "$type": "ConfigGadget",
    "hasModel": false,
    "uiInteract": {
      "gadgetUIBtnCfgPath": "TEST/TEST_Bulletin_Btn",
      "uiName": "UI_BULLETIN_QTE_TITLE14"
    }
  },
  //////////////////////////////////////////////////////////////////////////////////////////////////
  //
  //居尔城记事·其一
  //
  //////////////////////////////////////////////////////////////////////////////////////////////////
  "SceneObj_Environment_Bulletin15": {
    "$type": "ConfigGadget",
    "hasModel": false,
    "uiInteract": {
      "gadgetUIBtnCfgPath": "TEST/TEST_Bulletin_Btn",
      "uiName": "UI_BULLETIN_QTE_TITLE15"
    }
  },
  //////////////////////////////////////////////////////////////////////////////////////////////////
  //
  //居尔城记事·其二
  //
  //////////////////////////////////////////////////////////////////////////////////////////////////
  "SceneObj_Environment_Bulletin16": {
    "$type": "ConfigGadget",
    "hasModel": false,
    "uiInteract": {
      "gadgetUIBtnCfgPath": "TEST/TEST_Bulletin_Btn",
      "uiName": "UI_BULLETIN_QTE_TITLE16"
    }
  },
  //////////////////////////////////////////////////////////////////////////////////////////////////
  //
  //居尔城记事·其三
  //
  //////////////////////////////////////////////////////////////////////////////////////////////////
  "SceneObj_Environment_Bulletin17": {
    "$type": "ConfigGadget",
    "hasModel": false,
    "uiInteract": {
      "gadgetUIBtnCfgPath": "TEST/TEST_Bulletin_Btn",
      "uiName": "UI_BULLETIN_QTE_TITLE17"
    }
  },
  //////////////////////////////////////////////////////////////////////////////////////////////////
  //
  //居尔城记事·其四
  //
  //////////////////////////////////////////////////////////////////////////////////////////////////
  "SceneObj_Environment_Bulletin18": {
    "$type": "ConfigGadget",
    "hasModel": false,
    "uiInteract": {
      "gadgetUIBtnCfgPath": "TEST/TEST_Bulletin_Btn",
      "uiName": "UI_BULLETIN_QTE_TITLE18"
    }
  },
  //////////////////////////////////////////////////////////////////////////////////////////////////
  //
  //居尔城记事·其五
  //
  //////////////////////////////////////////////////////////////////////////////////////////////////
  "SceneObj_Environment_Bulletin19": {
    "$type": "ConfigGadget",
    "hasModel": false,
    "uiInteract": {
      "gadgetUIBtnCfgPath": "TEST/TEST_Bulletin_Btn",
      "uiName": "UI_BULLETIN_QTE_TITLE19"
    }
  },
  //////////////////////////////////////////////////////////////////////////////////////////////////
  //
  //破损的石板
  //
  //////////////////////////////////////////////////////////////////////////////////////////////////
  "SceneObj_Environment_Bulletin20": {
    "$type": "ConfigGadget",
    "hasModel": false,
    "uiInteract": {
      "gadgetUIBtnCfgPath": "TEST/TEST_Bulletin_Btn",
      "uiName": "UI_BULLETIN_QTE_TITLE20"
    }
  },
  //////////////////////////////////////////////////////////////////////////////////////////////////
  //
  //达马山记事·其一
  //
  //////////////////////////////////////////////////////////////////////////////////////////////////
  "SceneObj_Environment_Bulletin21": {
    "$type": "ConfigGadget",
    "hasModel": false,
    "uiInteract": {
      "gadgetUIBtnCfgPath": "TEST/TEST_Bulletin_Btn",
      "uiName": "UI_BULLETIN_QTE_TITLE21"
    }
  },
  //////////////////////////////////////////////////////////////////////////////////////////////////
  //
  //达马山记事·其二
  //
  //////////////////////////////////////////////////////////////////////////////////////////////////
  "SceneObj_Environment_Bulletin22": {
    "$type": "ConfigGadget",
    "hasModel": false,
    "uiInteract": {
      "gadgetUIBtnCfgPath": "TEST/TEST_Bulletin_Btn",
      "uiName": "UI_BULLETIN_QTE_TITLE22"
    }
  },
  //////////////////////////////////////////////////////////////////////////////////////////////////
  //
  //达马山记事·其三
  //
  //////////////////////////////////////////////////////////////////////////////////////////////////
  "SceneObj_Environment_Bulletin23": {
    "$type": "ConfigGadget",
    "hasModel": false,
    "uiInteract": {
      "gadgetUIBtnCfgPath": "TEST/TEST_Bulletin_Btn",
      "uiName": "UI_BULLETIN_QTE_TITLE23"
    }
  },
  //////////////////////////////////////////////////////////////////////////////////////////////////
  //
  //「黄铜面具」的教导·其一
  //
  //////////////////////////////////////////////////////////////////////////////////////////////////
  "SceneObj_Environment_Bulletin24": {
    "$type": "ConfigGadget",
    "hasModel": false,
    "uiInteract": {
      "gadgetUIBtnCfgPath": "TEST/TEST_Bulletin_Btn",
      "uiName": "UI_BULLETIN_QTE_TITLE24"
    }
  },
  //////////////////////////////////////////////////////////////////////////////////////////////////
  //
  //「黄铜面具」的教导·其二
  //
  //////////////////////////////////////////////////////////////////////////////////////////////////
  "SceneObj_Environment_Bulletin25": {
    "$type": "ConfigGadget",
    "hasModel": false,
    "uiInteract": {
      "gadgetUIBtnCfgPath": "TEST/TEST_Bulletin_Btn",
      "uiName": "UI_BULLETIN_QTE_TITLE25"
    }
  },
  //////////////////////////////////////////////////////////////////////////////////////////////////
  //
  //「黄铜面具」的教导·其三
  //
  //////////////////////////////////////////////////////////////////////////////////////////////////
  "SceneObj_Environment_Bulletin26": {
    "$type": "ConfigGadget",
    "hasModel": false,
    "uiInteract": {
      "gadgetUIBtnCfgPath": "TEST/TEST_Bulletin_Btn",
      "uiName": "UI_BULLETIN_QTE_TITLE26"
    }
  },
  //////////////////////////////////////////////////////////////////////////////////////////////////
  //
  //古绿洲记事·其一
  //
  //////////////////////////////////////////////////////////////////////////////////////////////////
  "SceneObj_Environment_Bulletin27": {
    "$type": "ConfigGadget",
    "hasModel": false,
    "uiInteract": {
      "gadgetUIBtnCfgPath": "TEST/TEST_Bulletin_Btn",
      "uiName": "UI_BULLETIN_QTE_TITLE27"
    }
  },
  //////////////////////////////////////////////////////////////////////////////////////////////////
  //
  //古绿洲记事·其二
  //
  //////////////////////////////////////////////////////////////////////////////////////////////////
  "SceneObj_Environment_Bulletin28": {
    "$type": "ConfigGadget",
    "hasModel": false,
    "uiInteract": {
      "gadgetUIBtnCfgPath": "TEST/TEST_Bulletin_Btn",
      "uiName": "UI_BULLETIN_QTE_TITLE28"
    }
  },
  //////////////////////////////////////////////////////////////////////////////////////////////////
  //
  //古绿洲记事·其三
  //
  //////////////////////////////////////////////////////////////////////////////////////////////////
  "SceneObj_Environment_Bulletin29": {
    "$type": "ConfigGadget",
    "hasModel": false,
    "uiInteract": {
      "gadgetUIBtnCfgPath": "TEST/TEST_Bulletin_Btn",
      "uiName": "UI_BULLETIN_QTE_TITLE29"
    }
  },
  //////////////////////////////////////////////////////////////////////////////////////////////////
  //
  //古绿洲记事·其四
  //
  //////////////////////////////////////////////////////////////////////////////////////////////////
  "SceneObj_Environment_Bulletin30": {
    "$type": "ConfigGadget",
    "hasModel": false,
    "uiInteract": {
      "gadgetUIBtnCfgPath": "TEST/TEST_Bulletin_Btn",
      "uiName": "UI_BULLETIN_QTE_TITLE30"
    }
  },
  //////////////////////////////////////////////////////////////////////////////////////////////////
  //
  //古绿洲记事·其五
  //
  //////////////////////////////////////////////////////////////////////////////////////////////////
  "SceneObj_Environment_Bulletin31": {
    "$type": "ConfigGadget",
    "hasModel": false,
    "uiInteract": {
      "gadgetUIBtnCfgPath": "TEST/TEST_Bulletin_Btn",
      "uiName": "UI_BULLETIN_QTE_TITLE31"
    }
  },
  //////////////////////////////////////////////////////////////////////////////////////////////////
  //
  //古绿洲记事·其六
  //
  //////////////////////////////////////////////////////////////////////////////////////////////////
  "SceneObj_Environment_Bulletin32": {
    "$type": "ConfigGadget",
    "hasModel": false,
    "uiInteract": {
      "gadgetUIBtnCfgPath": "TEST/TEST_Bulletin_Btn",
      "uiName": "UI_BULLETIN_QTE_TITLE32"
    }
  },
  //////////////////////////////////////////////////////////////////////////////////////////////////
  //
  //征发令石板
  //
  //////////////////////////////////////////////////////////////////////////////////////////////////
  "SceneObj_Environment_Bulletin33": {
    "$type": "ConfigGadget",
    "hasModel": false,
    "uiInteract": {
      "gadgetUIBtnCfgPath": "TEST/TEST_Bulletin_Btn",
      "uiName": "UI_BULLETIN_QTE_TITLE33"
    }
  },
  //////////////////////////////////////////////////////////////////////////////////////////////////
  //
  //可莉的木牌
  //
  //////////////////////////////////////////////////////////////////////////////////////////////////
  "SceneObj_Environment_KleeBoard": {
    "$type": "ConfigGadget",
    "hasModel": false,
    "uiInteract": {
      "gadgetUIBtnCfgPath": "TEST/TEST_Bulletin_Btn",
      "uiName": "UI_BULLETIN_QTE_TITLE4"
    }
  },

  //////////////////////////////////////////////////////////////////////////////////////////////////
  //
  //绀田村寻人启事
  //
  //////////////////////////////////////////////////////////////////////////////////////////////////
  "SceneObj_Environment_ChildLost": {
    "$type": "ConfigGadget",
    "hasModel": false,
    "uiInteract": {
      "gadgetUIBtnCfgPath": "TEST/TEST_Bulletin_Btn",
      "uiName": "UI_BULLETIN_QTE_TITLE7"
    }
  },

  //////////////////////////////////////////////////////////////////////////////////////////////////
  //
  //2.8海岛活动线 万叶的家书1
  //
  //////////////////////////////////////////////////////////////////////////////////////////////////
  "SceneObj_Environment_DreamIsland_KazuhaLetter01": {
    "$type": "ConfigGadget",
    "hasModel": false,
    "uiInteract": {
      "gadgetUIBtnCfgPath": "TEST/TEST_Bulletin_Btn",
      "uiName": "UI_BULLETIN_QTE_TITLE8"
    }
  },
  //////////////////////////////////////////////////////////////////////////////////////////////////
  //
  //2.8海岛活动线 万叶的家书2
  //
  //////////////////////////////////////////////////////////////////////////////////////////////////
  "SceneObj_Environment_DreamIsland_KazuhaLetter02": {
    "$type": "ConfigGadget",
    "hasModel": false,
    "uiInteract": {
      "gadgetUIBtnCfgPath": "TEST/TEST_Bulletin_Btn",
      "uiName": "UI_BULLETIN_QTE_TITLE8"
    }
  },
  //////////////////////////////////////////////////////////////////////////////////////////////////
  //
  //2.8海岛活动线 万叶的家书3
  //
  //////////////////////////////////////////////////////////////////////////////////////////////////
  "SceneObj_Environment_DreamIsland_KazuhaLetter03": {
    "$type": "ConfigGadget",
    "hasModel": false,
    "uiInteract": {
      "gadgetUIBtnCfgPath": "TEST/TEST_Bulletin_Btn",
      "uiName": "UI_BULLETIN_QTE_TITLE8"
    }
  },
  //////////////////////////////////////////////////////////////////////////////////////////////////
  //
  //2.8海岛活动线 阿贝多的笔记
  //
  //////////////////////////////////////////////////////////////////////////////////////////////////
  "SceneObj_Environment_DreamIsland_AlbedoNote": {
    "$type": "ConfigGadget",
    "hasModel": false,
    "uiInteract": {
      "gadgetUIBtnCfgPath": "TEST/TEST_Bulletin_Btn",
      "uiName": "UI_BULLETIN_QTE_TITLE8"
    }
  },
  //
  //萨梅尔的留言赤王陵
  //
  //////////////////////////////////////////////////////////////////////////////////////////////////
  "SceneObj_Environment_MessageFromSamiel01": {
    "$type": "ConfigGadget",
    "hasModel": false,
    "uiInteract": {
      "gadgetUIBtnCfgPath": "TEST/TEST_Bulletin_Btn",
      "uiName": "UI_BULLETIN_QTE_TITLE5"
    }
  },
  //////////////////////////////////////////////////////////////////////////////////////////////////
  //
  //萨梅尔的留言圣显厅
  //
  //////////////////////////////////////////////////////////////////////////////////////////////////
  "SceneObj_Environment_MessageFromSamiel02": {
    "$type": "ConfigGadget",
    "hasModel": false,
    "uiInteract": {
      "gadgetUIBtnCfgPath": "TEST/TEST_Bulletin_Btn",
      "uiName": "UI_BULLETIN_QTE_TITLE5"
    }
  },
  //////////////////////////////////////////////////////////////////////////////////////////////////
  //
  //元能尖碑01
  //
  //////////////////////////////////////////////////////////////////////////////////////////////////
  "SceneObj_Environment_Obelisk01": {
    "$type": "ConfigGadget",
    "hasModel": false,
    "uiInteract": {
      "gadgetUIBtnCfgPath": "TEST/TEST_Bulletin_Btn",
      "uiName": "UI_BULLETIN_QTE_TITLE5"
    }
  },
  //元能尖碑02
  //
  //////////////////////////////////////////////////////////////////////////////////////////////////
  "SceneObj_Environment_Obelisk02": {
    "$type": "ConfigGadget",
    "hasModel": false,
    "uiInteract": {
      "gadgetUIBtnCfgPath": "TEST/TEST_Bulletin_Btn",
      "uiName": "UI_BULLETIN_QTE_TITLE5"
    }
  },
  //元能尖碑03
  //
  //////////////////////////////////////////////////////////////////////////////////////////////////
  "SceneObj_Environment_Obelisk03": {
    "$type": "ConfigGadget",
    "hasModel": false,
    "uiInteract": {
      "gadgetUIBtnCfgPath": "TEST/TEST_Bulletin_Btn",
      "uiName": "UI_BULLETIN_QTE_TITLE5"
    }
  },
  //元能尖碑04
  //
  //////////////////////////////////////////////////////////////////////////////////////////////////
  "SceneObj_Environment_Obelisk04": {
    "$type": "ConfigGadget",
    "hasModel": false,
    "uiInteract": {
      "gadgetUIBtnCfgPath": "TEST/TEST_Bulletin_Btn",
      "uiName": "UI_BULLETIN_QTE_TITLE5"
    }
  },
  //元能尖碑05
  //
  //////////////////////////////////////////////////////////////////////////////////////////////////
  "SceneObj_Environment_Obelisk05": {
    "$type": "ConfigGadget",
    "hasModel": false,
    "uiInteract": {
      "gadgetUIBtnCfgPath": "TEST/TEST_Bulletin_Btn",
      "uiName": "UI_BULLETIN_QTE_TITLE5"
    }
  },
  //元能尖碑06
  //
  //////////////////////////////////////////////////////////////////////////////////////////////////
  "SceneObj_Environment_Obelisk06": {
    "$type": "ConfigGadget",
    "hasModel": false,
    "uiInteract": {
      "gadgetUIBtnCfgPath": "TEST/TEST_Bulletin_Btn",
      "uiName": "UI_BULLETIN_QTE_TITLE5"
    }
  },
  //元能尖碑07
  //
  //////////////////////////////////////////////////////////////////////////////////////////////////
  "SceneObj_Environment_Obelisk07": {
    "$type": "ConfigGadget",
    "hasModel": false,
    "uiInteract": {
      "gadgetUIBtnCfgPath": "TEST/TEST_Bulletin_Btn",
      "uiName": "UI_BULLETIN_QTE_TITLE5"
    }
  },
  //元能尖碑08
  //
  //////////////////////////////////////////////////////////////////////////////////////////////////
  "SceneObj_Environment_Obelisk08": {
    "$type": "ConfigGadget",
    "hasModel": false,
    "uiInteract": {
      "gadgetUIBtnCfgPath": "TEST/TEST_Bulletin_Btn",
      "uiName": "UI_BULLETIN_QTE_TITLE5"
    }
  },
  //元能尖碑09
  //
  //////////////////////////////////////////////////////////////////////////////////////////////////
  "SceneObj_Environment_Obelisk09": {
    "$type": "ConfigGadget",
    "hasModel": false,
    "uiInteract": {
      "gadgetUIBtnCfgPath": "TEST/TEST_Bulletin_Btn",
      "uiName": "UI_BULLETIN_QTE_TITLE5"
    }
  },
  //元能尖碑10
  //
  //////////////////////////////////////////////////////////////////////////////////////////////////
  "SceneObj_Environment_Obelisk10": {
    "$type": "ConfigGadget",
    "hasModel": false,
    "uiInteract": {
      "gadgetUIBtnCfgPath": "TEST/TEST_Bulletin_Btn",
      "uiName": "UI_BULLETIN_QTE_TITLE5"
    }
  },
  //机器人阅读物01
  //
  //////////////////////////////////////////////////////////////////////////////////////////////////
  "SceneObj_Environment_BigRobot01": {
    "$type": "ConfigGadget",
    "hasModel": false,
    "uiInteract": {
      "gadgetUIBtnCfgPath": "TEST/TEST_Bulletin_Btn",
      "uiName": "UI_BULLETIN_QTE_TITLE5"
    }
  },
  //机器人阅读物02
  //
  //////////////////////////////////////////////////////////////////////////////////////////////////
  "SceneObj_Environment_BigRobot02": {
    "$type": "ConfigGadget",
    "hasModel": false,
    "uiInteract": {
      "gadgetUIBtnCfgPath": "TEST/TEST_Bulletin_Btn",
      "uiName": "UI_BULLETIN_QTE_TITLE5"
    }
  },
  //机器人阅读物03
  //
  //////////////////////////////////////////////////////////////////////////////////////////////////
  "SceneObj_Environment_BigRobot03": {
    "$type": "ConfigGadget",
    "hasModel": false,
    "uiInteract": {
      "gadgetUIBtnCfgPath": "TEST/TEST_Bulletin_Btn",
      "uiName": "UI_BULLETIN_QTE_TITLE5"
    }
  },
  //机器人阅读物04
  //
  //////////////////////////////////////////////////////////////////////////////////////////////////
  "SceneObj_Environment_BigRobot04": {
    "$type": "ConfigGadget",
    "hasModel": false,
    "uiInteract": {
      "gadgetUIBtnCfgPath": "TEST/TEST_Bulletin_Btn",
      "uiName": "UI_BULLETIN_QTE_TITLE5"
    }
  },
  //一封信函
  //
  //////////////////////////////////////////////////////////////////////////////////////////////////
  "SceneObj_Environment_Secret_letter01": {
    "$type": "ConfigGadget",
    "hasModel": false,
    "uiInteract": {
      "gadgetUIBtnCfgPath": "TEST/TEST_Bulletin_Btn",
      "uiName": "UI_BULLETIN_QTE_TITLE5"
    }
  },
  //////////////////////////////////////////////////////////////////////////////////////////////////
  //////////////////////////////////////////////////////////////////////////////////////////////////
  //
  //温迪疗伤特效
  //
  //////////////////////////////////////////////////////////////////////////////////////////////////
  "SceneObj_Environment_Cure_Wind": {
    "$type": "ConfigGadget",
    "hasModel": true,
    "common": {
      "disableTickDistance": 10000
    },
    "combat": {
      "property": {
        "useCreatorProperty": false,
        "HP": 99999,
        "attack": 100,
        "denyLockOn": 0,
        "weight": 50,
        "isInvincible": true,
        "isLockHP": true,
        "endure": 99,
        "isGhostToAllied": false,
        "isGhostToEnemy": false,
        "canTriggerBullet": true
      },
      "combatLock": {
        "denyLockOn": true,
        "lockType": "Gadget_Lv1"
      },
      "beHit": {
        "hitBloodEffect": "",
        "hitAutoRedirect": false,
        "muteAllHit": true,
        "muteAllHitEffect": true,
        "muteAllHitText": true
      }
    },
    "abilities": [
      {
        "abilityID": "SceneObj_Environment_Cure_Wind",
        "abilityName": "SceneObj_Environment_Cure_Wind"
      }
    ]
  },
  //////////////////////////////////////////////////////////////////////////////////////////////////
  //
  //风属性元素气息
  //
  //////////////////////////////////////////////////////////////////////////////////////////////////
  "SceneObj_Environment_ElementFootprint_Trail": {
    "$type": "ConfigGadget",
    "hasModel": true,
    "model": {
      "attachEffect": "Eff_ElementFootprint_Trail"
    },
    "combat": {
      "property": {
        "useCreatorProperty": false,
        "HP": 99999,
        "attack": 100,
        "denyLockOn": 0,
        "weight": 50,
        "isInvincible": true,
        "isLockHP": true,
        "endure": 99,
        "isGhostToAllied": false,
        "isGhostToEnemy": false,
        "canTriggerBullet": false
      },
      "combatLock": {
        "denyLockOn": true,
        "lockType": "Gadget_Lv1"
      }
    },
    "abilities": [
      {
        "abilityID": "SceneObj_Environment_ElementFootprint_Trail",
        "abilityName": "SceneObj_Environment_ElementFootprint_Trail"
      }
    ]
  },
  //////////////////////////////////////////////////////////////////////////////////////////////////
  //
  //水属性元素气息
  //
  //////////////////////////////////////////////////////////////////////////////////////////////////
  "SceneObj_Environment_ElementFootprint_TrailWater": {
    "$type": "ConfigGadget",
    "hasModel": true,
    "model": {
      "attachEffect": "Eff_ElementFootprint_TrailWater",
      "ignoreDistCheckWhenAttachEffect": true
    },
    "combat": {
      "property": {
        "useCreatorProperty": false,
        "HP": 99999,
        "attack": 100,
        "denyLockOn": 0,
        "weight": 50,
        "isInvincible": true,
        "isLockHP": true,
        "endure": 99,
        "isGhostToAllied": false,
        "isGhostToEnemy": false,
        "canTriggerBullet": false
      },
      "combatLock": {
        "denyLockOn": true,
        "lockType": "Gadget_Lv1"
      }
    },
    "abilities": [
      {
        "abilityID": "SceneObj_Environment_ElementFootprint_TrailWater",
        "abilityName": "SceneObj_Environment_ElementFootprint_TrailWater"
      }
    ]
  },
  //////////////////////////////////////////////////////////////////////////////////////////////////
  //
  //莫娜线封印特效
  //
  //////////////////////////////////////////////////////////////////////////////////////////////////
  "SceneObj_Environment_Mona_Door_Sealed": {
    "$type": "ConfigGadget",
    "hasModel": true,
    "combat": {
      "property": {
        "useCreatorProperty": false,
        "HP": 99999,
        "attack": 100,
        "denyLockOn": 0,
        "weight": 50,
        "isInvincible": true,
        "isLockHP": true,
        "endure": 99,
        "isGhostToAllied": false,
        "isGhostToEnemy": false,
        "canTriggerBullet": true
      },
      "combatLock": {
        "denyLockOn": true,
        "lockType": "Gadget_Lv1"
      },
      "beHit": {
        "hitBloodEffect": "",
        "hitAutoRedirect": false,
        "muteAllHit": true,
        "muteAllHitEffect": true,
        "muteAllHitText": true
      }
    },
    "abilities": [
      {
        "abilityID": "SceneObj_Environment_Mona_Door_Sealed",
        "abilityName": "SceneObj_Environment_Mona_Door_Sealed"
      }
    ]
  },
  //////////////////////////////////////////////////////////////////////////////////////////////////
  //
  //路径节点（红）
  //
  //////////////////////////////////////////////////////////////////////////////////////////////////
  "SceneObj_Item_PathNode_Red": {
    "$type": "ConfigGadget",
    "hasModel": true,
    "field": {
      "concernType": "AllAvatars",
      "shape": "CircleR5", //形状，不填为collider
      "checkInterval": 0.2, //触发间隔
      "triggerInfinite": true, //是否永远触发
      "lifeInfinite": true, //如果未触发是否一致存在
      "overwriteCampType": true,
      "campType": "All"
    },
    "combat": {
      "property": {
        "useCreatorProperty": false,
        "HP": 99999,
        "attack": 100,
        "weight": 50,
        "isInvincible": true,
        "isLockHP": true,
        "endure": 99,
        "isGhostToAllied": false,
        "isGhostToEnemy": false,
        "canTriggerBullet": false
      },
      "combatLock": {
        "denyLockOn": true,
        "lockType": "Gadget_Lv1"
      },
      "beHit": {
        "hitBloodEffect": "",
        "hitAutoRedirect": false,
        "muteAllHit": true,
        "muteAllHitEffect": true,
        "muteAllHitText": true
      }
    },
    "abilities": [
      {
        "abilityID": "SceneObj_Item_PathNode_Red",
        "abilityName": "SceneObj_Item_PathNode_Red"
      }
    ]
  },
  //////////////////////////////////////////////////////////////////////////////////////////////////
  //
  //路径节点（黄）
  //
  //////////////////////////////////////////////////////////////////////////////////////////////////
  "SceneObj_Item_PathNode_Yellow": {
    "$type": "ConfigGadget",
    "hasModel": true,
    "field": {
      "concernType": "AllAvatars",
      "shape": "CircleR5", //形状，不填为collider
      "checkInterval": 0.2, //触发间隔
      "triggerInfinite": true, //是否永远触发
      "lifeInfinite": true, //如果未触发是否一致存在
      "overwriteCampType": true,
      "campType": "All"
    },
    "combat": {
      "property": {
        "useCreatorProperty": false,
        "HP": 99999,
        "attack": 100,
        "weight": 50,
        "isInvincible": true,
        "isLockHP": true,
        "endure": 99,
        "isGhostToAllied": false,
        "isGhostToEnemy": false,
        "canTriggerBullet": false
      },
      "combatLock": {
        "denyLockOn": true,
        "lockType": "Gadget_Lv1"
      },
      "beHit": {
        "hitBloodEffect": "",
        "hitAutoRedirect": false,
        "muteAllHit": true,
        "muteAllHitEffect": true,
        "muteAllHitText": true
      }
    },
    "abilities": [
      {
        "abilityID": "SceneObj_Item_PathNode_Yellow",
        "abilityName": "SceneObj_Item_PathNode_Yellow"
      }
    ]
  },
  //////////////////////////////////////////////////////////////////////////////////////////////////
  //
  //路径节点（绿）
  //
  //////////////////////////////////////////////////////////////////////////////////////////////////
  "SceneObj_Item_PathNode_Green": {
    "$type": "ConfigGadget",
    "hasModel": true,
    "field": {
      "concernType": "AllAvatars",
      "shape": "CircleR5", //形状，不填为collider
      "checkInterval": 0.2, //触发间隔
      "triggerInfinite": true, //是否永远触发
      "lifeInfinite": true, //如果未触发是否一致存在
      "overwriteCampType": true,
      "campType": "All"
    },
    "combat": {
      "property": {
        "useCreatorProperty": false,
        "HP": 99999,
        "attack": 100,
        "weight": 50,
        "isInvincible": true,
        "isLockHP": true,
        "endure": 99,
        "isGhostToAllied": false,
        "isGhostToEnemy": false,
        "canTriggerBullet": false
      },
      "combatLock": {
        "denyLockOn": true,
        "lockType": "Gadget_Lv1"
      },
      "beHit": {
        "hitBloodEffect": "",
        "hitAutoRedirect": false,
        "muteAllHit": true,
        "muteAllHitEffect": true,
        "muteAllHitText": true
      }
    },
    "abilities": [
      {
        "abilityID": "SceneObj_Item_PathNode_Green",
        "abilityName": "SceneObj_Item_PathNode_Green"
      }
    ]
  },
  //////////////////////////////////////////////////////////////////////////////////////////////////
  //
  //丽莎攻击特效
  //
  //////////////////////////////////////////////////////////////////////////////////////////////////
  "SceneObj_Eff_Eff_ThunderFall_03": {
    "$type": "ConfigGadget",
    "hasModel": true,
    "model": {
      //"attachEffect":"Eff_Cure_Wind_01",
    },
    "combat": {
      "property": {
        "useCreatorProperty": false,
        "HP": 99999,
        "attack": 100,
        "denyLockOn": 0,
        "weight": 50,
        "isInvincible": true,
        "isLockHP": true,
        "endure": 99,
        "isGhostToAllied": false,
        "isGhostToEnemy": false,
        "canTriggerBullet": true
      },
      "combatLock": {
        "denyLockOn": true,
        "lockType": "Gadget_Lv1"
      },
      "beHit": {
        "hitBloodEffect": "",
        "hitAutoRedirect": false,
        "muteAllHit": true,
        "muteAllHitEffect": true,
        "muteAllHitText": true
      }
    },
    "gadgetAction": {
      "gadgetStateActionList": [
        {
          "$type": "ConfigGadgetStateFireEffect",
          "rootName": "EffectNode",
          "effectPattern": "Eff_Lisa_ThunderFall",
          "gadgetState": "Default"
        }
      ]
    }
  },
  //////////////////////////////////////////////////////////////////////////////////////////////////
  //
  //丽莎攻击前摇特效
  //
  //////////////////////////////////////////////////////////////////////////////////////////////////
  "SceneObj_Eff_Eff_ThunderFall_Area": {
    "$type": "ConfigGadget",
    "hasModel": true,
    "model": {
      //"attachEffect":"Eff_Cure_Wind_01",
    },
    "combat": {
      "property": {
        "useCreatorProperty": false,
        "HP": 99999,
        "attack": 100,
        "denyLockOn": 0,
        "weight": 50,
        "isInvincible": true,
        "isLockHP": true,
        "endure": 99,
        "isGhostToAllied": false,
        "isGhostToEnemy": false,
        "canTriggerBullet": true
      },
      "combatLock": {
        "denyLockOn": true,
        "lockType": "Gadget_Lv1"
      },
      "beHit": {
        "hitBloodEffect": "",
        "hitAutoRedirect": false,
        "muteAllHit": true,
        "muteAllHitEffect": true,
        "muteAllHitText": true
      }
    },
    "gadgetAction": {
      "gadgetStateActionList": [
        {
          "$type": "ConfigGadgetStateFireEffect",
          "rootName": "EffectNode",
          "effectPattern": "Eff_ThunderFall_Area",
          "gadgetState": "Default"
        }
      ]
    }
  },
  //////////////////////////////////////////////////////////////////////////////////////////////////
  //
  //静态物件添加元素视野用(显示元素视野条件为hasModel为true，有combat或uiInteract)
  //
  //////////////////////////////////////////////////////////////////////////////////////////////////
  "SceneObj_Item_Default_Item": {
    "$type": "ConfigGadget",
    "hasModel": true,
    "combat": {
      "property": {
        "useCreatorProperty": false,
        "HP": 99999,
        "attack": 100,
        "denyLockOn": 0,
        "weight": 50,
        "isInvincible": true,
        "isLockHP": true,
        "endure": 99,
        "isGhostToAllied": true,
        "isGhostToEnemy": true,
        "canTriggerBullet": false
      },
      "combatLock": {
        "denyLockOn": true,
        "lockType": "Gadget_Lv1"
      },
      "beHit": {
        "hitBloodEffect": "",
        "hitAutoRedirect": false,
        "muteAllHit": true,
        "muteAllHitEffect": true,
        "muteAllHitText": true
      }
    }
  }
}
