{
  "Invoker_Herald_Ice_ConeOfCold": {
    "$type": "ConfigGadget",
    "common": {
      "effectAttachShape": {
        "$type": "ConfigEffectAttachBox",
        "emitFrom": "Volume",
        "scaleX": 0.5,
        "scaleY": 0.5,
        "scaleZ": 1.0
      }
    },
    "combat": {
      "property": {
        "useCreatorProperty": true,
        "canTriggerBullet": false,
        "isInvincible": true
      },
      "combatLock": {
        "denyLockOn": true
      }
    },
    "move": {
      "$type": "ConfigTrackBulletMove",
      "speed": 45,
      "maxSpeed": 46,
      "traceOnYAxis": true,
      "anglerVelocity": 18,
      "destroyWhenTargetDie": false,
      "updateAngle": {
        "$type": "ConfigBulletMoveAngleByVelocity"
      },
      "canBornInWater": true,
      "velocityForce": {
        "excludeForces": ["WindZoneType", "AirflowType"]
      }
    },
    "timer": {
      "lifeInfinite": false,
      "lifeTime": 1 // 差不多能走40米多一点，够了
    },
    "gadget": {
      "$type": "ConfigBulletPattern",
      "collision": {
        "targetType": "Enemy",
        "triggerType": "TriggerNoRepeat",
        "ignoreScene": true
      },
      "triggerActions": [
        {
          "$type": "ConfigGadgetTriggerAbility",
          "abilityName": "Invoker_Herald_Ice_ConeOfCold_Bullet"
        },
        // 伤害效果
        {
          "$type": "ConfigGadgetDamageByAttackValue",
          "attackInfo": {
            "attackProperty": {
              "damagePercentage": 0.78,
              "strikeType": "Blunt",
              "elementType": "Ice",
              "elementDurability": 25,
              "enBreak": 200
            },
            "attackTag": "EnchantIceBlade",
            "hitPattern": {
              "onHitEffectName": "",
              "overrideHitImpulse": {
                "hitImpulseX": 1350,
                "hitImpulseY": 0,
                "hitLevel": "Heavy"
              }
            }
          }
        }
      ]
    },
    "abilities": [{ "abilityName": "Invoker_Herald_Ice_ConeOfCold_Bullet" }]
  },
  "Invoker_Herald_Ice_ConeOfCold_Improved": {
    "$type": "ConfigGadget",
    "common": {
      "effectAttachShape": {
        "$type": "ConfigEffectAttachBox",
        "emitFrom": "Volume",
        "scaleX": 0.5,
        "scaleY": 0.5,
        "scaleZ": 1.0
      }
    },
    "combat": {
      "property": {
        "useCreatorProperty": true,
        "canTriggerBullet": false,
        "isInvincible": true
      },
      "combatLock": {
        "denyLockOn": true
      }
    },
    "move": {
      "$type": "ConfigTrackBulletMove",
      "speed": 50,
      "maxSpeed": 50,
      "traceOnYAxis": true,
      "anglerVelocity": 350,
      "destroyWhenTargetDie": false,
      "updateAngle": {
        "$type": "ConfigBulletMoveAngleByVelocity"
      },
      "canBornInWater": true,
      "velocityForce": {
        "excludeForces": ["WindZoneType", "AirflowType"]
      }
    },
    "timer": {
      "lifeInfinite": false,
      "lifeTime": 1.8
    },
    "gadget": {
      "$type": "ConfigBulletPattern",
      "collision": {
        "targetType": "None",
        "triggerType": "TriggerOnce",
        "ignoreScene": false
      },
      "enableCollisionDelay": 0.2,
      "reTriggerOnDelayEnd": true,
      "triggerActions": [
        {
          "$type": "ConfigGadgetTriggerAbility",
          "abilityName": "Invoker_Herald_Ice_ConeOfCold_Bullet_Improved"
        }
      ],
      "triggerLifeOverActions": [
        {
          "$type": "ConfigGadgetTriggerAbility",
          "abilityName": "Invoker_Herald_Ice_ConeOfCold_Bullet_Improved"
        }
      ]
    },
    "abilities": [
      { "abilityName": "Invoker_Herald_Ice_ConeOfCold_Bullet_Improved" }
    ]
  },
  // 跳跃冰锥攻击  目标点
  "Invoker_Herald_Ice_ConeOfCold_TargetPoint": {
    "$type": "ConfigGadget",
    "combat": {
      "property": {
        "useCreatorProperty": true,
        "canTriggerBullet": false,
        "isInvincible": true,
        "isGhostToEnemy": true
      },
      "combatLock": {
        "denyLockOn": true
      }
    },
    "timer": {
      "lifeInfinite": false,
      "lifeTime": 0.75
    },
    "abilities": [
      { "abilityName": "Invoker_Herald_Ice_ConeOfCold_Improved_Point_Logic" }
    ]
  },
  // 直线冰锥目标点
  "Invoker_Herald_Ice_ConeOfCold_Linear_TargetPoint": {
    "$type": "ConfigGadget",
    "combat": {
      "property": {
        "useCreatorProperty": true,
        "canTriggerBullet": false,
        "isInvincible": true,
        "isGhostToEnemy": true
      },
      "combatLock": {
        "denyLockOn": true
      }
    },
    "timer": {
      "lifeInfinite": false,
      "lifeTime": 0.75
    },
    "abilities": [
      { "abilityName": "Invoker_Herald_Ice_ConeOfCold_Linear_Point_Logic" }
    ]
  }
}
