[
  {
    "activityId": 5042,
    "BOKDJOOKCNC": "ACTIVITY_BANNER_MONSTER",
    "rewardPreviewId": 15174,
    "PMOMAAIFNPO": "ConfigEffigyWater",
    "prefabPath": "ART/UI/Menus/Widget/Activity/Activity_EffigyWater",
    "descTextMapHash": 1331077578
  },
  {
    "activityId": 5043,
    "BOKDJOOKCNC": "ACTIVITY_BANNER_MONSTER",
    "rewardPreviewId": 15175,
    "PMOMAAIFNPO": "ConfigRaijin",
    "prefabPath": "ART/UI/Menus/Widget/Activity/Activity_Raijin",
    "descTextMapHash": 2110025370
  },
  {
    "activityId": 5060,
    "BOKDJOOKCNC": "ACTIVITY_BANNER_MONSTER",
    "rewardPreviewId": 15176,
    "PMOMAAIFNPO": "ConfigHoundPlanelurker",
    "prefabPath": "ART/UI/Menus/Widget/Activity/Activity_Hound",
    "descTextMapHash": 1365582098
  },
  {
    "activityId": 5061,
    "BOKDJOOKCNC": "ACTIVITY_BANNER_MONSTER",
    "rewardPreviewId": 15177,
    "PMOMAAIFNPO": "ConfigDeepsea",
    "prefabPath": "ART/UI/Menus/Widget/Activity/Activity_Drake_Deepsea",
    "OCMFPIHOPGD": true,
    "descTextMapHash": 458552746
  },
  {
    "activityId": 5063,
    "PMOMAAIFNPO": "ConfigShenhe",
    "prefabPath": "ART/UI/Menus/Widget/Activity/Activity_Shenhe",
    "descTextMapHash": 1118890858
  },
  {
    "activityId": 5064,
    "PMOMAAIFNPO": "ConfigMichiae",
    "prefabPath": "ART/UI/Menus/Widget/Activity/Activity_Michiae",
    "descTextMapHash": 1849278290
  },
  {
    "activityId": 5071,
    "BOKDJOOKCNC": "ACTIVITY_BANNER_MONSTER",
    "rewardPreviewId": 15178,
    "PMOMAAIFNPO": "ConfigNithhoggr",
    "prefabPath": "ART/UI/Menus/Widget/Activity/Activity_Nithhoggr",
    "OCMFPIHOPGD": true,
    "descTextMapHash": 3851306674
  },
  {
    "activityId": 5075,
    "PMOMAAIFNPO": "ConfigTheChasm",
    "prefabPath": "ART/UI/Menus/Widget/Activity/Activity_TheChasm",
    "OCMFPIHOPGD": true,
    "descTextMapHash": 524978850
  },
  {
    "activityId": 5077,
    "PMOMAAIFNPO": "ConfigAQTheChasm",
    "prefabPath": "ART/UI/Menus/Widget/Activity/Activity_AQ_TheChasm",
    "descTextMapHash": 547111794
  },
  {
    "activityId": 5086,
    "BOKDJOOKCNC": "ACTIVITY_BANNER_MONSTER",
    "rewardPreviewId": 15179,
    "PMOMAAIFNPO": "ConfigMushroom",
    "prefabPath": "ART/UI/Menus/Widget/Activity/Activity_Mushroom",
    "descTextMapHash": 3077608586
  },
  {
    "activityId": 5089,
    "BOKDJOOKCNC": "ACTIVITY_BANNER_MONSTER",
    "rewardPreviewId": 15180,
    "PMOMAAIFNPO": "ConfigRegisvineElectric",
    "prefabPath": "ART/UI/Menus/Widget/Activity/Activity_Regisvine_Electric",
    "descTextMapHash": 2273100842
  },
  {
    "activityId": 5093,
    "PMOMAAIFNPO": "ConfigTheSumeru",
    "prefabPath": "ART/UI/Menus/Widget/Activity/Activity_Sumeru",
    "descTextMapHash": 2378720362
  },
  {
    "activityId": 5102,
    "PMOMAAIFNPO": "ConfigCWSM",
    "prefabPath": "ART/UI/Menus/Widget/Activity/Activity_CWSM",
    "descTextMapHash": 3063061826
  },
  {
    "activityId": 5103,
    "BOKDJOOKCNC": "ACTIVITY_BANNER_MONSTER",
    "rewardPreviewId": 15181,
    "PMOMAAIFNPO": "ConfigGargoyle",
    "prefabPath": "ART/UI/Menus/Widget/Activity/Activity_Monster_Gargoyle_Fafnir",
    "descTextMapHash": 1099259786
  },
  {
    "activityId": 5104,
    "BOKDJOOKCNC": "ACTIVITY_BANNER_MONSTER",
    "rewardPreviewId": 15182,
    "PMOMAAIFNPO": "ConfigMonolith",
    "prefabPath": "ART/UI/Menus/Widget/Activity/Activity_Monster_Monolith_Starchild",
    "descTextMapHash": 3194544562
  },
  {
    "activityId": 5105,
    "PMOMAAIFNPO": "ConfigAQTheSumeru1",
    "prefabPath": "ART/UI/Menus/Widget/Activity/Activity_AQ_Sumeru1",
    "descTextMapHash": 277995986
  },
  {
    "activityId": 5106,
    "BOKDJOOKCNC": "ACTIVITY_BANNER_MONSTER",
    "rewardPreviewId": 15183,
    "PMOMAAIFNPO": "ConfigEffigyGrass",
    "prefabPath": "ART/UI/Menus/Widget/Activity/Activity_EffigyGrass",
    "descTextMapHash": 2060287082
  },
  {
    "activityId": 5109,
    "PMOMAAIFNPO": "ConfigAQTheSumeru2",
    "prefabPath": "ART/UI/Menus/Widget/Activity/Activity_AQ_Sumeru2",
    "descTextMapHash": 3986037282
  },
  {
    "activityId": 5110,
    "rewardPreviewId": 33385,
    "PMOMAAIFNPO": "ConfigGCG",
    "prefabPath": "ART/UI/Menus/Widget/Activity/Activity_GcgBanner",
    "descTextMapHash": 4224437570
  },
  {
    "activityId": 5115,
    "PMOMAAIFNPO": "ConfigAQTheWanderer",
    "prefabPath": "ART/UI/Menus/Widget/Activity/Activity_AQ_Wanderer",
    "descTextMapHash": 427969506
  },
  {
    "activityId": 5122,
    "BOKDJOOKCNC": "ACTIVITY_BANNER_MONSTER",
    "rewardPreviewId": 15184,
    "PMOMAAIFNPO": "ConfigSandwormWind",
    "prefabPath": "ART/UI/Menus/Widget/Activity/Activity_SandwormWind",
    "descTextMapHash": 18484634
  },
  {
    "activityId": 5124,
    "PMOMAAIFNPO": "ConfigAQTheSumeru",
    "prefabPath": "ART/UI/Menus/Widget/Activity/Activity_AQ_TheSumeru",
    "descTextMapHash": 4119397498
  },
  {
    "activityId": 5131,
    "PMOMAAIFNPO": "ConfigTMHY",
    "prefabPath": "ART/UI/Menus/Widget/Activity/Activity_TMHY",
    "descTextMapHash": 652506050
  },
  {
    "activityId": 5134,
    "BOKDJOOKCNC": "ACTIVITY_BANNER_MONSTER",
    "rewardPreviewId": 15185,
    "PMOMAAIFNPO": "ConfigArchdeacon",
    "prefabPath": "ART/UI/Menus/Widget/Activity/Activity_Archdeacon",
    "descTextMapHash": 2404044810
  }
]
