[
  {
    "id": 1,
    "activityId": 5108,
    "DKLGEDAIPMD": [15, 16, 17, 18, 19, 20, 21, 22, 23, 24, 25, 26, 27, 28],
    "PNADFNKENIH": [220018, 220020, 220070],
    "OCJHPMGJHBO": 90.0,
    "LDEGDHEFPNK": 30.0,
    "NGHOKPBMFHI": 45.0,
    "KMCPHDLDIBG": 1.0,
    "KEBGFOPJCGA": 1.0,
    "LGAKKKJDPPI": 2.0,
    "ACIPBEJNDKL": 2.0,
    "DEAIEAKNEGC": 510801,
    "pushTipsID": 6096,
    "HDDPBHMKNCM": 1.0,
    "ADKOBDKINKL": [71811],
    "DINBLNKEELC": [12010, 12011, 12012, 12013],
    "COEJBDIIJCH": [11010, 11011, 11012]
  }
]
