[
  {
    "stageID": 1,
    "FLHDPHIPJPD": 2016023,
    "openDay": 2,
    "PBKJMOELHDB": 70518,
    "DGJANIJDEIL": 4236732307,
    "DNABNBEOAIF": 830852396,
    "watcherList": [12016033],
    "GKMKBFGCLKL": 6092,
    "MCDEAAFFMJJ": 6092
  },
  {
    "stageID": 2,
    "FLHDPHIPJPD": 2016025,
    "openDay": 2,
    "PBKJMOELHDB": 70519,
    "DGJANIJDEIL": 1050800843,
    "DNABNBEOAIF": 2334829108,
    "watcherList": [12016034, 12016035, 12016036],
    "FAALPLPKAKE": 10,
    "GKMKBFGCLKL": 6093,
    "MCDEAAFFMJJ": 6097
  },
  {
    "stageID": 3,
    "FLHDPHIPJPD": 2016028,
    "openDay": 5,
    "PBKJMOELHDB": 70520,
    "DGJANIJDEIL": 2184905355,
    "DNABNBEOAIF": 1374904484,
    "watcherList": [12016038, 12016039, 12016040],
    "GKMKBFGCLKL": 6094,
    "MCDEAAFFMJJ": 6098
  }
]
