[
  {
    "difficultyId": 1,
    "scheduleId": 5123001,
    "KOCIDGIKEPH": 39,
    "scoreRatio": 1.0,
    "descTextMapHash": 3246998993
  },
  {
    "difficultyId": 2,
    "scheduleId": 5123001,
    "KOCIDGIKEPH": 69,
    "scoreRatio": 2.0,
    "difficulty": "CRYSTAL_LINK_DIFFICULTY_MID",
    "descTextMapHash": 1748347329
  },
  {
    "difficultyId": 3,
    "scheduleId": 5123001,
    "KOCIDGIKEPH": 89,
    "scoreRatio": 4.0,
    "difficulty": "CRYSTAL_LINK_DIFFICULTY_HARD",
    "descTextMapHash": 1564101913
  }
]
