[
  {
    "id": 1,
    "OCHILICALNF": 187407864,
    "monsterIdList": [28030505]
  },
  {
    "id": 2,
    "OCHILICALNF": 3702246040,
    "monsterIdList": [28020310, 28020311]
  },
  {
    "id": 3,
    "OCHILICALNF": 1364607016,
    "monsterIdList": [28020107]
  },
  {
    "id": 4,
    "OCHILICALNF": 3546296424,
    "monsterIdList": [28030312]
  }
]
