[
  {
    "Id": 1,
    "OCNGOAMEIJP": [1200501, 1200502, 1200503],
    "GJAHOKIELMC": [604.0, 120.0, 233.0],
    "MDJAFDEGOKK": [10000, 20000, 30000],
    "levelTitleTextMapHash": 1443788822,
    "KPFMGCJNDEL": 150,
    "IGBLMOIIPNE": 1500,
    "EOMPHNPMPMI": 2005021,
    "LHNOPFOIPBJ": 108096,
    "FAGNOGOHNNF": 108100
  },
  {
    "Id": 2,
    "OCNGOAMEIJP": [1200504, 1200505, 1200506],
    "GJAHOKIELMC": [-193.0, 120.0, -466.0],
    "MDJAFDEGOKK": [10000, 20000, 30000],
    "levelTitleTextMapHash": 2178347534,
    "KPFMGCJNDEL": 150,
    "IGBLMOIIPNE": 1500,
    "EOMPHNPMPMI": 2005022,
    "LHNOPFOIPBJ": 63139,
    "FAGNOGOHNNF": 63022
  },
  {
    "Id": 3,
    "OCNGOAMEIJP": [1200507, 1200508, 1200509],
    "GJAHOKIELMC": [90.0, 120.0, 270.0],
    "MDJAFDEGOKK": [10000, 20000, 30000],
    "levelTitleTextMapHash": 588766758,
    "KPFMGCJNDEL": 150,
    "IGBLMOIIPNE": 1500,
    "EOMPHNPMPMI": 2005023,
    "LHNOPFOIPBJ": 127093,
    "FAGNOGOHNNF": 127011
  },
  {
    "Id": 4,
    "OCNGOAMEIJP": [1200510, 1200511, 1200512],
    "GJAHOKIELMC": [-556.0, 120.0, -142.0],
    "MDJAFDEGOKK": [10000, 20000, 30000],
    "levelTitleTextMapHash": 2433878222,
    "KPFMGCJNDEL": 150,
    "IGBLMOIIPNE": 1500,
    "EOMPHNPMPMI": 2005024,
    "LHNOPFOIPBJ": 65070,
    "FAGNOGOHNNF": 65045
  },
  {
    "Id": 5,
    "OCNGOAMEIJP": [1200513, 1200514, 1200515],
    "GJAHOKIELMC": [-231.0, 120.0, -630.0],
    "MDJAFDEGOKK": [10000, 20000, 30000],
    "levelTitleTextMapHash": 3726955622,
    "KPFMGCJNDEL": 150,
    "IGBLMOIIPNE": 1500,
    "EOMPHNPMPMI": 2005025,
    "LHNOPFOIPBJ": 130099,
    "FAGNOGOHNNF": 130026
  },
  {
    "Id": 6,
    "OCNGOAMEIJP": [1200516, 1200517, 1200518],
    "GJAHOKIELMC": [287.0, 120.0, -764.0],
    "MDJAFDEGOKK": [10000, 20000, 30000],
    "levelTitleTextMapHash": 3590576158,
    "KPFMGCJNDEL": 150,
    "IGBLMOIIPNE": 1500,
    "EOMPHNPMPMI": 2005026,
    "LHNOPFOIPBJ": 49058,
    "FAGNOGOHNNF": 49039
  }
]
