[
  {
    "FGFKIDMEOCK": 101,
    "levelId": 1,
    "KIGJAOEIHIA": true,
    "sortId": 1,
    "OCONIDEFPKE": 2435280945
  },
  {
    "FGFKIDMEOCK": 102,
    "levelId": 1,
    "KIGJAOEIHIA": true,
    "sortId": 2,
    "OCONIDEFPKE": 1570636577
  },
  {
    "FGFKIDMEOCK": 103,
    "levelId": 1,
    "sortId": 3,
    "OCONIDEFPKE": 2318981041
  },
  {
    "FGFKIDMEOCK": 104,
    "levelId": 1,
    "sortId": 4,
    "OCONIDEFPKE": 729090593
  },
  {
    "FGFKIDMEOCK": 105,
    "levelId": 1,
    "sortId": 5,
    "OCONIDEFPKE": 2505247513
  },
  {
    "FGFKIDMEOCK": 106,
    "levelId": 1,
    "sortId": 6,
    "OCONIDEFPKE": 2878402537
  },
  {
    "FGFKIDMEOCK": 201,
    "levelId": 2,
    "KIGJAOEIHIA": true,
    "sortId": 1,
    "OCONIDEFPKE": 449093513
  },
  {
    "FGFKIDMEOCK": 202,
    "levelId": 2,
    "sortId": 2,
    "OCONIDEFPKE": 796195609
  },
  {
    "FGFKIDMEOCK": 203,
    "levelId": 2,
    "sortId": 3,
    "OCONIDEFPKE": 790400689
  },
  {
    "FGFKIDMEOCK": 204,
    "levelId": 2,
    "sortId": 4,
    "OCONIDEFPKE": 843463913
  },
  {
    "FGFKIDMEOCK": 205,
    "levelId": 2,
    "sortId": 5,
    "OCONIDEFPKE": 455024545
  },
  {
    "FGFKIDMEOCK": 301,
    "levelId": 3,
    "KIGJAOEIHIA": true,
    "sortId": 1,
    "OCONIDEFPKE": 1810929105
  },
  {
    "FGFKIDMEOCK": 302,
    "levelId": 3,
    "KIGJAOEIHIA": true,
    "sortId": 2,
    "OCONIDEFPKE": 2095368313
  },
  {
    "FGFKIDMEOCK": 303,
    "levelId": 3,
    "KIGJAOEIHIA": true,
    "sortId": 3,
    "OCONIDEFPKE": 3881958785
  },
  {
    "FGFKIDMEOCK": 304,
    "levelId": 3,
    "sortId": 4,
    "OCONIDEFPKE": 428159497
  },
  {
    "FGFKIDMEOCK": 305,
    "levelId": 3,
    "sortId": 5,
    "OCONIDEFPKE": 1825083473
  }
]
