[
  {
    "id": 1,
    "OEOBHHPKIMM": 0.5210000276565552,
    "CHLNBMGIMED": 1.0440000295639038,
    "GMPNPCDJPFA": -0.20000000298023224,
    "OBAHFAFHEOP": 0.20000000298023224
  },
  {
    "id": 101,
    "type": "FORMAL",
    "OEOBHHPKIMM": 1.0190000534057617,
    "CHLNBMGIMED": 1.0429999828338623,
    "GMPNPCDJPFA": -0.20000000298023224,
    "OBAHFAFHEOP": 0.20000000298023224
  },
  {
    "id": 102,
    "type": "FORMAL",
    "OEOBHHPKIMM": 5.192999839782715,
    "CHLNBMGIMED": 1.0429999828338623,
    "GMPNPCDJPFA": -0.20000000298023224,
    "OBAHFAFHEOP": 0.20000000298023224
  },
  {
    "id": 103,
    "type": "FORMAL",
    "OEOBHHPKIMM": 8.322999954223633,
    "CHLNBMGIMED": 1.0440000295639038,
    "GMPNPCDJPFA": -0.20000000298023224,
    "OBAHFAFHEOP": 0.20000000298023224
  },
  {
    "id": 104,
    "type": "FORMAL",
    "OEOBHHPKIMM": 11.454000473022461,
    "CHLNBMGIMED": 0.5220000147819519,
    "GMPNPCDJPFA": -0.20000000298023224,
    "OBAHFAFHEOP": 0.20000000298023224
  },
  {
    "id": 105,
    "type": "FORMAL",
    "OEOBHHPKIMM": 13.541000366210938,
    "CHLNBMGIMED": 1.0429999828338623,
    "GMPNPCDJPFA": -0.20000000298023224,
    "OBAHFAFHEOP": 0.20000000298023224
  },
  {
    "id": 106,
    "type": "FORMAL",
    "OEOBHHPKIMM": 16.67099952697754,
    "CHLNBMGIMED": 0.7829999923706055,
    "GMPNPCDJPFA": -0.20000000298023224,
    "OBAHFAFHEOP": 0.20000000298023224
  },
  {
    "id": 107,
    "type": "FORMAL",
    "OEOBHHPKIMM": 19.280000686645508,
    "CHLNBMGIMED": 0.5220000147819519,
    "GMPNPCDJPFA": -0.20000000298023224,
    "OBAHFAFHEOP": 0.20000000298023224
  },
  {
    "id": 108,
    "type": "FORMAL",
    "OEOBHHPKIMM": 21.888999938964844,
    "CHLNBMGIMED": 1.0429999828338623,
    "GMPNPCDJPFA": -0.20000000298023224,
    "OBAHFAFHEOP": 0.20000000298023224
  },
  {
    "id": 109,
    "type": "FORMAL",
    "OEOBHHPKIMM": 25.018999099731445,
    "CHLNBMGIMED": 0.7829999923706055,
    "GMPNPCDJPFA": -0.20000000298023224,
    "OBAHFAFHEOP": 0.20000000298023224
  },
  {
    "id": 110,
    "type": "FORMAL",
    "OEOBHHPKIMM": 27.628000259399414,
    "CHLNBMGIMED": 0.5210000276565552,
    "GMPNPCDJPFA": -0.20000000298023224,
    "OBAHFAFHEOP": 0.20000000298023224
  },
  {
    "id": 111,
    "type": "FORMAL",
    "OEOBHHPKIMM": 30.236000061035156,
    "CHLNBMGIMED": 1.0440000295639038,
    "GMPNPCDJPFA": -0.20000000298023224,
    "OBAHFAFHEOP": 0.20000000298023224
  },
  {
    "id": 112,
    "type": "FORMAL",
    "OEOBHHPKIMM": 33.367000579833984,
    "CHLNBMGIMED": 0.5220000147819519,
    "GMPNPCDJPFA": -0.20000000298023224,
    "OBAHFAFHEOP": 0.20000000298023224
  },
  {
    "id": 113,
    "type": "FORMAL",
    "OEOBHHPKIMM": 35.45399856567383,
    "CHLNBMGIMED": 0.5220000147819519,
    "GMPNPCDJPFA": -0.20000000298023224,
    "OBAHFAFHEOP": 0.20000000298023224
  },
  {
    "id": 114,
    "type": "FORMAL",
    "OEOBHHPKIMM": 37.54100036621094,
    "CHLNBMGIMED": 0.5210000276565552,
    "GMPNPCDJPFA": -0.20000000298023224,
    "OBAHFAFHEOP": 0.20000000298023224
  },
  {
    "id": 115,
    "type": "FORMAL",
    "OEOBHHPKIMM": 39.62799835205078,
    "CHLNBMGIMED": 0.5210000276565552,
    "GMPNPCDJPFA": -0.20000000298023224,
    "OBAHFAFHEOP": 0.20000000298023224
  },
  {
    "id": 116,
    "type": "FORMAL",
    "OEOBHHPKIMM": 41.71500015258789,
    "CHLNBMGIMED": 0.7820000052452087,
    "GMPNPCDJPFA": -0.20000000298023224,
    "OBAHFAFHEOP": 0.20000000298023224
  },
  {
    "id": 117,
    "type": "FORMAL",
    "OEOBHHPKIMM": 44.323001861572266,
    "CHLNBMGIMED": 0.5220000147819519,
    "GMPNPCDJPFA": -0.20000000298023224,
    "OBAHFAFHEOP": 0.20000000298023224
  },
  {
    "id": 118,
    "type": "FORMAL",
    "OEOBHHPKIMM": 46.40999984741211,
    "CHLNBMGIMED": 1.0440000295639038,
    "GMPNPCDJPFA": -0.20000000298023224,
    "OBAHFAFHEOP": 0.20000000298023224
  },
  {
    "id": 119,
    "type": "FORMAL",
    "OEOBHHPKIMM": 50.0620002746582,
    "CHLNBMGIMED": 0.5220000147819519,
    "GMPNPCDJPFA": -0.20000000298023224,
    "OBAHFAFHEOP": 0.20000000298023224
  },
  {
    "id": 120,
    "type": "FORMAL",
    "OEOBHHPKIMM": 52.14899826049805,
    "CHLNBMGIMED": 0.5220000147819519,
    "GMPNPCDJPFA": -0.20000000298023224,
    "OBAHFAFHEOP": 0.20000000298023224
  },
  {
    "id": 121,
    "type": "FORMAL",
    "OEOBHHPKIMM": 54.236000061035156,
    "CHLNBMGIMED": 0.5220000147819519,
    "GMPNPCDJPFA": -0.20000000298023224,
    "OBAHFAFHEOP": 0.20000000298023224
  },
  {
    "id": 122,
    "type": "FORMAL",
    "OEOBHHPKIMM": 56.323001861572266,
    "CHLNBMGIMED": 1.0440000295639038,
    "GMPNPCDJPFA": -0.20000000298023224,
    "OBAHFAFHEOP": 0.20000000298023224
  },
  {
    "id": 123,
    "type": "FORMAL",
    "OEOBHHPKIMM": 59.45399856567383,
    "CHLNBMGIMED": 1.0429999828338623,
    "GMPNPCDJPFA": -0.20000000298023224,
    "OBAHFAFHEOP": 0.20000000298023224
  },
  {
    "id": 124,
    "type": "FORMAL",
    "OEOBHHPKIMM": 62.58399963378906,
    "CHLNBMGIMED": 0.7829999923706055,
    "GMPNPCDJPFA": -0.20000000298023224,
    "OBAHFAFHEOP": 0.20000000298023224
  },
  {
    "id": 125,
    "type": "FORMAL",
    "OEOBHHPKIMM": 64.6709976196289,
    "CHLNBMGIMED": 0.5220000147819519,
    "GMPNPCDJPFA": -0.20000000298023224,
    "OBAHFAFHEOP": 0.20000000298023224
  }
]
