[
  {
    "avatarId": 10000003,
    "MJMNBPMDBJD": 200302
  },
  {
    "avatarId": 10000021,
    "MJMNBPMDBJD": 202101
  },
  {
    "avatarId": 10000041,
    "MJMNBPMDBJD": 204101
  },
  {
    "avatarId": 10000045,
    "MJMNBPMDBJD": 204501
  }
]
