[
  {
    "activityId": 5062,
    "CACNCPNNAJI": 1012214,
    "ANIOCMEEJFG": 2019,
    "JKBOEGIJDNF": 15062001,
    "DIKILIOHFNA": 363320,
    "KCLCONHMKAI": 15062002,
    "PJDDOOIIKHJ": 210111,
    "GKMJOFMLGLK": 3,
    "HLIFKACIEGJ": 5,
    "JEJFBDDAJCC": 511,
    "OBHKALGOLAL": 4,
    "IMMGGJCIHLK": 5062006,
    "CAIPFLLMGLA": 5062003,
    "NEFEPEIILGA": 70510
  }
]
