[
  {
    "id": 1,
    "HNLCHDMBJEK": 9059363806081133466,
    "HJALNNEPDKA": [1, 0, 0, 1, 1, 0, 1, 0, 1]
  },
  {
    "id": 2,
    "HNLCHDMBJEK": 1208411997345279269,
    "HJALNNEPDKA": [0, 1, 0, 0, 1, 0, 1, 0, 0]
  },
  {
    "id": 3,
    "HNLCHDMBJEK": 6350960928215682255,
    "HJALNNEPDKA": [1, 1, 0, 1, 0, 1, 1, 1, 0]
  },
  {
    "id": 4,
    "HNLCHDMBJEK": 878629361194082411,
    "HJALNNEPDKA": [1, 0, 0, 0, 0, 1, 0, 1, 1]
  }
]
