[
  {
    "id": 100101,
    "CEMGDHGNHJG": 1001,
    "draftId": 7001,
    "limitTime": 600,
    "NKPBGADDGNK": 2,
    "sceneId": 3,
    "groupId": 133220779,
    "transportPointList": [779002, 779003],
    "durationList": [10, 70, 610, 10],
    "galleryId": 30001,
    "levelTitleTextMapHash": 766891929,
    "KONFEBKHHMJ": 4169195275,
    "levelDescTextMapHash": 2397756878,
    "AJJCNHJGPDN": 12953459913399672755,
    "IKMGCCIDFFA": [1, 4],
    "MCHMNAHFDDF": ["Water", "None", "None"],
    "PNJDGBBNNCK": [5, 0, 2540, 7, 35, 50]
  },
  {
    "id": 100201,
    "CEMGDHGNHJG": 1001,
    "draftId": 7002,
    "DANLBBOFAPN": true,
    "limitTime": 150,
    "BCCKKPHPOLN": 10,
    "NKPBGADDGNK": 3,
    "sceneId": 3,
    "groupId": 133220786,
    "transportPointList": [786004, 786005],
    "durationList": [10, 70, 610, 10],
    "galleryId": 30007,
    "levelTitleTextMapHash": 2321720489,
    "KONFEBKHHMJ": 2321713523,
    "levelDescTextMapHash": 3003308622,
    "AJJCNHJGPDN": 473375181348640761,
    "IKMGCCIDFFA": [1, 4],
    "MCHMNAHFDDF": ["Water", "None", "None"],
    "PNJDGBBNNCK": [10, 0, 750, 5, 35, 50]
  },
  {
    "id": 100102,
    "CEMGDHGNHJG": 1002,
    "draftId": 7003,
    "limitTime": 600,
    "NKPBGADDGNK": 2,
    "sceneId": 3,
    "groupId": 133220781,
    "transportPointList": [781004, 781005],
    "durationList": [10, 70, 610, 10],
    "galleryId": 30002,
    "levelTitleTextMapHash": 3685856641,
    "KONFEBKHHMJ": 45687763,
    "levelDescTextMapHash": 2859635414,
    "AJJCNHJGPDN": 15553870734872667765,
    "IKMGCCIDFFA": [1, 2, 4],
    "MCHMNAHFDDF": ["Fire", "None", "None"],
    "PNJDGBBNNCK": [5, 0, 2590, 7, 35, 50]
  },
  {
    "id": 100202,
    "CEMGDHGNHJG": 1002,
    "draftId": 7004,
    "DANLBBOFAPN": true,
    "limitTime": 150,
    "BCCKKPHPOLN": 10,
    "NKPBGADDGNK": 3,
    "sceneId": 3,
    "groupId": 133220787,
    "transportPointList": [787004, 787005],
    "durationList": [10, 70, 610, 10],
    "galleryId": 30008,
    "levelTitleTextMapHash": 2899546609,
    "KONFEBKHHMJ": 478107163,
    "levelDescTextMapHash": 1766285718,
    "AJJCNHJGPDN": 1072175895281979042,
    "IKMGCCIDFFA": [1, 2, 4],
    "MCHMNAHFDDF": ["None", "None", "None"],
    "PNJDGBBNNCK": [10, 0, 750, 5, 35, 50]
  },
  {
    "id": 200101,
    "CEMGDHGNHJG": 2001,
    "draftId": 7005,
    "limitTime": 600,
    "NKPBGADDGNK": 2,
    "sceneId": 3,
    "groupId": 133220782,
    "transportPointList": [782004, 782005],
    "durationList": [10, 70, 610, 10],
    "galleryId": 30003,
    "levelTitleTextMapHash": 3065120033,
    "KONFEBKHHMJ": 2170062459,
    "levelDescTextMapHash": 1781051814,
    "AJJCNHJGPDN": 17045752301280756137,
    "IKMGCCIDFFA": [1, 3],
    "MCHMNAHFDDF": ["None", "None", "None"],
    "PNJDGBBNNCK": [5, 0, 2240, 7, 35, 50]
  },
  {
    "id": 200201,
    "CEMGDHGNHJG": 2001,
    "draftId": 7006,
    "DANLBBOFAPN": true,
    "limitTime": 150,
    "BCCKKPHPOLN": 10,
    "NKPBGADDGNK": 3,
    "sceneId": 3,
    "groupId": 133220788,
    "transportPointList": [788004, 788005],
    "durationList": [10, 70, 610, 10],
    "galleryId": 30009,
    "levelTitleTextMapHash": 3589244857,
    "KONFEBKHHMJ": 2220546923,
    "levelDescTextMapHash": 2858049758,
    "AJJCNHJGPDN": 6407446603906335317,
    "IKMGCCIDFFA": [1, 3, 6],
    "MCHMNAHFDDF": ["None", "None", "None"],
    "PNJDGBBNNCK": [10, 0, 750, 5, 35, 50]
  },
  {
    "id": 200102,
    "CEMGDHGNHJG": 2002,
    "draftId": 7007,
    "limitTime": 600,
    "NKPBGADDGNK": 2,
    "sceneId": 3,
    "groupId": 133220783,
    "transportPointList": [783004, 783005],
    "durationList": [10, 70, 610, 10],
    "galleryId": 30004,
    "levelTitleTextMapHash": 3256905721,
    "KONFEBKHHMJ": 438226115,
    "levelDescTextMapHash": 3742008518,
    "AJJCNHJGPDN": 14972775923336445273,
    "IKMGCCIDFFA": [1, 2, 5],
    "MCHMNAHFDDF": ["None", "None", "None"],
    "PNJDGBBNNCK": [5, 0, 3140, 7, 35, 50]
  },
  {
    "id": 200202,
    "CEMGDHGNHJG": 2002,
    "draftId": 7008,
    "DANLBBOFAPN": true,
    "limitTime": 150,
    "BCCKKPHPOLN": 10,
    "NKPBGADDGNK": 3,
    "sceneId": 3,
    "groupId": 133220789,
    "transportPointList": [789004, 789005],
    "durationList": [10, 70, 610, 10],
    "galleryId": 30010,
    "levelTitleTextMapHash": 2948598441,
    "KONFEBKHHMJ": 2030084219,
    "levelDescTextMapHash": 539595478,
    "AJJCNHJGPDN": 11375284086861802566,
    "IKMGCCIDFFA": [1, 2, 5],
    "MCHMNAHFDDF": ["None", "None", "None"],
    "PNJDGBBNNCK": [10, 0, 750, 5, 35, 50]
  },
  {
    "id": 200401,
    "MOPJNAKHJEA": true,
    "limitTime": 600,
    "NKPBGADDGNK": 2,
    "sceneId": 3,
    "groupId": 133220797,
    "transportPointList": [797004, 797005],
    "durationList": [10, 70, 610, 10],
    "galleryId": 30023,
    "levelTitleTextMapHash": 3374005529,
    "KONFEBKHHMJ": 566239667,
    "levelDescTextMapHash": 4247452726,
    "AJJCNHJGPDN": 11614790325332557651,
    "IKMGCCIDFFA": [1, 2, 4],
    "MCHMNAHFDDF": ["None", "None", "None"],
    "PNJDGBBNNCK": [5, 0, 3140, 7, 35, 50]
  },
  {
    "id": 300101,
    "CEMGDHGNHJG": 3001,
    "draftId": 7009,
    "limitTime": 600,
    "NKPBGADDGNK": 2,
    "sceneId": 3,
    "groupId": 133220784,
    "transportPointList": [784004, 784005],
    "durationList": [10, 70, 610, 10],
    "galleryId": 30005,
    "levelTitleTextMapHash": 3256387265,
    "KONFEBKHHMJ": 427709075,
    "levelDescTextMapHash": 4241368966,
    "AJJCNHJGPDN": 15120140429738779201,
    "IKMGCCIDFFA": [1, 2, 3, 4, 5],
    "MCHMNAHFDDF": ["None", "None", "None"],
    "PNJDGBBNNCK": [5, 0, 2890, 7, 35, 50]
  },
  {
    "id": 300201,
    "CEMGDHGNHJG": 3001,
    "draftId": 7010,
    "DANLBBOFAPN": true,
    "limitTime": 150,
    "BCCKKPHPOLN": 10,
    "NKPBGADDGNK": 3,
    "sceneId": 3,
    "groupId": 133220790,
    "transportPointList": [790004, 790005],
    "durationList": [10, 70, 610, 10],
    "galleryId": 30011,
    "levelTitleTextMapHash": 2711257489,
    "KONFEBKHHMJ": 2004345243,
    "levelDescTextMapHash": 1370166134,
    "AJJCNHJGPDN": 7883326806201054487,
    "IKMGCCIDFFA": [1, 2, 3, 4, 5, 6],
    "MCHMNAHFDDF": ["None", "None", "None"],
    "PNJDGBBNNCK": [10, 0, 750, 5, 35, 50]
  },
  {
    "id": 300102,
    "CEMGDHGNHJG": 3002,
    "draftId": 7011,
    "limitTime": 600,
    "NKPBGADDGNK": 2,
    "sceneId": 3,
    "groupId": 133220785,
    "transportPointList": [785004, 785005],
    "durationList": [10, 70, 610, 10],
    "galleryId": 30006,
    "levelTitleTextMapHash": 1306027361,
    "KONFEBKHHMJ": 1531510555,
    "levelDescTextMapHash": 3149372710,
    "AJJCNHJGPDN": 2015859845744003001,
    "IKMGCCIDFFA": [1, 2, 3, 4, 5],
    "MCHMNAHFDDF": ["None", "None", "None"],
    "PNJDGBBNNCK": [5, 0, 2790, 7, 35, 50]
  },
  {
    "id": 300202,
    "CEMGDHGNHJG": 3002,
    "draftId": 7012,
    "DANLBBOFAPN": true,
    "limitTime": 150,
    "BCCKKPHPOLN": 10,
    "NKPBGADDGNK": 3,
    "sceneId": 3,
    "groupId": 133220791,
    "transportPointList": [791004, 791005],
    "durationList": [10, 70, 610, 10],
    "galleryId": 30012,
    "levelTitleTextMapHash": 848295953,
    "KONFEBKHHMJ": 2671373731,
    "levelDescTextMapHash": 264739918,
    "AJJCNHJGPDN": 10898916837785276636,
    "IKMGCCIDFFA": [1, 2, 3, 4, 5, 6],
    "MCHMNAHFDDF": ["None", "None", "None"],
    "PNJDGBBNNCK": [10, 0, 750, 5, 35, 50]
  }
]
