[
  {
    "id": 10140101,
    "chapterId": 101401,
    "unlockPointId": 10140191,
    "cgType": "CG_FEMALE",
    "unlockCond": [
      {
        "condType": "COOP_COND_COOP_POINT_FINISH",
        "args": [10140103, 0]
      },
      {
        "args": [0, 0]
      }
    ],
    "showImageHash": 12356279904013224428,
    "showImageSmallHash": 17341875420200568640,
    "cgNameTextMapHash": 674095378,
    "cgDesTextMapHash": 1405667876,
    "sortId": 1
  },
  {
    "id": 10140102,
    "chapterId": 101401,
    "unlockPointId": 10140192,
    "cgType": "CG_FEMALE",
    "unlockCond": [
      {
        "condType": "COOP_COND_COOP_POINT_FINISH",
        "args": [10140113, 0]
      },
      {
        "args": [0, 0]
      }
    ],
    "showImageHash": 9704516087625837193,
    "showImageSmallHash": 6095917163111257159,
    "cgNameTextMapHash": 778502978,
    "cgDesTextMapHash": 1914439500,
    "sortId": 2
  },
  {
    "id": 10140103,
    "chapterId": 101401,
    "unlockPointId": 10140193,
    "cgType": "CG_FEMALE",
    "unlockCond": [
      {
        "condType": "COOP_COND_COOP_POINT_FINISH",
        "args": [10140114, 0]
      },
      {
        "args": [0, 0]
      }
    ],
    "showImageHash": 15088297207416393442,
    "showImageSmallHash": 409421011492812240,
    "cgNameTextMapHash": 2387169178,
    "cgDesTextMapHash": 2861249292,
    "sortId": 3
  },
  {
    "id": 10140104,
    "chapterId": 101401,
    "unlockPointId": 10140194,
    "cgType": "CG_FEMALE",
    "unlockCond": [
      {
        "condType": "COOP_COND_COOP_POINT_FINISH",
        "args": [10140116, 0]
      },
      {
        "args": [0, 0]
      }
    ],
    "showImageHash": 10887534843654568514,
    "showImageSmallHash": 16717750726664333947,
    "cgNameTextMapHash": 2505358866,
    "cgDesTextMapHash": 1780451332,
    "sortId": 4
  },
  {
    "id": 10140105,
    "chapterId": 101401,
    "unlockPointId": 10140195,
    "cgType": "CG_FEMALE",
    "unlockCond": [
      {
        "condType": "COOP_COND_COOP_POINT_FINISH",
        "args": [10140119, 0]
      },
      {
        "args": [0, 0]
      }
    ],
    "showImageHash": 2616813947430597263,
    "showImageSmallHash": 129080958397764784,
    "cgNameTextMapHash": 3824407634,
    "cgDesTextMapHash": 3846371420,
    "sortId": 5
  },
  {
    "id": 10140111,
    "chapterId": 101401,
    "unlockPointId": 10140191,
    "cgType": "CG_MALE",
    "unlockCond": [
      {
        "condType": "COOP_COND_COOP_POINT_FINISH",
        "args": [10140103, 0]
      },
      {
        "args": [0, 0]
      }
    ],
    "showImageHash": 18098059783198757728,
    "showImageSmallHash": 3861831430686378648,
    "cgNameTextMapHash": 4239376554,
    "cgDesTextMapHash": 3122578500,
    "sortId": 1
  },
  {
    "id": 10140112,
    "chapterId": 101401,
    "unlockPointId": 10140192,
    "cgType": "CG_MALE",
    "unlockCond": [
      {
        "condType": "COOP_COND_COOP_POINT_FINISH",
        "args": [10140113, 0]
      },
      {
        "args": [0, 0]
      }
    ],
    "showImageHash": 11561038093883418947,
    "showImageSmallHash": 6370682942732578017,
    "cgNameTextMapHash": 3983004018,
    "cgDesTextMapHash": 2108384156,
    "sortId": 2
  },
  {
    "id": 10140113,
    "chapterId": 101401,
    "unlockPointId": 10140193,
    "cgType": "CG_MALE",
    "unlockCond": [
      {
        "condType": "COOP_COND_COOP_POINT_FINISH",
        "args": [10140114, 0]
      },
      {
        "args": [0, 0]
      }
    ],
    "showImageHash": 16880697501246341940,
    "showImageSmallHash": 13828575748464321405,
    "cgNameTextMapHash": 4229603770,
    "cgDesTextMapHash": 4123576852,
    "sortId": 3
  },
  {
    "id": 10140114,
    "chapterId": 101401,
    "unlockPointId": 10140194,
    "cgType": "CG_MALE",
    "unlockCond": [
      {
        "condType": "COOP_COND_COOP_POINT_FINISH",
        "args": [10140116, 0]
      },
      {
        "args": [0, 0]
      }
    ],
    "showImageHash": 6532873715313997432,
    "showImageSmallHash": 18138567643357456229,
    "cgNameTextMapHash": 611067506,
    "cgDesTextMapHash": 4180193668,
    "sortId": 4
  },
  {
    "id": 10140115,
    "chapterId": 101401,
    "unlockPointId": 10140195,
    "cgType": "CG_MALE",
    "unlockCond": [
      {
        "condType": "COOP_COND_COOP_POINT_FINISH",
        "args": [10140119, 0]
      },
      {
        "args": [0, 0]
      }
    ],
    "showImageHash": 5491683488376237296,
    "showImageSmallHash": 57175950047174242,
    "cgNameTextMapHash": 812504842,
    "cgDesTextMapHash": 1742528996,
    "sortId": 5
  },
  {
    "id": 10360101,
    "chapterId": 103601,
    "unlockPointId": 10360191,
    "cgType": "CG_FEMALE",
    "unlockCond": [
      {
        "condType": "COOP_COND_COOP_POINT_FINISH",
        "args": [10360104, 0]
      },
      {
        "args": [0, 0]
      }
    ],
    "showImageHash": 10370677952408589298,
    "showImageSmallHash": 12172496500143377917,
    "cgNameTextMapHash": 2063132554,
    "cgDesTextMapHash": 1619287220,
    "sortId": 1
  },
  {
    "id": 10360102,
    "chapterId": 103601,
    "unlockPointId": 10360192,
    "cgType": "CG_FEMALE",
    "unlockCond": [
      {
        "condType": "COOP_COND_COOP_POINT_FINISH",
        "args": [10360108, 0]
      },
      {
        "args": [0, 0]
      }
    ],
    "showImageHash": 11594895711483467670,
    "showImageSmallHash": 1871479030873099174,
    "cgNameTextMapHash": 2891086946,
    "cgDesTextMapHash": 1561671340,
    "sortId": 2
  },
  {
    "id": 10360103,
    "chapterId": 103601,
    "unlockPointId": 10360193,
    "cgType": "CG_FEMALE",
    "unlockCond": [
      {
        "condType": "COOP_COND_COOP_POINT_FINISH",
        "args": [10360119, 0]
      },
      {
        "args": [0, 0]
      }
    ],
    "showImageHash": 12513726648344961167,
    "showImageSmallHash": 7163751502172366163,
    "cgNameTextMapHash": 4008558146,
    "cgDesTextMapHash": 3569952908,
    "sortId": 3
  },
  {
    "id": 10360104,
    "chapterId": 103601,
    "unlockPointId": 10360195,
    "cgType": "CG_FEMALE",
    "unlockCond": [
      {
        "condType": "COOP_COND_COOP_POINT_FINISH",
        "args": [10360109, 0]
      },
      {
        "args": [0, 0]
      }
    ],
    "showImageHash": 17716628187935332770,
    "showImageSmallHash": 13436750814634426653,
    "cgNameTextMapHash": 3698253458,
    "cgDesTextMapHash": 940007532,
    "sortId": 4
  },
  {
    "id": 10360105,
    "chapterId": 103601,
    "unlockPointId": 10360196,
    "cgType": "CG_FEMALE",
    "unlockCond": [
      {
        "condType": "COOP_COND_COOP_POINT_FINISH",
        "args": [10360113, 0]
      },
      {
        "args": [0, 0]
      }
    ],
    "showImageHash": 8316933684154525350,
    "showImageSmallHash": 8475658693198838575,
    "cgNameTextMapHash": 4281725202,
    "cgDesTextMapHash": 3287550308,
    "sortId": 5
  },
  {
    "id": 10360106,
    "chapterId": 103601,
    "unlockPointId": 10360197,
    "cgType": "CG_FEMALE",
    "unlockCond": [
      {
        "condType": "COOP_COND_COOP_POINT_FINISH",
        "args": [10360197, 0]
      },
      {
        "args": [0, 0]
      }
    ],
    "showImageHash": 10734428671379142673,
    "showImageSmallHash": 6000908247970392798,
    "cgNameTextMapHash": 1687996594,
    "cgDesTextMapHash": 1032548564,
    "sortId": 6
  },
  {
    "id": 10360111,
    "chapterId": 103601,
    "unlockPointId": 10360191,
    "cgType": "CG_MALE",
    "unlockCond": [
      {
        "condType": "COOP_COND_COOP_POINT_FINISH",
        "args": [10360104, 0]
      },
      {
        "args": [0, 0]
      }
    ],
    "showImageHash": 15942176831172853890,
    "showImageSmallHash": 10617260897089313896,
    "cgNameTextMapHash": 3511693538,
    "cgDesTextMapHash": 2039448196,
    "sortId": 1
  },
  {
    "id": 10360112,
    "chapterId": 103601,
    "unlockPointId": 10360192,
    "cgType": "CG_MALE",
    "unlockCond": [
      {
        "condType": "COOP_COND_COOP_POINT_FINISH",
        "args": [10360108, 0]
      },
      {
        "args": [0, 0]
      }
    ],
    "showImageHash": 4442072977391198974,
    "showImageSmallHash": 5420327286012917915,
    "cgNameTextMapHash": 228444722,
    "cgDesTextMapHash": 3247169516,
    "sortId": 2
  },
  {
    "id": 10360113,
    "chapterId": 103601,
    "unlockPointId": 10360193,
    "cgType": "CG_MALE",
    "unlockCond": [
      {
        "condType": "COOP_COND_COOP_POINT_FINISH",
        "args": [10360119, 0]
      },
      {
        "args": [0, 0]
      }
    ],
    "showImageHash": 13037128075071112026,
    "showImageSmallHash": 7915265564615973171,
    "cgNameTextMapHash": 1586418874,
    "cgDesTextMapHash": 2183452020,
    "sortId": 3
  },
  {
    "id": 10360114,
    "chapterId": 103601,
    "unlockPointId": 10360195,
    "cgType": "CG_MALE",
    "unlockCond": [
      {
        "condType": "COOP_COND_COOP_POINT_FINISH",
        "args": [10360109, 0]
      },
      {
        "args": [0, 0]
      }
    ],
    "showImageHash": 7575234471613312728,
    "showImageSmallHash": 441844862011340688,
    "cgNameTextMapHash": 3167732706,
    "cgDesTextMapHash": 2107450620,
    "sortId": 4
  },
  {
    "id": 10360115,
    "chapterId": 103601,
    "unlockPointId": 10360196,
    "cgType": "CG_MALE",
    "unlockCond": [
      {
        "condType": "COOP_COND_COOP_POINT_FINISH",
        "args": [10360113, 0]
      },
      {
        "args": [0, 0]
      }
    ],
    "showImageHash": 18207894324351434248,
    "showImageSmallHash": 911967533059716095,
    "cgNameTextMapHash": 2331149474,
    "cgDesTextMapHash": 1783775492,
    "sortId": 5
  },
  {
    "id": 10360116,
    "chapterId": 103601,
    "unlockPointId": 10360197,
    "cgType": "CG_MALE",
    "unlockCond": [
      {
        "condType": "COOP_COND_COOP_POINT_FINISH",
        "args": [10360197, 0]
      },
      {
        "args": [0, 0]
      }
    ],
    "showImageHash": 7690928937476688951,
    "showImageSmallHash": 13956763228305633991,
    "cgNameTextMapHash": 4084973570,
    "cgDesTextMapHash": 3674072884,
    "sortId": 6
  },
  {
    "id": 10340101,
    "chapterId": 103401,
    "unlockPointId": 10340191,
    "cgType": "CG_FEMALE",
    "unlockCond": [
      {
        "condType": "COOP_COND_COOP_POINT_FINISH",
        "args": [10340191, 0]
      },
      {
        "args": [0, 0]
      }
    ],
    "showImageHash": 14879715513463485289,
    "showImageSmallHash": 17148482261965301376,
    "cgNameTextMapHash": 701821634,
    "cgDesTextMapHash": 3259636004,
    "sortId": 1
  },
  {
    "id": 10340102,
    "chapterId": 103401,
    "unlockPointId": 10340192,
    "cgType": "CG_FEMALE",
    "unlockCond": [
      {
        "condType": "COOP_COND_COOP_POINT_FINISH",
        "args": [10340104, 0]
      },
      {
        "args": [0, 0]
      }
    ],
    "showImageHash": 7933037871012551311,
    "showImageSmallHash": 4981085563471501310,
    "cgNameTextMapHash": 1521148906,
    "cgDesTextMapHash": 4212765516,
    "sortId": 2
  },
  {
    "id": 10340103,
    "chapterId": 103401,
    "unlockPointId": 10340193,
    "cgType": "CG_FEMALE",
    "unlockCond": [
      {
        "condType": "COOP_COND_COOP_POINT_FINISH",
        "args": [10340106, 0]
      },
      {
        "args": [0, 0]
      }
    ],
    "showImageHash": 16693109761582671048,
    "showImageSmallHash": 10257092828904329924,
    "cgNameTextMapHash": 1249291554,
    "cgDesTextMapHash": 276831572,
    "sortId": 3
  },
  {
    "id": 10340104,
    "chapterId": 103401,
    "unlockPointId": 10340194,
    "cgType": "CG_FEMALE",
    "unlockCond": [
      {
        "condType": "COOP_COND_COOP_POINT_FINISH",
        "args": [10340107, 0]
      },
      {
        "args": [0, 0]
      }
    ],
    "showImageHash": 11139444630478234322,
    "showImageSmallHash": 4639384172006209266,
    "cgNameTextMapHash": 814045898,
    "cgDesTextMapHash": 3882858148,
    "sortId": 4
  },
  {
    "id": 10340105,
    "chapterId": 103401,
    "unlockPointId": 10340195,
    "cgType": "CG_FEMALE",
    "unlockCond": [
      {
        "condType": "COOP_COND_COOP_POINT_FINISH",
        "args": [10340110, 0]
      },
      {
        "args": [0, 0]
      }
    ],
    "showImageHash": 3769165872314421427,
    "showImageSmallHash": 1788437754140066038,
    "cgNameTextMapHash": 715145834,
    "cgDesTextMapHash": 2136877748,
    "sortId": 5
  },
  {
    "id": 10340106,
    "chapterId": 103401,
    "unlockPointId": 10340196,
    "cgType": "CG_FEMALE",
    "unlockCond": [
      {
        "condType": "COOP_COND_COOP_POINT_FINISH",
        "args": [10340112, 0]
      },
      {
        "args": [0, 0]
      }
    ],
    "showImageHash": 10761232859114732593,
    "showImageSmallHash": 13463599076502790002,
    "cgNameTextMapHash": 1912331770,
    "cgDesTextMapHash": 1017526556,
    "sortId": 6
  },
  {
    "id": 10340111,
    "chapterId": 103401,
    "unlockPointId": 10340191,
    "cgType": "CG_MALE",
    "unlockCond": [
      {
        "condType": "COOP_COND_COOP_POINT_FINISH",
        "args": [10340191, 0]
      },
      {
        "args": [0, 0]
      }
    ],
    "showImageHash": 13942173378697513917,
    "showImageSmallHash": 12866347121949819299,
    "cgNameTextMapHash": 1655066770,
    "cgDesTextMapHash": 2280382012,
    "sortId": 1
  },
  {
    "id": 10340112,
    "chapterId": 103401,
    "unlockPointId": 10340192,
    "cgType": "CG_MALE",
    "unlockCond": [
      {
        "condType": "COOP_COND_COOP_POINT_FINISH",
        "args": [10340104, 0]
      },
      {
        "args": [0, 0]
      }
    ],
    "showImageHash": 7427738990212186693,
    "showImageSmallHash": 16554200588733584606,
    "cgNameTextMapHash": 1373697658,
    "cgDesTextMapHash": 195872724,
    "sortId": 2
  },
  {
    "id": 10340113,
    "chapterId": 103401,
    "unlockPointId": 10340193,
    "cgType": "CG_MALE",
    "unlockCond": [
      {
        "condType": "COOP_COND_COOP_POINT_FINISH",
        "args": [10340106, 0]
      },
      {
        "args": [0, 0]
      }
    ],
    "showImageHash": 12078708595077644679,
    "showImageSmallHash": 8563588330359519902,
    "cgNameTextMapHash": 1630873602,
    "cgDesTextMapHash": 4105052076,
    "sortId": 3
  },
  {
    "id": 10340114,
    "chapterId": 103401,
    "unlockPointId": 10340194,
    "cgType": "CG_MALE",
    "unlockCond": [
      {
        "condType": "COOP_COND_COOP_POINT_FINISH",
        "args": [10340107, 0]
      },
      {
        "args": [0, 0]
      }
    ],
    "showImageHash": 5326450074060119644,
    "showImageSmallHash": 9053810196507270491,
    "cgNameTextMapHash": 3963063082,
    "cgDesTextMapHash": 2620904396,
    "sortId": 4
  },
  {
    "id": 10340115,
    "chapterId": 103401,
    "unlockPointId": 10340195,
    "cgType": "CG_MALE",
    "unlockCond": [
      {
        "condType": "COOP_COND_COOP_POINT_FINISH",
        "args": [10340110, 0]
      },
      {
        "args": [0, 0]
      }
    ],
    "showImageHash": 3519420586453598023,
    "showImageSmallHash": 16520609384375775960,
    "cgNameTextMapHash": 1451251330,
    "cgDesTextMapHash": 4152244212,
    "sortId": 5
  },
  {
    "id": 10340116,
    "chapterId": 103401,
    "unlockPointId": 10340196,
    "cgType": "CG_MALE",
    "unlockCond": [
      {
        "condType": "COOP_COND_COOP_POINT_FINISH",
        "args": [10340112, 0]
      },
      {
        "args": [0, 0]
      }
    ],
    "showImageHash": 5638299160066880265,
    "showImageSmallHash": 14344679412560881062,
    "cgNameTextMapHash": 3911127418,
    "cgDesTextMapHash": 3005123828,
    "sortId": 6
  },
  {
    "id": 10320101,
    "chapterId": 103201,
    "unlockPointId": 10320191,
    "cgType": "CG_FEMALE",
    "unlockCond": [
      {
        "condType": "COOP_COND_COOP_POINT_FINISH",
        "args": [10320104, 0]
      },
      {
        "args": [0, 0]
      }
    ],
    "showImageHash": 9668860193537219632,
    "showImageSmallHash": 17667248186701337959,
    "cgNameTextMapHash": 1937993194,
    "cgDesTextMapHash": 2325036620,
    "sortId": 1
  },
  {
    "id": 10320102,
    "chapterId": 103201,
    "unlockPointId": 10320192,
    "cgType": "CG_FEMALE",
    "unlockCond": [
      {
        "condType": "COOP_COND_COOP_POINT_FINISH",
        "args": [10320107, 0]
      },
      {
        "args": [0, 0]
      }
    ],
    "showImageHash": 14850631643583776720,
    "showImageSmallHash": 11137188822430806138,
    "cgNameTextMapHash": 644851106,
    "cgDesTextMapHash": 3169905420,
    "sortId": 2
  },
  {
    "id": 10320103,
    "chapterId": 103201,
    "unlockPointId": 10320193,
    "cgType": "CG_FEMALE",
    "unlockCond": [
      {
        "condType": "COOP_COND_COOP_POINT_FINISH",
        "args": [10320193, 0]
      },
      {
        "args": [0, 0]
      }
    ],
    "showImageHash": 6408491806705998576,
    "showImageSmallHash": 15293424296084381107,
    "cgNameTextMapHash": 3887588234,
    "cgDesTextMapHash": 174443748,
    "sortId": 3
  },
  {
    "id": 10320104,
    "chapterId": 103201,
    "unlockPointId": 10320194,
    "cgType": "CG_FEMALE",
    "unlockCond": [
      {
        "condType": "COOP_COND_COOP_POINT_FINISH",
        "args": [10320194, 0]
      },
      {
        "args": [0, 0]
      }
    ],
    "showImageHash": 16314337896349683178,
    "showImageSmallHash": 12747295376177392163,
    "cgNameTextMapHash": 819831450,
    "cgDesTextMapHash": 1115504852,
    "sortId": 4
  },
  {
    "id": 10320105,
    "chapterId": 103201,
    "unlockPointId": 10320195,
    "cgType": "CG_FEMALE",
    "unlockCond": [
      {
        "condType": "COOP_COND_COOP_POINT_FINISH",
        "args": [10320195, 0]
      },
      {
        "args": [0, 0]
      }
    ],
    "showImageHash": 3834278577581629988,
    "showImageSmallHash": 14839176264473833096,
    "cgNameTextMapHash": 2336513714,
    "cgDesTextMapHash": 964546908,
    "sortId": 5
  },
  {
    "id": 10320106,
    "chapterId": 103201,
    "unlockPointId": 10320196,
    "cgType": "CG_FEMALE",
    "unlockCond": [
      {
        "condType": "COOP_COND_COOP_POINT_FINISH",
        "args": [10320196, 0]
      },
      {
        "args": [0, 0]
      }
    ],
    "showImageHash": 7641680697086414506,
    "showImageSmallHash": 11881480663638147526,
    "cgNameTextMapHash": 2856405890,
    "cgDesTextMapHash": 821215772,
    "sortId": 6
  },
  {
    "id": 10320111,
    "chapterId": 103201,
    "unlockPointId": 10320191,
    "cgType": "CG_MALE",
    "unlockCond": [
      {
        "condType": "COOP_COND_COOP_POINT_FINISH",
        "args": [10320104, 0]
      },
      {
        "args": [0, 0]
      }
    ],
    "showImageHash": 9886161736646875056,
    "showImageSmallHash": 17145239351277529532,
    "cgNameTextMapHash": 4038363290,
    "cgDesTextMapHash": 3346369980,
    "sortId": 1
  },
  {
    "id": 10320112,
    "chapterId": 103201,
    "unlockPointId": 10320192,
    "cgType": "CG_MALE",
    "unlockCond": [
      {
        "condType": "COOP_COND_COOP_POINT_FINISH",
        "args": [10320107, 0]
      },
      {
        "args": [0, 0]
      }
    ],
    "showImageHash": 2186622693769887179,
    "showImageSmallHash": 739725338921586001,
    "cgNameTextMapHash": 4235342818,
    "cgDesTextMapHash": 1907975700,
    "sortId": 2
  },
  {
    "id": 10320113,
    "chapterId": 103201,
    "unlockPointId": 10320193,
    "cgType": "CG_MALE",
    "unlockCond": [
      {
        "condType": "COOP_COND_COOP_POINT_FINISH",
        "args": [10320193, 0]
      },
      {
        "args": [0, 0]
      }
    ],
    "showImageHash": 2240379481790579275,
    "showImageSmallHash": 7494458782033003047,
    "cgNameTextMapHash": 3431695370,
    "cgDesTextMapHash": 1000119468,
    "sortId": 3
  },
  {
    "id": 10320114,
    "chapterId": 103201,
    "unlockPointId": 10320194,
    "cgType": "CG_MALE",
    "unlockCond": [
      {
        "condType": "COOP_COND_COOP_POINT_FINISH",
        "args": [10320194, 0]
      },
      {
        "args": [0, 0]
      }
    ],
    "showImageHash": 190057032750127178,
    "showImageSmallHash": 16337322207570149073,
    "cgNameTextMapHash": 1294549594,
    "cgDesTextMapHash": 2583282140,
    "sortId": 4
  },
  {
    "id": 10320115,
    "chapterId": 103201,
    "unlockPointId": 10320195,
    "cgType": "CG_MALE",
    "unlockCond": [
      {
        "condType": "COOP_COND_COOP_POINT_FINISH",
        "args": [10320195, 0]
      },
      {
        "args": [0, 0]
      }
    ],
    "showImageHash": 6666337067907051122,
    "showImageSmallHash": 1622592550848535064,
    "cgNameTextMapHash": 2240579186,
    "cgDesTextMapHash": 3713583284,
    "sortId": 5
  },
  {
    "id": 10320116,
    "chapterId": 103201,
    "unlockPointId": 10320196,
    "cgType": "CG_MALE",
    "unlockCond": [
      {
        "condType": "COOP_COND_COOP_POINT_FINISH",
        "args": [10320196, 0]
      },
      {
        "args": [0, 0]
      }
    ],
    "showImageHash": 14542774040243762543,
    "showImageSmallHash": 12622556656583664793,
    "cgNameTextMapHash": 2305770298,
    "cgDesTextMapHash": 2465045516,
    "sortId": 6
  },
  {
    "id": 10340201,
    "chapterId": 103402,
    "unlockPointId": 10340291,
    "cgType": "CG_FEMALE",
    "unlockCond": [
      {
        "condType": "COOP_COND_COOP_POINT_FINISH",
        "args": [10340291, 0]
      },
      {
        "args": [0, 0]
      }
    ],
    "showImageHash": 15734921370924162654,
    "showImageSmallHash": 9527755924678493238,
    "cgNameTextMapHash": 2284580554,
    "cgDesTextMapHash": 820519340,
    "sortId": 1
  },
  {
    "id": 10340202,
    "chapterId": 103402,
    "unlockPointId": 10340292,
    "cgType": "CG_FEMALE",
    "unlockCond": [
      {
        "condType": "COOP_COND_COOP_POINT_FINISH",
        "args": [10340292, 0]
      },
      {
        "args": [0, 0]
      }
    ],
    "showImageHash": 16786447382508253836,
    "showImageSmallHash": 2488913112369201686,
    "cgNameTextMapHash": 3729429050,
    "cgDesTextMapHash": 2123089868,
    "sortId": 2
  },
  {
    "id": 10340203,
    "chapterId": 103402,
    "unlockPointId": 10340293,
    "cgType": "CG_FEMALE",
    "unlockCond": [
      {
        "condType": "COOP_COND_COOP_POINT_FINISH",
        "args": [10340293, 0]
      },
      {
        "args": [0, 0]
      }
    ],
    "showImageHash": 3113632934067378376,
    "showImageSmallHash": 15463550743717895440,
    "cgNameTextMapHash": 967900530,
    "cgDesTextMapHash": 2087876252,
    "sortId": 3
  },
  {
    "id": 10340204,
    "chapterId": 103402,
    "unlockPointId": 10340294,
    "cgType": "CG_FEMALE",
    "unlockCond": [
      {
        "condType": "COOP_COND_COOP_POINT_FINISH",
        "args": [10340294, 0]
      },
      {
        "args": [0, 0]
      }
    ],
    "showImageHash": 2461533976478846675,
    "showImageSmallHash": 17875262360555918738,
    "cgNameTextMapHash": 2044300042,
    "cgDesTextMapHash": 1500963020,
    "sortId": 4
  },
  {
    "id": 10340205,
    "chapterId": 103402,
    "unlockPointId": 10340295,
    "cgType": "CG_FEMALE",
    "unlockCond": [
      {
        "condType": "COOP_COND_COOP_POINT_FINISH",
        "args": [10340295, 0]
      },
      {
        "args": [0, 0]
      }
    ],
    "showImageHash": 10811736641713437389,
    "showImageSmallHash": 8540920196091512704,
    "cgNameTextMapHash": 4004091058,
    "cgDesTextMapHash": 497165828,
    "sortId": 5
  },
  {
    "id": 10340206,
    "chapterId": 103402,
    "unlockPointId": 10340296,
    "cgType": "CG_FEMALE",
    "unlockCond": [
      {
        "condType": "COOP_COND_COOP_POINT_FINISH",
        "args": [10340296, 0]
      },
      {
        "args": [0, 0]
      }
    ],
    "showImageHash": 2390951738855573770,
    "showImageSmallHash": 7110952349368416206,
    "cgNameTextMapHash": 805308514,
    "cgDesTextMapHash": 1998764748,
    "sortId": 6
  },
  {
    "id": 10340211,
    "chapterId": 103402,
    "unlockPointId": 10340291,
    "cgType": "CG_MALE",
    "unlockCond": [
      {
        "condType": "COOP_COND_COOP_POINT_FINISH",
        "args": [10340291, 0]
      },
      {
        "args": [0, 0]
      }
    ],
    "showImageHash": 12350671674318359238,
    "showImageSmallHash": 14732476777013864842,
    "cgNameTextMapHash": 3567335290,
    "cgDesTextMapHash": 2842947924,
    "sortId": 1
  },
  {
    "id": 10340212,
    "chapterId": 103402,
    "unlockPointId": 10340292,
    "cgType": "CG_MALE",
    "unlockCond": [
      {
        "condType": "COOP_COND_COOP_POINT_FINISH",
        "args": [10340292, 0]
      },
      {
        "args": [0, 0]
      }
    ],
    "showImageHash": 5102575226757683338,
    "showImageSmallHash": 3865026164026975648,
    "cgNameTextMapHash": 1515030474,
    "cgDesTextMapHash": 3115593820,
    "sortId": 2
  },
  {
    "id": 10340213,
    "chapterId": 103402,
    "unlockPointId": 10340293,
    "cgType": "CG_MALE",
    "unlockCond": [
      {
        "condType": "COOP_COND_COOP_POINT_FINISH",
        "args": [10340293, 0]
      },
      {
        "args": [0, 0]
      }
    ],
    "showImageHash": 11949607466508350883,
    "showImageSmallHash": 1854907889947440143,
    "cgNameTextMapHash": 3687733570,
    "cgDesTextMapHash": 2717541692,
    "sortId": 3
  },
  {
    "id": 10340214,
    "chapterId": 103402,
    "unlockPointId": 10340294,
    "cgType": "CG_MALE",
    "unlockCond": [
      {
        "condType": "COOP_COND_COOP_POINT_FINISH",
        "args": [10340294, 0]
      },
      {
        "args": [0, 0]
      }
    ],
    "showImageHash": 3291631096368354197,
    "showImageSmallHash": 8275623530682071880,
    "cgNameTextMapHash": 2912588842,
    "cgDesTextMapHash": 1622058492,
    "sortId": 4
  },
  {
    "id": 10340215,
    "chapterId": 103402,
    "unlockPointId": 10340295,
    "cgType": "CG_MALE",
    "unlockCond": [
      {
        "condType": "COOP_COND_COOP_POINT_FINISH",
        "args": [10340295, 0]
      },
      {
        "args": [0, 0]
      }
    ],
    "showImageHash": 2678398679712987239,
    "showImageSmallHash": 11897639232380036326,
    "cgNameTextMapHash": 3333694026,
    "cgDesTextMapHash": 2277421228,
    "sortId": 5
  },
  {
    "id": 10340216,
    "chapterId": 103402,
    "unlockPointId": 10340296,
    "cgType": "CG_MALE",
    "unlockCond": [
      {
        "condType": "COOP_COND_COOP_POINT_FINISH",
        "args": [10340296, 0]
      },
      {
        "args": [0, 0]
      }
    ],
    "showImageHash": 17147585026637253502,
    "showImageSmallHash": 8784735099858859046,
    "cgNameTextMapHash": 739481698,
    "cgDesTextMapHash": 1477769164,
    "sortId": 6
  },
  {
    "id": 10390101,
    "chapterId": 103901,
    "unlockPointId": 10390191,
    "cgType": "CG_FEMALE",
    "unlockCond": [
      {
        "condType": "COOP_COND_COOP_POINT_FINISH",
        "args": [10390191, 0]
      },
      {
        "args": [0, 0]
      }
    ],
    "showImageHash": 3535306507419230821,
    "showImageSmallHash": 9425861418880816844,
    "cgNameTextMapHash": 1696417850,
    "cgDesTextMapHash": 716024580,
    "sortId": 1
  },
  {
    "id": 10390102,
    "chapterId": 103901,
    "unlockPointId": 10390192,
    "cgType": "CG_FEMALE",
    "unlockCond": [
      {
        "condType": "COOP_COND_COOP_POINT_FINISH",
        "args": [10390192, 0]
      },
      {
        "args": [0, 0]
      }
    ],
    "showImageHash": 4593872758801486050,
    "showImageSmallHash": 15255440399439078354,
    "cgNameTextMapHash": 1495080514,
    "cgDesTextMapHash": 2080440308,
    "sortId": 2
  },
  {
    "id": 10390103,
    "chapterId": 103901,
    "unlockPointId": 10390193,
    "cgType": "CG_FEMALE",
    "unlockCond": [
      {
        "condType": "COOP_COND_COOP_POINT_FINISH",
        "args": [10390193, 0]
      },
      {
        "args": [0, 0]
      }
    ],
    "showImageHash": 4782158945861273266,
    "showImageSmallHash": 1786447586700439723,
    "cgNameTextMapHash": 3279317730,
    "cgDesTextMapHash": 869910900,
    "sortId": 3
  },
  {
    "id": 10390104,
    "chapterId": 103901,
    "unlockPointId": 10390194,
    "cgType": "CG_FEMALE",
    "unlockCond": [
      {
        "condType": "COOP_COND_COOP_POINT_FINISH",
        "args": [10390194, 0]
      },
      {
        "args": [0, 0]
      }
    ],
    "showImageHash": 7136755462114676371,
    "showImageSmallHash": 5636543256094034664,
    "cgNameTextMapHash": 3239492658,
    "cgDesTextMapHash": 3564891908,
    "sortId": 4
  },
  {
    "id": 10390105,
    "chapterId": 103901,
    "unlockPointId": 10390195,
    "cgType": "CG_FEMALE",
    "unlockCond": [
      {
        "condType": "COOP_COND_COOP_POINT_FINISH",
        "args": [10390195, 0]
      },
      {
        "args": [0, 0]
      }
    ],
    "showImageHash": 18267658168859951533,
    "showImageSmallHash": 16328890013792456948,
    "cgNameTextMapHash": 566300026,
    "cgDesTextMapHash": 1862720028,
    "sortId": 5
  },
  {
    "id": 10390111,
    "chapterId": 103901,
    "unlockPointId": 10390191,
    "cgType": "CG_MALE",
    "unlockCond": [
      {
        "condType": "COOP_COND_COOP_POINT_FINISH",
        "args": [10390191, 0]
      },
      {
        "args": [0, 0]
      }
    ],
    "showImageHash": 2020151810601031266,
    "showImageSmallHash": 7004236692586788817,
    "cgNameTextMapHash": 954984098,
    "cgDesTextMapHash": 4050385236,
    "sortId": 1
  },
  {
    "id": 10390112,
    "chapterId": 103901,
    "unlockPointId": 10390192,
    "cgType": "CG_MALE",
    "unlockCond": [
      {
        "condType": "COOP_COND_COOP_POINT_FINISH",
        "args": [10390192, 0]
      },
      {
        "args": [0, 0]
      }
    ],
    "showImageHash": 33286462522275808,
    "showImageSmallHash": 13913302480299513560,
    "cgNameTextMapHash": 1531813538,
    "cgDesTextMapHash": 3939235660,
    "sortId": 2
  },
  {
    "id": 10390113,
    "chapterId": 103901,
    "unlockPointId": 10390193,
    "cgType": "CG_MALE",
    "unlockCond": [
      {
        "condType": "COOP_COND_COOP_POINT_FINISH",
        "args": [10390193, 0]
      },
      {
        "args": [0, 0]
      }
    ],
    "showImageHash": 1586990466613309514,
    "showImageSmallHash": 3640487642042659100,
    "cgNameTextMapHash": 702369250,
    "cgDesTextMapHash": 2606068284,
    "sortId": 3
  },
  {
    "id": 10390114,
    "chapterId": 103901,
    "unlockPointId": 10390194,
    "cgType": "CG_MALE",
    "unlockCond": [
      {
        "condType": "COOP_COND_COOP_POINT_FINISH",
        "args": [10390194, 0]
      },
      {
        "args": [0, 0]
      }
    ],
    "showImageHash": 6091042699184148332,
    "showImageSmallHash": 17299327252972653685,
    "cgNameTextMapHash": 118920146,
    "cgDesTextMapHash": 1673413332,
    "sortId": 4
  },
  {
    "id": 10390115,
    "chapterId": 103901,
    "unlockPointId": 10390195,
    "cgType": "CG_MALE",
    "unlockCond": [
      {
        "condType": "COOP_COND_COOP_POINT_FINISH",
        "args": [10390195, 0]
      },
      {
        "args": [0, 0]
      }
    ],
    "showImageHash": 10112260454825716931,
    "showImageSmallHash": 1037840587006317636,
    "cgNameTextMapHash": 160716426,
    "cgDesTextMapHash": 1585120236,
    "sortId": 5
  },
  {
    "id": 10500101,
    "chapterId": 105001,
    "unlockPointId": 10500191,
    "cgType": "CG_FEMALE",
    "unlockCond": [
      {
        "condType": "COOP_COND_COOP_POINT_FINISH",
        "args": [10500191, 0]
      },
      {
        "args": [0, 0]
      }
    ],
    "showImageHash": 12462173230199384297,
    "showImageSmallHash": 17073252861918973721,
    "cgNameTextMapHash": 3284608306,
    "cgDesTextMapHash": 804084412,
    "sortId": 1
  },
  {
    "id": 10500102,
    "chapterId": 105001,
    "unlockPointId": 10500192,
    "cgType": "CG_FEMALE",
    "unlockCond": [
      {
        "condType": "COOP_COND_COOP_POINT_FINISH",
        "args": [10500192, 0]
      },
      {
        "args": [0, 0]
      }
    ],
    "showImageHash": 257543914635052106,
    "showImageSmallHash": 3885709082256801723,
    "cgNameTextMapHash": 4282204914,
    "cgDesTextMapHash": 1153417844,
    "sortId": 2
  },
  {
    "id": 10500103,
    "chapterId": 105001,
    "unlockPointId": 10500193,
    "cgType": "CG_FEMALE",
    "unlockCond": [
      {
        "condType": "COOP_COND_COOP_POINT_FINISH",
        "args": [10500193, 0]
      },
      {
        "args": [0, 0]
      }
    ],
    "showImageHash": 13237267790273475044,
    "showImageSmallHash": 15015626687806265380,
    "cgNameTextMapHash": 2313067906,
    "cgDesTextMapHash": 1099092660,
    "sortId": 3
  },
  {
    "id": 10500104,
    "chapterId": 105001,
    "unlockPointId": 10500194,
    "cgType": "CG_FEMALE",
    "unlockCond": [
      {
        "condType": "COOP_COND_COOP_POINT_FINISH",
        "args": [10500194, 0]
      },
      {
        "args": [0, 0]
      }
    ],
    "showImageHash": 4377147669734446313,
    "showImageSmallHash": 572319857500673460,
    "cgNameTextMapHash": 1787147738,
    "cgDesTextMapHash": 1242509892,
    "sortId": 4
  },
  {
    "id": 10500105,
    "chapterId": 105001,
    "unlockPointId": 10500195,
    "cgType": "CG_FEMALE",
    "unlockCond": [
      {
        "condType": "COOP_COND_COOP_POINT_FINISH",
        "args": [10500195, 0]
      },
      {
        "args": [0, 0]
      }
    ],
    "showImageHash": 16609824006931871902,
    "showImageSmallHash": 1149189223947966232,
    "cgNameTextMapHash": 837686498,
    "cgDesTextMapHash": 4019734060,
    "sortId": 5
  },
  {
    "id": 10500106,
    "chapterId": 105001,
    "unlockPointId": 10500196,
    "cgType": "CG_FEMALE",
    "unlockCond": [
      {
        "condType": "COOP_COND_COOP_POINT_FINISH",
        "args": [10500196, 0]
      },
      {
        "args": [0, 0]
      }
    ],
    "showImageHash": 8501341768305741249,
    "showImageSmallHash": 7293141625987404778,
    "cgNameTextMapHash": 92111426,
    "cgDesTextMapHash": 3132452772,
    "sortId": 6
  },
  {
    "id": 10500111,
    "chapterId": 105001,
    "unlockPointId": 10500191,
    "cgType": "CG_MALE",
    "unlockCond": [
      {
        "condType": "COOP_COND_COOP_POINT_FINISH",
        "args": [10500191, 0]
      },
      {
        "args": [0, 0]
      }
    ],
    "showImageHash": 12131960749661674012,
    "showImageSmallHash": 6955045297584251571,
    "cgNameTextMapHash": 2138578986,
    "cgDesTextMapHash": 3999382244,
    "sortId": 1
  },
  {
    "id": 10500112,
    "chapterId": 105001,
    "unlockPointId": 10500192,
    "cgType": "CG_MALE",
    "unlockCond": [
      {
        "condType": "COOP_COND_COOP_POINT_FINISH",
        "args": [10500192, 0]
      },
      {
        "args": [0, 0]
      }
    ],
    "showImageHash": 5408695785607206001,
    "showImageSmallHash": 13583937121851058791,
    "cgNameTextMapHash": 3328880802,
    "cgDesTextMapHash": 1872580252,
    "sortId": 2
  },
  {
    "id": 10500113,
    "chapterId": 105001,
    "unlockPointId": 10500193,
    "cgType": "CG_MALE",
    "unlockCond": [
      {
        "condType": "COOP_COND_COOP_POINT_FINISH",
        "args": [10500193, 0]
      },
      {
        "args": [0, 0]
      }
    ],
    "showImageHash": 8419290407556665163,
    "showImageSmallHash": 7533094120888033366,
    "cgNameTextMapHash": 1917773930,
    "cgDesTextMapHash": 2146356012,
    "sortId": 3
  },
  {
    "id": 10500114,
    "chapterId": 105001,
    "unlockPointId": 10500194,
    "cgType": "CG_MALE",
    "unlockCond": [
      {
        "condType": "COOP_COND_COOP_POINT_FINISH",
        "args": [10500194, 0]
      },
      {
        "args": [0, 0]
      }
    ],
    "showImageHash": 8376271759180891630,
    "showImageSmallHash": 9578165085186108644,
    "cgNameTextMapHash": 312505610,
    "cgDesTextMapHash": 969022988,
    "sortId": 4
  },
  {
    "id": 10500115,
    "chapterId": 105001,
    "unlockPointId": 10500195,
    "cgType": "CG_MALE",
    "unlockCond": [
      {
        "condType": "COOP_COND_COOP_POINT_FINISH",
        "args": [10500195, 0]
      },
      {
        "args": [0, 0]
      }
    ],
    "showImageHash": 9427756606407677076,
    "showImageSmallHash": 17926796693524591635,
    "cgNameTextMapHash": 1881084954,
    "cgDesTextMapHash": 3865148012,
    "sortId": 5
  },
  {
    "id": 10500116,
    "chapterId": 105001,
    "unlockPointId": 10500196,
    "cgType": "CG_MALE",
    "unlockCond": [
      {
        "condType": "COOP_COND_COOP_POINT_FINISH",
        "args": [10500196, 0]
      },
      {
        "args": [0, 0]
      }
    ],
    "showImageHash": 16489193508615484924,
    "showImageSmallHash": 10302619249891557631,
    "cgNameTextMapHash": 236478858,
    "cgDesTextMapHash": 3311355844,
    "sortId": 6
  },
  {
    "id": 10530101,
    "chapterId": 105301,
    "unlockPointId": 10530191,
    "cgType": "CG_FEMALE",
    "unlockCond": [
      {
        "condType": "COOP_COND_COOP_POINT_FINISH",
        "args": [10530191, 0]
      },
      {
        "args": [0, 0]
      }
    ],
    "showImageHash": 6499926099172590242,
    "showImageSmallHash": 1878827820871104654,
    "cgNameTextMapHash": 3736711410,
    "cgDesTextMapHash": 2041049156,
    "sortId": 1
  },
  {
    "id": 10530102,
    "chapterId": 105301,
    "unlockPointId": 10530192,
    "cgType": "CG_FEMALE",
    "unlockCond": [
      {
        "condType": "COOP_COND_COOP_POINT_FINISH",
        "args": [10530192, 0]
      },
      {
        "args": [0, 0]
      }
    ],
    "showImageHash": 16309600687388073699,
    "showImageSmallHash": 18072801174387447949,
    "cgNameTextMapHash": 889717162,
    "cgDesTextMapHash": 1143812804,
    "sortId": 2
  },
  {
    "id": 10530103,
    "chapterId": 105301,
    "unlockPointId": 10530193,
    "cgType": "CG_FEMALE",
    "unlockCond": [
      {
        "condType": "COOP_COND_COOP_POINT_FINISH",
        "args": [10530193, 0]
      },
      {
        "args": [0, 0]
      }
    ],
    "showImageHash": 3848003253280799049,
    "showImageSmallHash": 949069341353930813,
    "cgNameTextMapHash": 1671032218,
    "cgDesTextMapHash": 2366710228,
    "sortId": 3
  },
  {
    "id": 10530104,
    "chapterId": 105301,
    "unlockPointId": 10530194,
    "cgType": "CG_FEMALE",
    "unlockCond": [
      {
        "condType": "COOP_COND_COOP_POINT_FINISH",
        "args": [10530194, 0]
      },
      {
        "args": [0, 0]
      }
    ],
    "showImageHash": 9454082330699698220,
    "showImageSmallHash": 918600255580041121,
    "cgNameTextMapHash": 1932004290,
    "cgDesTextMapHash": 1886181436,
    "sortId": 4
  },
  {
    "id": 10530105,
    "chapterId": 105301,
    "unlockPointId": 10530195,
    "cgType": "CG_FEMALE",
    "unlockCond": [
      {
        "condType": "COOP_COND_COOP_POINT_FINISH",
        "args": [10530195, 0]
      },
      {
        "args": [0, 0]
      }
    ],
    "showImageHash": 13335694597963495581,
    "showImageSmallHash": 596825768862637709,
    "cgNameTextMapHash": 2962769706,
    "cgDesTextMapHash": 4213150532,
    "sortId": 5
  },
  {
    "id": 10530106,
    "chapterId": 105301,
    "unlockPointId": 10530196,
    "cgType": "CG_FEMALE",
    "unlockCond": [
      {
        "condType": "COOP_COND_COOP_POINT_FINISH",
        "args": [10530196, 0]
      },
      {
        "args": [0, 0]
      }
    ],
    "showImageHash": 8469994594468790744,
    "showImageSmallHash": 1900541093774184287,
    "cgNameTextMapHash": 461635234,
    "cgDesTextMapHash": 4141140524,
    "sortId": 6
  },
  {
    "id": 10530111,
    "chapterId": 105301,
    "unlockPointId": 10530191,
    "cgType": "CG_MALE",
    "unlockCond": [
      {
        "condType": "COOP_COND_COOP_POINT_FINISH",
        "args": [10530191, 0]
      },
      {
        "args": [0, 0]
      }
    ],
    "showImageHash": 1890759033992285753,
    "showImageSmallHash": 3104689815706996115,
    "cgNameTextMapHash": 2929601034,
    "cgDesTextMapHash": 3178312404,
    "sortId": 1
  },
  {
    "id": 10530112,
    "chapterId": 105301,
    "unlockPointId": 10530192,
    "cgType": "CG_MALE",
    "unlockCond": [
      {
        "condType": "COOP_COND_COOP_POINT_FINISH",
        "args": [10530192, 0]
      },
      {
        "args": [0, 0]
      }
    ],
    "showImageHash": 16890078220215654196,
    "showImageSmallHash": 12693083062169349067,
    "cgNameTextMapHash": 2253123626,
    "cgDesTextMapHash": 374966916,
    "sortId": 2
  },
  {
    "id": 10530113,
    "chapterId": 105301,
    "unlockPointId": 10530193,
    "cgType": "CG_MALE",
    "unlockCond": [
      {
        "condType": "COOP_COND_COOP_POINT_FINISH",
        "args": [10530193, 0]
      },
      {
        "args": [0, 0]
      }
    ],
    "showImageHash": 13014756843676028991,
    "showImageSmallHash": 7346707127798157734,
    "cgNameTextMapHash": 560641714,
    "cgDesTextMapHash": 2909975908,
    "sortId": 3
  },
  {
    "id": 10530114,
    "chapterId": 105301,
    "unlockPointId": 10530194,
    "cgType": "CG_MALE",
    "unlockCond": [
      {
        "condType": "COOP_COND_COOP_POINT_FINISH",
        "args": [10530194, 0]
      },
      {
        "args": [0, 0]
      }
    ],
    "showImageHash": 7886032852429423594,
    "showImageSmallHash": 16020095415849255659,
    "cgNameTextMapHash": 2189580386,
    "cgDesTextMapHash": 4189655268,
    "sortId": 4
  },
  {
    "id": 10530115,
    "chapterId": 105301,
    "unlockPointId": 10530195,
    "cgType": "CG_MALE",
    "unlockCond": [
      {
        "condType": "COOP_COND_COOP_POINT_FINISH",
        "args": [10530195, 0]
      },
      {
        "args": [0, 0]
      }
    ],
    "showImageHash": 13854160077235302060,
    "showImageSmallHash": 10390539237059728860,
    "cgNameTextMapHash": 2652804210,
    "cgDesTextMapHash": 1658363500,
    "sortId": 5
  },
  {
    "id": 10530116,
    "chapterId": 105301,
    "unlockPointId": 10530196,
    "cgType": "CG_MALE",
    "unlockCond": [
      {
        "condType": "COOP_COND_COOP_POINT_FINISH",
        "args": [10530196, 0]
      },
      {
        "args": [0, 0]
      }
    ],
    "showImageHash": 7264622142488982037,
    "showImageSmallHash": 12948704767769200699,
    "cgNameTextMapHash": 1253866730,
    "cgDesTextMapHash": 1009645324,
    "sortId": 6
  },
  {
    "id": 10240101,
    "chapterId": 102401,
    "unlockPointId": 10240191,
    "cgType": "CG_FEMALE",
    "unlockCond": [
      {
        "condType": "COOP_COND_COOP_POINT_FINISH",
        "args": [10240191, 0]
      },
      {
        "args": [0, 0]
      }
    ],
    "showImageHash": 561802868187393728,
    "showImageSmallHash": 10877868263936016682,
    "cgNameTextMapHash": 3306512674,
    "cgDesTextMapHash": 1510079100,
    "sortId": 1
  },
  {
    "id": 10240102,
    "chapterId": 102401,
    "unlockPointId": 10240192,
    "cgType": "CG_FEMALE",
    "unlockCond": [
      {
        "condType": "COOP_COND_COOP_POINT_FINISH",
        "args": [10240192, 0]
      },
      {
        "args": [0, 0]
      }
    ],
    "showImageHash": 8129231808906788731,
    "showImageSmallHash": 17786081401248908511,
    "cgNameTextMapHash": 1452694258,
    "cgDesTextMapHash": 3938584236,
    "sortId": 2
  },
  {
    "id": 10240103,
    "chapterId": 102401,
    "unlockPointId": 10240193,
    "cgType": "CG_FEMALE",
    "unlockCond": [
      {
        "condType": "COOP_COND_COOP_POINT_FINISH",
        "args": [10240193, 0]
      },
      {
        "args": [0, 0]
      }
    ],
    "showImageHash": 16951024054654097723,
    "showImageSmallHash": 8011372668762963490,
    "cgNameTextMapHash": 1939452962,
    "cgDesTextMapHash": 2843807836,
    "sortId": 3
  },
  {
    "id": 10240104,
    "chapterId": 102401,
    "unlockPointId": 10240194,
    "cgType": "CG_FEMALE",
    "unlockCond": [
      {
        "condType": "COOP_COND_COOP_POINT_FINISH",
        "args": [10240194, 0]
      },
      {
        "args": [0, 0]
      }
    ],
    "showImageHash": 3326907066599105452,
    "showImageSmallHash": 11497680049553753870,
    "cgNameTextMapHash": 1051769434,
    "cgDesTextMapHash": 3895970116,
    "sortId": 4
  },
  {
    "id": 10240105,
    "chapterId": 102401,
    "unlockPointId": 10240195,
    "cgType": "CG_FEMALE",
    "unlockCond": [
      {
        "condType": "COOP_COND_COOP_POINT_FINISH",
        "args": [10240195, 0]
      },
      {
        "args": [0, 0]
      }
    ],
    "showImageHash": 1309559909149581095,
    "showImageSmallHash": 17754585555962639608,
    "cgNameTextMapHash": 462691434,
    "cgDesTextMapHash": 290885532,
    "sortId": 5
  },
  {
    "id": 10240111,
    "chapterId": 102401,
    "unlockPointId": 10240191,
    "cgType": "CG_MALE",
    "unlockCond": [
      {
        "condType": "COOP_COND_COOP_POINT_FINISH",
        "args": [10240191, 0]
      },
      {
        "args": [0, 0]
      }
    ],
    "showImageHash": 15624198040400453306,
    "showImageSmallHash": 9875609665142311081,
    "cgNameTextMapHash": 2712220706,
    "cgDesTextMapHash": 61127804,
    "sortId": 1
  },
  {
    "id": 10240112,
    "chapterId": 102401,
    "unlockPointId": 10240192,
    "cgType": "CG_MALE",
    "unlockCond": [
      {
        "condType": "COOP_COND_COOP_POINT_FINISH",
        "args": [10240192, 0]
      },
      {
        "args": [0, 0]
      }
    ],
    "showImageHash": 8304025018736711288,
    "showImageSmallHash": 3986718012297066836,
    "cgNameTextMapHash": 666335754,
    "cgDesTextMapHash": 23649468,
    "sortId": 2
  },
  {
    "id": 10240113,
    "chapterId": 102401,
    "unlockPointId": 10240193,
    "cgType": "CG_MALE",
    "unlockCond": [
      {
        "condType": "COOP_COND_COOP_POINT_FINISH",
        "args": [10240193, 0]
      },
      {
        "args": [0, 0]
      }
    ],
    "showImageHash": 12247332758018452238,
    "showImageSmallHash": 17021361952789380621,
    "cgNameTextMapHash": 791573650,
    "cgDesTextMapHash": 148336468,
    "sortId": 3
  },
  {
    "id": 10240114,
    "chapterId": 102401,
    "unlockPointId": 10240194,
    "cgType": "CG_MALE",
    "unlockCond": [
      {
        "condType": "COOP_COND_COOP_POINT_FINISH",
        "args": [10240194, 0]
      },
      {
        "args": [0, 0]
      }
    ],
    "showImageHash": 2024652506133595745,
    "showImageSmallHash": 12844845994542028294,
    "cgNameTextMapHash": 1810022218,
    "cgDesTextMapHash": 3823997340,
    "sortId": 4
  },
  {
    "id": 10240115,
    "chapterId": 102401,
    "unlockPointId": 10240195,
    "cgType": "CG_MALE",
    "unlockCond": [
      {
        "condType": "COOP_COND_COOP_POINT_FINISH",
        "args": [10240195, 0]
      },
      {
        "args": [0, 0]
      }
    ],
    "showImageHash": 14697331893656956875,
    "showImageSmallHash": 16250598925735662624,
    "cgNameTextMapHash": 1451456434,
    "cgDesTextMapHash": 1610174076,
    "sortId": 5
  },
  {
    "id": 10550101,
    "chapterId": 105501,
    "unlockPointId": 10550191,
    "cgType": "CG_FEMALE",
    "unlockCond": [
      {
        "condType": "COOP_COND_COOP_POINT_FINISH",
        "args": [10550191, 0]
      },
      {
        "args": [0, 0]
      }
    ],
    "showImageHash": 10751841815946292009,
    "showImageSmallHash": 7841188943436679585,
    "cgNameTextMapHash": 1246521170,
    "cgDesTextMapHash": 4103184364,
    "sortId": 1
  },
  {
    "id": 10550102,
    "chapterId": 105501,
    "unlockPointId": 10550192,
    "cgType": "CG_FEMALE",
    "unlockCond": [
      {
        "condType": "COOP_COND_COOP_POINT_FINISH",
        "args": [10550192, 0]
      },
      {
        "args": [0, 0]
      }
    ],
    "showImageHash": 2673182566965441193,
    "showImageSmallHash": 11883916447133645846,
    "cgNameTextMapHash": 272411930,
    "cgDesTextMapHash": 2292859340,
    "sortId": 2
  },
  {
    "id": 10550103,
    "chapterId": 105501,
    "unlockPointId": 10550193,
    "cgType": "CG_FEMALE",
    "unlockCond": [
      {
        "condType": "COOP_COND_COOP_POINT_FINISH",
        "args": [10550193, 0]
      },
      {
        "args": [0, 0]
      }
    ],
    "showImageHash": 16976377787287907090,
    "showImageSmallHash": 13854284364941182065,
    "cgNameTextMapHash": 1766389586,
    "cgDesTextMapHash": 2526378588,
    "sortId": 3
  },
  {
    "id": 10550104,
    "chapterId": 105501,
    "unlockPointId": 10550194,
    "cgType": "CG_FEMALE",
    "unlockCond": [
      {
        "condType": "COOP_COND_COOP_POINT_FINISH",
        "args": [10550194, 0]
      },
      {
        "args": [0, 0]
      }
    ],
    "showImageHash": 454687570376443533,
    "showImageSmallHash": 13894531687424922877,
    "cgNameTextMapHash": 1787252538,
    "cgDesTextMapHash": 2577504068,
    "sortId": 4
  },
  {
    "id": 10550105,
    "chapterId": 105501,
    "unlockPointId": 10550195,
    "cgType": "CG_FEMALE",
    "unlockCond": [
      {
        "condType": "COOP_COND_COOP_POINT_FINISH",
        "args": [10550195, 0]
      },
      {
        "args": [0, 0]
      }
    ],
    "showImageHash": 13132682621208289541,
    "showImageSmallHash": 12823605515800005051,
    "cgNameTextMapHash": 1394818722,
    "cgDesTextMapHash": 69174556,
    "sortId": 5
  },
  {
    "id": 10550111,
    "chapterId": 105501,
    "unlockPointId": 10550191,
    "cgType": "CG_MALE",
    "unlockCond": [
      {
        "condType": "COOP_COND_COOP_POINT_FINISH",
        "args": [10550191, 0]
      },
      {
        "args": [0, 0]
      }
    ],
    "showImageHash": 4184021139548574849,
    "showImageSmallHash": 4577931807468713248,
    "cgNameTextMapHash": 1617541986,
    "cgDesTextMapHash": 2331599956,
    "sortId": 1
  },
  {
    "id": 10550112,
    "chapterId": 105501,
    "unlockPointId": 10550192,
    "cgType": "CG_MALE",
    "unlockCond": [
      {
        "condType": "COOP_COND_COOP_POINT_FINISH",
        "args": [10550192, 0]
      },
      {
        "args": [0, 0]
      }
    ],
    "showImageHash": 12842540366556683640,
    "showImageSmallHash": 16998857589090795740,
    "cgNameTextMapHash": 1231434770,
    "cgDesTextMapHash": 1490438020,
    "sortId": 2
  },
  {
    "id": 10550113,
    "chapterId": 105501,
    "unlockPointId": 10550193,
    "cgType": "CG_MALE",
    "unlockCond": [
      {
        "condType": "COOP_COND_COOP_POINT_FINISH",
        "args": [10550193, 0]
      },
      {
        "args": [0, 0]
      }
    ],
    "showImageHash": 1814894175335334640,
    "showImageSmallHash": 12172335808086789682,
    "cgNameTextMapHash": 1741057906,
    "cgDesTextMapHash": 3729648012,
    "sortId": 3
  },
  {
    "id": 10550114,
    "chapterId": 105501,
    "unlockPointId": 10550194,
    "cgType": "CG_MALE",
    "unlockCond": [
      {
        "condType": "COOP_COND_COOP_POINT_FINISH",
        "args": [10550194, 0]
      },
      {
        "args": [0, 0]
      }
    ],
    "showImageHash": 3668165155238335584,
    "showImageSmallHash": 15475886395719687687,
    "cgNameTextMapHash": 438967082,
    "cgDesTextMapHash": 4011856380,
    "sortId": 4
  },
  {
    "id": 10550115,
    "chapterId": 105501,
    "unlockPointId": 10550195,
    "cgType": "CG_MALE",
    "unlockCond": [
      {
        "condType": "COOP_COND_COOP_POINT_FINISH",
        "args": [10550195, 0]
      },
      {
        "args": [0, 0]
      }
    ],
    "showImageHash": 13929414267278977137,
    "showImageSmallHash": 12507132766533488838,
    "cgNameTextMapHash": 1488244874,
    "cgDesTextMapHash": 589386428,
    "sortId": 5
  },
  {
    "id": 10270101,
    "chapterId": 102701,
    "unlockPointId": 10270191,
    "cgType": "CG_FEMALE",
    "unlockCond": [
      {
        "condType": "COOP_COND_COOP_POINT_FINISH",
        "args": [10270191, 0]
      },
      {
        "args": [0, 0]
      }
    ],
    "showImageHash": 2574888678023882187,
    "showImageSmallHash": 9158585006977327185,
    "cgNameTextMapHash": 990838138,
    "cgDesTextMapHash": 2687618044,
    "sortId": 1
  },
  {
    "id": 10270102,
    "chapterId": 102701,
    "unlockPointId": 10270192,
    "cgType": "CG_FEMALE",
    "unlockCond": [
      {
        "condType": "COOP_COND_COOP_POINT_FINISH",
        "args": [10270192, 0]
      },
      {
        "args": [0, 0]
      }
    ],
    "showImageHash": 10045008737867348725,
    "showImageSmallHash": 14920852678189811455,
    "cgNameTextMapHash": 2994790274,
    "cgDesTextMapHash": 3979955804,
    "sortId": 2
  },
  {
    "id": 10270103,
    "chapterId": 102701,
    "unlockPointId": 10270193,
    "cgType": "CG_FEMALE",
    "unlockCond": [
      {
        "condType": "COOP_COND_COOP_POINT_FINISH",
        "args": [10270193, 0]
      },
      {
        "args": [0, 0]
      }
    ],
    "showImageHash": 8180447506620117805,
    "showImageSmallHash": 8976327565204998512,
    "cgNameTextMapHash": 3356078946,
    "cgDesTextMapHash": 575930988,
    "sortId": 3
  },
  {
    "id": 10270104,
    "chapterId": 102701,
    "unlockPointId": 10270194,
    "cgType": "CG_FEMALE",
    "unlockCond": [
      {
        "condType": "COOP_COND_COOP_POINT_FINISH",
        "args": [10270194, 0]
      },
      {
        "args": [0, 0]
      }
    ],
    "showImageHash": 10895887807152750516,
    "showImageSmallHash": 5625135602351800241,
    "cgNameTextMapHash": 1239172914,
    "cgDesTextMapHash": 1924922708,
    "sortId": 4
  },
  {
    "id": 10270105,
    "chapterId": 102701,
    "unlockPointId": 10270195,
    "cgType": "CG_FEMALE",
    "unlockCond": [
      {
        "condType": "COOP_COND_COOP_POINT_FINISH",
        "args": [10270195, 0]
      },
      {
        "args": [0, 0]
      }
    ],
    "showImageHash": 1667846344474747169,
    "showImageSmallHash": 7768258144312171170,
    "cgNameTextMapHash": 3067357298,
    "cgDesTextMapHash": 2497675484,
    "sortId": 5
  },
  {
    "id": 10270111,
    "chapterId": 102701,
    "unlockPointId": 10270191,
    "cgType": "CG_MALE",
    "unlockCond": [
      {
        "condType": "COOP_COND_COOP_POINT_FINISH",
        "args": [10270191, 0]
      },
      {
        "args": [0, 0]
      }
    ],
    "showImageHash": 13038358328982514896,
    "showImageSmallHash": 10654539370894637991,
    "cgNameTextMapHash": 3109777314,
    "cgDesTextMapHash": 4118855780,
    "sortId": 1
  },
  {
    "id": 10270112,
    "chapterId": 102701,
    "unlockPointId": 10270192,
    "cgType": "CG_MALE",
    "unlockCond": [
      {
        "condType": "COOP_COND_COOP_POINT_FINISH",
        "args": [10270192, 0]
      },
      {
        "args": [0, 0]
      }
    ],
    "showImageHash": 11287304182084492680,
    "showImageSmallHash": 1442876279406338628,
    "cgNameTextMapHash": 952931570,
    "cgDesTextMapHash": 3535629460,
    "sortId": 2
  },
  {
    "id": 10270113,
    "chapterId": 102701,
    "unlockPointId": 10270193,
    "cgType": "CG_MALE",
    "unlockCond": [
      {
        "condType": "COOP_COND_COOP_POINT_FINISH",
        "args": [10270193, 0]
      },
      {
        "args": [0, 0]
      }
    ],
    "showImageHash": 8274838762838795605,
    "showImageSmallHash": 5626328630498736615,
    "cgNameTextMapHash": 959555610,
    "cgDesTextMapHash": 3971989948,
    "sortId": 3
  },
  {
    "id": 10270114,
    "chapterId": 102701,
    "unlockPointId": 10270194,
    "cgType": "CG_MALE",
    "unlockCond": [
      {
        "condType": "COOP_COND_COOP_POINT_FINISH",
        "args": [10270194, 0]
      },
      {
        "args": [0, 0]
      }
    ],
    "showImageHash": 6832702749193738589,
    "showImageSmallHash": 3922196323656958544,
    "cgNameTextMapHash": 3473921914,
    "cgDesTextMapHash": 431227852,
    "sortId": 4
  },
  {
    "id": 10270115,
    "chapterId": 102701,
    "unlockPointId": 10270195,
    "cgType": "CG_MALE",
    "unlockCond": [
      {
        "condType": "COOP_COND_COOP_POINT_FINISH",
        "args": [10270195, 0]
      },
      {
        "args": [0, 0]
      }
    ],
    "showImageHash": 14214663418311672161,
    "showImageSmallHash": 6793178580906531464,
    "cgNameTextMapHash": 3102121434,
    "cgDesTextMapHash": 1138355012,
    "sortId": 5
  },
  {
    "id": 10640101,
    "chapterId": 106401,
    "unlockPointId": 10640191,
    "cgType": "CG_FEMALE",
    "unlockCond": [
      {
        "condType": "COOP_COND_COOP_POINT_FINISH",
        "args": [10640191, 0]
      },
      {
        "args": [0, 0]
      }
    ],
    "showImageHash": 16613186351127869782,
    "showImageSmallHash": 9692724367290811603,
    "cgNameTextMapHash": 2015778666,
    "cgDesTextMapHash": 1219074644,
    "sortId": 1
  },
  {
    "id": 10640102,
    "chapterId": 106401,
    "unlockPointId": 10640192,
    "cgType": "CG_FEMALE",
    "unlockCond": [
      {
        "condType": "COOP_COND_COOP_POINT_FINISH",
        "args": [10640192, 0]
      },
      {
        "args": [0, 0]
      }
    ],
    "showImageHash": 2890497776912105014,
    "showImageSmallHash": 2404769797472829022,
    "cgNameTextMapHash": 2593474386,
    "cgDesTextMapHash": 2397963052,
    "sortId": 2
  },
  {
    "id": 10640103,
    "chapterId": 106401,
    "unlockPointId": 10640193,
    "cgType": "CG_FEMALE",
    "unlockCond": [
      {
        "condType": "COOP_COND_COOP_POINT_FINISH",
        "args": [10640193, 0]
      },
      {
        "args": [0, 0]
      }
    ],
    "showImageHash": 9888005135045202154,
    "showImageSmallHash": 5710049491918961898,
    "cgNameTextMapHash": 2775003714,
    "cgDesTextMapHash": 1820659500,
    "sortId": 3
  },
  {
    "id": 10640104,
    "chapterId": 106401,
    "unlockPointId": 10640194,
    "cgType": "CG_FEMALE",
    "unlockCond": [
      {
        "condType": "COOP_COND_COOP_POINT_FINISH",
        "args": [10640194, 0]
      },
      {
        "args": [0, 0]
      }
    ],
    "showImageHash": 12683073653834732581,
    "showImageSmallHash": 329099637219846185,
    "cgNameTextMapHash": 4261528698,
    "cgDesTextMapHash": 259872468,
    "sortId": 4
  },
  {
    "id": 10640105,
    "chapterId": 106401,
    "unlockPointId": 10640195,
    "cgType": "CG_FEMALE",
    "unlockCond": [
      {
        "condType": "COOP_COND_COOP_POINT_FINISH",
        "args": [10640195, 0]
      },
      {
        "args": [0, 0]
      }
    ],
    "showImageHash": 17139456813202177554,
    "showImageSmallHash": 1350575958043423841,
    "cgNameTextMapHash": 3129892914,
    "cgDesTextMapHash": 149581628,
    "sortId": 5
  },
  {
    "id": 10640111,
    "chapterId": 106401,
    "unlockPointId": 10640191,
    "cgType": "CG_MALE",
    "unlockCond": [
      {
        "condType": "COOP_COND_COOP_POINT_FINISH",
        "args": [10640191, 0]
      },
      {
        "args": [0, 0]
      }
    ],
    "showImageHash": 13251621409617675355,
    "showImageSmallHash": 9530912144247510972,
    "cgNameTextMapHash": 3286416562,
    "cgDesTextMapHash": 791868564,
    "sortId": 1
  },
  {
    "id": 10640112,
    "chapterId": 106401,
    "unlockPointId": 10640192,
    "cgType": "CG_MALE",
    "unlockCond": [
      {
        "condType": "COOP_COND_COOP_POINT_FINISH",
        "args": [10640192, 0]
      },
      {
        "args": [0, 0]
      }
    ],
    "showImageHash": 13396313504964734856,
    "showImageSmallHash": 16238705426039101471,
    "cgNameTextMapHash": 2338464642,
    "cgDesTextMapHash": 3531823700,
    "sortId": 2
  },
  {
    "id": 10640113,
    "chapterId": 106401,
    "unlockPointId": 10640193,
    "cgType": "CG_MALE",
    "unlockCond": [
      {
        "condType": "COOP_COND_COOP_POINT_FINISH",
        "args": [10640193, 0]
      },
      {
        "args": [0, 0]
      }
    ],
    "showImageHash": 1559983457804659603,
    "showImageSmallHash": 17010973497657109492,
    "cgNameTextMapHash": 1948040338,
    "cgDesTextMapHash": 2406974140,
    "sortId": 3
  },
  {
    "id": 10640114,
    "chapterId": 106401,
    "unlockPointId": 10640194,
    "cgType": "CG_MALE",
    "unlockCond": [
      {
        "condType": "COOP_COND_COOP_POINT_FINISH",
        "args": [10640194, 0]
      },
      {
        "args": [0, 0]
      }
    ],
    "showImageHash": 15659706999230250801,
    "showImageSmallHash": 8884011854446496145,
    "cgNameTextMapHash": 2591445490,
    "cgDesTextMapHash": 3873610588,
    "sortId": 4
  },
  {
    "id": 10640115,
    "chapterId": 106401,
    "unlockPointId": 10640195,
    "cgType": "CG_MALE",
    "unlockCond": [
      {
        "condType": "COOP_COND_COOP_POINT_FINISH",
        "args": [10640195, 0]
      },
      {
        "args": [0, 0]
      }
    ],
    "showImageHash": 8328194770598461973,
    "showImageSmallHash": 16758460101428350040,
    "cgNameTextMapHash": 4080302746,
    "cgDesTextMapHash": 2614072444,
    "sortId": 5
  },
  {
    "id": 10650101,
    "chapterId": 106501,
    "unlockPointId": 10650191,
    "cgType": "CG_FEMALE",
    "unlockCond": [
      {
        "condType": "COOP_COND_COOP_POINT_FINISH",
        "args": [10650191, 0]
      },
      {
        "args": [0, 0]
      }
    ],
    "showImageHash": 15521809116142537124,
    "showImageSmallHash": 14945495104582083067,
    "cgNameTextMapHash": 1153181858,
    "cgDesTextMapHash": 1418944492,
    "sortId": 1
  },
  {
    "id": 10650102,
    "chapterId": 106501,
    "unlockPointId": 10650192,
    "cgType": "CG_FEMALE",
    "unlockCond": [
      {
        "condType": "COOP_COND_COOP_POINT_FINISH",
        "args": [10650192, 0]
      },
      {
        "args": [0, 0]
      }
    ],
    "showImageHash": 18390938423928643349,
    "showImageSmallHash": 5327023553962211044,
    "cgNameTextMapHash": 3963949218,
    "cgDesTextMapHash": 2186726492,
    "sortId": 2
  },
  {
    "id": 10650103,
    "chapterId": 106501,
    "unlockPointId": 10650193,
    "cgType": "CG_FEMALE",
    "unlockCond": [
      {
        "condType": "COOP_COND_COOP_POINT_FINISH",
        "args": [10650193, 0]
      },
      {
        "args": [0, 0]
      }
    ],
    "showImageHash": 14128763854733118001,
    "showImageSmallHash": 17178720359756613179,
    "cgNameTextMapHash": 403384042,
    "cgDesTextMapHash": 2712333908,
    "sortId": 3
  },
  {
    "id": 10650104,
    "chapterId": 106501,
    "unlockPointId": 10650194,
    "cgType": "CG_FEMALE",
    "unlockCond": [
      {
        "condType": "COOP_COND_COOP_POINT_FINISH",
        "args": [10650194, 0]
      },
      {
        "args": [0, 0]
      }
    ],
    "showImageHash": 14706539246489184063,
    "showImageSmallHash": 15172095088599355560,
    "cgNameTextMapHash": 4274537410,
    "cgDesTextMapHash": 308733396,
    "sortId": 4
  },
  {
    "id": 10650105,
    "chapterId": 106501,
    "unlockPointId": 10650195,
    "cgType": "CG_FEMALE",
    "unlockCond": [
      {
        "condType": "COOP_COND_COOP_POINT_FINISH",
        "args": [10650195, 0]
      },
      {
        "args": [0, 0]
      }
    ],
    "showImageHash": 14930291955624686053,
    "showImageSmallHash": 2357263955238117265,
    "cgNameTextMapHash": 2795216546,
    "cgDesTextMapHash": 2975482684,
    "sortId": 5
  },
  {
    "id": 10650111,
    "chapterId": 106501,
    "unlockPointId": 10650191,
    "cgType": "CG_MALE",
    "unlockCond": [
      {
        "condType": "COOP_COND_COOP_POINT_FINISH",
        "args": [10650191, 0]
      },
      {
        "args": [0, 0]
      }
    ],
    "showImageHash": 2689926813292679,
    "showImageSmallHash": 6290972030597992987,
    "cgNameTextMapHash": 2924594330,
    "cgDesTextMapHash": 22155356,
    "sortId": 1
  },
  {
    "id": 10650112,
    "chapterId": 106501,
    "unlockPointId": 10650192,
    "cgType": "CG_MALE",
    "unlockCond": [
      {
        "condType": "COOP_COND_COOP_POINT_FINISH",
        "args": [10650192, 0]
      },
      {
        "args": [0, 0]
      }
    ],
    "showImageHash": 8263802801910605038,
    "showImageSmallHash": 13224183115149115641,
    "cgNameTextMapHash": 3038486858,
    "cgDesTextMapHash": 4118656556,
    "sortId": 2
  },
  {
    "id": 10650113,
    "chapterId": 106501,
    "unlockPointId": 10650193,
    "cgType": "CG_MALE",
    "unlockCond": [
      {
        "condType": "COOP_COND_COOP_POINT_FINISH",
        "args": [10650193, 0]
      },
      {
        "args": [0, 0]
      }
    ],
    "showImageHash": 9074515967355107065,
    "showImageSmallHash": 1358182587659925864,
    "cgNameTextMapHash": 398926650,
    "cgDesTextMapHash": 1756620636,
    "sortId": 3
  },
  {
    "id": 10650114,
    "chapterId": 106501,
    "unlockPointId": 10650194,
    "cgType": "CG_MALE",
    "unlockCond": [
      {
        "condType": "COOP_COND_COOP_POINT_FINISH",
        "args": [10650194, 0]
      },
      {
        "args": [0, 0]
      }
    ],
    "showImageHash": 3774260907363216827,
    "showImageSmallHash": 6017913635122304702,
    "cgNameTextMapHash": 705008074,
    "cgDesTextMapHash": 1888040556,
    "sortId": 4
  },
  {
    "id": 10650115,
    "chapterId": 106501,
    "unlockPointId": 10650195,
    "cgType": "CG_MALE",
    "unlockCond": [
      {
        "condType": "COOP_COND_COOP_POINT_FINISH",
        "args": [10650195, 0]
      },
      {
        "args": [0, 0]
      }
    ],
    "showImageHash": 5747698310802349786,
    "showImageSmallHash": 13049965191567122399,
    "cgNameTextMapHash": 2571638842,
    "cgDesTextMapHash": 2503518140,
    "sortId": 5
  },
  {
    "id": 10590101,
    "chapterId": 105901,
    "unlockPointId": 10590191,
    "cgType": "CG_FEMALE",
    "unlockCond": [
      {
        "condType": "COOP_COND_COOP_POINT_FINISH",
        "args": [10590191, 0]
      },
      {
        "args": [0, 0]
      }
    ],
    "showImageHash": 17207693879971908666,
    "showImageSmallHash": 13019623475586986207,
    "cgNameTextMapHash": 2081397074,
    "cgDesTextMapHash": 1426504652,
    "sortId": 1
  },
  {
    "id": 10590102,
    "chapterId": 105901,
    "unlockPointId": 10590192,
    "cgType": "CG_FEMALE",
    "unlockCond": [
      {
        "condType": "COOP_COND_COOP_POINT_FINISH",
        "args": [10590192, 0]
      },
      {
        "args": [0, 0]
      }
    ],
    "showImageHash": 7224541711947603373,
    "showImageSmallHash": 17263271248713129186,
    "cgNameTextMapHash": 2845056082,
    "cgDesTextMapHash": 4076858812,
    "sortId": 2
  },
  {
    "id": 10590103,
    "chapterId": 105901,
    "unlockPointId": 10590193,
    "cgType": "CG_FEMALE",
    "unlockCond": [
      {
        "condType": "COOP_COND_COOP_POINT_FINISH",
        "args": [10590193, 0]
      },
      {
        "args": [0, 0]
      }
    ],
    "showImageHash": 17070094006674362335,
    "showImageSmallHash": 5655174294259952787,
    "cgNameTextMapHash": 2412301410,
    "cgDesTextMapHash": 2007790068,
    "sortId": 3
  },
  {
    "id": 10590104,
    "chapterId": 105901,
    "unlockPointId": 10590194,
    "cgType": "CG_FEMALE",
    "unlockCond": [
      {
        "condType": "COOP_COND_COOP_POINT_FINISH",
        "args": [10590194, 0]
      },
      {
        "args": [0, 0]
      }
    ],
    "showImageHash": 2158353216063021696,
    "showImageSmallHash": 11278041955781529394,
    "cgNameTextMapHash": 3268281738,
    "cgDesTextMapHash": 835731172,
    "sortId": 4
  },
  {
    "id": 10590105,
    "chapterId": 105901,
    "unlockPointId": 10590195,
    "cgType": "CG_FEMALE",
    "unlockCond": [
      {
        "condType": "COOP_COND_COOP_POINT_FINISH",
        "args": [10590195, 0]
      },
      {
        "args": [0, 0]
      }
    ],
    "showImageHash": 11269333216328649011,
    "showImageSmallHash": 3963998252908457294,
    "cgNameTextMapHash": 1894129754,
    "cgDesTextMapHash": 2447719724,
    "sortId": 5
  },
  {
    "id": 10590111,
    "chapterId": 105901,
    "unlockPointId": 10590191,
    "cgType": "CG_MALE",
    "unlockCond": [
      {
        "condType": "COOP_COND_COOP_POINT_FINISH",
        "args": [10590191, 0]
      },
      {
        "args": [0, 0]
      }
    ],
    "showImageHash": 10944090175609872365,
    "showImageSmallHash": 18215043378560030101,
    "cgNameTextMapHash": 995977258,
    "cgDesTextMapHash": 837623012,
    "sortId": 1
  },
  {
    "id": 10590112,
    "chapterId": 105901,
    "unlockPointId": 10590192,
    "cgType": "CG_MALE",
    "unlockCond": [
      {
        "condType": "COOP_COND_COOP_POINT_FINISH",
        "args": [10590192, 0]
      },
      {
        "args": [0, 0]
      }
    ],
    "showImageHash": 4251696936751282847,
    "showImageSmallHash": 15537522470418282657,
    "cgNameTextMapHash": 3522081314,
    "cgDesTextMapHash": 4190265628,
    "sortId": 2
  },
  {
    "id": 10590113,
    "chapterId": 105901,
    "unlockPointId": 10590193,
    "cgType": "CG_MALE",
    "unlockCond": [
      {
        "condType": "COOP_COND_COOP_POINT_FINISH",
        "args": [10590193, 0]
      },
      {
        "args": [0, 0]
      }
    ],
    "showImageHash": 3497213230531502069,
    "showImageSmallHash": 381239639357908037,
    "cgNameTextMapHash": 584230138,
    "cgDesTextMapHash": 3059514468,
    "sortId": 3
  },
  {
    "id": 10590114,
    "chapterId": 105901,
    "unlockPointId": 10590194,
    "cgType": "CG_MALE",
    "unlockCond": [
      {
        "condType": "COOP_COND_COOP_POINT_FINISH",
        "args": [10590194, 0]
      },
      {
        "args": [0, 0]
      }
    ],
    "showImageHash": 8906576515157372264,
    "showImageSmallHash": 13282808820223589020,
    "cgNameTextMapHash": 2641663394,
    "cgDesTextMapHash": 2920983092,
    "sortId": 4
  },
  {
    "id": 10590115,
    "chapterId": 105901,
    "unlockPointId": 10590195,
    "cgType": "CG_MALE",
    "unlockCond": [
      {
        "condType": "COOP_COND_COOP_POINT_FINISH",
        "args": [10590195, 0]
      },
      {
        "args": [0, 0]
      }
    ],
    "showImageHash": 17824247564180629734,
    "showImageSmallHash": 17901126320017268007,
    "cgNameTextMapHash": 271433090,
    "cgDesTextMapHash": 3751965988,
    "sortId": 5
  },
  {
    "id": 10760101,
    "chapterId": 107601,
    "unlockPointId": 10760191,
    "cgType": "CG_FEMALE",
    "unlockCond": [
      {
        "condType": "COOP_COND_COOP_POINT_FINISH",
        "args": [10760191, 0]
      },
      {
        "args": [0, 0]
      }
    ],
    "showImageHash": 16076503643818570898,
    "showImageSmallHash": 15533989964083689803,
    "cgNameTextMapHash": 1483583674,
    "cgDesTextMapHash": 1206115444,
    "sortId": 1
  },
  {
    "id": 10760102,
    "chapterId": 107601,
    "unlockPointId": 10760192,
    "cgType": "CG_FEMALE",
    "unlockCond": [
      {
        "condType": "COOP_COND_COOP_POINT_FINISH",
        "args": [10760192, 0]
      },
      {
        "args": [0, 0]
      }
    ],
    "showImageHash": 360336221922085195,
    "showImageSmallHash": 6622898523227914496,
    "cgNameTextMapHash": 3508577546,
    "cgDesTextMapHash": 2651626188,
    "sortId": 2
  },
  {
    "id": 10760103,
    "chapterId": 107601,
    "unlockPointId": 10760193,
    "cgType": "CG_FEMALE",
    "unlockCond": [
      {
        "condType": "COOP_COND_COOP_POINT_FINISH",
        "args": [10760193, 0]
      },
      {
        "args": [0, 0]
      }
    ],
    "showImageHash": 4848615285220672942,
    "showImageSmallHash": 5444856825578500690,
    "cgNameTextMapHash": 1949940818,
    "cgDesTextMapHash": 1492545284,
    "sortId": 3
  },
  {
    "id": 10760104,
    "chapterId": 107601,
    "unlockPointId": 10760194,
    "cgType": "CG_FEMALE",
    "unlockCond": [
      {
        "condType": "COOP_COND_COOP_POINT_FINISH",
        "args": [10760194, 0]
      },
      {
        "args": [0, 0]
      }
    ],
    "showImageHash": 10346534883371819701,
    "showImageSmallHash": 4158116214052583265,
    "cgNameTextMapHash": 1340346922,
    "cgDesTextMapHash": 436032948,
    "sortId": 4
  },
  {
    "id": 10760105,
    "chapterId": 107601,
    "unlockPointId": 10760195,
    "cgType": "CG_FEMALE",
    "unlockCond": [
      {
        "condType": "COOP_COND_COOP_POINT_FINISH",
        "args": [10760195, 0]
      },
      {
        "args": [0, 0]
      }
    ],
    "showImageHash": 10524715550175951007,
    "showImageSmallHash": 2658407828497438090,
    "cgNameTextMapHash": 453812258,
    "cgDesTextMapHash": 3313687300,
    "sortId": 5
  },
  {
    "id": 10760111,
    "chapterId": 107601,
    "unlockPointId": 10760191,
    "cgType": "CG_MALE",
    "unlockCond": [
      {
        "condType": "COOP_COND_COOP_POINT_FINISH",
        "args": [10760191, 0]
      },
      {
        "args": [0, 0]
      }
    ],
    "showImageHash": 6744804097318780351,
    "showImageSmallHash": 6072699099393180994,
    "cgNameTextMapHash": 2070059930,
    "cgDesTextMapHash": 2737315724,
    "sortId": 1
  },
  {
    "id": 10760112,
    "chapterId": 107601,
    "unlockPointId": 10760192,
    "cgType": "CG_MALE",
    "unlockCond": [
      {
        "condType": "COOP_COND_COOP_POINT_FINISH",
        "args": [10760192, 0]
      },
      {
        "args": [0, 0]
      }
    ],
    "showImageHash": 7461669677814536615,
    "showImageSmallHash": 8559206349346623069,
    "cgNameTextMapHash": 4179098018,
    "cgDesTextMapHash": 4163559708,
    "sortId": 2
  },
  {
    "id": 10760113,
    "chapterId": 107601,
    "unlockPointId": 10760193,
    "cgType": "CG_MALE",
    "unlockCond": [
      {
        "condType": "COOP_COND_COOP_POINT_FINISH",
        "args": [10760193, 0]
      },
      {
        "args": [0, 0]
      }
    ],
    "showImageHash": 4838600745115070334,
    "showImageSmallHash": 6885618538975999760,
    "cgNameTextMapHash": 2004503690,
    "cgDesTextMapHash": 1102794108,
    "sortId": 3
  },
  {
    "id": 10760114,
    "chapterId": 107601,
    "unlockPointId": 10760194,
    "cgType": "CG_MALE",
    "unlockCond": [
      {
        "condType": "COOP_COND_COOP_POINT_FINISH",
        "args": [10760194, 0]
      },
      {
        "args": [0, 0]
      }
    ],
    "showImageHash": 5406709496893542570,
    "showImageSmallHash": 6900173161835870589,
    "cgNameTextMapHash": 1922497154,
    "cgDesTextMapHash": 3565570636,
    "sortId": 4
  },
  {
    "id": 10760115,
    "chapterId": 107601,
    "unlockPointId": 10760195,
    "cgType": "CG_MALE",
    "unlockCond": [
      {
        "condType": "COOP_COND_COOP_POINT_FINISH",
        "args": [10760195, 0]
      },
      {
        "args": [0, 0]
      }
    ],
    "showImageHash": 10068606633802958201,
    "showImageSmallHash": 14355336828159751760,
    "cgNameTextMapHash": 2927829498,
    "cgDesTextMapHash": 607141556,
    "sortId": 5
  },
  {
    "id": 10740101,
    "chapterId": 107401,
    "unlockPointId": 10740191,
    "cgType": "CG_FEMALE",
    "unlockCond": [
      {
        "condType": "COOP_COND_COOP_POINT_FINISH",
        "args": [10740191, 0]
      },
      {
        "args": [0, 0]
      }
    ],
    "showImageHash": 10027531092715738935,
    "showImageSmallHash": 14698477467685356753,
    "cgNameTextMapHash": 3050884842,
    "cgDesTextMapHash": 3858430724,
    "sortId": 1
  },
  {
    "id": 10740102,
    "chapterId": 107401,
    "unlockPointId": 10740192,
    "cgType": "CG_FEMALE",
    "unlockCond": [
      {
        "condType": "COOP_COND_COOP_POINT_FINISH",
        "args": [10740192, 0]
      },
      {
        "args": [0, 0]
      }
    ],
    "showImageHash": 11885429562617340496,
    "showImageSmallHash": 6731302495338082075,
    "cgNameTextMapHash": 2243436690,
    "cgDesTextMapHash": 1200724884,
    "sortId": 2
  },
  {
    "id": 10740103,
    "chapterId": 107401,
    "unlockPointId": 10740193,
    "cgType": "CG_FEMALE",
    "unlockCond": [
      {
        "condType": "COOP_COND_COOP_POINT_FINISH",
        "args": [10740193, 0]
      },
      {
        "args": [0, 0]
      }
    ],
    "showImageHash": 2874788637874038626,
    "showImageSmallHash": 11182370053728805173,
    "cgNameTextMapHash": 3642696602,
    "cgDesTextMapHash": 3059383492,
    "sortId": 3
  },
  {
    "id": 10740104,
    "chapterId": 107401,
    "unlockPointId": 10740194,
    "cgType": "CG_FEMALE",
    "unlockCond": [
      {
        "condType": "COOP_COND_COOP_POINT_FINISH",
        "args": [10740194, 0]
      },
      {
        "args": [0, 0]
      }
    ],
    "showImageHash": 16574287075275669760,
    "showImageSmallHash": 7282761741428969311,
    "cgNameTextMapHash": 3775281754,
    "cgDesTextMapHash": 2099393972,
    "sortId": 4
  },
  {
    "id": 10740105,
    "chapterId": 107401,
    "unlockPointId": 10740195,
    "cgType": "CG_FEMALE",
    "unlockCond": [
      {
        "condType": "COOP_COND_COOP_POINT_FINISH",
        "args": [10740195, 0]
      },
      {
        "args": [0, 0]
      }
    ],
    "showImageHash": 4527412628328439898,
    "showImageSmallHash": 11401900559316197937,
    "cgNameTextMapHash": 2620878986,
    "cgDesTextMapHash": 396174260,
    "sortId": 5
  },
  {
    "id": 10740106,
    "chapterId": 107401,
    "unlockPointId": 10740196,
    "cgType": "CG_FEMALE",
    "unlockCond": [
      {
        "condType": "COOP_COND_COOP_POINT_FINISH",
        "args": [10740196, 0]
      },
      {
        "args": [0, 0]
      }
    ],
    "showImageHash": 18336890514874314896,
    "showImageSmallHash": 1127301531716835706,
    "cgNameTextMapHash": 424993242,
    "cgDesTextMapHash": 1609987260,
    "sortId": 6
  },
  {
    "id": 10740111,
    "chapterId": 107401,
    "unlockPointId": 10740191,
    "cgType": "CG_MALE",
    "unlockCond": [
      {
        "condType": "COOP_COND_COOP_POINT_FINISH",
        "args": [10740191, 0]
      },
      {
        "args": [0, 0]
      }
    ],
    "showImageHash": 16793657466196631408,
    "showImageSmallHash": 15275793487047792900,
    "cgNameTextMapHash": 3396099226,
    "cgDesTextMapHash": 3690880940,
    "sortId": 1
  },
  {
    "id": 10740112,
    "chapterId": 107401,
    "unlockPointId": 10740192,
    "cgType": "CG_MALE",
    "unlockCond": [
      {
        "condType": "COOP_COND_COOP_POINT_FINISH",
        "args": [10740192, 0]
      },
      {
        "args": [0, 0]
      }
    ],
    "showImageHash": 8674219712530430493,
    "showImageSmallHash": 590387778686856442,
    "cgNameTextMapHash": 361447434,
    "cgDesTextMapHash": 2033847372,
    "sortId": 2
  },
  {
    "id": 10740113,
    "chapterId": 107401,
    "unlockPointId": 10740193,
    "cgType": "CG_MALE",
    "unlockCond": [
      {
        "condType": "COOP_COND_COOP_POINT_FINISH",
        "args": [10740193, 0]
      },
      {
        "args": [0, 0]
      }
    ],
    "showImageHash": 15472261288959000736,
    "showImageSmallHash": 11188946473876155808,
    "cgNameTextMapHash": 959579618,
    "cgDesTextMapHash": 1363989564,
    "sortId": 3
  },
  {
    "id": 10740114,
    "chapterId": 107401,
    "unlockPointId": 10740194,
    "cgType": "CG_MALE",
    "unlockCond": [
      {
        "condType": "COOP_COND_COOP_POINT_FINISH",
        "args": [10740194, 0]
      },
      {
        "args": [0, 0]
      }
    ],
    "showImageHash": 17677769824835236828,
    "showImageSmallHash": 1618566922677248376,
    "cgNameTextMapHash": 2498469370,
    "cgDesTextMapHash": 508556884,
    "sortId": 4
  },
  {
    "id": 10740115,
    "chapterId": 107401,
    "unlockPointId": 10740195,
    "cgType": "CG_MALE",
    "unlockCond": [
      {
        "condType": "COOP_COND_COOP_POINT_FINISH",
        "args": [10740195, 0]
      },
      {
        "args": [0, 0]
      }
    ],
    "showImageHash": 10273082138464601780,
    "showImageSmallHash": 16249107156971838414,
    "cgNameTextMapHash": 3057257802,
    "cgDesTextMapHash": 2462183996,
    "sortId": 5
  },
  {
    "id": 10740116,
    "chapterId": 107401,
    "unlockPointId": 10740196,
    "cgType": "CG_MALE",
    "unlockCond": [
      {
        "condType": "COOP_COND_COOP_POINT_FINISH",
        "args": [10740196, 0]
      },
      {
        "args": [0, 0]
      }
    ],
    "showImageHash": 10615235923406905165,
    "showImageSmallHash": 7606089323038540886,
    "cgNameTextMapHash": 4254256626,
    "cgDesTextMapHash": 505077412,
    "sortId": 6
  }
]
