[
  {
    "id": 10140101,
    "rewardCond": [
      {
        "condType": "COOP_COND_CHAPTER_END_FINISH_COUNT",
        "args": [101401, 1]
      }
    ],
    "chapterId": 101401,
    "rewardId": 4001411,
    "sortId": 1,
    "condTipTextMapHash": 898088075,
    "condTipDesTextMapHash": 2146054457
  },
  {
    "id": 10140102,
    "rewardCond": [
      {
        "condType": "COOP_COND_CHAPTER_END_FINISH_COUNT",
        "args": [101401, 2]
      }
    ],
    "chapterId": 101401,
    "rewardId": 4001412,
    "sortId": 2,
    "condTipTextMapHash": 2498321891,
    "condTipDesTextMapHash": 1519105393
  },
  {
    "id": 10140103,
    "rewardCond": [
      {
        "condType": "COOP_COND_CHAPTER_END_FINISH_COUNT",
        "args": [101401, 3]
      }
    ],
    "chapterId": 101401,
    "rewardId": 4001413,
    "sortId": 3,
    "condTipTextMapHash": 3905400819,
    "condTipDesTextMapHash": 121179969
  },
  {
    "id": 10140104,
    "rewardCond": [
      {
        "condType": "COOP_COND_CHAPTER_END_FINISH_COUNT",
        "args": [101401, 4]
      }
    ],
    "chapterId": 101401,
    "rewardId": 4001414,
    "sortId": 4,
    "condTipTextMapHash": 4070289027,
    "condTipDesTextMapHash": 2310791161
  },
  {
    "id": 10140105,
    "rewardCond": [
      {
        "condType": "COOP_COND_CHAPTER_END_FINISH_COUNT",
        "args": [101401, 5]
      }
    ],
    "chapterId": 101401,
    "rewardId": 4001415,
    "sortId": 5,
    "condTipTextMapHash": 4115715683,
    "condTipDesTextMapHash": 2297205201
  },
  {
    "id": 10360101,
    "rewardCond": [
      {
        "condType": "COOP_COND_CHAPTER_END_FINISH_COUNT",
        "args": [103601, 1]
      }
    ],
    "chapterId": 103601,
    "rewardId": 4003611,
    "sortId": 1,
    "condTipTextMapHash": 1734003323,
    "condTipDesTextMapHash": 2490640737
  },
  {
    "id": 10360102,
    "rewardCond": [
      {
        "condType": "COOP_COND_CHAPTER_END_FINISH_COUNT",
        "args": [103601, 2]
      }
    ],
    "chapterId": 103601,
    "rewardId": 4003612,
    "sortId": 2,
    "condTipTextMapHash": 4200271803,
    "condTipDesTextMapHash": 3144453689
  },
  {
    "id": 10360103,
    "rewardCond": [
      {
        "condType": "COOP_COND_CHAPTER_END_FINISH_COUNT",
        "args": [103601, 3]
      }
    ],
    "chapterId": 103601,
    "rewardId": 4003613,
    "sortId": 3,
    "condTipTextMapHash": 1846664707,
    "condTipDesTextMapHash": 695476937
  },
  {
    "id": 10360104,
    "rewardCond": [
      {
        "condType": "COOP_COND_CHAPTER_END_FINISH_COUNT",
        "args": [103601, 4]
      }
    ],
    "chapterId": 103601,
    "rewardId": 4003614,
    "sortId": 4,
    "condTipTextMapHash": 2844827027,
    "condTipDesTextMapHash": 964381433
  },
  {
    "id": 10360105,
    "rewardCond": [
      {
        "condType": "COOP_COND_CHAPTER_END_FINISH_COUNT",
        "args": [103601, 5]
      }
    ],
    "chapterId": 103601,
    "rewardId": 4003615,
    "sortId": 5,
    "condTipTextMapHash": 423806011,
    "condTipDesTextMapHash": 2716525329
  },
  {
    "id": 10360106,
    "rewardCond": [
      {
        "condType": "COOP_COND_CHAPTER_END_FINISH_COUNT",
        "args": [103601, 6]
      }
    ],
    "chapterId": 103601,
    "rewardId": 4003616,
    "sortId": 6,
    "condTipTextMapHash": 2615983531,
    "condTipDesTextMapHash": 399950473
  },
  {
    "id": 10340101,
    "rewardCond": [
      {
        "condType": "COOP_COND_CHAPTER_END_FINISH_COUNT",
        "args": [103401, 1]
      }
    ],
    "chapterId": 103401,
    "rewardId": 4003411,
    "sortId": 1,
    "condTipTextMapHash": 740746043,
    "condTipDesTextMapHash": 3249486041
  },
  {
    "id": 10340102,
    "rewardCond": [
      {
        "condType": "COOP_COND_CHAPTER_END_FINISH_COUNT",
        "args": [103401, 2]
      }
    ],
    "chapterId": 103401,
    "rewardId": 4003412,
    "sortId": 2,
    "condTipTextMapHash": 2256236355,
    "condTipDesTextMapHash": 2887661569
  },
  {
    "id": 10340103,
    "rewardCond": [
      {
        "condType": "COOP_COND_CHAPTER_END_FINISH_COUNT",
        "args": [103401, 3]
      }
    ],
    "chapterId": 103401,
    "rewardId": 4003413,
    "sortId": 3,
    "condTipTextMapHash": 2026375555,
    "condTipDesTextMapHash": 1499513777
  },
  {
    "id": 10340104,
    "rewardCond": [
      {
        "condType": "COOP_COND_CHAPTER_END_FINISH_COUNT",
        "args": [103401, 4]
      }
    ],
    "chapterId": 103401,
    "rewardId": 4003414,
    "sortId": 4,
    "condTipTextMapHash": 828389203,
    "condTipDesTextMapHash": 2064903681
  },
  {
    "id": 10340105,
    "rewardCond": [
      {
        "condType": "COOP_COND_CHAPTER_END_FINISH_COUNT",
        "args": [103401, 5]
      }
    ],
    "chapterId": 103401,
    "rewardId": 4003415,
    "sortId": 5,
    "condTipTextMapHash": 1600791419,
    "condTipDesTextMapHash": 1138637849
  },
  {
    "id": 10340106,
    "rewardCond": [
      {
        "condType": "COOP_COND_CHAPTER_END_FINISH_COUNT",
        "args": [103401, 6]
      }
    ],
    "chapterId": 103401,
    "rewardId": 4003416,
    "sortId": 6,
    "condTipTextMapHash": 4191275003,
    "condTipDesTextMapHash": 1892598321
  },
  {
    "id": 10320101,
    "rewardCond": [
      {
        "condType": "COOP_COND_CHAPTER_END_FINISH_COUNT",
        "args": [103201, 1]
      }
    ],
    "chapterId": 103201,
    "rewardId": 4003211,
    "sortId": 1,
    "condTipTextMapHash": 853107395,
    "condTipDesTextMapHash": 2256135593
  },
  {
    "id": 10320102,
    "rewardCond": [
      {
        "condType": "COOP_COND_CHAPTER_END_FINISH_COUNT",
        "args": [103201, 2]
      }
    ],
    "chapterId": 103201,
    "rewardId": 4003212,
    "sortId": 2,
    "condTipTextMapHash": 449758427,
    "condTipDesTextMapHash": 699252985
  },
  {
    "id": 10320103,
    "rewardCond": [
      {
        "condType": "COOP_COND_CHAPTER_END_FINISH_COUNT",
        "args": [103201, 3]
      }
    ],
    "chapterId": 103201,
    "rewardId": 4003213,
    "sortId": 3,
    "condTipTextMapHash": 803583243,
    "condTipDesTextMapHash": 720236369
  },
  {
    "id": 10320104,
    "rewardCond": [
      {
        "condType": "COOP_COND_CHAPTER_END_FINISH_COUNT",
        "args": [103201, 4]
      }
    ],
    "chapterId": 103201,
    "rewardId": 4003214,
    "sortId": 4,
    "condTipTextMapHash": 3884305011,
    "condTipDesTextMapHash": 782499417
  },
  {
    "id": 10320105,
    "rewardCond": [
      {
        "condType": "COOP_COND_CHAPTER_END_FINISH_COUNT",
        "args": [103201, 5]
      }
    ],
    "chapterId": 103201,
    "rewardId": 4003215,
    "sortId": 5,
    "condTipTextMapHash": 3882218203,
    "condTipDesTextMapHash": 3579525857
  },
  {
    "id": 10320106,
    "rewardCond": [
      {
        "condType": "COOP_COND_CHAPTER_END_FINISH_COUNT",
        "args": [103201, 6]
      }
    ],
    "chapterId": 103201,
    "rewardId": 4003216,
    "sortId": 6,
    "condTipTextMapHash": 2145483275,
    "condTipDesTextMapHash": 2180466281
  },
  {
    "id": 10340201,
    "rewardCond": [
      {
        "condType": "COOP_COND_CHAPTER_END_FINISH_COUNT",
        "args": [103402, 1]
      }
    ],
    "chapterId": 103402,
    "rewardId": 4003421,
    "sortId": 1,
    "condTipTextMapHash": 3074656291,
    "condTipDesTextMapHash": 4080807305
  },
  {
    "id": 10340202,
    "rewardCond": [
      {
        "condType": "COOP_COND_CHAPTER_END_FINISH_COUNT",
        "args": [103402, 2]
      }
    ],
    "chapterId": 103402,
    "rewardId": 4003422,
    "sortId": 2,
    "condTipTextMapHash": 2247449755,
    "condTipDesTextMapHash": 4067158377
  },
  {
    "id": 10340203,
    "rewardCond": [
      {
        "condType": "COOP_COND_CHAPTER_END_FINISH_COUNT",
        "args": [103402, 3]
      }
    ],
    "chapterId": 103402,
    "rewardId": 4003423,
    "sortId": 3,
    "condTipTextMapHash": 3451241467,
    "condTipDesTextMapHash": 3444641481
  },
  {
    "id": 10340204,
    "rewardCond": [
      {
        "condType": "COOP_COND_CHAPTER_END_FINISH_COUNT",
        "args": [103402, 4]
      }
    ],
    "chapterId": 103402,
    "rewardId": 4003424,
    "sortId": 4,
    "condTipTextMapHash": 987905531,
    "condTipDesTextMapHash": 2360043577
  },
  {
    "id": 10340205,
    "rewardCond": [
      {
        "condType": "COOP_COND_CHAPTER_END_FINISH_COUNT",
        "args": [103402, 5]
      }
    ],
    "chapterId": 103402,
    "rewardId": 4003425,
    "sortId": 5,
    "condTipTextMapHash": 3130880043,
    "condTipDesTextMapHash": 1262833457
  },
  {
    "id": 10340206,
    "rewardCond": [
      {
        "condType": "COOP_COND_CHAPTER_END_FINISH_COUNT",
        "args": [103402, 6]
      }
    ],
    "chapterId": 103402,
    "rewardId": 4003426,
    "sortId": 6,
    "condTipTextMapHash": 2266070395,
    "condTipDesTextMapHash": 3556053769
  },
  {
    "id": 10390101,
    "rewardCond": [
      {
        "condType": "COOP_COND_CHAPTER_END_FINISH_COUNT",
        "args": [103901, 1]
      }
    ],
    "chapterId": 103901,
    "rewardId": 4003911,
    "sortId": 1,
    "condTipTextMapHash": 1043122227,
    "condTipDesTextMapHash": 2052141329
  },
  {
    "id": 10390102,
    "rewardCond": [
      {
        "condType": "COOP_COND_CHAPTER_END_FINISH_COUNT",
        "args": [103901, 2]
      }
    ],
    "chapterId": 103901,
    "rewardId": 4003912,
    "sortId": 2,
    "condTipTextMapHash": 815483899,
    "condTipDesTextMapHash": 1512409241
  },
  {
    "id": 10390103,
    "rewardCond": [
      {
        "condType": "COOP_COND_CHAPTER_END_FINISH_COUNT",
        "args": [103901, 3]
      }
    ],
    "chapterId": 103901,
    "rewardId": 4003913,
    "sortId": 3,
    "condTipTextMapHash": 1975724595,
    "condTipDesTextMapHash": 774933961
  },
  {
    "id": 10390104,
    "rewardCond": [
      {
        "condType": "COOP_COND_CHAPTER_END_FINISH_COUNT",
        "args": [103901, 4]
      }
    ],
    "chapterId": 103901,
    "rewardId": 4003914,
    "sortId": 4,
    "condTipTextMapHash": 3319537859,
    "condTipDesTextMapHash": 4165119729
  },
  {
    "id": 10390105,
    "rewardCond": [
      {
        "condType": "COOP_COND_CHAPTER_END_FINISH_COUNT",
        "args": [103901, 5]
      }
    ],
    "chapterId": 103901,
    "rewardId": 4003915,
    "sortId": 5,
    "condTipTextMapHash": 3905291739,
    "condTipDesTextMapHash": 55167329
  },
  {
    "id": 10500101,
    "rewardCond": [
      {
        "condType": "COOP_COND_CHAPTER_END_FINISH_COUNT",
        "args": [105001, 1]
      }
    ],
    "chapterId": 105001,
    "rewardId": 4005011,
    "sortId": 1,
    "condTipTextMapHash": 2165855283,
    "condTipDesTextMapHash": 4033283713
  },
  {
    "id": 10500102,
    "rewardCond": [
      {
        "condType": "COOP_COND_CHAPTER_END_FINISH_COUNT",
        "args": [105001, 2]
      }
    ],
    "chapterId": 105001,
    "rewardId": 4005012,
    "sortId": 2,
    "condTipTextMapHash": 2328025563,
    "condTipDesTextMapHash": 3458747225
  },
  {
    "id": 10500103,
    "rewardCond": [
      {
        "condType": "COOP_COND_CHAPTER_END_FINISH_COUNT",
        "args": [105001, 3]
      }
    ],
    "chapterId": 105001,
    "rewardId": 4005013,
    "sortId": 3,
    "condTipTextMapHash": 170248699,
    "condTipDesTextMapHash": 87428473
  },
  {
    "id": 10500104,
    "rewardCond": [
      {
        "condType": "COOP_COND_CHAPTER_END_FINISH_COUNT",
        "args": [105001, 4]
      }
    ],
    "chapterId": 105001,
    "rewardId": 4005014,
    "sortId": 4,
    "condTipTextMapHash": 2699063147,
    "condTipDesTextMapHash": 1846745433
  },
  {
    "id": 10500105,
    "rewardCond": [
      {
        "condType": "COOP_COND_CHAPTER_END_FINISH_COUNT",
        "args": [105001, 5]
      }
    ],
    "chapterId": 105001,
    "rewardId": 4005015,
    "sortId": 5,
    "condTipTextMapHash": 1696062603,
    "condTipDesTextMapHash": 3250347113
  },
  {
    "id": 10500106,
    "rewardCond": [
      {
        "condType": "COOP_COND_CHAPTER_END_FINISH_COUNT",
        "args": [105001, 6]
      }
    ],
    "chapterId": 105001,
    "rewardId": 4005016,
    "sortId": 6,
    "condTipTextMapHash": 2549760731,
    "condTipDesTextMapHash": 3527944041
  },
  {
    "id": 10530101,
    "rewardCond": [
      {
        "condType": "COOP_COND_CHAPTER_END_FINISH_COUNT",
        "args": [105301, 1]
      }
    ],
    "chapterId": 105301,
    "rewardId": 4005311,
    "sortId": 1,
    "condTipTextMapHash": 2656469379,
    "condTipDesTextMapHash": 2862532657
  },
  {
    "id": 10530102,
    "rewardCond": [
      {
        "condType": "COOP_COND_CHAPTER_END_FINISH_COUNT",
        "args": [105301, 2]
      }
    ],
    "chapterId": 105301,
    "rewardId": 4005312,
    "sortId": 2,
    "condTipTextMapHash": 2584727251,
    "condTipDesTextMapHash": 2734312785
  },
  {
    "id": 10530103,
    "rewardCond": [
      {
        "condType": "COOP_COND_CHAPTER_END_FINISH_COUNT",
        "args": [105301, 3]
      }
    ],
    "chapterId": 105301,
    "rewardId": 4005313,
    "sortId": 3,
    "condTipTextMapHash": 2212178539,
    "condTipDesTextMapHash": 3751136169
  },
  {
    "id": 10530104,
    "rewardCond": [
      {
        "condType": "COOP_COND_CHAPTER_END_FINISH_COUNT",
        "args": [105301, 4]
      }
    ],
    "chapterId": 105301,
    "rewardId": 4005314,
    "sortId": 4,
    "condTipTextMapHash": 421203371,
    "condTipDesTextMapHash": 283558689
  },
  {
    "id": 10530105,
    "rewardCond": [
      {
        "condType": "COOP_COND_CHAPTER_END_FINISH_COUNT",
        "args": [105301, 5]
      }
    ],
    "chapterId": 105301,
    "rewardId": 4005315,
    "sortId": 5,
    "condTipTextMapHash": 2458639323,
    "condTipDesTextMapHash": 2912526969
  },
  {
    "id": 10530106,
    "rewardCond": [
      {
        "condType": "COOP_COND_CHAPTER_END_FINISH_COUNT",
        "args": [105301, 6]
      }
    ],
    "chapterId": 105301,
    "rewardId": 4005316,
    "sortId": 6,
    "condTipTextMapHash": 905330259,
    "condTipDesTextMapHash": 2011075521
  },
  {
    "id": 10240101,
    "rewardCond": [
      {
        "condType": "COOP_COND_CHAPTER_END_FINISH_COUNT",
        "args": [102401, 1]
      }
    ],
    "chapterId": 102401,
    "rewardId": 4002411,
    "sortId": 1,
    "condTipTextMapHash": 1734938419,
    "condTipDesTextMapHash": 3622384649
  },
  {
    "id": 10240102,
    "rewardCond": [
      {
        "condType": "COOP_COND_CHAPTER_END_FINISH_COUNT",
        "args": [102401, 2]
      }
    ],
    "chapterId": 102401,
    "rewardId": 4002412,
    "sortId": 2,
    "condTipTextMapHash": 3760527067,
    "condTipDesTextMapHash": 2064093921
  },
  {
    "id": 10240103,
    "rewardCond": [
      {
        "condType": "COOP_COND_CHAPTER_END_FINISH_COUNT",
        "args": [102401, 3]
      }
    ],
    "chapterId": 102401,
    "rewardId": 4002413,
    "sortId": 3,
    "condTipTextMapHash": 302267499,
    "condTipDesTextMapHash": 677248001
  },
  {
    "id": 10240104,
    "rewardCond": [
      {
        "condType": "COOP_COND_CHAPTER_END_FINISH_COUNT",
        "args": [102401, 4]
      }
    ],
    "chapterId": 102401,
    "rewardId": 4002414,
    "sortId": 4,
    "condTipTextMapHash": 3781319459,
    "condTipDesTextMapHash": 3784165561
  },
  {
    "id": 10240105,
    "rewardCond": [
      {
        "condType": "COOP_COND_CHAPTER_END_FINISH_COUNT",
        "args": [102401, 5]
      }
    ],
    "chapterId": 102401,
    "rewardId": 4002415,
    "sortId": 5,
    "condTipTextMapHash": 3250898587,
    "condTipDesTextMapHash": 2255002409
  },
  {
    "id": 10550101,
    "rewardCond": [
      {
        "condType": "COOP_COND_CHAPTER_END_FINISH_COUNT",
        "args": [105501, 1]
      }
    ],
    "chapterId": 105501,
    "rewardId": 4005511,
    "sortId": 1,
    "condTipTextMapHash": 970062267,
    "condTipDesTextMapHash": 3461304657
  },
  {
    "id": 10550102,
    "rewardCond": [
      {
        "condType": "COOP_COND_CHAPTER_END_FINISH_COUNT",
        "args": [105501, 2]
      }
    ],
    "chapterId": 105501,
    "rewardId": 4005512,
    "sortId": 2,
    "condTipTextMapHash": 444351163,
    "condTipDesTextMapHash": 3433995537
  },
  {
    "id": 10550103,
    "rewardCond": [
      {
        "condType": "COOP_COND_CHAPTER_END_FINISH_COUNT",
        "args": [105501, 3]
      }
    ],
    "chapterId": 105501,
    "rewardId": 4005513,
    "sortId": 3,
    "condTipTextMapHash": 3988733099,
    "condTipDesTextMapHash": 580430065
  },
  {
    "id": 10550104,
    "rewardCond": [
      {
        "condType": "COOP_COND_CHAPTER_END_FINISH_COUNT",
        "args": [105501, 4]
      }
    ],
    "chapterId": 105501,
    "rewardId": 4005514,
    "sortId": 4,
    "condTipTextMapHash": 3793949979,
    "condTipDesTextMapHash": 3307252337
  },
  {
    "id": 10550105,
    "rewardCond": [
      {
        "condType": "COOP_COND_CHAPTER_END_FINISH_COUNT",
        "args": [105501, 5]
      }
    ],
    "chapterId": 105501,
    "rewardId": 4005515,
    "sortId": 5,
    "condTipTextMapHash": 775657755,
    "condTipDesTextMapHash": 2586876289
  },
  {
    "id": 10640101,
    "rewardCond": [
      {
        "condType": "COOP_COND_CHAPTER_END_FINISH_COUNT",
        "args": [106401, 1]
      }
    ],
    "chapterId": 106401,
    "rewardId": 4006411,
    "sortId": 1,
    "condTipTextMapHash": 2512717683,
    "condTipDesTextMapHash": 650299409
  },
  {
    "id": 10640102,
    "rewardCond": [
      {
        "condType": "COOP_COND_CHAPTER_END_FINISH_COUNT",
        "args": [106401, 2]
      }
    ],
    "chapterId": 106401,
    "rewardId": 4006412,
    "sortId": 2,
    "condTipTextMapHash": 2760636131,
    "condTipDesTextMapHash": 3791333257
  },
  {
    "id": 10640103,
    "rewardCond": [
      {
        "condType": "COOP_COND_CHAPTER_END_FINISH_COUNT",
        "args": [106401, 3]
      }
    ],
    "chapterId": 106401,
    "rewardId": 4006413,
    "sortId": 3,
    "condTipTextMapHash": 1769931315,
    "condTipDesTextMapHash": 200007985
  },
  {
    "id": 10640104,
    "rewardCond": [
      {
        "condType": "COOP_COND_CHAPTER_END_FINISH_COUNT",
        "args": [106401, 4]
      }
    ],
    "chapterId": 106401,
    "rewardId": 4006414,
    "sortId": 4,
    "condTipTextMapHash": 241446899,
    "condTipDesTextMapHash": 1742909873
  },
  {
    "id": 10640105,
    "rewardCond": [
      {
        "condType": "COOP_COND_CHAPTER_END_FINISH_COUNT",
        "args": [106401, 5]
      }
    ],
    "chapterId": 106401,
    "rewardId": 4006415,
    "sortId": 5,
    "condTipTextMapHash": 3191386507,
    "condTipDesTextMapHash": 1470347089
  },
  {
    "id": 10270101,
    "rewardCond": [
      {
        "condType": "COOP_COND_CHAPTER_END_FINISH_COUNT",
        "args": [102701, 1]
      }
    ],
    "chapterId": 102701,
    "rewardId": 4002711,
    "sortId": 1,
    "condTipTextMapHash": 1136154363,
    "condTipDesTextMapHash": 934018657
  },
  {
    "id": 10270102,
    "rewardCond": [
      {
        "condType": "COOP_COND_CHAPTER_END_FINISH_COUNT",
        "args": [102701, 2]
      }
    ],
    "chapterId": 102701,
    "rewardId": 4002712,
    "sortId": 2,
    "condTipTextMapHash": 3187348995,
    "condTipDesTextMapHash": 1191250625
  },
  {
    "id": 10270103,
    "rewardCond": [
      {
        "condType": "COOP_COND_CHAPTER_END_FINISH_COUNT",
        "args": [102701, 3]
      }
    ],
    "chapterId": 102701,
    "rewardId": 4002713,
    "sortId": 3,
    "condTipTextMapHash": 120854747,
    "condTipDesTextMapHash": 2231058593
  },
  {
    "id": 10270104,
    "rewardCond": [
      {
        "condType": "COOP_COND_CHAPTER_END_FINISH_COUNT",
        "args": [102701, 4]
      }
    ],
    "chapterId": 102701,
    "rewardId": 4002714,
    "sortId": 4,
    "condTipTextMapHash": 3304068931,
    "condTipDesTextMapHash": 2541002081
  },
  {
    "id": 10270105,
    "rewardCond": [
      {
        "condType": "COOP_COND_CHAPTER_END_FINISH_COUNT",
        "args": [102701, 5]
      }
    ],
    "chapterId": 102701,
    "rewardId": 4002715,
    "sortId": 5,
    "condTipTextMapHash": 1522096067,
    "condTipDesTextMapHash": 1319952009
  },
  {
    "id": 10650101,
    "rewardCond": [
      {
        "condType": "COOP_COND_CHAPTER_END_FINISH_COUNT",
        "args": [106501, 1]
      }
    ],
    "chapterId": 106501,
    "rewardId": 4006511,
    "sortId": 1,
    "condTipTextMapHash": 3250803259,
    "condTipDesTextMapHash": 1309187361
  },
  {
    "id": 10650102,
    "rewardCond": [
      {
        "condType": "COOP_COND_CHAPTER_END_FINISH_COUNT",
        "args": [106501, 2]
      }
    ],
    "chapterId": 106501,
    "rewardId": 4006512,
    "sortId": 2,
    "condTipTextMapHash": 2008720779,
    "condTipDesTextMapHash": 2093835633
  },
  {
    "id": 10650103,
    "rewardCond": [
      {
        "condType": "COOP_COND_CHAPTER_END_FINISH_COUNT",
        "args": [106501, 3]
      }
    ],
    "chapterId": 106501,
    "rewardId": 4006513,
    "sortId": 3,
    "condTipTextMapHash": 3854058091,
    "condTipDesTextMapHash": 3583352913
  },
  {
    "id": 10650104,
    "rewardCond": [
      {
        "condType": "COOP_COND_CHAPTER_END_FINISH_COUNT",
        "args": [106501, 4]
      }
    ],
    "chapterId": 106501,
    "rewardId": 4006514,
    "sortId": 4,
    "condTipTextMapHash": 1511468451,
    "condTipDesTextMapHash": 3749102961
  },
  {
    "id": 10650105,
    "rewardCond": [
      {
        "condType": "COOP_COND_CHAPTER_END_FINISH_COUNT",
        "args": [106501, 5]
      }
    ],
    "chapterId": 106501,
    "rewardId": 4006515,
    "sortId": 5,
    "condTipTextMapHash": 3690517827,
    "condTipDesTextMapHash": 3729883457
  },
  {
    "id": 10590101,
    "rewardCond": [
      {
        "condType": "COOP_COND_CHAPTER_END_FINISH_COUNT",
        "args": [105901, 1]
      }
    ],
    "chapterId": 105901,
    "rewardId": 4005911,
    "sortId": 1,
    "condTipTextMapHash": 1542636675,
    "condTipDesTextMapHash": 3141724857
  },
  {
    "id": 10590102,
    "rewardCond": [
      {
        "condType": "COOP_COND_CHAPTER_END_FINISH_COUNT",
        "args": [105901, 2]
      }
    ],
    "chapterId": 105901,
    "rewardId": 4005912,
    "sortId": 2,
    "condTipTextMapHash": 1101974171,
    "condTipDesTextMapHash": 2191173937
  },
  {
    "id": 10590103,
    "rewardCond": [
      {
        "condType": "COOP_COND_CHAPTER_END_FINISH_COUNT",
        "args": [105901, 3]
      }
    ],
    "chapterId": 105901,
    "rewardId": 4005913,
    "sortId": 3,
    "condTipTextMapHash": 2333931547,
    "condTipDesTextMapHash": 4128703393
  },
  {
    "id": 10590104,
    "rewardCond": [
      {
        "condType": "COOP_COND_CHAPTER_END_FINISH_COUNT",
        "args": [105901, 4]
      }
    ],
    "chapterId": 105901,
    "rewardId": 4005914,
    "sortId": 4,
    "condTipTextMapHash": 3430551827,
    "condTipDesTextMapHash": 1848975025
  },
  {
    "id": 10590105,
    "rewardCond": [
      {
        "condType": "COOP_COND_CHAPTER_END_FINISH_COUNT",
        "args": [105901, 5]
      }
    ],
    "chapterId": 105901,
    "rewardId": 4005915,
    "sortId": 5,
    "condTipTextMapHash": 2283028923,
    "condTipDesTextMapHash": 2708443105
  },
  {
    "id": 10760101,
    "rewardCond": [
      {
        "condType": "COOP_COND_CHAPTER_END_FINISH_COUNT",
        "args": [107601, 1]
      }
    ],
    "chapterId": 107601,
    "rewardId": 4007611,
    "sortId": 1,
    "condTipTextMapHash": 1391063659,
    "condTipDesTextMapHash": 32314097
  },
  {
    "id": 10760102,
    "rewardCond": [
      {
        "condType": "COOP_COND_CHAPTER_END_FINISH_COUNT",
        "args": [107601, 2]
      }
    ],
    "chapterId": 107601,
    "rewardId": 4007612,
    "sortId": 2,
    "condTipTextMapHash": 943901355,
    "condTipDesTextMapHash": 2626960409
  },
  {
    "id": 10760103,
    "rewardCond": [
      {
        "condType": "COOP_COND_CHAPTER_END_FINISH_COUNT",
        "args": [107601, 3]
      }
    ],
    "chapterId": 107601,
    "rewardId": 4007613,
    "sortId": 3,
    "condTipTextMapHash": 2387414163,
    "condTipDesTextMapHash": 863674985
  },
  {
    "id": 10760104,
    "rewardCond": [
      {
        "condType": "COOP_COND_CHAPTER_END_FINISH_COUNT",
        "args": [107601, 4]
      }
    ],
    "chapterId": 107601,
    "rewardId": 4007614,
    "sortId": 4,
    "condTipTextMapHash": 967790507,
    "condTipDesTextMapHash": 828729553
  },
  {
    "id": 10760105,
    "rewardCond": [
      {
        "condType": "COOP_COND_CHAPTER_END_FINISH_COUNT",
        "args": [107601, 5]
      }
    ],
    "chapterId": 107601,
    "rewardId": 4007615,
    "sortId": 5,
    "condTipTextMapHash": 2234786795,
    "condTipDesTextMapHash": 3418411769
  },
  {
    "id": 10740101,
    "rewardCond": [
      {
        "condType": "COOP_COND_CHAPTER_END_FINISH_COUNT",
        "args": [107401, 1]
      }
    ],
    "chapterId": 107401,
    "rewardId": 4007411,
    "sortId": 1,
    "condTipTextMapHash": 2460629147,
    "condTipDesTextMapHash": 3081343465
  },
  {
    "id": 10740102,
    "rewardCond": [
      {
        "condType": "COOP_COND_CHAPTER_END_FINISH_COUNT",
        "args": [107401, 2]
      }
    ],
    "chapterId": 107401,
    "rewardId": 4007412,
    "sortId": 2,
    "condTipTextMapHash": 2421915475,
    "condTipDesTextMapHash": 1585157697
  },
  {
    "id": 10740103,
    "rewardCond": [
      {
        "condType": "COOP_COND_CHAPTER_END_FINISH_COUNT",
        "args": [107401, 3]
      }
    ],
    "chapterId": 107401,
    "rewardId": 4007413,
    "sortId": 3,
    "condTipTextMapHash": 4121624379,
    "condTipDesTextMapHash": 25858921
  },
  {
    "id": 10740104,
    "rewardCond": [
      {
        "condType": "COOP_COND_CHAPTER_END_FINISH_COUNT",
        "args": [107401, 4]
      }
    ],
    "chapterId": 107401,
    "rewardId": 4007414,
    "sortId": 4,
    "condTipTextMapHash": 2774252451,
    "condTipDesTextMapHash": 1042333833
  },
  {
    "id": 10740105,
    "rewardCond": [
      {
        "condType": "COOP_COND_CHAPTER_END_FINISH_COUNT",
        "args": [107401, 5]
      }
    ],
    "chapterId": 107401,
    "rewardId": 4007415,
    "sortId": 5,
    "condTipTextMapHash": 2563195779,
    "condTipDesTextMapHash": 804792953
  },
  {
    "id": 10740106,
    "rewardCond": [
      {
        "condType": "COOP_COND_CHAPTER_END_FINISH_COUNT",
        "args": [107401, 6]
      }
    ],
    "chapterId": 107401,
    "rewardId": 4007416,
    "sortId": 6,
    "condTipTextMapHash": 726289939,
    "condTipDesTextMapHash": 850676977
  }
]
