[
  {
    "HEDEOLOMJFI": 1000,
    "AALPEGOIBOB": [373701, 373702, 373703],
    "CCGDNLBPKKM": true,
    "AFFMBCLOGKL": [373701, 373702, 373703],
    "IJNKNLIADFA": [],
    "BDIDLJKJPHO": 373702
  },
  {
    "HEDEOLOMJFI": 1,
    "AALPEGOIBOB": [
      373801, 373802, 373803, 373804, 373805, 373806, 373807, 373808, 373809,
      373810, 373811, 373812, 373813, 373814, 373815, 373816, 373817, 373818,
      373819, 373820, 373821
    ],
    "AFFMBCLOGKL": [],
    "IJNKNLIADFA": []
  },
  {
    "HEDEOLOMJFI": 2,
    "AALPEGOIBOB": [
      373801, 373802, 373803, 373804, 373805, 373806, 373807, 373808, 373809,
      373810, 373811, 373812, 373813, 373814, 373815, 373816, 373817, 373818,
      373819, 373820, 373821
    ],
    "AFFMBCLOGKL": [],
    "IJNKNLIADFA": []
  },
  {
    "HEDEOLOMJFI": 3,
    "AALPEGOIBOB": [
      373801, 373802, 373803, 373804, 373805, 373806, 373807, 373808, 373809,
      373810, 373811, 373812, 373813, 373814, 373815, 373816, 373817, 373818,
      373819, 373820, 373821
    ],
    "AFFMBCLOGKL": [],
    "IJNKNLIADFA": []
  },
  {
    "HEDEOLOMJFI": 11,
    "AALPEGOIBOB": [374005, 374006, 374007, 374008],
    "AFFMBCLOGKL": [],
    "IJNKNLIADFA": []
  },
  {
    "HEDEOLOMJFI": 12,
    "AALPEGOIBOB": [374009, 374010, 374011, 374012],
    "AFFMBCLOGKL": [],
    "IJNKNLIADFA": []
  },
  {
    "HEDEOLOMJFI": 13,
    "AALPEGOIBOB": [374013, 374014, 374015, 374016],
    "AFFMBCLOGKL": [],
    "IJNKNLIADFA": []
  },
  {
    "HEDEOLOMJFI": 14,
    "AALPEGOIBOB": [374017, 374018, 374019, 374020],
    "AFFMBCLOGKL": [],
    "IJNKNLIADFA": []
  },
  {
    "HEDEOLOMJFI": 15,
    "AALPEGOIBOB": [374021, 374022, 374023, 374024],
    "AFFMBCLOGKL": [],
    "IJNKNLIADFA": []
  },
  {
    "HEDEOLOMJFI": 16,
    "AALPEGOIBOB": [374025, 374026, 374027, 374028],
    "AFFMBCLOGKL": [],
    "IJNKNLIADFA": []
  },
  {
    "HEDEOLOMJFI": 21,
    "AALPEGOIBOB": [10001, 10002, 10003, 10004],
    "AFFMBCLOGKL": [],
    "IJNKNLIADFA": [10001, 10002, 10003, 10004]
  },
  {
    "HEDEOLOMJFI": 22,
    "AALPEGOIBOB": [10005, 10006, 10007, 10008],
    "AFFMBCLOGKL": [],
    "IJNKNLIADFA": [10005, 10006, 10007, 10008]
  },
  {
    "HEDEOLOMJFI": 23,
    "AALPEGOIBOB": [
      10009, 10010, 10011, 10012, 10013, 10014, 10015, 10016, 10017, 10018,
      10019, 10020, 10021, 10022, 10023, 10024, 10025, 10026, 10027, 10028,
      10029, 10030, 10031, 10032, 10033, 10034, 10035, 10036, 10037, 10038,
      10039, 10040, 10041, 10042, 10043, 10044
    ],
    "AFFMBCLOGKL": [],
    "IJNKNLIADFA": [
      10009, 10010, 10011, 10012, 10013, 10014, 10015, 10016, 10017, 10018,
      10019, 10020, 10021, 10022, 10023, 10024, 10025, 10026, 10027, 10028,
      10029, 10030, 10031, 10032, 10033, 10034, 10035, 10036, 10037, 10038,
      10039, 10040, 10041, 10042, 10043, 10044
    ]
  },
  {
    "HEDEOLOMJFI": 24,
    "AALPEGOIBOB": [
      10009, 10010, 10011, 10012, 10013, 10014, 10015, 10016, 10017, 10018,
      10019, 10020, 10021, 10022, 10023, 10024, 10025, 10026, 10027, 10028,
      10029, 10030, 10031, 10032, 10033, 10034, 10035, 10036, 10037, 10038,
      10039, 10040, 10041, 10042, 10043, 10044
    ],
    "AFFMBCLOGKL": [],
    "IJNKNLIADFA": [
      10009, 10010, 10011, 10012, 10013, 10014, 10015, 10016, 10017, 10018,
      10019, 10020, 10021, 10022, 10023, 10024, 10025, 10026, 10027, 10028,
      10029, 10030, 10031, 10032, 10033, 10034, 10035, 10036, 10037, 10038,
      10039, 10040, 10041, 10042, 10043, 10044
    ]
  },
  {
    "HEDEOLOMJFI": 25,
    "AALPEGOIBOB": [
      10009, 10010, 10011, 10012, 10013, 10014, 10015, 10016, 10017, 10018,
      10019, 10020, 10021, 10022, 10023, 10024, 10025, 10026, 10027, 10028,
      10029, 10030, 10031, 10032, 10033, 10034, 10035, 10036, 10037, 10038,
      10039, 10040, 10041, 10042, 10043, 10044
    ],
    "AFFMBCLOGKL": [],
    "IJNKNLIADFA": [
      10009, 10010, 10011, 10012, 10013, 10014, 10015, 10016, 10017, 10018,
      10019, 10020, 10021, 10022, 10023, 10024, 10025, 10026, 10027, 10028,
      10029, 10030, 10031, 10032, 10033, 10034, 10035, 10036, 10037, 10038,
      10039, 10040, 10041, 10042, 10043, 10044
    ]
  },
  {
    "HEDEOLOMJFI": 26,
    "AALPEGOIBOB": [
      10009, 10010, 10011, 10012, 10013, 10014, 10015, 10016, 10017, 10018,
      10019, 10020, 10021, 10022, 10023, 10024, 10025, 10026, 10027, 10028,
      10029, 10030, 10031, 10032, 10033, 10034, 10035, 10036, 10037, 10038,
      10039, 10040, 10041, 10042, 10043, 10044
    ],
    "AFFMBCLOGKL": [],
    "IJNKNLIADFA": [
      10009, 10010, 10011, 10012, 10013, 10014, 10015, 10016, 10017, 10018,
      10019, 10020, 10021, 10022, 10023, 10024, 10025, 10026, 10027, 10028,
      10029, 10030, 10031, 10032, 10033, 10034, 10035, 10036, 10037, 10038,
      10039, 10040, 10041, 10042, 10043, 10044
    ]
  },
  {
    "HEDEOLOMJFI": 27,
    "AALPEGOIBOB": [
      10009, 10010, 10011, 10012, 10013, 10014, 10015, 10016, 10017, 10018,
      10019, 10020, 10021, 10022, 10023, 10024, 10025, 10026, 10027, 10028,
      10029, 10030, 10031, 10032, 10033, 10034, 10035, 10036, 10037, 10038,
      10039, 10040, 10041, 10042, 10043, 10044
    ],
    "AFFMBCLOGKL": [],
    "IJNKNLIADFA": [
      10009, 10010, 10011, 10012, 10013, 10014, 10015, 10016, 10017, 10018,
      10019, 10020, 10021, 10022, 10023, 10024, 10025, 10026, 10027, 10028,
      10029, 10030, 10031, 10032, 10033, 10034, 10035, 10036, 10037, 10038,
      10039, 10040, 10041, 10042, 10043, 10044
    ]
  },
  {
    "HEDEOLOMJFI": 28,
    "AALPEGOIBOB": [
      10009, 10010, 10011, 10012, 10013, 10014, 10015, 10016, 10017, 10018,
      10019, 10020, 10021, 10022, 10023, 10024, 10025, 10026, 10027, 10028,
      10029, 10030, 10031, 10032, 10033, 10034, 10035, 10036, 10037, 10038,
      10039, 10040, 10041, 10042, 10043, 10044
    ],
    "AFFMBCLOGKL": [],
    "IJNKNLIADFA": [
      10009, 10010, 10011, 10012, 10013, 10014, 10015, 10016, 10017, 10018,
      10019, 10020, 10021, 10022, 10023, 10024, 10025, 10026, 10027, 10028,
      10029, 10030, 10031, 10032, 10033, 10034, 10035, 10036, 10037, 10038,
      10039, 10040, 10041, 10042, 10043, 10044
    ]
  },
  {
    "HEDEOLOMJFI": 1001,
    "AALPEGOIBOB": [
      10051, 10052, 10053, 10054, 10055, 10056, 10057, 10058, 10059, 10060,
      10061, 10062
    ],
    "AFFMBCLOGKL": [],
    "IJNKNLIADFA": [
      10051, 10052, 10053, 10054, 10055, 10056, 10057, 10058, 10059, 10060,
      10061, 10062
    ]
  },
  {
    "HEDEOLOMJFI": 31,
    "AALPEGOIBOB": [
      10063, 10064, 10065, 10066, 10067, 10068, 10069, 10070, 10071, 10072,
      10073, 10074
    ],
    "AFFMBCLOGKL": [],
    "IJNKNLIADFA": [
      10063, 10064, 10065, 10066, 10067, 10068, 10069, 10070, 10071, 10072,
      10073, 10074
    ]
  },
  {
    "HEDEOLOMJFI": 32,
    "AALPEGOIBOB": [10079, 10080, 10081, 10082, 10083],
    "AFFMBCLOGKL": [],
    "IJNKNLIADFA": [10079, 10080, 10081, 10082, 10083]
  },
  {
    "HEDEOLOMJFI": 33,
    "AALPEGOIBOB": [10084, 10085, 10086],
    "AFFMBCLOGKL": [],
    "IJNKNLIADFA": [10084, 10085, 10086]
  },
  {
    "HEDEOLOMJFI": 34,
    "AALPEGOIBOB": [10075, 10076, 10077, 10078],
    "AFFMBCLOGKL": [],
    "IJNKNLIADFA": [10075, 10076, 10077, 10078]
  },
  {
    "HEDEOLOMJFI": 41,
    "AALPEGOIBOB": [10092, 10093, 10094],
    "CCGDNLBPKKM": true,
    "AFFMBCLOGKL": [10092],
    "IJNKNLIADFA": [10092, 10093, 10094],
    "BDIDLJKJPHO": 10092
  },
  {
    "HEDEOLOMJFI": 42,
    "AALPEGOIBOB": [10098, 10099, 10100],
    "AFFMBCLOGKL": [],
    "IJNKNLIADFA": [10098, 10099, 10100]
  },
  {
    "HEDEOLOMJFI": 43,
    "AALPEGOIBOB": [10101, 10102, 10103],
    "AFFMBCLOGKL": [],
    "IJNKNLIADFA": [10101, 10102, 10103]
  },
  {
    "HEDEOLOMJFI": 44,
    "AALPEGOIBOB": [10104, 10105, 10106],
    "AFFMBCLOGKL": [],
    "IJNKNLIADFA": [10104, 10105, 10106]
  },
  {
    "HEDEOLOMJFI": 45,
    "AALPEGOIBOB": [10095, 10096, 10097],
    "AFFMBCLOGKL": [],
    "IJNKNLIADFA": [10095, 10096, 10097]
  },
  {
    "HEDEOLOMJFI": 100101,
    "AALPEGOIBOB": [400102, 400103, 400104],
    "AFFMBCLOGKL": [400104],
    "IJNKNLIADFA": [],
    "BDIDLJKJPHO": 400104
  },
  {
    "HEDEOLOMJFI": 100102,
    "AALPEGOIBOB": [400106, 400107, 400108],
    "AFFMBCLOGKL": [400108],
    "IJNKNLIADFA": [],
    "BDIDLJKJPHO": 400108
  }
]
