[
  {
    "OFNMLANJPEN": 1,
    "AGOCMHLPMKM": 3007,
    "HBDFKJOAOEC": 4
  },
  {
    "OFNMLANJPEN": 2,
    "AGOCMHLPMKM": 3007,
    "HBDFKJOAOEC": 4
  },
  {
    "OFNMLANJPEN": 2,
    "AGOCMHLPMKM": 2004,
    "HBDFKJOAOEC": 2
  },
  {
    "OFNMLANJPEN": 3,
    "AGOCMHLPMKM": 5001,
    "HBDFKJOAOEC": 3
  },
  {
    "OFNMLANJPEN": 3,
    "AGOCMHLPMKM": 5002,
    "HBDFKJOAOEC": 1
  },
  {
    "OFNMLANJPEN": 3,
    "AGOCMHLPMKM": 5003,
    "HBDFKJOAOEC": 1
  },
  {
    "OFNMLANJPEN": 3,
    "AGOCMHLPMKM": 2002,
    "HBDFKJOAOEC": 5
  },
  {
    "OFNMLANJPEN": 4,
    "AGOCMHLPMKM": 3007,
    "HBDFKJOAOEC": 2
  },
  {
    "OFNMLANJPEN": 4,
    "AGOCMHLPMKM": 5002,
    "HBDFKJOAOEC": 2
  },
  {
    "OFNMLANJPEN": 4,
    "AGOCMHLPMKM": 2001,
    "HBDFKJOAOEC": 2
  },
  {
    "OFNMLANJPEN": 5,
    "AGOCMHLPMKM": 3007,
    "HBDFKJOAOEC": 2
  },
  {
    "OFNMLANJPEN": 5,
    "AGOCMHLPMKM": 5002,
    "HBDFKJOAOEC": 2
  },
  {
    "OFNMLANJPEN": 5,
    "AGOCMHLPMKM": 2001,
    "HBDFKJOAOEC": 5
  },
  {
    "OFNMLANJPEN": 5,
    "AGOCMHLPMKM": 3008,
    "HBDFKJOAOEC": 1
  },
  {
    "OFNMLANJPEN": 6,
    "AGOCMHLPMKM": 3002,
    "HBDFKJOAOEC": 3
  },
  {
    "OFNMLANJPEN": 6,
    "AGOCMHLPMKM": 5003,
    "HBDFKJOAOEC": 2
  },
  {
    "OFNMLANJPEN": 7,
    "AGOCMHLPMKM": 3001,
    "HBDFKJOAOEC": 1
  },
  {
    "OFNMLANJPEN": 7,
    "AGOCMHLPMKM": 3003,
    "HBDFKJOAOEC": 1
  },
  {
    "OFNMLANJPEN": 7,
    "AGOCMHLPMKM": 5001,
    "HBDFKJOAOEC": 1
  },
  {
    "OFNMLANJPEN": 8,
    "AGOCMHLPMKM": 3002,
    "HBDFKJOAOEC": 1
  },
  {
    "OFNMLANJPEN": 8,
    "AGOCMHLPMKM": 5002,
    "HBDFKJOAOEC": 3
  },
  {
    "OFNMLANJPEN": 8,
    "AGOCMHLPMKM": 3005,
    "HBDFKJOAOEC": 1
  },
  {
    "OFNMLANJPEN": 9,
    "AGOCMHLPMKM": 5003,
    "HBDFKJOAOEC": 1
  },
  {
    "OFNMLANJPEN": 9,
    "AGOCMHLPMKM": 3002,
    "HBDFKJOAOEC": 2
  },
  {
    "OFNMLANJPEN": 10,
    "AGOCMHLPMKM": 3002,
    "HBDFKJOAOEC": 1
  },
  {
    "OFNMLANJPEN": 10,
    "AGOCMHLPMKM": 3006,
    "HBDFKJOAOEC": 3
  },
  {
    "OFNMLANJPEN": 11,
    "AGOCMHLPMKM": 3007,
    "HBDFKJOAOEC": 3
  },
  {
    "OFNMLANJPEN": 11,
    "AGOCMHLPMKM": 4008,
    "HBDFKJOAOEC": 1
  },
  {
    "OFNMLANJPEN": 11,
    "AGOCMHLPMKM": 4004,
    "HBDFKJOAOEC": 5
  },
  {
    "OFNMLANJPEN": 12,
    "AGOCMHLPMKM": 5003,
    "HBDFKJOAOEC": 2
  },
  {
    "OFNMLANJPEN": 12,
    "AGOCMHLPMKM": 3002,
    "HBDFKJOAOEC": 1
  },
  {
    "OFNMLANJPEN": 12,
    "AGOCMHLPMKM": 3003,
    "HBDFKJOAOEC": 3
  },
  {
    "OFNMLANJPEN": 12,
    "AGOCMHLPMKM": 3004,
    "HBDFKJOAOEC": 3
  },
  {
    "OFNMLANJPEN": 12,
    "AGOCMHLPMKM": 2002,
    "HBDFKJOAOEC": 2
  },
  {
    "OFNMLANJPEN": 13,
    "AGOCMHLPMKM": 3001,
    "HBDFKJOAOEC": 1
  },
  {
    "OFNMLANJPEN": 13,
    "AGOCMHLPMKM": 3002,
    "HBDFKJOAOEC": 3
  },
  {
    "OFNMLANJPEN": 13,
    "AGOCMHLPMKM": 3006,
    "HBDFKJOAOEC": 1
  },
  {
    "OFNMLANJPEN": 13,
    "AGOCMHLPMKM": 3004,
    "HBDFKJOAOEC": 2
  },
  {
    "OFNMLANJPEN": 101,
    "AGOCMHLPMKM": 6002,
    "HBDFKJOAOEC": 1
  },
  {
    "OFNMLANJPEN": 101,
    "AGOCMHLPMKM": 6003,
    "HBDFKJOAOEC": 2
  },
  {
    "OFNMLANJPEN": 101,
    "AGOCMHLPMKM": 6004,
    "HBDFKJOAOEC": 2
  },
  {
    "OFNMLANJPEN": 101,
    "AGOCMHLPMKM": 6007,
    "HBDFKJOAOEC": 4
  },
  {
    "OFNMLANJPEN": 101,
    "AGOCMHLPMKM": 6008,
    "HBDFKJOAOEC": 2
  },
  {
    "OFNMLANJPEN": 101,
    "AGOCMHLPMKM": 6009,
    "HBDFKJOAOEC": 2
  },
  {
    "OFNMLANJPEN": 101,
    "AGOCMHLPMKM": 6010,
    "HBDFKJOAOEC": 2
  },
  {
    "OFNMLANJPEN": 101,
    "AGOCMHLPMKM": 6013,
    "HBDFKJOAOEC": 2
  },
  {
    "OFNMLANJPEN": 101,
    "AGOCMHLPMKM": 6015,
    "HBDFKJOAOEC": 1
  },
  {
    "OFNMLANJPEN": 101,
    "AGOCMHLPMKM": 6017,
    "HBDFKJOAOEC": 2
  },
  {
    "OFNMLANJPEN": 102,
    "AGOCMHLPMKM": 6001,
    "HBDFKJOAOEC": 1
  },
  {
    "OFNMLANJPEN": 102,
    "AGOCMHLPMKM": 6002,
    "HBDFKJOAOEC": 1
  },
  {
    "OFNMLANJPEN": 102,
    "AGOCMHLPMKM": 6003,
    "HBDFKJOAOEC": 2
  },
  {
    "OFNMLANJPEN": 102,
    "AGOCMHLPMKM": 6004,
    "HBDFKJOAOEC": 2
  },
  {
    "OFNMLANJPEN": 102,
    "AGOCMHLPMKM": 6007,
    "HBDFKJOAOEC": 4
  },
  {
    "OFNMLANJPEN": 102,
    "AGOCMHLPMKM": 6008,
    "HBDFKJOAOEC": 2
  },
  {
    "OFNMLANJPEN": 102,
    "AGOCMHLPMKM": 6009,
    "HBDFKJOAOEC": 2
  },
  {
    "OFNMLANJPEN": 102,
    "AGOCMHLPMKM": 6010,
    "HBDFKJOAOEC": 2
  },
  {
    "OFNMLANJPEN": 102,
    "AGOCMHLPMKM": 6011,
    "HBDFKJOAOEC": 2
  },
  {
    "OFNMLANJPEN": 102,
    "AGOCMHLPMKM": 6012,
    "HBDFKJOAOEC": 2
  },
  {
    "OFNMLANJPEN": 102,
    "AGOCMHLPMKM": 6013,
    "HBDFKJOAOEC": 2
  },
  {
    "OFNMLANJPEN": 102,
    "AGOCMHLPMKM": 6014,
    "HBDFKJOAOEC": 2
  },
  {
    "OFNMLANJPEN": 102,
    "AGOCMHLPMKM": 6018,
    "HBDFKJOAOEC": 2
  },
  {
    "OFNMLANJPEN": 102,
    "AGOCMHLPMKM": 6020,
    "HBDFKJOAOEC": 4
  },
  {
    "OFNMLANJPEN": 103,
    "AGOCMHLPMKM": 6001,
    "HBDFKJOAOEC": 1
  },
  {
    "OFNMLANJPEN": 103,
    "AGOCMHLPMKM": 6002,
    "HBDFKJOAOEC": 2
  },
  {
    "OFNMLANJPEN": 103,
    "AGOCMHLPMKM": 6003,
    "HBDFKJOAOEC": 2
  },
  {
    "OFNMLANJPEN": 103,
    "AGOCMHLPMKM": 6004,
    "HBDFKJOAOEC": 2
  },
  {
    "OFNMLANJPEN": 103,
    "AGOCMHLPMKM": 6007,
    "HBDFKJOAOEC": 4
  },
  {
    "OFNMLANJPEN": 103,
    "AGOCMHLPMKM": 6008,
    "HBDFKJOAOEC": 2
  },
  {
    "OFNMLANJPEN": 103,
    "AGOCMHLPMKM": 6009,
    "HBDFKJOAOEC": 2
  },
  {
    "OFNMLANJPEN": 103,
    "AGOCMHLPMKM": 6010,
    "HBDFKJOAOEC": 1
  },
  {
    "OFNMLANJPEN": 103,
    "AGOCMHLPMKM": 6011,
    "HBDFKJOAOEC": 1
  },
  {
    "OFNMLANJPEN": 103,
    "AGOCMHLPMKM": 6012,
    "HBDFKJOAOEC": 2
  },
  {
    "OFNMLANJPEN": 103,
    "AGOCMHLPMKM": 6013,
    "HBDFKJOAOEC": 2
  },
  {
    "OFNMLANJPEN": 103,
    "AGOCMHLPMKM": 6014,
    "HBDFKJOAOEC": 2
  },
  {
    "OFNMLANJPEN": 103,
    "AGOCMHLPMKM": 6016,
    "HBDFKJOAOEC": 2
  },
  {
    "OFNMLANJPEN": 103,
    "AGOCMHLPMKM": 6017,
    "HBDFKJOAOEC": 1
  },
  {
    "OFNMLANJPEN": 103,
    "AGOCMHLPMKM": 6019,
    "HBDFKJOAOEC": 1
  },
  {
    "OFNMLANJPEN": 103,
    "AGOCMHLPMKM": 6021,
    "HBDFKJOAOEC": 2
  }
]
