[
  {
    "id": 1,
    "sceneId": 3,
    "dungeonEntryId": 48,
    "type": "DUNGEN_ENTRY_TYPE_RELIQUARY",
    "isShowInAdvHandbook": true,
    "descTextMapHash": 1612886129,
    "cooldownTipsDungeonId": [],
    "condComb": "LOGIC_OR",
    "satisfiedCond": [
      {
        "type": "DUNGEON_ENTRY_CONDITION_LEVEL",
        "param1": 22
      },
      {
        "type": "DUNGEON_ENTRY_CONDITION_QUEST",
        "param1": 39604
      }
    ],
    "picPath": "UI_DungeonPic_Cubic_Normal",
    "systemOpenUiId": 4,
    "rewardDataId": 220404,
    "descriptionCycleRewardList": [[], [], [], []]
  },
  {
    "id": 2,
    "sceneId": 3,
    "dungeonEntryId": 50,
    "type": "DUNGEN_ENTRY_TYPE_WEAPON_PROMOTE",
    "isShowInAdvHandbook": true,
    "descTextMapHash": 3914992809,
    "cooldownTipsDungeonId": [],
    "isDailyRefresh": true,
    "condComb": "LOGIC_OR",
    "satisfiedCond": [
      {
        "type": "DUNGEON_ENTRY_CONDITION_LEVEL",
        "param1": 16
      },
      {
        "type": "DUNGEON_ENTRY_CONDITION_QUEST",
        "param1": 38406
      }
    ],
    "picPath": "UI_DungeonPic_Water",
    "systemOpenUiId": 8,
    "rewardDataId": 220402,
    "descriptionCycleRewardList": [
      [114001, 114002, 114003, 114004],
      [114005, 114006, 114007, 114008],
      [114009, 114010, 114011, 114012],
      [
        114001, 114002, 114003, 114004, 114005, 114006, 114007, 114008, 114009,
        114010, 114011, 114012
      ]
    ]
  },
  {
    "id": 3,
    "sceneId": 3,
    "dungeonEntryId": 135,
    "type": "DUNGEN_ENTRY_TYPE_WEAPON_PROMOTE",
    "isShowInAdvHandbook": true,
    "descTextMapHash": 1293176289,
    "cooldownTipsDungeonId": [],
    "isDailyRefresh": true,
    "condComb": "LOGIC_OR",
    "satisfiedCond": [
      {
        "type": "DUNGEON_ENTRY_CONDITION_LEVEL",
        "param1": 16
      },
      {
        "type": "DUNGEON_ENTRY_CONDITION_QUEST",
        "param1": 38406
      }
    ],
    "picPath": "UI_DungeonPic_Thunder",
    "rewardDataId": 220407,
    "descriptionCycleRewardList": [
      [114013, 114014, 114015, 114016],
      [114017, 114018, 114019, 114020],
      [114021, 114022, 114023, 114024],
      [
        114013, 114014, 114015, 114016, 114017, 114018, 114019, 114020, 114021,
        114022, 114023, 114024
      ]
    ]
  },
  {
    "id": 4,
    "sceneId": 3,
    "dungeonEntryId": 117,
    "type": "DUNGEON_ENTRY_TYPE_NORMAL",
    "descTextMapHash": 77310385,
    "cooldownTipsDungeonId": [],
    "satisfiedCond": [{}, {}],
    "picPath": "UI_DungeonPic_HuZhongTian",
    "rewardDataId": 220406,
    "descriptionCycleRewardList": [[], [], [], []]
  },
  {
    "id": 6,
    "sceneId": 3,
    "dungeonEntryId": 42,
    "type": "DUNGEN_ENTRY_TYPE_RELIQUARY",
    "isShowInAdvHandbook": true,
    "descTextMapHash": 2667941777,
    "cooldownTipsDungeonId": [],
    "condComb": "LOGIC_OR",
    "satisfiedCond": [
      {
        "type": "DUNGEON_ENTRY_CONDITION_LEVEL",
        "param1": 22
      },
      {
        "type": "DUNGEON_ENTRY_CONDITION_QUEST",
        "param1": 39604
      }
    ],
    "picPath": "UI_DungeonPic_Cubic_Normal_1",
    "rewardDataId": 220405,
    "descriptionCycleRewardList": [[], [], [], []]
  },
  {
    "id": 7,
    "sceneId": 3,
    "dungeonEntryId": 137,
    "type": "DUNGEN_ENTRY_TYPE_RELIQUARY",
    "isShowInAdvHandbook": true,
    "descTextMapHash": 767933225,
    "cooldownTipsDungeonId": [],
    "condComb": "LOGIC_OR",
    "satisfiedCond": [
      {
        "type": "DUNGEON_ENTRY_CONDITION_LEVEL",
        "param1": 22
      },
      {
        "type": "DUNGEON_ENTRY_CONDITION_QUEST",
        "param1": 39604
      }
    ],
    "picPath": "UI_DungeonPic_Cubic_Normal_2",
    "rewardDataId": 220409,
    "descriptionCycleRewardList": [[], [], [], []]
  },
  {
    "id": 8,
    "sceneId": 3,
    "dungeonEntryId": 107,
    "type": "DUNGEN_ENTRY_TYPE_RELIQUARY",
    "isShowInAdvHandbook": true,
    "descTextMapHash": 692041689,
    "cooldownTipsDungeonId": [],
    "condComb": "LOGIC_OR",
    "satisfiedCond": [
      {
        "type": "DUNGEON_ENTRY_CONDITION_LEVEL",
        "param1": 22
      },
      {
        "type": "DUNGEON_ENTRY_CONDITION_QUEST",
        "param1": 39604
      }
    ],
    "picPath": "UI_DungeonPic_Cubic_Normal_3",
    "rewardDataId": 220410,
    "descriptionCycleRewardList": [[], [], [], []]
  },
  {
    "id": 9,
    "sceneId": 3,
    "dungeonEntryId": 139,
    "type": "DUNGEN_ENTRY_TYPE_RELIQUARY",
    "isShowInAdvHandbook": true,
    "descTextMapHash": 142290817,
    "cooldownTipsDungeonId": [],
    "condComb": "LOGIC_OR",
    "satisfiedCond": [
      {
        "type": "DUNGEON_ENTRY_CONDITION_LEVEL",
        "param1": 22
      },
      {
        "type": "DUNGEON_ENTRY_CONDITION_QUEST",
        "param1": 39604
      }
    ],
    "picPath": "UI_DungeonPic_Cubic_Normal_4",
    "rewardDataId": 220411,
    "descriptionCycleRewardList": [[], [], [], []]
  },
  {
    "id": 10,
    "sceneId": 3,
    "dungeonEntryId": 44,
    "type": "DUNGEN_ENTRY_TYPE_AVATAR_TALENT",
    "isShowInAdvHandbook": true,
    "descTextMapHash": 2905358345,
    "cooldownTipsDungeonId": [],
    "isDailyRefresh": true,
    "condComb": "LOGIC_OR",
    "satisfiedCond": [
      {
        "type": "DUNGEON_ENTRY_CONDITION_LEVEL",
        "param1": 27
      },
      {
        "type": "DUNGEON_ENTRY_CONDITION_QUEST",
        "param1": 101801
      }
    ],
    "picPath": "UI_DungeonPic_Ice",
    "systemOpenUiId": 6,
    "rewardDataId": 220403,
    "descriptionCycleRewardList": [
      [104301, 104302, 104303],
      [104304, 104305, 104306],
      [104307, 104308, 104309],
      [104301, 104302, 104303, 104304, 104305, 104306, 104307, 104308, 104309]
    ]
  },
  {
    "id": 11,
    "sceneId": 3,
    "dungeonEntryId": 131,
    "type": "DUNGEN_ENTRY_TYPE_AVATAR_TALENT",
    "isShowInAdvHandbook": true,
    "descTextMapHash": 2189301337,
    "cooldownTipsDungeonId": [],
    "isDailyRefresh": true,
    "condComb": "LOGIC_OR",
    "satisfiedCond": [
      {
        "type": "DUNGEON_ENTRY_CONDITION_LEVEL",
        "param1": 27
      },
      {
        "type": "DUNGEON_ENTRY_CONDITION_QUEST",
        "param1": 101801
      }
    ],
    "picPath": "UI_DungeonPic_Fire",
    "rewardDataId": 220408,
    "descriptionCycleRewardList": [
      [104310, 104311, 104312],
      [104313, 104314, 104315],
      [104316, 104317, 104318],
      [104310, 104311, 104312, 104313, 104314, 104315, 104316, 104317, 104318]
    ]
  },
  {
    "id": 12,
    "sceneId": 3,
    "dungeonEntryId": 221,
    "type": "DUNGEN_ENTRY_TYPE_RELIQUARY",
    "isShowInAdvHandbook": true,
    "descTextMapHash": 4215300953,
    "cooldownTipsDungeonId": [],
    "condComb": "LOGIC_OR",
    "satisfiedCond": [
      {
        "type": "DUNGEON_ENTRY_CONDITION_LEVEL",
        "param1": 22
      },
      {
        "type": "DUNGEON_ENTRY_CONDITION_QUEST",
        "param1": 39604
      }
    ],
    "picPath": "UI_DungeonPic_Cubic_Cold_1",
    "rewardDataId": 220414,
    "descriptionCycleRewardList": [[], [], [], []]
  },
  {
    "id": 13,
    "sceneId": 3,
    "dungeonEntryId": 282,
    "type": "DUNGEN_ENTRY_TYPE_RELIQUARY",
    "isShowInAdvHandbook": true,
    "descTextMapHash": 407495801,
    "cooldownTipsDungeonId": [],
    "condComb": "LOGIC_OR",
    "satisfiedCond": [
      {
        "type": "DUNGEON_ENTRY_CONDITION_LEVEL",
        "param1": 22
      },
      {
        "type": "DUNGEON_ENTRY_CONDITION_QUEST",
        "param1": 39604
      }
    ],
    "picPath": "UI_DungeonPic_Cubic_Normal_1",
    "rewardDataId": 220415,
    "descriptionCycleRewardList": [[], [], [], []]
  },
  {
    "id": 14,
    "sceneId": 3,
    "dungeonEntryId": 368,
    "type": "DUNGEN_ENTRY_TYPE_WEAPON_PROMOTE",
    "isShowInAdvHandbook": true,
    "descTextMapHash": 3563711113,
    "cooldownTipsDungeonId": [],
    "isDailyRefresh": true,
    "condComb": "LOGIC_OR",
    "satisfiedCond": [
      {
        "type": "DUNGEON_ENTRY_CONDITION_LEVEL",
        "param1": 30
      },
      {
        "type": "DUNGEON_ENTRY_CONDITION_QUEST",
        "param1": 201310
      }
    ],
    "picPath": "UI_DungeonPic_Rock",
    "rewardDataId": 220416,
    "descriptionCycleRewardList": [
      [114025, 114026, 114027, 114028],
      [114029, 114030, 114031, 114032],
      [114033, 114034, 114035, 114036],
      [
        114025, 114026, 114027, 114028, 114029, 114030, 114031, 114032, 114033,
        114034, 114035, 114036
      ]
    ]
  },
  {
    "id": 15,
    "sceneId": 3,
    "dungeonEntryId": 310,
    "type": "DUNGEN_ENTRY_TYPE_AVATAR_TALENT",
    "isShowInAdvHandbook": true,
    "descTextMapHash": 1335742113,
    "cooldownTipsDungeonId": [],
    "isDailyRefresh": true,
    "condComb": "LOGIC_OR",
    "satisfiedCond": [
      {
        "type": "DUNGEON_ENTRY_CONDITION_LEVEL",
        "param1": 30
      },
      {
        "type": "DUNGEON_ENTRY_CONDITION_QUEST",
        "param1": 201310
      }
    ],
    "picPath": "UI_DungeonPic_Thunder_Dq",
    "rewardDataId": 220417,
    "descriptionCycleRewardList": [
      [104320, 104321, 104322],
      [104323, 104324, 104325],
      [104326, 104327, 104328],
      [104320, 104321, 104322, 104323, 104324, 104325, 104326, 104327, 104328]
    ]
  },
  {
    "id": 16,
    "sceneId": 3,
    "dungeonEntryId": 361,
    "type": "DUNGEN_ENTRY_TYPE_RELIQUARY",
    "isShowInAdvHandbook": true,
    "descTextMapHash": 2252726481,
    "cooldownTipsDungeonId": [],
    "condComb": "LOGIC_OR",
    "satisfiedCond": [
      {
        "type": "DUNGEON_ENTRY_CONDITION_LEVEL",
        "param1": 30
      },
      {
        "type": "DUNGEON_ENTRY_CONDITION_QUEST",
        "param1": 201310
      }
    ],
    "picPath": "UI_DungeonPic_ThunderCave_Dq",
    "rewardDataId": 220418,
    "descriptionCycleRewardList": [[], [], [], []]
  },
  {
    "id": 17,
    "sceneId": 3,
    "dungeonEntryId": 433,
    "type": "DUNGEN_ENTRY_TYPE_RELIQUARY",
    "isShowInAdvHandbook": true,
    "descTextMapHash": 831946953,
    "cooldownTipsDungeonId": [],
    "condComb": "LOGIC_OR",
    "satisfiedCond": [
      {
        "type": "DUNGEON_ENTRY_CONDITION_LEVEL",
        "param1": 30
      },
      {
        "type": "DUNGEON_ENTRY_CONDITION_QUEST",
        "param1": 201310
      }
    ],
    "picPath": "UI_DungeonPic_ThunderCave_Dq",
    "rewardDataId": 220419,
    "descriptionCycleRewardList": [[], [], [], []]
  },
  {
    "id": 18,
    "sceneId": 3,
    "dungeonEntryId": 516,
    "type": "DUNGEN_ENTRY_TYPE_RELIQUARY",
    "isShowInAdvHandbook": true,
    "descTextMapHash": 2021257257,
    "cooldownTipsDungeonId": [],
    "condComb": "LOGIC_OR",
    "satisfiedCond": [
      {
        "type": "DUNGEON_ENTRY_CONDITION_LEVEL",
        "param1": 22
      },
      {
        "type": "DUNGEON_ENTRY_CONDITION_QUEST",
        "param1": 39604
      }
    ],
    "picPath": "UI_DungeonPic_CycleDungeonChasm",
    "rewardDataId": 220420,
    "descriptionCycleRewardList": [[], [], [], []]
  },
  {
    "id": 19,
    "sceneId": 3,
    "dungeonEntryId": 505,
    "type": "DUNGEN_ENTRY_TYPE_AVATAR_TALENT",
    "isShowInAdvHandbook": true,
    "descTextMapHash": 3613595857,
    "cooldownTipsDungeonId": [],
    "isDailyRefresh": true,
    "condComb": "LOGIC_OR",
    "satisfiedCond": [
      {
        "type": "DUNGEON_ENTRY_CONDITION_LEVEL",
        "param1": 27
      },
      {
        "type": "DUNGEON_ENTRY_CONDITION_QUEST",
        "param1": 101801
      }
    ],
    "picPath": "UI_DungeonPic_XMCharacter01",
    "rewardDataId": 220422,
    "descriptionCycleRewardList": [
      [104329, 104330, 104331],
      [104332, 104333, 104334],
      [104335, 104336, 104337],
      [104329, 104330, 104331, 104332, 104333, 104334, 104335, 104336, 104337]
    ]
  },
  {
    "id": 20,
    "sceneId": 3,
    "dungeonEntryId": 507,
    "type": "DUNGEN_ENTRY_TYPE_RELIQUARY",
    "isShowInAdvHandbook": true,
    "descTextMapHash": 3394002473,
    "cooldownTipsDungeonId": [],
    "condComb": "LOGIC_OR",
    "satisfiedCond": [
      {
        "type": "DUNGEON_ENTRY_CONDITION_LEVEL",
        "param1": 22
      },
      {
        "type": "DUNGEON_ENTRY_CONDITION_QUEST",
        "param1": 39604
      }
    ],
    "picPath": "UI_DungeonPic_XMRelic01",
    "rewardDataId": 220423,
    "descriptionCycleRewardList": [[], [], [], []]
  },
  {
    "id": 21,
    "sceneId": 3,
    "dungeonEntryId": 509,
    "type": "DUNGEN_ENTRY_TYPE_WEAPON_PROMOTE",
    "isShowInAdvHandbook": true,
    "descTextMapHash": 1711971481,
    "cooldownTipsDungeonId": [],
    "isDailyRefresh": true,
    "condComb": "LOGIC_OR",
    "satisfiedCond": [
      {
        "type": "DUNGEON_ENTRY_CONDITION_LEVEL",
        "param1": 16
      },
      {
        "type": "DUNGEON_ENTRY_CONDITION_QUEST",
        "param1": 38406
      }
    ],
    "picPath": "UI_DungeonPic_XMWeapon01",
    "rewardDataId": 220421,
    "descriptionCycleRewardList": [
      [114037, 114038, 114039, 114040],
      [114041, 114042, 114043, 114044],
      [114045, 114046, 114047, 114048],
      [
        114037, 114038, 114039, 114040, 114041, 114042, 114043, 114044, 114045,
        114046, 114047, 114048
      ]
    ]
  },
  {
    "id": 22,
    "sceneId": 3,
    "dungeonEntryId": 758,
    "type": "DUNGEN_ENTRY_TYPE_RELIQUARY",
    "isShowInAdvHandbook": true,
    "descTextMapHash": 3121112609,
    "cooldownTipsDungeonId": [],
    "condComb": "LOGIC_OR",
    "satisfiedCond": [
      {
        "type": "DUNGEON_ENTRY_CONDITION_LEVEL",
        "param1": 22
      },
      {
        "type": "DUNGEON_ENTRY_CONDITION_QUEST",
        "param1": 39604
      }
    ],
    "picPath": "UI_DungeonPic_XMRelic02",
    "rewardDataId": 220424,
    "descriptionCycleRewardList": [[], [], [], []]
  },
  {
    "id": 23,
    "sceneId": 3,
    "dungeonEntryId": 803,
    "type": "DUNGEN_ENTRY_TYPE_RELIQUARY",
    "isShowInAdvHandbook": true,
    "descTextMapHash": 2902665865,
    "cooldownTipsDungeonId": [],
    "condComb": "LOGIC_OR",
    "satisfiedCond": [
      {
        "type": "DUNGEON_ENTRY_CONDITION_LEVEL",
        "param1": 22
      },
      {
        "type": "DUNGEON_ENTRY_CONDITION_QUEST",
        "param1": 39604
      }
    ],
    "picPath": "UI_DungeonPic_XMRelic02",
    "rewardDataId": 220425,
    "descriptionCycleRewardList": [[], [], [], []]
  },
  {
    "id": 1001,
    "sceneId": 3,
    "dungeonEntryId": 45,
    "type": "DUNGEON_ENTRY_TYPE_OBSCURAE",
    "descTextMapHash": 2708589641,
    "cooldownTipsDungeonId": [],
    "satisfiedCond": [
      {
        "type": "DUNGEON_ENTRY_CONDITION_LEVEL",
        "param1": 20
      },
      {}
    ],
    "picPath": "UI_DungeonPic_Tower_Normal",
    "systemOpenUiId": 3,
    "rewardDataId": 220412,
    "descriptionCycleRewardList": [[], [], [], []]
  },
  {
    "id": 1002,
    "sceneId": 3,
    "dungeonEntryId": 1,
    "type": "DUNGEON_ENTRY_TYPE_NORMAL",
    "descTextMapHash": 3239234745,
    "cooldownTipsDungeonId": [],
    "satisfiedCond": [{}, {}],
    "picPath": "UI_DungeonPic_Kaeya",
    "descriptionCycleRewardList": [[], [], [], []]
  },
  {
    "id": 1003,
    "sceneId": 3,
    "dungeonEntryId": 20,
    "type": "DUNGEON_ENTRY_TYPE_NORMAL",
    "descTextMapHash": 1162985985,
    "cooldownTipsDungeonId": [],
    "satisfiedCond": [{}, {}],
    "picPath": "UI_DungeonPic_Amber",
    "descriptionCycleRewardList": [[], [], [], []]
  },
  {
    "id": 1004,
    "sceneId": 3,
    "dungeonEntryId": 22,
    "type": "DUNGEON_ENTRY_TYPE_NORMAL",
    "descTextMapHash": 3920998985,
    "cooldownTipsDungeonId": [],
    "satisfiedCond": [{}, {}],
    "picPath": "UI_DungeonPic_Lise",
    "descriptionCycleRewardList": [[], [], [], []]
  },
  {
    "id": 1005,
    "sceneId": 3,
    "dungeonEntryId": 40,
    "type": "DUNGEON_ENTRY_TYPE_NORMAL",
    "descTextMapHash": 1972150497,
    "cooldownTipsDungeonId": [],
    "satisfiedCond": [{}, {}],
    "picPath": "UI_DungeonPic_DragonTear",
    "descriptionCycleRewardList": [[], [], [], []]
  },
  {
    "id": 1006,
    "sceneId": 3,
    "dungeonEntryId": 38,
    "type": "DUNGEON_ENTRY_TYPE_TRIAL",
    "isShowInAdvHandbook": true,
    "descTextMapHash": 792448241,
    "cooldownTipsDungeonId": [2020, 2021, 2022, 2023, 2024, 2025],
    "isDefaultOpen": true,
    "satisfiedCond": [{}, {}],
    "picPath": "UI_DungeonPic_Stormterror",
    "descriptionCycleRewardList": [[], [], [], []]
  },
  {
    "id": 1007,
    "sceneId": 3,
    "dungeonEntryId": 52,
    "type": "DUNGEON_ENTRY_TYPE_NORMAL",
    "descTextMapHash": 3246634345,
    "cooldownTipsDungeonId": [],
    "satisfiedCond": [{}, {}],
    "picPath": "UI_DungeonPic_Kaeya",
    "descriptionCycleRewardList": [[], [], [], []]
  },
  {
    "id": 1008,
    "sceneId": 3,
    "dungeonEntryId": 113,
    "type": "DUNGEON_ENTRY_TYPE_NORMAL",
    "descTextMapHash": 332916601,
    "cooldownTipsDungeonId": [],
    "satisfiedCond": [{}, {}],
    "picPath": "UI_DungeonPic_Fatui",
    "descriptionCycleRewardList": [[], [], [], []]
  },
  {
    "id": 1009,
    "sceneId": 3,
    "dungeonEntryId": 102,
    "type": "DUNGEON_ENTRY_TYPE_NORMAL",
    "descTextMapHash": 1575215929,
    "cooldownTipsDungeonId": [],
    "satisfiedCond": [{}, {}],
    "picPath": "UI_DungeonPic_Diluc",
    "descriptionCycleRewardList": [[], [], [], []]
  },
  {
    "id": 1010,
    "sceneId": 3,
    "dungeonEntryId": 89,
    "type": "DUNGEON_ENTRY_TYPE_NORMAL",
    "descTextMapHash": 2484444193,
    "cooldownTipsDungeonId": [],
    "satisfiedCond": [{}, {}],
    "picPath": "UI_DungeonPic_Diluc",
    "descriptionCycleRewardList": [[], [], [], []]
  },
  {
    "id": 1011,
    "sceneId": 3,
    "dungeonEntryId": 119,
    "type": "DUNGEON_ENTRY_TYPE_NORMAL",
    "descTextMapHash": 4121744817,
    "cooldownTipsDungeonId": [],
    "satisfiedCond": [{}, {}],
    "picPath": "UI_DungeonPic_Diluc",
    "descriptionCycleRewardList": [[], [], [], []]
  },
  {
    "id": 1012,
    "sceneId": 3,
    "dungeonEntryId": 125,
    "type": "DUNGEON_ENTRY_TYPE_NORMAL",
    "descTextMapHash": 692976025,
    "cooldownTipsDungeonId": [],
    "satisfiedCond": [{}, {}],
    "picPath": "UI_DungeonPic_XiangLing",
    "descriptionCycleRewardList": [[], [], [], []]
  },
  {
    "id": 1013,
    "sceneId": 3,
    "dungeonEntryId": 129,
    "type": "DUNGEON_ENTRY_TYPE_NORMAL",
    "descTextMapHash": 2511450889,
    "cooldownTipsDungeonId": [],
    "satisfiedCond": [{}, {}],
    "picPath": "UI_DungeonPic_Diluc",
    "descriptionCycleRewardList": [[], [], [], []]
  },
  {
    "id": 1014,
    "sceneId": 3,
    "dungeonEntryId": 146,
    "type": "DUNGEON_ENTRY_TYPE_NORMAL",
    "descTextMapHash": 3994909113,
    "cooldownTipsDungeonId": [],
    "satisfiedCond": [{}, {}],
    "picPath": "UI_DungeonPic_YunHai",
    "descriptionCycleRewardList": [[], [], [], []]
  },
  {
    "id": 1015,
    "sceneId": 3,
    "dungeonEntryId": 133,
    "type": "DUNGEON_ENTRY_TYPE_NORMAL",
    "descTextMapHash": 3007793081,
    "cooldownTipsDungeonId": [],
    "satisfiedCond": [{}, {}],
    "picPath": "UI_DungeonPic_YunHai",
    "descriptionCycleRewardList": [[], [], [], []]
  },
  {
    "id": 1016,
    "sceneId": 3,
    "dungeonEntryId": 218,
    "type": "DUNGEON_ENTRY_TYPE_TRIAL",
    "isShowInAdvHandbook": true,
    "descTextMapHash": 1047671777,
    "cooldownTipsDungeonId": [103, 104, 105, 106],
    "isDefaultOpen": true,
    "satisfiedCond": [{}, {}],
    "picPath": "UI_DungeonPic_Goldenhouse",
    "descriptionCycleRewardList": [[], [], [], []]
  },
  {
    "id": 1017,
    "sceneId": 3,
    "dungeonEntryId": 223,
    "type": "DUNGEON_ENTRY_TYPE_EFFIGY",
    "descTextMapHash": 2923105409,
    "cooldownTipsDungeonId": [],
    "isDefaultOpen": true,
    "satisfiedCond": [{}, {}],
    "picPath": "UI_DungeonPic_EffigyChallenge",
    "descriptionCycleRewardList": [[], [], [], []]
  },
  {
    "id": 1018,
    "sceneId": 3,
    "dungeonEntryId": 265,
    "type": "DUNGEON_ENTRY_TYPE_FLEUR_FAIR",
    "descTextMapHash": 3303313457,
    "cooldownTipsDungeonId": [5310],
    "isDefaultOpen": true,
    "satisfiedCond": [{}, {}],
    "picPath": "UI_DungeonPic_FleurFair",
    "descriptionCycleRewardList": [[], [], [], []]
  },
  {
    "id": 1019,
    "sceneId": 3,
    "dungeonEntryId": 274,
    "type": "DUNGEON_ENTRY_TYPE_CHANNELLER_SLAB_ONE_OFF",
    "descTextMapHash": 2262718049,
    "cooldownTipsDungeonId": [7202],
    "isDefaultOpen": true,
    "satisfiedCond": [{}, {}],
    "picPath": "UI_DungeonPic_Kaeya",
    "descriptionCycleRewardList": [[], [], [], []]
  },
  {
    "id": 1020,
    "sceneId": 3,
    "dungeonEntryId": 276,
    "type": "DUNGEON_ENTRY_TYPE_CHANNELLER_SLAB_ONE_OFF",
    "descTextMapHash": 2797072865,
    "cooldownTipsDungeonId": [7203],
    "isDefaultOpen": true,
    "satisfiedCond": [{}, {}],
    "picPath": "UI_DungeonPic_XiangLing",
    "descriptionCycleRewardList": [[], [], [], []]
  },
  {
    "id": 1021,
    "sceneId": 3,
    "dungeonEntryId": 278,
    "type": "DUNGEON_ENTRY_TYPE_CHANNELLER_SLAB_ONE_OFF",
    "descTextMapHash": 2491644225,
    "cooldownTipsDungeonId": [7201],
    "isDefaultOpen": true,
    "satisfiedCond": [{}, {}],
    "picPath": "UI_DungeonPic_DragonTear",
    "descriptionCycleRewardList": [[], [], [], []]
  },
  {
    "id": 1022,
    "sceneId": 3,
    "dungeonEntryId": 280,
    "type": "DUNGEON_ENTRY_TYPE_CHANNELLER_SLAB_LOOP",
    "descTextMapHash": 350839273,
    "cooldownTipsDungeonId": [7204],
    "isDefaultOpen": true,
    "satisfiedCond": [{}, {}],
    "picPath": "UI_DungeonPic_ChannellerSlab",
    "descriptionCycleRewardList": [[], [], [], []]
  },
  {
    "id": 1023,
    "sceneId": 3,
    "dungeonEntryId": 271,
    "type": "DUNGEON_ENTRY_TYPE_TRIAL",
    "isShowInAdvHandbook": true,
    "descTextMapHash": 3790866161,
    "cooldownTipsDungeonId": [
      110, 111, 112, 113, 114, 115, 116, 117, 118, 119, 120, 121, 122, 123, 124,
      125
    ],
    "isDefaultOpen": true,
    "satisfiedCond": [{}, {}],
    "picPath": "UI_DungeonPic_DahakaBoss_1",
    "descriptionCycleRewardList": [[], [], [], []]
  },
  {
    "id": 1024,
    "sceneId": 3,
    "dungeonEntryId": 294,
    "type": "DUNGEON_ENTRY_TYPE_EFFIGY",
    "descTextMapHash": 3135140769,
    "cooldownTipsDungeonId": [],
    "isDefaultOpen": true,
    "satisfiedCond": [{}, {}],
    "picPath": "UI_DungeonPic_EffigyChallenge_01",
    "descriptionCycleRewardList": [[], [], [], []]
  },
  {
    "id": 1025,
    "sceneId": 3,
    "dungeonEntryId": 334,
    "type": "DUNGEON_ENTRY_TYPE_BLITZ_RUSH",
    "descTextMapHash": 3528534825,
    "cooldownTipsDungeonId": [7301],
    "isDefaultOpen": true,
    "satisfiedCond": [{}, {}],
    "picPath": "UI_DungeonPic_Perpetual",
    "descriptionCycleRewardList": [[], [], [], []]
  },
  {
    "id": 1026,
    "sceneId": 3,
    "dungeonEntryId": 357,
    "type": "DUNGEON_ENTRY_TYPE_SUMO",
    "descTextMapHash": 1657396761,
    "cooldownTipsDungeonId": [3011],
    "isDefaultOpen": true,
    "satisfiedCond": [{}, {}],
    "picPath": "UI_DungeonPic_Sumo",
    "descriptionCycleRewardList": [[], [], [], []]
  },
  {
    "id": 1027,
    "sceneId": 3,
    "dungeonEntryId": 350,
    "type": "DUNGEON_ENTRY_TYPE_NORMAL",
    "descTextMapHash": 268653081,
    "cooldownTipsDungeonId": [],
    "satisfiedCond": [{}, {}],
    "picPath": "UI_DungeonPic_HFDungeon01",
    "descriptionCycleRewardList": [[], [], [], []]
  },
  {
    "id": 1028,
    "sceneId": 3,
    "dungeonEntryId": 308,
    "type": "DUNGEON_ENTRY_TYPE_NORMAL",
    "descTextMapHash": 2309605713,
    "cooldownTipsDungeonId": [],
    "satisfiedCond": [{}, {}],
    "picPath": "UI_DungeonPic_HFDungeon02_01",
    "descriptionCycleRewardList": [[], [], [], []]
  },
  {
    "id": 1029,
    "sceneId": 3,
    "dungeonEntryId": 359,
    "type": "DUNGEON_ENTRY_TYPE_NORMAL",
    "descTextMapHash": 2262274449,
    "cooldownTipsDungeonId": [],
    "satisfiedCond": [{}, {}],
    "picPath": "UI_DungeonPic_HFDungeon02_02",
    "descriptionCycleRewardList": [[], [], [], []]
  },
  {
    "id": 1030,
    "sceneId": 3,
    "dungeonEntryId": 396,
    "type": "DUNGEON_ENTRY_TYPE_TRIAL",
    "isShowInAdvHandbook": true,
    "descTextMapHash": 1251280409,
    "cooldownTipsDungeonId": [127, 128, 129, 130],
    "isDefaultOpen": true,
    "satisfiedCond": [{}, {}],
    "picPath": "UI_DungeonPic_DonjonBattle",
    "descriptionCycleRewardList": [[], [], [], []]
  },
  {
    "id": 1031,
    "sceneId": 3,
    "dungeonEntryId": 351,
    "type": "DUNGEON_ENTRY_TYPE_NORMAL",
    "descTextMapHash": 2428969633,
    "cooldownTipsDungeonId": [],
    "satisfiedCond": [{}, {}],
    "picPath": "UI_DungeonPic_HFDungeon01_02",
    "descriptionCycleRewardList": [[], [], [], []]
  },
  {
    "id": 1032,
    "sceneId": 3,
    "dungeonEntryId": 417,
    "type": "DUNGEON_ENTRY_TYPE_ACTIVITY",
    "descTextMapHash": 3512394897,
    "cooldownTipsDungeonId": [],
    "isDefaultOpen": true,
    "satisfiedCond": [{}, {}],
    "picPath": "UI_DungeonPic_OnmyoMaze",
    "descriptionCycleRewardList": [[], [], [], []]
  },
  {
    "id": 1033,
    "sceneId": 3,
    "dungeonEntryId": 426,
    "type": "DUNGEON_ENTRY_TYPE_HACHI",
    "descTextMapHash": 746465721,
    "cooldownTipsDungeonId": [7310],
    "isDefaultOpen": true,
    "satisfiedCond": [{}, {}],
    "picPath": "UI_DungeonPic_Hachi",
    "descriptionCycleRewardList": [[], [], [], []]
  },
  {
    "id": 1034,
    "sceneId": 3,
    "dungeonEntryId": 424,
    "type": "DUNGEON_ENTRY_TYPE_NORMAL",
    "descTextMapHash": 2323875993,
    "cooldownTipsDungeonId": [],
    "satisfiedCond": [{}, {}],
    "picPath": "UI_DungeonPic_HFDungeon02_02",
    "descriptionCycleRewardList": [[], [], [], []]
  },
  {
    "id": 1035,
    "sceneId": 3,
    "dungeonEntryId": 436,
    "type": "DUNGEON_ENTRY_TYPE_CHANNELLER_SLAB_LOOP",
    "descTextMapHash": 76103177,
    "cooldownTipsDungeonId": [7221],
    "isDefaultOpen": true,
    "satisfiedCond": [{}, {}],
    "picPath": "UI_DungeonPic_ChannellerSlab",
    "descriptionCycleRewardList": [[], [], [], []]
  },
  {
    "id": 1036,
    "sceneId": 3,
    "dungeonEntryId": 447,
    "type": "DUNGEON_ENTRY_TYPE_ACTIVITY",
    "descTextMapHash": 433396889,
    "cooldownTipsDungeonId": [2150],
    "isDefaultOpen": true,
    "satisfiedCond": [{}, {}],
    "picPath": "UI_DungeonPic_Qiqi",
    "descriptionCycleRewardList": [[], [], [], []]
  },
  {
    "id": 1037,
    "sceneId": 3,
    "dungeonEntryId": 449,
    "type": "DUNGEON_ENTRY_TYPE_ACTIVITY",
    "descTextMapHash": 512326977,
    "cooldownTipsDungeonId": [2154],
    "isDefaultOpen": true,
    "satisfiedCond": [{}, {}],
    "picPath": "UI_DungeonPic_XiangLing",
    "descriptionCycleRewardList": [[], [], [], []]
  },
  {
    "id": 1038,
    "sceneId": 3,
    "dungeonEntryId": 451,
    "type": "DUNGEON_ENTRY_TYPE_ACTIVITY",
    "descTextMapHash": 3872861745,
    "cooldownTipsDungeonId": [2158],
    "isDefaultOpen": true,
    "satisfiedCond": [{}, {}],
    "picPath": "UI_DungeonPic_YunHai",
    "descriptionCycleRewardList": [[], [], [], []]
  },
  {
    "id": 1039,
    "sceneId": 3,
    "dungeonEntryId": 457,
    "type": "DUNGEON_ENTRY_TYPE_ACTIVITY",
    "descTextMapHash": 474765937,
    "cooldownTipsDungeonId": [7302],
    "isDefaultOpen": true,
    "satisfiedCond": [{}, {}],
    "picPath": "UI_DungeonPic_Eldritch_Minor01",
    "descriptionCycleRewardList": [[], [], [], []]
  },
  {
    "id": 1040,
    "sceneId": 3,
    "dungeonEntryId": 469,
    "type": "DUNGEON_ENTRY_TYPE_SUMO",
    "descTextMapHash": 916511777,
    "cooldownTipsDungeonId": [3027],
    "isDefaultOpen": true,
    "satisfiedCond": [{}, {}],
    "picPath": "UI_DungeonPic_Sumo",
    "descriptionCycleRewardList": [[], [], [], []]
  },
  {
    "id": 1041,
    "sceneId": 3,
    "dungeonEntryId": 512,
    "type": "DUNGEON_ENTRY_TYPE_ACTIVITY",
    "descTextMapHash": 1872280993,
    "cooldownTipsDungeonId": [2122, 2120, 2121, 2119, 2123],
    "isDefaultOpen": true,
    "satisfiedCond": [{}, {}],
    "picPath": "UI_DungeonPic_Steeplechase_1",
    "descriptionCycleRewardList": [[], [], [], []]
  },
  {
    "id": 1042,
    "sceneId": 3,
    "dungeonEntryId": 520,
    "type": "DUNGEON_ENTRY_TYPE_ACTIVITY",
    "descTextMapHash": 3392902889,
    "cooldownTipsDungeonId": [],
    "isDefaultOpen": true,
    "satisfiedCond": [{}, {}],
    "picPath": "UI_DungeonPic_CrystalLink",
    "descriptionCycleRewardList": [[], [], [], []]
  },
  {
    "id": 1043,
    "sceneId": 3,
    "dungeonEntryId": 503,
    "type": "DUNGEON_ENTRY_TYPE_TRIAL",
    "isShowInAdvHandbook": true,
    "descTextMapHash": 1825844521,
    "cooldownTipsDungeonId": [131, 132, 133, 134],
    "isDefaultOpen": true,
    "satisfiedCond": [{}, {}],
    "picPath": "UI_DungeonPic_WeekDungeon_Baal",
    "descriptionCycleRewardList": [[], [], [], []]
  },
  {
    "id": 1045,
    "sceneId": 9,
    "dungeonEntryId": 9,
    "type": "DUNGEON_ENTRY_TYPE_ACTIVITY",
    "descTextMapHash": 1672606017,
    "cooldownTipsDungeonId": [],
    "satisfiedCond": [{}, {}],
    "picPath": "UI_DungeonPic_SummerTimeV2_Character_01_1",
    "descriptionCycleRewardList": [[], [], [], []]
  },
  {
    "id": 1046,
    "sceneId": 9,
    "dungeonEntryId": 48,
    "type": "DUNGEON_ENTRY_TYPE_ACTIVITY",
    "descTextMapHash": 2432468609,
    "cooldownTipsDungeonId": [],
    "satisfiedCond": [{}, {}],
    "picPath": "UI_DungeonPic_SummerTimeV2_Character_01_4",
    "descriptionCycleRewardList": [[], [], [], []]
  },
  {
    "id": 1047,
    "sceneId": 9,
    "dungeonEntryId": 50,
    "type": "DUNGEON_ENTRY_TYPE_ACTIVITY",
    "descTextMapHash": 3819188313,
    "cooldownTipsDungeonId": [],
    "satisfiedCond": [{}, {}],
    "picPath": "UI_DungeonPic_SummerTimeV2_Character_03_4",
    "descriptionCycleRewardList": [[], [], [], []]
  },
  {
    "id": 1048,
    "sceneId": 9,
    "dungeonEntryId": 52,
    "type": "DUNGEON_ENTRY_TYPE_ACTIVITY",
    "descTextMapHash": 3815529809,
    "cooldownTipsDungeonId": [],
    "satisfiedCond": [{}, {}],
    "picPath": "UI_DungeonPic_SummerTimeV2_Character_02_2",
    "descriptionCycleRewardList": [[], [], [], []]
  },
  {
    "id": 1049,
    "sceneId": 9,
    "dungeonEntryId": 54,
    "type": "DUNGEON_ENTRY_TYPE_ACTIVITY",
    "descTextMapHash": 1635795273,
    "cooldownTipsDungeonId": [],
    "satisfiedCond": [{}, {}],
    "picPath": "UI_DungeonPic_SummerTimeV2_Character_04_2",
    "descriptionCycleRewardList": [[], [], [], []]
  },
  {
    "id": 1050,
    "sceneId": 9,
    "dungeonEntryId": 11,
    "type": "DUNGEON_ENTRY_TYPE_ACTIVITY",
    "descTextMapHash": 4117405465,
    "cooldownTipsDungeonId": [],
    "satisfiedCond": [{}, {}],
    "picPath": "UI_DungeonPic_SummerTimeV2_Character_01_2",
    "descriptionCycleRewardList": [[], [], [], []]
  },
  {
    "id": 1051,
    "sceneId": 9,
    "dungeonEntryId": 13,
    "type": "DUNGEON_ENTRY_TYPE_ACTIVITY",
    "descTextMapHash": 3793477353,
    "cooldownTipsDungeonId": [],
    "satisfiedCond": [{}, {}],
    "picPath": "UI_DungeonPic_SummerTimeV2_Character_01_3",
    "descriptionCycleRewardList": [[], [], [], []]
  },
  {
    "id": 1052,
    "sceneId": 9,
    "dungeonEntryId": 15,
    "type": "DUNGEON_ENTRY_TYPE_ACTIVITY",
    "descTextMapHash": 1581179913,
    "cooldownTipsDungeonId": [],
    "satisfiedCond": [{}, {}],
    "picPath": "UI_DungeonPic_SummerTimeV2_Character_03_1",
    "descriptionCycleRewardList": [[], [], [], []]
  },
  {
    "id": 1053,
    "sceneId": 9,
    "dungeonEntryId": 17,
    "type": "DUNGEON_ENTRY_TYPE_ACTIVITY",
    "descTextMapHash": 3136096641,
    "cooldownTipsDungeonId": [],
    "satisfiedCond": [{}, {}],
    "picPath": "UI_DungeonPic_SummerTimeV2_Character_03_2",
    "descriptionCycleRewardList": [[], [], [], []]
  },
  {
    "id": 1054,
    "sceneId": 9,
    "dungeonEntryId": 19,
    "type": "DUNGEON_ENTRY_TYPE_ACTIVITY",
    "descTextMapHash": 2666163025,
    "cooldownTipsDungeonId": [],
    "satisfiedCond": [{}, {}],
    "picPath": "UI_DungeonPic_SummerTimeV2_Character_03_3",
    "descriptionCycleRewardList": [[], [], [], []]
  },
  {
    "id": 1055,
    "sceneId": 9,
    "dungeonEntryId": 27,
    "type": "DUNGEON_ENTRY_TYPE_ACTIVITY",
    "descTextMapHash": 3840739633,
    "cooldownTipsDungeonId": [],
    "satisfiedCond": [{}, {}],
    "picPath": "UI_DungeonPic_SummerTimeV2_Character_02_1",
    "descriptionCycleRewardList": [[], [], [], []]
  },
  {
    "id": 1056,
    "sceneId": 9,
    "dungeonEntryId": 29,
    "type": "DUNGEON_ENTRY_TYPE_ACTIVITY",
    "descTextMapHash": 1305580185,
    "cooldownTipsDungeonId": [],
    "satisfiedCond": [{}, {}],
    "picPath": "UI_DungeonPic_SummerTimeV2_Character_04_1",
    "descriptionCycleRewardList": [[], [], [], []]
  },
  {
    "id": 1057,
    "sceneId": 3,
    "dungeonEntryId": 613,
    "type": "DUNGEON_ENTRY_TYPE_ACTIVITY",
    "descTextMapHash": 705732569,
    "cooldownTipsDungeonId": [],
    "isDefaultOpen": true,
    "satisfiedCond": [{}, {}],
    "picPath": "UI_DungeonPic_ActivityInstableSpray01",
    "descriptionCycleRewardList": [[], [], [], []]
  },
  {
    "id": 1058,
    "sceneId": 3,
    "dungeonEntryId": 620,
    "type": "DUNGEON_ENTRY_TYPE_ACTIVITY",
    "descTextMapHash": 2408826137,
    "cooldownTipsDungeonId": [],
    "isDefaultOpen": true,
    "satisfiedCond": [{}, {}],
    "picPath": "UI_DungeonPic_YunHai",
    "descriptionCycleRewardList": [[], [], [], []]
  },
  {
    "id": 1059,
    "sceneId": 3,
    "dungeonEntryId": 627,
    "type": "DUNGEON_ENTRY_TYPE_SUMO",
    "descTextMapHash": 4193037505,
    "cooldownTipsDungeonId": [3033],
    "isDefaultOpen": true,
    "satisfiedCond": [{}, {}],
    "picPath": "UI_DungeonPic_Sumo",
    "descriptionCycleRewardList": [[], [], [], []]
  },
  {
    "id": 1060,
    "sceneId": 3,
    "dungeonEntryId": 656,
    "type": "DUNGEON_ENTRY_TYPE_ACTIVITY",
    "descTextMapHash": 2811700257,
    "cooldownTipsDungeonId": [],
    "isDefaultOpen": true,
    "satisfiedCond": [{}, {}],
    "picPath": "UI_DungeonPic_WindFildDungeon01",
    "descriptionCycleRewardList": [[], [], [], []]
  },
  {
    "id": 1061,
    "sceneId": 3,
    "dungeonEntryId": 607,
    "type": "DUNGEON_ENTRY_TYPE_NORMAL",
    "descTextMapHash": 2522783185,
    "cooldownTipsDungeonId": [4044],
    "satisfiedCond": [{}, {}],
    "picPath": "UI_DungeonPic_XMChallenge01",
    "descriptionCycleRewardList": [[], [], [], []]
  },
  {
    "id": 1062,
    "sceneId": 3,
    "dungeonEntryId": 646,
    "type": "DUNGEON_ENTRY_TYPE_NORMAL",
    "descTextMapHash": 2603966985,
    "cooldownTipsDungeonId": [4045],
    "satisfiedCond": [{}, {}],
    "picPath": "UI_DungeonPic_XMChallenge02",
    "descriptionCycleRewardList": [[], [], [], []]
  },
  {
    "id": 1063,
    "sceneId": 3,
    "dungeonEntryId": 618,
    "type": "DUNGEON_ENTRY_TYPE_NORMAL",
    "descTextMapHash": 1453158609,
    "cooldownTipsDungeonId": [4046],
    "satisfiedCond": [{}, {}],
    "picPath": "UI_DungeonPic_XMChallenge03",
    "descriptionCycleRewardList": [[], [], [], []]
  },
  {
    "id": 1064,
    "sceneId": 3,
    "dungeonEntryId": 600,
    "type": "DUNGEON_ENTRY_TYPE_NORMAL",
    "descTextMapHash": 1399948745,
    "cooldownTipsDungeonId": [4047],
    "satisfiedCond": [{}, {}],
    "picPath": "UI_DungeonPic_XMChallenge04",
    "descriptionCycleRewardList": [[], [], [], []]
  },
  {
    "id": 1065,
    "sceneId": 3,
    "dungeonEntryId": 699,
    "type": "DUNGEON_ENTRY_TYPE_EFFIGY",
    "descTextMapHash": 3456698345,
    "cooldownTipsDungeonId": [],
    "isDefaultOpen": true,
    "satisfiedCond": [{}, {}],
    "picPath": "UI_DungeonPic_ActivityBoss02",
    "descriptionCycleRewardList": [[], [], [], []]
  },
  {
    "id": 1066,
    "sceneId": 3,
    "dungeonEntryId": 704,
    "type": "DUNGEON_ENTRY_TYPE_ACTIVITY",
    "descTextMapHash": 2936190593,
    "cooldownTipsDungeonId": [
      8101, 8102, 8103, 8104, 8105, 8106, 8107, 8108, 8109, 8110
    ],
    "satisfiedCond": [{}, {}],
    "picPath": "UI_DungeonPic_EffigyChallenge_01",
    "descriptionCycleRewardList": [[], [], [], []]
  },
  {
    "id": 1067,
    "sceneId": 3,
    "dungeonEntryId": 675,
    "type": "DUNGEON_ENTRY_TYPE_NORMAL",
    "descTextMapHash": 4192782753,
    "cooldownTipsDungeonId": [1158],
    "satisfiedCond": [{}, {}],
    "picPath": "UI_DungeonPic_XMChallenge01",
    "descriptionCycleRewardList": [[], [], [], []]
  },
  {
    "id": 1068,
    "sceneId": 3,
    "dungeonEntryId": 671,
    "type": "DUNGEON_ENTRY_TYPE_NORMAL",
    "descTextMapHash": 199077425,
    "cooldownTipsDungeonId": [1159],
    "satisfiedCond": [{}, {}],
    "picPath": "UI_DungeonPic_XMChallenge05",
    "descriptionCycleRewardList": [[], [], [], []]
  },
  {
    "id": 1069,
    "sceneId": 3,
    "dungeonEntryId": 674,
    "type": "DUNGEON_ENTRY_TYPE_NORMAL",
    "descTextMapHash": 4154774401,
    "cooldownTipsDungeonId": [1160],
    "satisfiedCond": [{}, {}],
    "picPath": "UI_DungeonPic_XMChallenge05",
    "descriptionCycleRewardList": [[], [], [], []]
  },
  {
    "id": 1070,
    "sceneId": 3,
    "dungeonEntryId": 682,
    "type": "DUNGEON_ENTRY_TYPE_ACTIVITY",
    "descTextMapHash": 1236255169,
    "cooldownTipsDungeonId": [],
    "satisfiedCond": [{}, {}],
    "picPath": "UI_DungeonPic_EffigyChallenge_01",
    "descriptionCycleRewardList": [[], [], [], []]
  },
  {
    "id": 1071,
    "sceneId": 3,
    "dungeonEntryId": 724,
    "type": "DUNGEON_ENTRY_TYPE_ACTIVITY",
    "descTextMapHash": 1858100521,
    "cooldownTipsDungeonId": [3050, 3051, 3052],
    "isDefaultOpen": true,
    "satisfiedCond": [{}, {}],
    "picPath": "UI_DungeonPic_BrickBreaker",
    "descriptionCycleRewardList": [[], [], [], []]
  },
  {
    "id": 1072,
    "sceneId": 3,
    "dungeonEntryId": 731,
    "type": "DUNGEON_ENTRY_TYPE_TRIAL",
    "isShowInAdvHandbook": true,
    "descTextMapHash": 2682450177,
    "cooldownTipsDungeonId": [135, 136, 137, 138],
    "isDefaultOpen": true,
    "satisfiedCond": [{}, {}],
    "picPath": "UI_DungeonPic_ScaramoucheBoss",
    "descriptionCycleRewardList": [[], [], [], []]
  },
  {
    "id": 1073,
    "sceneId": 3,
    "dungeonEntryId": 742,
    "type": "DUNGEON_ENTRY_TYPE_ACTIVITY",
    "descTextMapHash": 3088276025,
    "cooldownTipsDungeonId": [4056, 4057, 4058, 4059, 4060],
    "isDefaultOpen": true,
    "satisfiedCond": [{}, {}],
    "picPath": "UI_DungeonPic_TeamChain",
    "descriptionCycleRewardList": [[], [], [], []]
  },
  {
    "id": 1074,
    "sceneId": 3,
    "dungeonEntryId": 727,
    "type": "DUNGEON_ENTRY_TYPE_NORMAL",
    "descTextMapHash": 2031023649,
    "cooldownTipsDungeonId": [4062],
    "satisfiedCond": [{}, {}],
    "picPath": "UI_DungeonPic_Smr_LostCity02",
    "descriptionCycleRewardList": [[], [], [], []]
  },
  {
    "id": 1075,
    "sceneId": 3,
    "dungeonEntryId": 729,
    "type": "DUNGEON_ENTRY_TYPE_NORMAL",
    "descTextMapHash": 409366177,
    "cooldownTipsDungeonId": [4061],
    "satisfiedCond": [{}, {}],
    "picPath": "UI_DungeonPic_Smr_LostCity03",
    "descriptionCycleRewardList": [[], [], [], []]
  },
  {
    "id": 1076,
    "sceneId": 3,
    "dungeonEntryId": 774,
    "type": "DUNGEON_ENTRY_TYPE_ACTIVITY",
    "descTextMapHash": 2569448665,
    "cooldownTipsDungeonId": [],
    "isDefaultOpen": true,
    "satisfiedCond": [{}, {}],
    "picPath": "UI_DungeonPic_CrystalLink",
    "descriptionCycleRewardList": [[], [], [], []]
  },
  {
    "id": 1077,
    "sceneId": 3,
    "dungeonEntryId": 812,
    "type": "DUNGEON_ENTRY_TYPE_ACTIVITY",
    "descTextMapHash": 72245937,
    "cooldownTipsDungeonId": [],
    "isDefaultOpen": true,
    "satisfiedCond": [{}, {}],
    "picPath": "UI_DungeonPic_ActivityInstableSpray01",
    "descriptionCycleRewardList": [[], [], [], []]
  },
  {
    "id": 1078,
    "sceneId": 3,
    "dungeonEntryId": 838,
    "type": "DUNGEON_ENTRY_TYPE_ACTIVITY",
    "descTextMapHash": 46761281,
    "cooldownTipsDungeonId": [],
    "isDefaultOpen": true,
    "satisfiedCond": [{}, {}],
    "picPath": "UI_DungeonPic_ActivityInstableSpray01",
    "descriptionCycleRewardList": [[], [], [], []]
  },
  {
    "id": 1079,
    "sceneId": 3,
    "dungeonEntryId": 848,
    "type": "DUNGEON_ENTRY_TYPE_TRIAL",
    "isShowInAdvHandbook": true,
    "descTextMapHash": 2021755697,
    "cooldownTipsDungeonId": [139, 140, 141, 142],
    "isDefaultOpen": true,
    "satisfiedCond": [{}, {}],
    "picPath": "UI_DungeonPic_WeekDungeon_Apep",
    "descriptionCycleRewardList": [[], [], [], []]
  },
  {
    "id": 1080,
    "sceneId": 3,
    "dungeonEntryId": 807,
    "type": "DUNGEON_ENTRY_TYPE_NORMAL",
    "descTextMapHash": 485860713,
    "cooldownTipsDungeonId": [4063],
    "satisfiedCond": [{}, {}],
    "picPath": "UI_DungeonPic_TeamChain",
    "descriptionCycleRewardList": [[], [], [], []]
  },
  {
    "id": 1081,
    "sceneId": 3,
    "dungeonEntryId": 805,
    "type": "DUNGEON_ENTRY_TYPE_NORMAL",
    "descTextMapHash": 1049040513,
    "cooldownTipsDungeonId": [4064],
    "satisfiedCond": [{}, {}],
    "picPath": "UI_DungeonPic_ActivityInstableSpray01",
    "descriptionCycleRewardList": [[], [], [], []]
  }
]
