[
  {
    "id": 1,
    "conds": [
      {
        "condType": "DUNGEON_COND_KILL_GROUP_MONSTER",
        "param": [220017001, 0, 0]
      },
      {
        "param": [0, 0, 0]
      },
      {
        "param": [0, 0, 0]
      },
      {
        "param": [0, 0, 0]
      }
    ]
  },
  {
    "id": 2,
    "conds": [
      {
        "condType": "DUNGEON_COND_KILL_GROUP_MONSTER",
        "param": [220008004, 0, 0]
      },
      {
        "param": [0, 0, 0]
      },
      {
        "param": [0, 0, 0]
      },
      {
        "param": [0, 0, 0]
      }
    ]
  },
  {
    "id": 3,
    "conds": [
      {
        "condType": "DUNGEON_COND_KILL_GROUP_MONSTER",
        "param": [220009003, 0, 0]
      },
      {
        "param": [0, 0, 0]
      },
      {
        "param": [0, 0, 0]
      },
      {
        "param": [0, 0, 0]
      }
    ]
  },
  {
    "id": 4,
    "conds": [
      {
        "condType": "DUNGEON_COND_KILL_TYPE_MONSTER",
        "param": [2, 2, 0]
      },
      {
        "param": [0, 0, 0]
      },
      {
        "param": [0, 0, 0]
      },
      {
        "param": [0, 0, 0]
      }
    ]
  },
  {
    "id": 5,
    "conds": [
      {
        "condType": "DUNGEON_COND_FINISH_QUEST",
        "param": [99902, 0, 0]
      },
      {
        "param": [0, 0, 0]
      },
      {
        "param": [0, 0, 0]
      },
      {
        "param": [0, 0, 0]
      }
    ]
  },
  {
    "id": 6,
    "logicType": "LOGIC_AND",
    "conds": [
      {
        "condType": "DUNGEON_COND_FINISH_QUEST",
        "param": [99902, 0, 0]
      },
      {
        "condType": "DUNGEON_COND_IN_TIME",
        "param": [60, 0, 0]
      },
      {
        "param": [0, 0, 0]
      },
      {
        "param": [0, 0, 0]
      }
    ]
  },
  {
    "id": 7,
    "conds": [
      {
        "condType": "DUNGEON_COND_FINISH_QUEST",
        "param": [30610, 0, 0]
      },
      {
        "param": [0, 0, 0]
      },
      {
        "param": [0, 0, 0]
      },
      {
        "param": [0, 0, 0]
      }
    ]
  },
  {
    "id": 8,
    "conds": [
      {
        "condType": "DUNGEON_COND_FINISH_QUEST",
        "param": [30713, 0, 0]
      },
      {
        "param": [0, 0, 0]
      },
      {
        "param": [0, 0, 0]
      },
      {
        "param": [0, 0, 0]
      }
    ]
  },
  {
    "id": 9,
    "conds": [
      {
        "condType": "DUNGEON_COND_FINISH_QUEST",
        "param": [30803, 0, 0]
      },
      {
        "param": [0, 0, 0]
      },
      {
        "param": [0, 0, 0]
      },
      {
        "param": [0, 0, 0]
      }
    ]
  },
  {
    "id": 10,
    "conds": [
      {
        "condType": "DUNGEON_COND_KILL_GROUP_MONSTER",
        "param": [220011003, 0, 0]
      },
      {
        "param": [0, 0, 0]
      },
      {
        "param": [0, 0, 0]
      },
      {
        "param": [0, 0, 0]
      }
    ]
  },
  {
    "id": 11,
    "conds": [
      {
        "condType": "DUNGEON_COND_KILL_GROUP_MONSTER",
        "param": [220014007, 0, 0]
      },
      {
        "param": [0, 0, 0]
      },
      {
        "param": [0, 0, 0]
      },
      {
        "param": [0, 0, 0]
      }
    ]
  },
  {
    "id": 12,
    "logicType": "LOGIC_AND",
    "conds": [
      {
        "condType": "DUNGEON_COND_FINISH_QUEST",
        "param": [30610, 0, 0]
      },
      {
        "condType": "DUNGEON_COND_IN_TIME",
        "param": [480, 0, 0]
      },
      {
        "param": [0, 0, 0]
      },
      {
        "param": [0, 0, 0]
      }
    ]
  },
  {
    "id": 13,
    "logicType": "LOGIC_AND",
    "conds": [
      {
        "condType": "DUNGEON_COND_KILL_MONSTER_COUNT",
        "param": [100, 0, 0]
      },
      {
        "condType": "DUNGEON_COND_IN_TIME",
        "param": [240, 0, 0]
      },
      {
        "param": [0, 0, 0]
      },
      {
        "param": [0, 0, 0]
      }
    ]
  },
  {
    "id": 14,
    "conds": [
      {
        "condType": "DUNGEON_COND_KILL_GROUP_MONSTER",
        "param": [240001004, 0, 0]
      },
      {
        "param": [0, 0, 0]
      },
      {
        "param": [0, 0, 0]
      },
      {
        "param": [0, 0, 0]
      }
    ]
  },
  {
    "id": 15,
    "conds": [
      {
        "condType": "DUNGEON_COND_FINISH_QUEST",
        "param": [1010108, 0, 0]
      },
      {
        "param": [0, 0, 0]
      },
      {
        "param": [0, 0, 0]
      },
      {
        "param": [0, 0, 0]
      }
    ]
  },
  {
    "id": 16,
    "conds": [
      {
        "condType": "DUNGEON_COND_KILL_GROUP_MONSTER",
        "param": [220012007, 0, 0]
      },
      {
        "param": [0, 0, 0]
      },
      {
        "param": [0, 0, 0]
      },
      {
        "param": [0, 0, 0]
      }
    ]
  },
  {
    "id": 17,
    "logicType": "LOGIC_OR",
    "conds": [
      {
        "condType": "DUNGEON_COND_FINISH_CHALLENGE",
        "param": [1002, 0, 0]
      },
      {
        "param": [0, 0, 0]
      },
      {
        "param": [0, 0, 0]
      },
      {
        "param": [0, 0, 0]
      }
    ]
  },
  {
    "id": 18,
    "conds": [
      {
        "condType": "DUNGEON_COND_FINISH_CHALLENGE",
        "param": [4, 0, 0]
      },
      {
        "param": [0, 0, 0]
      },
      {
        "param": [0, 0, 0]
      },
      {
        "param": [0, 0, 0]
      }
    ]
  },
  {
    "id": 19,
    "conds": [
      {
        "condType": "DUNGEON_COND_FINISH_CHALLENGE",
        "param": [2, 0, 0]
      },
      {
        "param": [0, 0, 0]
      },
      {
        "param": [0, 0, 0]
      },
      {
        "param": [0, 0, 0]
      }
    ]
  },
  {
    "id": 20,
    "conds": [
      {
        "condType": "DUNGEON_COND_KILL_GROUP_MONSTER",
        "param": [240007003, 0, 0]
      },
      {
        "param": [0, 0, 0]
      },
      {
        "param": [0, 0, 0]
      },
      {
        "param": [0, 0, 0]
      }
    ]
  },
  {
    "id": 21,
    "conds": [
      {
        "condType": "DUNGEON_COND_FINISH_QUEST",
        "param": [46305, 0, 0]
      },
      {
        "param": [0, 0, 0]
      },
      {
        "param": [0, 0, 0]
      },
      {
        "param": [0, 0, 0]
      }
    ]
  },
  {
    "id": 22,
    "conds": [
      {
        "condType": "DUNGEON_COND_FINISH_QUEST",
        "param": [38105, 0, 0]
      },
      {
        "param": [0, 0, 0]
      },
      {
        "param": [0, 0, 0]
      },
      {
        "param": [0, 0, 0]
      }
    ]
  },
  {
    "id": 23,
    "conds": [
      {
        "condType": "DUNGEON_COND_KILL_GROUP_MONSTER",
        "param": [240007003, 0, 0]
      },
      {
        "param": [0, 0, 0]
      },
      {
        "param": [0, 0, 0]
      },
      {
        "param": [0, 0, 0]
      }
    ]
  },
  {
    "id": 24,
    "conds": [
      {
        "condType": "DUNGEON_COND_KILL_GROUP_MONSTER",
        "param": [220013005, 0, 0]
      },
      {
        "param": [0, 0, 0]
      },
      {
        "param": [0, 0, 0]
      },
      {
        "param": [0, 0, 0]
      }
    ]
  },
  {
    "id": 25,
    "conds": [
      {
        "condType": "DUNGEON_COND_FINISH_QUEST",
        "param": [46510, 0, 0]
      },
      {
        "param": [0, 0, 0]
      },
      {
        "param": [0, 0, 0]
      },
      {
        "param": [0, 0, 0]
      }
    ]
  },
  {
    "id": 26,
    "conds": [
      {
        "condType": "DUNGEON_COND_FINISH_QUEST",
        "param": [39403, 0, 0]
      },
      {
        "param": [0, 0, 0]
      },
      {
        "param": [0, 0, 0]
      },
      {
        "param": [0, 0, 0]
      }
    ]
  },
  {
    "id": 27,
    "conds": [
      {
        "condType": "DUNGEON_COND_FINISH_QUEST",
        "param": [35724, 0, 0]
      },
      {
        "param": [0, 0, 0]
      },
      {
        "param": [0, 0, 0]
      },
      {
        "param": [0, 0, 0]
      }
    ]
  },
  {
    "id": 28,
    "conds": [
      {
        "condType": "DUNGEON_COND_KILL_GROUP_MONSTER",
        "param": [220017001, 0, 0]
      },
      {
        "param": [0, 0, 0]
      },
      {
        "param": [0, 0, 0]
      },
      {
        "param": [0, 0, 0]
      }
    ]
  },
  {
    "id": 29,
    "conds": [
      {
        "condType": "DUNGEON_COND_FINISH_CHALLENGE",
        "param": [1003, 0, 0]
      },
      {
        "param": [0, 0, 0]
      },
      {
        "param": [0, 0, 0]
      },
      {
        "param": [0, 0, 0]
      }
    ]
  },
  {
    "id": 30,
    "conds": [
      {
        "condType": "DUNGEON_COND_FINISH_CHALLENGE",
        "param": [2, 0, 0]
      },
      {
        "param": [0, 0, 0]
      },
      {
        "param": [0, 0, 0]
      },
      {
        "param": [0, 0, 0]
      }
    ]
  },
  {
    "id": 31,
    "conds": [
      {
        "condType": "DUNGEON_COND_FINISH_CHALLENGE",
        "param": [2, 0, 0]
      },
      {
        "param": [0, 0, 0]
      },
      {
        "param": [0, 0, 0]
      },
      {
        "param": [0, 0, 0]
      }
    ]
  },
  {
    "id": 32,
    "conds": [
      {
        "condType": "DUNGEON_COND_FINISH_CHALLENGE",
        "param": [2, 0, 0]
      },
      {
        "param": [0, 0, 0]
      },
      {
        "param": [0, 0, 0]
      },
      {
        "param": [0, 0, 0]
      }
    ]
  },
  {
    "id": 33,
    "conds": [
      {
        "condType": "DUNGEON_COND_FINISH_CHALLENGE",
        "param": [2, 0, 0]
      },
      {
        "param": [0, 0, 0]
      },
      {
        "param": [0, 0, 0]
      },
      {
        "param": [0, 0, 0]
      }
    ]
  },
  {
    "id": 34,
    "conds": [
      {
        "condType": "DUNGEON_COND_FINISH_QUEST",
        "param": [49006, 0, 0]
      },
      {
        "param": [0, 0, 0]
      },
      {
        "param": [0, 0, 0]
      },
      {
        "param": [0, 0, 0]
      }
    ]
  },
  {
    "id": 35,
    "conds": [
      {
        "condType": "DUNGEON_COND_FINISH_QUEST",
        "param": [48512, 0, 0]
      },
      {
        "param": [0, 0, 0]
      },
      {
        "param": [0, 0, 0]
      },
      {
        "param": [0, 0, 0]
      }
    ]
  },
  {
    "id": 36,
    "conds": [
      {
        "condType": "DUNGEON_COND_FINISH_CHALLENGE",
        "param": [2, 0, 0]
      },
      {
        "param": [0, 0, 0]
      },
      {
        "param": [0, 0, 0]
      },
      {
        "param": [0, 0, 0]
      }
    ]
  },
  {
    "id": 37,
    "conds": [
      {
        "condType": "DUNGEON_COND_FINISH_QUEST",
        "param": [48506, 0, 0]
      },
      {
        "param": [0, 0, 0]
      },
      {
        "param": [0, 0, 0]
      },
      {
        "param": [0, 0, 0]
      }
    ]
  },
  {
    "id": 38,
    "conds": [
      {
        "condType": "DUNGEON_COND_KILL_GROUP_MONSTER",
        "param": [240010007, 0, 0]
      },
      {
        "param": [0, 0, 0]
      },
      {
        "param": [0, 0, 0]
      },
      {
        "param": [0, 0, 0]
      }
    ]
  },
  {
    "id": 39,
    "conds": [
      {
        "condType": "DUNGEON_COND_FINISH_CHALLENGE",
        "param": [1, 0, 0]
      },
      {
        "param": [0, 0, 0]
      },
      {
        "param": [0, 0, 0]
      },
      {
        "param": [0, 0, 0]
      }
    ]
  },
  {
    "id": 40,
    "conds": [
      {
        "condType": "DUNGEON_COND_FINISH_QUEST",
        "param": [2010151, 0, 0]
      },
      {
        "param": [0, 0, 0]
      },
      {
        "param": [0, 0, 0]
      },
      {
        "param": [0, 0, 0]
      }
    ]
  },
  {
    "id": 41,
    "conds": [
      {
        "condType": "DUNGEON_COND_KILL_GROUP_MONSTER",
        "param": [201024010, 0, 0]
      },
      {
        "param": [0, 0, 0]
      },
      {
        "param": [0, 0, 0]
      },
      {
        "param": [0, 0, 0]
      }
    ]
  },
  {
    "id": 42,
    "logicType": "LOGIC_AND",
    "conds": [
      {
        "condType": "DUNGEON_COND_KILL_GROUP_MONSTER",
        "param": [240014002, 0, 0]
      },
      {
        "condType": "DUNGEON_COND_IN_TIME",
        "param": [480, 0, 0]
      },
      {
        "param": [0, 0, 0]
      },
      {
        "param": [0, 0, 0]
      }
    ]
  },
  {
    "id": 43,
    "conds": [
      {
        "condType": "DUNGEON_COND_KILL_GROUP_MONSTER",
        "param": [220025005, 0, 0]
      },
      {
        "param": [0, 0, 0]
      },
      {
        "param": [0, 0, 0]
      },
      {
        "param": [0, 0, 0]
      }
    ]
  },
  {
    "id": 44,
    "conds": [
      {
        "condType": "DUNGEON_COND_KILL_GROUP_MONSTER",
        "param": [220026005, 0, 0]
      },
      {
        "param": [0, 0, 0]
      },
      {
        "param": [0, 0, 0]
      },
      {
        "param": [0, 0, 0]
      }
    ]
  },
  {
    "id": 45,
    "conds": [
      {
        "condType": "DUNGEON_COND_KILL_GROUP_MONSTER",
        "param": [220027005, 0, 0]
      },
      {
        "param": [0, 0, 0]
      },
      {
        "param": [0, 0, 0]
      },
      {
        "param": [0, 0, 0]
      }
    ]
  },
  {
    "id": 46,
    "conds": [
      {
        "condType": "DUNGEON_COND_KILL_GROUP_MONSTER",
        "param": [220028005, 0, 0]
      },
      {
        "param": [0, 0, 0]
      },
      {
        "param": [0, 0, 0]
      },
      {
        "param": [0, 0, 0]
      }
    ]
  },
  {
    "id": 47,
    "logicType": "LOGIC_AND",
    "conds": [
      {
        "condType": "DUNGEON_COND_KILL_GROUP_MONSTER",
        "param": [240013002, 0, 0]
      },
      {
        "condType": "DUNGEON_COND_IN_TIME",
        "param": [480, 0, 0]
      },
      {
        "param": [0, 0, 0]
      },
      {
        "param": [0, 0, 0]
      }
    ]
  },
  {
    "id": 48,
    "conds": [
      {
        "condType": "DUNGEON_COND_KILL_GROUP_MONSTER",
        "param": [220029005, 0, 0]
      },
      {
        "param": [0, 0, 0]
      },
      {
        "param": [0, 0, 0]
      },
      {
        "param": [0, 0, 0]
      }
    ]
  },
  {
    "id": 49,
    "conds": [
      {
        "condType": "DUNGEON_COND_KILL_GROUP_MONSTER",
        "param": [220030005, 0, 0]
      },
      {
        "param": [0, 0, 0]
      },
      {
        "param": [0, 0, 0]
      },
      {
        "param": [0, 0, 0]
      }
    ]
  },
  {
    "id": 50,
    "conds": [
      {
        "condType": "DUNGEON_COND_FINISH_CHALLENGE",
        "param": [2, 0, 0]
      },
      {
        "param": [0, 0, 0]
      },
      {
        "param": [0, 0, 0]
      },
      {
        "param": [0, 0, 0]
      }
    ]
  },
  {
    "id": 51,
    "conds": [
      {
        "condType": "DUNGEON_COND_FINISH_CHALLENGE",
        "param": [1, 0, 0]
      },
      {
        "param": [0, 0, 0]
      },
      {
        "param": [0, 0, 0]
      },
      {
        "param": [0, 0, 0]
      }
    ]
  },
  {
    "id": 52,
    "conds": [
      {
        "condType": "DUNGEON_COND_FINISH_CHALLENGE",
        "param": [101, 0, 0]
      },
      {
        "param": [0, 0, 0]
      },
      {
        "param": [0, 0, 0]
      },
      {
        "param": [0, 0, 0]
      }
    ]
  },
  {
    "id": 53,
    "conds": [
      {
        "condType": "DUNGEON_COND_FINISH_CHALLENGE",
        "param": [101, 0, 0]
      },
      {
        "param": [0, 0, 0]
      },
      {
        "param": [0, 0, 0]
      },
      {
        "param": [0, 0, 0]
      }
    ]
  },
  {
    "id": 54,
    "conds": [
      {
        "condType": "DUNGEON_COND_FINISH_QUEST",
        "param": [1100403, 0, 0]
      },
      {
        "param": [0, 0, 0]
      },
      {
        "param": [0, 0, 0]
      },
      {
        "param": [0, 0, 0]
      }
    ]
  },
  {
    "id": 55,
    "conds": [
      {
        "condType": "DUNGEON_COND_FINISH_QUEST",
        "param": [1020111, 0, 0]
      },
      {
        "param": [0, 0, 0]
      },
      {
        "param": [0, 0, 0]
      },
      {
        "param": [0, 0, 0]
      }
    ]
  },
  {
    "id": 56,
    "conds": [
      {
        "condType": "DUNGEON_COND_FINISH_CHALLENGE",
        "param": [1, 0, 0]
      },
      {
        "param": [0, 0, 0]
      },
      {
        "param": [0, 0, 0]
      },
      {
        "param": [0, 0, 0]
      }
    ]
  },
  {
    "id": 57,
    "conds": [
      {
        "condType": "DUNGEON_COND_FINISH_CHALLENGE",
        "param": [1, 0, 0]
      },
      {
        "param": [0, 0, 0]
      },
      {
        "param": [0, 0, 0]
      },
      {
        "param": [0, 0, 0]
      }
    ]
  },
  {
    "id": 58,
    "conds": [
      {
        "condType": "DUNGEON_COND_FINISH_CHALLENGE",
        "param": [1, 0, 0]
      },
      {
        "param": [0, 0, 0]
      },
      {
        "param": [0, 0, 0]
      },
      {
        "param": [0, 0, 0]
      }
    ]
  },
  {
    "id": 59,
    "conds": [
      {
        "condType": "DUNGEON_COND_FINISH_CHALLENGE",
        "param": [1, 0, 0]
      },
      {
        "param": [0, 0, 0]
      },
      {
        "param": [0, 0, 0]
      },
      {
        "param": [0, 0, 0]
      }
    ]
  },
  {
    "id": 60,
    "conds": [
      {
        "condType": "DUNGEON_COND_FINISH_CHALLENGE",
        "param": [1, 0, 0]
      },
      {
        "param": [0, 0, 0]
      },
      {
        "param": [0, 0, 0]
      },
      {
        "param": [0, 0, 0]
      }
    ]
  },
  {
    "id": 61,
    "conds": [
      {
        "condType": "DUNGEON_COND_FINISH_CHALLENGE",
        "param": [1, 0, 0]
      },
      {
        "param": [0, 0, 0]
      },
      {
        "param": [0, 0, 0]
      },
      {
        "param": [0, 0, 0]
      }
    ]
  },
  {
    "id": 62,
    "conds": [
      {
        "condType": "DUNGEON_COND_FINISH_CHALLENGE",
        "param": [2, 0, 0]
      },
      {
        "param": [0, 0, 0]
      },
      {
        "param": [0, 0, 0]
      },
      {
        "param": [0, 0, 0]
      }
    ]
  },
  {
    "id": 63,
    "conds": [
      {
        "condType": "DUNGEON_COND_KILL_GROUP_MONSTER",
        "param": [220025001, 0, 0]
      },
      {
        "param": [0, 0, 0]
      },
      {
        "param": [0, 0, 0]
      },
      {
        "param": [0, 0, 0]
      }
    ]
  },
  {
    "id": 64,
    "conds": [
      {
        "condType": "DUNGEON_COND_KILL_GROUP_MONSTER",
        "param": [240009005, 0, 0]
      },
      {
        "param": [0, 0, 0]
      },
      {
        "param": [0, 0, 0]
      },
      {
        "param": [0, 0, 0]
      }
    ]
  },
  {
    "id": 65,
    "conds": [
      {
        "condType": "DUNGEON_COND_KILL_GROUP_MONSTER",
        "param": [240008003, 0, 0]
      },
      {
        "param": [0, 0, 0]
      },
      {
        "param": [0, 0, 0]
      },
      {
        "param": [0, 0, 0]
      }
    ]
  },
  {
    "id": 66,
    "conds": [
      {
        "condType": "DUNGEON_COND_FINISH_CHALLENGE",
        "param": [2, 0, 0]
      },
      {
        "param": [0, 0, 0]
      },
      {
        "param": [0, 0, 0]
      },
      {
        "param": [0, 0, 0]
      }
    ]
  },
  {
    "id": 67,
    "conds": [
      {
        "condType": "DUNGEON_COND_KILL_GROUP_MONSTER",
        "param": [201032007, 0, 0]
      },
      {
        "param": [0, 0, 0]
      },
      {
        "param": [0, 0, 0]
      },
      {
        "param": [0, 0, 0]
      }
    ]
  },
  {
    "id": 68,
    "conds": [
      {
        "condType": "DUNGEON_COND_FINISH_QUEST",
        "param": [101408, 0, 0]
      },
      {
        "param": [0, 0, 0]
      },
      {
        "param": [0, 0, 0]
      },
      {
        "param": [0, 0, 0]
      }
    ]
  },
  {
    "id": 69,
    "conds": [
      {
        "condType": "DUNGEON_COND_FINISH_CHALLENGE",
        "param": [100, 0, 0]
      },
      {
        "param": [0, 0, 0]
      },
      {
        "param": [0, 0, 0]
      },
      {
        "param": [0, 0, 0]
      }
    ]
  },
  {
    "id": 70,
    "conds": [
      {
        "condType": "DUNGEON_COND_FINISH_CHALLENGE",
        "param": [100, 0, 0]
      },
      {
        "param": [0, 0, 0]
      },
      {
        "param": [0, 0, 0]
      },
      {
        "param": [0, 0, 0]
      }
    ]
  },
  {
    "id": 71,
    "conds": [
      {
        "condType": "DUNGEON_COND_KILL_GROUP_MONSTER",
        "param": [240015008, 0, 0]
      },
      {
        "param": [0, 0, 0]
      },
      {
        "param": [0, 0, 0]
      },
      {
        "param": [0, 0, 0]
      }
    ]
  },
  {
    "id": 72,
    "conds": [
      {
        "condType": "DUNGEON_COND_FINISH_CHALLENGE",
        "param": [100, 0, 0]
      },
      {
        "param": [0, 0, 0]
      },
      {
        "param": [0, 0, 0]
      },
      {
        "param": [0, 0, 0]
      }
    ]
  },
  {
    "id": 73,
    "conds": [
      {
        "condType": "DUNGEON_COND_KILL_GROUP_MONSTER",
        "param": [240019001, 0, 0]
      },
      {
        "param": [0, 0, 0]
      },
      {
        "param": [0, 0, 0]
      },
      {
        "param": [0, 0, 0]
      }
    ]
  },
  {
    "id": 74,
    "conds": [
      {
        "condType": "DUNGEON_COND_KILL_GROUP_MONSTER",
        "param": [240020001, 0, 0]
      },
      {
        "param": [0, 0, 0]
      },
      {
        "param": [0, 0, 0]
      },
      {
        "param": [0, 0, 0]
      }
    ]
  },
  {
    "id": 75,
    "conds": [
      {
        "condType": "DUNGEON_COND_FINISH_CHALLENGE",
        "param": [2, 0, 0]
      },
      {
        "param": [0, 0, 0]
      },
      {
        "param": [0, 0, 0]
      },
      {
        "param": [0, 0, 0]
      }
    ]
  },
  {
    "id": 76,
    "conds": [
      {
        "condType": "DUNGEON_COND_FINISH_QUEST",
        "param": [1011106, 0, 0]
      },
      {
        "param": [0, 0, 0]
      },
      {
        "param": [0, 0, 0]
      },
      {
        "param": [0, 0, 0]
      }
    ]
  },
  {
    "id": 77,
    "conds": [
      {
        "condType": "DUNGEON_COND_FINISH_QUEST",
        "param": [100914, 0, 0]
      },
      {
        "param": [0, 0, 0]
      },
      {
        "param": [0, 0, 0]
      },
      {
        "param": [0, 0, 0]
      }
    ]
  },
  {
    "id": 78,
    "conds": [
      {
        "condType": "DUNGEON_COND_FINISH_QUEST",
        "param": [7180004, 0, 0]
      },
      {
        "param": [0, 0, 0]
      },
      {
        "param": [0, 0, 0]
      },
      {
        "param": [0, 0, 0]
      }
    ]
  },
  {
    "id": 79,
    "conds": [
      {
        "condType": "DUNGEON_COND_FINISH_QUEST",
        "param": [1120111, 0, 0]
      },
      {
        "param": [0, 0, 0]
      },
      {
        "param": [0, 0, 0]
      },
      {
        "param": [0, 0, 0]
      }
    ]
  },
  {
    "id": 80,
    "conds": [
      {
        "condType": "DUNGEON_COND_FINISH_QUEST",
        "param": [7180206, 0, 0]
      },
      {
        "param": [0, 0, 0]
      },
      {
        "param": [0, 0, 0]
      },
      {
        "param": [0, 0, 0]
      }
    ]
  },
  {
    "id": 81,
    "conds": [
      {
        "condType": "DUNGEON_COND_FINISH_QUEST",
        "param": [1101208, 0, 0]
      },
      {
        "param": [0, 0, 0]
      },
      {
        "param": [0, 0, 0]
      },
      {
        "param": [0, 0, 0]
      }
    ]
  },
  {
    "id": 82,
    "conds": [
      {
        "condType": "DUNGEON_COND_FINISH_QUEST",
        "param": [102405, 0, 0]
      },
      {
        "param": [0, 0, 0]
      },
      {
        "param": [0, 0, 0]
      },
      {
        "param": [0, 0, 0]
      }
    ]
  },
  {
    "id": 83,
    "conds": [
      {
        "condType": "DUNGEON_COND_FINISH_QUEST",
        "param": [1102311, 0, 0]
      },
      {
        "param": [0, 0, 0]
      },
      {
        "param": [0, 0, 0]
      },
      {
        "param": [0, 0, 0]
      }
    ]
  },
  {
    "id": 84,
    "conds": [
      {
        "condType": "DUNGEON_COND_KILL_MONSTER",
        "param": [29030103, 0, 0]
      },
      {
        "param": [0, 0, 0]
      },
      {
        "param": [0, 0, 0]
      },
      {
        "param": [0, 0, 0]
      }
    ]
  },
  {
    "id": 85,
    "conds": [
      {
        "condType": "DUNGEON_COND_KILL_MONSTER",
        "param": [29030106, 0, 0]
      },
      {
        "param": [0, 0, 0]
      },
      {
        "param": [0, 0, 0]
      },
      {
        "param": [0, 0, 0]
      }
    ]
  },
  {
    "id": 86,
    "conds": [
      {
        "condType": "DUNGEON_COND_FINISH_CHALLENGE",
        "param": [1, 0, 0]
      },
      {
        "param": [0, 0, 0]
      },
      {
        "param": [0, 0, 0]
      },
      {
        "param": [0, 0, 0]
      }
    ]
  },
  {
    "id": 87,
    "conds": [
      {
        "condType": "DUNGEON_COND_FINISH_CHALLENGE",
        "param": [110104, 0, 0]
      },
      {
        "param": [0, 0, 0]
      },
      {
        "param": [0, 0, 0]
      },
      {
        "param": [0, 0, 0]
      }
    ]
  },
  {
    "id": 88,
    "conds": [
      {
        "condType": "DUNGEON_COND_FINISH_QUEST",
        "param": [1110205, 0, 0]
      },
      {
        "param": [0, 0, 0]
      },
      {
        "param": [0, 0, 0]
      },
      {
        "param": [0, 0, 0]
      }
    ]
  },
  {
    "id": 89,
    "conds": [
      {
        "condType": "DUNGEON_COND_FINISH_CHALLENGE",
        "param": [110107, 0, 0]
      },
      {
        "param": [0, 0, 0]
      },
      {
        "param": [0, 0, 0]
      },
      {
        "param": [0, 0, 0]
      }
    ]
  },
  {
    "id": 90,
    "conds": [
      {
        "condType": "DUNGEON_COND_FINISH_CHALLENGE",
        "param": [110110, 0, 0]
      },
      {
        "param": [0, 0, 0]
      },
      {
        "param": [0, 0, 0]
      },
      {
        "param": [0, 0, 0]
      }
    ]
  },
  {
    "id": 91,
    "conds": [
      {
        "condType": "DUNGEON_COND_FINISH_CHALLENGE",
        "param": [110113, 0, 0]
      },
      {
        "param": [0, 0, 0]
      },
      {
        "param": [0, 0, 0]
      },
      {
        "param": [0, 0, 0]
      }
    ]
  },
  {
    "id": 92,
    "conds": [
      {
        "condType": "DUNGEON_COND_FINISH_CHALLENGE",
        "param": [110116, 0, 0]
      },
      {
        "param": [0, 0, 0]
      },
      {
        "param": [0, 0, 0]
      },
      {
        "param": [0, 0, 0]
      }
    ]
  },
  {
    "id": 93,
    "conds": [
      {
        "condType": "DUNGEON_COND_FINISH_CHALLENGE",
        "param": [110119, 0, 0]
      },
      {
        "param": [0, 0, 0]
      },
      {
        "param": [0, 0, 0]
      },
      {
        "param": [0, 0, 0]
      }
    ]
  },
  {
    "id": 94,
    "conds": [
      {
        "condType": "DUNGEON_COND_FINISH_CHALLENGE",
        "param": [110122, 0, 0]
      },
      {
        "param": [0, 0, 0]
      },
      {
        "param": [0, 0, 0]
      },
      {
        "param": [0, 0, 0]
      }
    ]
  },
  {
    "id": 95,
    "conds": [
      {
        "condType": "DUNGEON_COND_FINISH_CHALLENGE",
        "param": [110126, 0, 0]
      },
      {
        "param": [0, 0, 0]
      },
      {
        "param": [0, 0, 0]
      },
      {
        "param": [0, 0, 0]
      }
    ]
  },
  {
    "id": 96,
    "conds": [
      {
        "condType": "DUNGEON_COND_FINISH_QUEST",
        "param": [1800018, 0, 0]
      },
      {
        "param": [0, 0, 0]
      },
      {
        "param": [0, 0, 0]
      },
      {
        "param": [0, 0, 0]
      }
    ]
  },
  {
    "id": 97,
    "conds": [
      {
        "condType": "DUNGEON_COND_FINISH_QUEST",
        "param": [1111305, 0, 0]
      },
      {
        "param": [0, 0, 0]
      },
      {
        "param": [0, 0, 0]
      },
      {
        "param": [0, 0, 0]
      }
    ]
  },
  {
    "id": 98,
    "conds": [
      {
        "condType": "DUNGEON_COND_FINISH_QUEST",
        "param": [800008, 0, 0]
      },
      {
        "param": [0, 0, 0]
      },
      {
        "param": [0, 0, 0]
      },
      {
        "param": [0, 0, 0]
      }
    ]
  },
  {
    "id": 99,
    "conds": [
      {
        "condType": "DUNGEON_COND_END_MULTISTAGE_PLAY",
        "param": [250030011, 999, 0]
      },
      {
        "param": [0, 0, 0]
      },
      {
        "param": [0, 0, 0]
      },
      {
        "param": [0, 0, 0]
      }
    ]
  },
  {
    "id": 100,
    "conds": [
      {
        "condType": "DUNGEON_COND_END_MULTISTAGE_PLAY",
        "param": [242006031, 999, 0]
      },
      {
        "param": [0, 0, 0]
      },
      {
        "param": [0, 0, 0]
      },
      {
        "param": [0, 0, 0]
      }
    ]
  },
  {
    "id": 101,
    "conds": [
      {
        "condType": "DUNGEON_COND_END_MULTISTAGE_PLAY",
        "param": [242002001, 999, 0]
      },
      {
        "param": [0, 0, 0]
      },
      {
        "param": [0, 0, 0]
      },
      {
        "param": [0, 0, 0]
      }
    ]
  },
  {
    "id": 102,
    "conds": [
      {
        "condType": "DUNGEON_COND_END_MULTISTAGE_PLAY",
        "param": [242001001, 999, 0]
      },
      {
        "param": [0, 0, 0]
      },
      {
        "param": [0, 0, 0]
      },
      {
        "param": [0, 0, 0]
      }
    ]
  },
  {
    "id": 103,
    "conds": [
      {
        "condType": "DUNGEON_COND_END_MULTISTAGE_PLAY",
        "param": [242007017, 999, 0]
      },
      {
        "param": [0, 0, 0]
      },
      {
        "param": [0, 0, 0]
      },
      {
        "param": [0, 0, 0]
      }
    ]
  },
  {
    "id": 104,
    "conds": [
      {
        "condType": "DUNGEON_COND_END_MULTISTAGE_PLAY",
        "param": [242003010, 999, 0]
      },
      {
        "param": [0, 0, 0]
      },
      {
        "param": [0, 0, 0]
      },
      {
        "param": [0, 0, 0]
      }
    ]
  },
  {
    "id": 105,
    "conds": [
      {
        "condType": "DUNGEON_COND_END_MULTISTAGE_PLAY",
        "param": [242005001, 999, 0]
      },
      {
        "param": [0, 0, 0]
      },
      {
        "param": [0, 0, 0]
      },
      {
        "param": [0, 0, 0]
      }
    ]
  },
  {
    "id": 106,
    "conds": [
      {
        "condType": "DUNGEON_COND_END_MULTISTAGE_PLAY",
        "param": [242004001, 999, 0]
      },
      {
        "param": [0, 0, 0]
      },
      {
        "param": [0, 0, 0]
      },
      {
        "param": [0, 0, 0]
      }
    ]
  },
  {
    "id": 107,
    "conds": [
      {
        "condType": "DUNGEON_COND_FINISH_QUEST",
        "param": [800311, 0, 0]
      },
      {
        "param": [0, 0, 0]
      },
      {
        "param": [0, 0, 0]
      },
      {
        "param": [0, 0, 0]
      }
    ]
  },
  {
    "id": 108,
    "conds": [
      {
        "condType": "DUNGEON_COND_END_MULTISTAGE_PLAY",
        "param": [242009001, 999, 0]
      },
      {
        "param": [0, 0, 0]
      },
      {
        "param": [0, 0, 0]
      },
      {
        "param": [0, 0, 0]
      }
    ]
  },
  {
    "id": 109,
    "conds": [
      {
        "condType": "DUNGEON_COND_END_MULTISTAGE_PLAY",
        "param": [242010001, 999, 0]
      },
      {
        "param": [0, 0, 0]
      },
      {
        "param": [0, 0, 0]
      },
      {
        "param": [0, 0, 0]
      }
    ]
  },
  {
    "id": 110,
    "conds": [
      {
        "condType": "DUNGEON_COND_END_MULTISTAGE_PLAY",
        "param": [242012017, 999, 0]
      },
      {
        "param": [0, 0, 0]
      },
      {
        "param": [0, 0, 0]
      },
      {
        "param": [0, 0, 0]
      }
    ]
  },
  {
    "id": 111,
    "conds": [
      {
        "condType": "DUNGEON_COND_END_MULTISTAGE_PLAY",
        "param": [242013010, 999, 0]
      },
      {
        "param": [0, 0, 0]
      },
      {
        "param": [0, 0, 0]
      },
      {
        "param": [0, 0, 0]
      }
    ]
  },
  {
    "id": 112,
    "conds": [
      {
        "condType": "DUNGEON_COND_END_MULTISTAGE_PLAY",
        "param": [242011001, 999, 0]
      },
      {
        "param": [0, 0, 0]
      },
      {
        "param": [0, 0, 0]
      },
      {
        "param": [0, 0, 0]
      }
    ]
  },
  {
    "id": 113,
    "conds": [
      {
        "condType": "DUNGEON_COND_END_MULTISTAGE_PLAY",
        "param": [242014031, 999, 0]
      },
      {
        "param": [0, 0, 0]
      },
      {
        "param": [0, 0, 0]
      },
      {
        "param": [0, 0, 0]
      }
    ]
  },
  {
    "id": 114,
    "conds": [
      {
        "condType": "DUNGEON_COND_FINISH_CHALLENGE",
        "param": [1, 0, 0]
      },
      {
        "param": [0, 0, 0]
      },
      {
        "param": [0, 0, 0]
      },
      {
        "param": [0, 0, 0]
      }
    ]
  },
  {
    "id": 115,
    "conds": [
      {
        "condType": "DUNGEON_COND_END_MULTISTAGE_PLAY",
        "param": [242008001, 999, 0]
      },
      {
        "param": [0, 0, 0]
      },
      {
        "param": [0, 0, 0]
      },
      {
        "param": [0, 0, 0]
      }
    ]
  },
  {
    "id": 116,
    "conds": [
      {
        "condType": "DUNGEON_COND_FINISH_CHALLENGE",
        "param": [1, 0, 0]
      },
      {
        "param": [0, 0, 0]
      },
      {
        "param": [0, 0, 0]
      },
      {
        "param": [0, 0, 0]
      }
    ]
  },
  {
    "id": 117,
    "conds": [
      {
        "condType": "DUNGEON_COND_FINISH_CHALLENGE",
        "param": [1, 0, 0]
      },
      {
        "param": [0, 0, 0]
      },
      {
        "param": [0, 0, 0]
      },
      {
        "param": [0, 0, 0]
      }
    ]
  },
  {
    "id": 118,
    "conds": [
      {
        "condType": "DUNGEON_COND_FINISH_CHALLENGE",
        "param": [1, 0, 0]
      },
      {
        "param": [0, 0, 0]
      },
      {
        "param": [0, 0, 0]
      },
      {
        "param": [0, 0, 0]
      }
    ]
  },
  {
    "id": 119,
    "conds": [
      {
        "condType": "DUNGEON_COND_FINISH_CHALLENGE",
        "param": [1, 0, 0]
      },
      {
        "param": [0, 0, 0]
      },
      {
        "param": [0, 0, 0]
      },
      {
        "param": [0, 0, 0]
      }
    ]
  },
  {
    "id": 120,
    "conds": [
      {
        "condType": "DUNGEON_COND_FINISH_CHALLENGE",
        "param": [1, 0, 0]
      },
      {
        "param": [0, 0, 0]
      },
      {
        "param": [0, 0, 0]
      },
      {
        "param": [0, 0, 0]
      }
    ]
  },
  {
    "id": 121,
    "conds": [
      {
        "condType": "DUNGEON_COND_FINISH_CHALLENGE",
        "param": [1, 0, 0]
      },
      {
        "param": [0, 0, 0]
      },
      {
        "param": [0, 0, 0]
      },
      {
        "param": [0, 0, 0]
      }
    ]
  },
  {
    "id": 122,
    "conds": [
      {
        "condType": "DUNGEON_COND_FINISH_CHALLENGE",
        "param": [1, 0, 0]
      },
      {
        "param": [0, 0, 0]
      },
      {
        "param": [0, 0, 0]
      },
      {
        "param": [0, 0, 0]
      }
    ]
  },
  {
    "id": 123,
    "conds": [
      {
        "condType": "DUNGEON_COND_FINISH_CHALLENGE",
        "param": [1, 0, 0]
      },
      {
        "param": [0, 0, 0]
      },
      {
        "param": [0, 0, 0]
      },
      {
        "param": [0, 0, 0]
      }
    ]
  },
  {
    "id": 124,
    "conds": [
      {
        "condType": "DUNGEON_COND_FINISH_CHALLENGE",
        "param": [1, 0, 0]
      },
      {
        "param": [0, 0, 0]
      },
      {
        "param": [0, 0, 0]
      },
      {
        "param": [0, 0, 0]
      }
    ]
  },
  {
    "id": 125,
    "conds": [
      {
        "condType": "DUNGEON_COND_FINISH_CHALLENGE",
        "param": [1, 0, 0]
      },
      {
        "param": [0, 0, 0]
      },
      {
        "param": [0, 0, 0]
      },
      {
        "param": [0, 0, 0]
      }
    ]
  },
  {
    "id": 126,
    "conds": [
      {
        "condType": "DUNGEON_COND_FINISH_CHALLENGE",
        "param": [1, 0, 0]
      },
      {
        "param": [0, 0, 0]
      },
      {
        "param": [0, 0, 0]
      },
      {
        "param": [0, 0, 0]
      }
    ]
  },
  {
    "id": 127,
    "conds": [
      {
        "condType": "DUNGEON_COND_FINISH_CHALLENGE",
        "param": [1, 0, 0]
      },
      {
        "param": [0, 0, 0]
      },
      {
        "param": [0, 0, 0]
      },
      {
        "param": [0, 0, 0]
      }
    ]
  },
  {
    "id": 128,
    "conds": [
      {
        "condType": "DUNGEON_COND_FINISH_CHALLENGE",
        "param": [1, 0, 0]
      },
      {
        "param": [0, 0, 0]
      },
      {
        "param": [0, 0, 0]
      },
      {
        "param": [0, 0, 0]
      }
    ]
  },
  {
    "id": 129,
    "conds": [
      {
        "condType": "DUNGEON_COND_FINISH_CHALLENGE",
        "param": [1, 0, 0]
      },
      {
        "param": [0, 0, 0]
      },
      {
        "param": [0, 0, 0]
      },
      {
        "param": [0, 0, 0]
      }
    ]
  },
  {
    "id": 130,
    "conds": [
      {
        "condType": "DUNGEON_COND_FINISH_CHALLENGE",
        "param": [1, 0, 0]
      },
      {
        "param": [0, 0, 0]
      },
      {
        "param": [0, 0, 0]
      },
      {
        "param": [0, 0, 0]
      }
    ]
  },
  {
    "id": 131,
    "conds": [
      {
        "condType": "DUNGEON_COND_FINISH_CHALLENGE",
        "param": [1, 0, 0]
      },
      {
        "param": [0, 0, 0]
      },
      {
        "param": [0, 0, 0]
      },
      {
        "param": [0, 0, 0]
      }
    ]
  },
  {
    "id": 132,
    "conds": [
      {
        "condType": "DUNGEON_COND_FINISH_CHALLENGE",
        "param": [1, 0, 0]
      },
      {
        "param": [0, 0, 0]
      },
      {
        "param": [0, 0, 0]
      },
      {
        "param": [0, 0, 0]
      }
    ]
  },
  {
    "id": 133,
    "conds": [
      {
        "condType": "DUNGEON_COND_FINISH_CHALLENGE",
        "param": [1, 0, 0]
      },
      {
        "param": [0, 0, 0]
      },
      {
        "param": [0, 0, 0]
      },
      {
        "param": [0, 0, 0]
      }
    ]
  },
  {
    "id": 134,
    "conds": [
      {
        "condType": "DUNGEON_COND_FINISH_CHALLENGE",
        "param": [1, 0, 0]
      },
      {
        "param": [0, 0, 0]
      },
      {
        "param": [0, 0, 0]
      },
      {
        "param": [0, 0, 0]
      }
    ]
  },
  {
    "id": 135,
    "conds": [
      {
        "condType": "DUNGEON_COND_FINISH_CHALLENGE",
        "param": [1, 0, 0]
      },
      {
        "param": [0, 0, 0]
      },
      {
        "param": [0, 0, 0]
      },
      {
        "param": [0, 0, 0]
      }
    ]
  },
  {
    "id": 136,
    "conds": [
      {
        "condType": "DUNGEON_COND_FINISH_CHALLENGE",
        "param": [1, 0, 0]
      },
      {
        "param": [0, 0, 0]
      },
      {
        "param": [0, 0, 0]
      },
      {
        "param": [0, 0, 0]
      }
    ]
  },
  {
    "id": 137,
    "conds": [
      {
        "condType": "DUNGEON_COND_FINISH_CHALLENGE",
        "param": [1, 0, 0]
      },
      {
        "param": [0, 0, 0]
      },
      {
        "param": [0, 0, 0]
      },
      {
        "param": [0, 0, 0]
      }
    ]
  },
  {
    "id": 138,
    "conds": [
      {
        "condType": "DUNGEON_COND_FINISH_CHALLENGE",
        "param": [1, 0, 0]
      },
      {
        "param": [0, 0, 0]
      },
      {
        "param": [0, 0, 0]
      },
      {
        "param": [0, 0, 0]
      }
    ]
  },
  {
    "id": 139,
    "conds": [
      {
        "condType": "DUNGEON_COND_FINISH_CHALLENGE",
        "param": [1, 0, 0]
      },
      {
        "param": [0, 0, 0]
      },
      {
        "param": [0, 0, 0]
      },
      {
        "param": [0, 0, 0]
      }
    ]
  },
  {
    "id": 140,
    "conds": [
      {
        "condType": "DUNGEON_COND_FINISH_CHALLENGE",
        "param": [1, 0, 0]
      },
      {
        "param": [0, 0, 0]
      },
      {
        "param": [0, 0, 0]
      },
      {
        "param": [0, 0, 0]
      }
    ]
  },
  {
    "id": 141,
    "conds": [
      {
        "condType": "DUNGEON_COND_FINISH_CHALLENGE",
        "param": [1, 0, 0]
      },
      {
        "param": [0, 0, 0]
      },
      {
        "param": [0, 0, 0]
      },
      {
        "param": [0, 0, 0]
      }
    ]
  },
  {
    "id": 142,
    "conds": [
      {
        "condType": "DUNGEON_COND_FINISH_CHALLENGE",
        "param": [1, 0, 0]
      },
      {
        "param": [0, 0, 0]
      },
      {
        "param": [0, 0, 0]
      },
      {
        "param": [0, 0, 0]
      }
    ]
  },
  {
    "id": 143,
    "conds": [
      {
        "condType": "DUNGEON_COND_FINISH_CHALLENGE",
        "param": [1, 0, 0]
      },
      {
        "param": [0, 0, 0]
      },
      {
        "param": [0, 0, 0]
      },
      {
        "param": [0, 0, 0]
      }
    ]
  },
  {
    "id": 144,
    "conds": [
      {
        "condType": "DUNGEON_COND_FINISH_CHALLENGE",
        "param": [1, 0, 0]
      },
      {
        "param": [0, 0, 0]
      },
      {
        "param": [0, 0, 0]
      },
      {
        "param": [0, 0, 0]
      }
    ]
  },
  {
    "id": 145,
    "conds": [
      {
        "condType": "DUNGEON_COND_FINISH_CHALLENGE",
        "param": [1, 0, 0]
      },
      {
        "param": [0, 0, 0]
      },
      {
        "param": [0, 0, 0]
      },
      {
        "param": [0, 0, 0]
      }
    ]
  },
  {
    "id": 146,
    "conds": [
      {
        "condType": "DUNGEON_COND_FINISH_CHALLENGE",
        "param": [1, 0, 0]
      },
      {
        "param": [0, 0, 0]
      },
      {
        "param": [0, 0, 0]
      },
      {
        "param": [0, 0, 0]
      }
    ]
  },
  {
    "id": 147,
    "logicType": "LOGIC_OR",
    "conds": [
      {
        "condType": "DUNGEON_COND_KILL_GROUP_MONSTER",
        "param": [235800008, 0, 0]
      },
      {
        "condType": "DUNGEON_COND_KILL_GROUP_MONSTER",
        "param": [235800007, 0, 0]
      },
      {
        "condType": "DUNGEON_COND_KILL_GROUP_MONSTER",
        "param": [235800012, 0, 0]
      },
      {
        "condType": "DUNGEON_COND_KILL_GROUP_MONSTER",
        "param": [235800013, 0, 0]
      }
    ]
  },
  {
    "id": 148,
    "conds": [
      {
        "condType": "DUNGEON_COND_FINISH_QUEST",
        "param": [1012214, 0, 0]
      },
      {
        "param": [0, 0, 0]
      },
      {
        "param": [0, 0, 0]
      },
      {
        "param": [0, 0, 0]
      }
    ]
  },
  {
    "id": 149,
    "conds": [
      {
        "condType": "DUNGEON_COND_FINISH_CHALLENGE",
        "param": [999, 0, 0]
      },
      {
        "param": [0, 0, 0]
      },
      {
        "param": [0, 0, 0]
      },
      {
        "param": [0, 0, 0]
      }
    ]
  },
  {
    "id": 150,
    "conds": [
      {
        "condType": "DUNGEON_COND_FINISH_QUEST",
        "param": [1112306, 0, 0]
      },
      {
        "param": [0, 0, 0]
      },
      {
        "param": [0, 0, 0]
      },
      {
        "param": [0, 0, 0]
      }
    ]
  },
  {
    "id": 151,
    "conds": [
      {
        "condType": "DUNGEON_COND_KILL_GROUP_MONSTER",
        "param": [244001007, 0, 0]
      },
      {
        "param": [0, 0, 0]
      },
      {
        "param": [0, 0, 0]
      },
      {
        "param": [0, 0, 0]
      }
    ]
  },
  {
    "id": 152,
    "conds": [
      {
        "condType": "DUNGEON_COND_KILL_GROUP_MONSTER",
        "param": [244003005, 0, 0]
      },
      {
        "param": [0, 0, 0]
      },
      {
        "param": [0, 0, 0]
      },
      {
        "param": [0, 0, 0]
      }
    ]
  },
  {
    "id": 153,
    "logicType": "LOGIC_OR",
    "conds": [
      {
        "condType": "DUNGEON_COND_FINISH_QUEST",
        "param": [1904412, 0, 0]
      },
      {
        "condType": "DUNGEON_COND_FINISH_QUEST",
        "param": [1904411, 0, 0]
      },
      {
        "param": [0, 0, 0]
      },
      {
        "param": [0, 0, 0]
      }
    ]
  },
  {
    "id": 154,
    "logicType": "LOGIC_OR",
    "conds": [
      {
        "condType": "DUNGEON_COND_FINISH_QUEST",
        "param": [1904519, 0, 0]
      },
      {
        "condType": "DUNGEON_COND_FINISH_QUEST",
        "param": [1904518, 0, 0]
      },
      {
        "param": [0, 0, 0]
      },
      {
        "param": [0, 0, 0]
      }
    ]
  },
  {
    "id": 155,
    "conds": [
      {
        "condType": "DUNGEON_COND_FINISH_CHALLENGE",
        "param": [6, 0, 0]
      },
      {
        "param": [0, 0, 0]
      },
      {
        "param": [0, 0, 0]
      },
      {
        "param": [0, 0, 0]
      }
    ]
  },
  {
    "id": 156,
    "conds": [
      {
        "condType": "DUNGEON_COND_FINISH_CHALLENGE",
        "param": [1, 0, 0]
      },
      {
        "param": [0, 0, 0]
      },
      {
        "param": [0, 0, 0]
      },
      {
        "param": [0, 0, 0]
      }
    ]
  },
  {
    "id": 157,
    "conds": [
      {
        "condType": "DUNGEON_COND_KILL_GROUP_MONSTER",
        "param": [244006003, 0, 0]
      },
      {
        "param": [0, 0, 0]
      },
      {
        "param": [0, 0, 0]
      },
      {
        "param": [0, 0, 0]
      }
    ]
  },
  {
    "id": 158,
    "conds": [
      {
        "condType": "DUNGEON_COND_KILL_GROUP_MONSTER",
        "param": [244007002, 0, 0]
      },
      {
        "param": [0, 0, 0]
      },
      {
        "param": [0, 0, 0]
      },
      {
        "param": [0, 0, 0]
      }
    ]
  },
  {
    "id": 159,
    "conds": [
      {
        "condType": "DUNGEON_COND_FINISH_CHALLENGE",
        "param": [101, 0, 0]
      },
      {
        "param": [0, 0, 0]
      },
      {
        "param": [0, 0, 0]
      },
      {
        "param": [0, 0, 0]
      }
    ]
  },
  {
    "id": 160,
    "conds": [
      {
        "condType": "DUNGEON_COND_FINISH_CHALLENGE",
        "param": [1, 0, 0]
      },
      {
        "param": [0, 0, 0]
      },
      {
        "param": [0, 0, 0]
      },
      {
        "param": [0, 0, 0]
      }
    ]
  },
  {
    "id": 161,
    "conds": [
      {
        "condType": "DUNGEON_COND_KILL_MONSTER",
        "param": [29040101, 0, 0]
      },
      {
        "param": [0, 0, 0]
      },
      {
        "param": [0, 0, 0]
      },
      {
        "param": [0, 0, 0]
      }
    ]
  },
  {
    "id": 162,
    "conds": [
      {
        "condType": "DUNGEON_COND_KILL_MONSTER",
        "param": [29040102, 0, 0]
      },
      {
        "param": [0, 0, 0]
      },
      {
        "param": [0, 0, 0]
      },
      {
        "param": [0, 0, 0]
      }
    ]
  },
  {
    "id": 163,
    "conds": [
      {
        "condType": "DUNGEON_COND_KILL_MONSTER",
        "param": [29040103, 0, 0]
      },
      {
        "param": [0, 0, 0]
      },
      {
        "param": [0, 0, 0]
      },
      {
        "param": [0, 0, 0]
      }
    ]
  },
  {
    "id": 164,
    "conds": [
      {
        "condType": "DUNGEON_COND_KILL_MONSTER",
        "param": [29040104, 0, 0]
      },
      {
        "param": [0, 0, 0]
      },
      {
        "param": [0, 0, 0]
      },
      {
        "param": [0, 0, 0]
      }
    ]
  },
  {
    "id": 165,
    "conds": [
      {
        "condType": "DUNGEON_COND_FINISH_CHALLENGE",
        "param": [1, 0, 0]
      },
      {
        "param": [0, 0, 0]
      },
      {
        "param": [0, 0, 0]
      },
      {
        "param": [0, 0, 0]
      }
    ]
  },
  {
    "id": 166,
    "conds": [
      {
        "condType": "DUNGEON_COND_FINISH_CHALLENGE",
        "param": [1, 0, 0]
      },
      {
        "param": [0, 0, 0]
      },
      {
        "param": [0, 0, 0]
      },
      {
        "param": [0, 0, 0]
      }
    ]
  },
  {
    "id": 167,
    "conds": [
      {
        "condType": "DUNGEON_COND_FINISH_QUEST",
        "param": [200705, 0, 0]
      },
      {
        "param": [0, 0, 0]
      },
      {
        "param": [0, 0, 0]
      },
      {
        "param": [0, 0, 0]
      }
    ]
  },
  {
    "id": 170,
    "conds": [
      {
        "condType": "DUNGEON_COND_KILL_GROUP_MONSTER",
        "param": [220112001, 0, 0]
      },
      {
        "param": [0, 0, 0]
      },
      {
        "param": [0, 0, 0]
      },
      {
        "param": [0, 0, 0]
      }
    ]
  },
  {
    "id": 171,
    "conds": [
      {
        "condType": "DUNGEON_COND_FINISH_CHALLENGE",
        "param": [101, 0, 0]
      },
      {
        "param": [0, 0, 0]
      },
      {
        "param": [0, 0, 0]
      },
      {
        "param": [0, 0, 0]
      }
    ]
  },
  {
    "id": 173,
    "conds": [
      {
        "condType": "DUNGEON_COND_FINISH_CHALLENGE",
        "param": [1, 0, 0]
      },
      {
        "param": [0, 0, 0]
      },
      {
        "param": [0, 0, 0]
      },
      {
        "param": [0, 0, 0]
      }
    ]
  },
  {
    "id": 174,
    "conds": [
      {
        "condType": "DUNGEON_COND_FINISH_CHALLENGE",
        "param": [1, 0, 0]
      },
      {
        "param": [0, 0, 0]
      },
      {
        "param": [0, 0, 0]
      },
      {
        "param": [0, 0, 0]
      }
    ]
  },
  {
    "id": 175,
    "conds": [
      {
        "condType": "DUNGEON_COND_FINISH_CHALLENGE",
        "param": [1, 0, 0]
      },
      {
        "param": [0, 0, 0]
      },
      {
        "param": [0, 0, 0]
      },
      {
        "param": [0, 0, 0]
      }
    ]
  },
  {
    "id": 176,
    "conds": [
      {
        "condType": "DUNGEON_COND_FINISH_QUEST",
        "param": [1201807, 0, 0]
      },
      {
        "param": [0, 0, 0]
      },
      {
        "param": [0, 0, 0]
      },
      {
        "param": [0, 0, 0]
      }
    ]
  },
  {
    "id": 177,
    "conds": [
      {
        "condType": "DUNGEON_COND_FINISH_QUEST",
        "param": [1201510, 0, 0]
      },
      {
        "param": [0, 0, 0]
      },
      {
        "param": [0, 0, 0]
      },
      {
        "param": [0, 0, 0]
      }
    ]
  },
  {
    "id": 178,
    "conds": [
      {
        "condType": "DUNGEON_COND_END_MULTISTAGE_PLAY",
        "param": [245000001, 999, 1]
      },
      {
        "param": [0, 0, 0]
      },
      {
        "param": [0, 0, 0]
      },
      {
        "param": [0, 0, 0]
      }
    ]
  },
  {
    "id": 179,
    "conds": [
      {
        "condType": "DUNGEON_COND_END_MULTISTAGE_PLAY",
        "param": [245002001, 999, 0]
      },
      {
        "param": [0, 0, 0]
      },
      {
        "param": [0, 0, 0]
      },
      {
        "param": [0, 0, 0]
      }
    ]
  },
  {
    "id": 180,
    "conds": [
      {
        "condType": "DUNGEON_COND_END_MULTISTAGE_PLAY",
        "param": [245003031, 999, 0]
      },
      {
        "param": [0, 0, 0]
      },
      {
        "param": [0, 0, 0]
      },
      {
        "param": [0, 0, 0]
      }
    ]
  },
  {
    "id": 181,
    "conds": [
      {
        "condType": "DUNGEON_COND_END_MULTISTAGE_PLAY",
        "param": [245001001, 999, 0]
      },
      {
        "param": [0, 0, 0]
      },
      {
        "param": [0, 0, 0]
      },
      {
        "param": [0, 0, 0]
      }
    ]
  },
  {
    "id": 182,
    "conds": [
      {
        "condType": "DUNGEON_COND_END_MULTISTAGE_PLAY",
        "param": [245004017, 999, 0]
      },
      {
        "param": [0, 0, 0]
      },
      {
        "param": [0, 0, 0]
      },
      {
        "param": [0, 0, 0]
      }
    ]
  },
  {
    "id": 183,
    "conds": [
      {
        "condType": "DUNGEON_COND_END_MULTISTAGE_PLAY",
        "param": [245005001, 999, 0]
      },
      {
        "param": [0, 0, 0]
      },
      {
        "param": [0, 0, 0]
      },
      {
        "param": [0, 0, 0]
      }
    ]
  },
  {
    "id": 184,
    "conds": [
      {
        "condType": "DUNGEON_COND_END_MULTISTAGE_PLAY",
        "param": [245009001, 999, 0]
      },
      {
        "param": [0, 0, 0]
      },
      {
        "param": [0, 0, 0]
      },
      {
        "param": [0, 0, 0]
      }
    ]
  },
  {
    "id": 185,
    "conds": [
      {
        "condType": "DUNGEON_COND_END_MULTISTAGE_PLAY",
        "param": [245010031, 999, 0]
      },
      {
        "param": [0, 0, 0]
      },
      {
        "param": [0, 0, 0]
      },
      {
        "param": [0, 0, 0]
      }
    ]
  },
  {
    "id": 186,
    "conds": [
      {
        "condType": "DUNGEON_COND_END_MULTISTAGE_PLAY",
        "param": [245008001, 999, 0]
      },
      {
        "param": [0, 0, 0]
      },
      {
        "param": [0, 0, 0]
      },
      {
        "param": [0, 0, 0]
      }
    ]
  },
  {
    "id": 187,
    "conds": [
      {
        "condType": "DUNGEON_COND_END_MULTISTAGE_PLAY",
        "param": [245011017, 999, 0]
      },
      {
        "param": [0, 0, 0]
      },
      {
        "param": [0, 0, 0]
      },
      {
        "param": [0, 0, 0]
      }
    ]
  },
  {
    "id": 188,
    "conds": [
      {
        "condType": "DUNGEON_COND_END_MULTISTAGE_PLAY",
        "param": [245012001, 999, 0]
      },
      {
        "param": [0, 0, 0]
      },
      {
        "param": [0, 0, 0]
      },
      {
        "param": [0, 0, 0]
      }
    ]
  },
  {
    "id": 189,
    "conds": [
      {
        "condType": "DUNGEON_COND_FINISH_QUEST",
        "param": [201505, 0, 0]
      },
      {
        "param": [0, 0, 0]
      },
      {
        "param": [0, 0, 0]
      },
      {
        "param": [0, 0, 0]
      }
    ]
  },
  {
    "id": 190,
    "conds": [
      {
        "condType": "DUNGEON_COND_FINISH_QUEST",
        "param": [201804, 0, 0]
      },
      {
        "param": [0, 0, 0]
      },
      {
        "param": [0, 0, 0]
      },
      {
        "param": [0, 0, 0]
      }
    ]
  },
  {
    "id": 191,
    "conds": [
      {
        "condType": "DUNGEON_COND_FINISH_CHALLENGE",
        "param": [1, 0, 0]
      },
      {
        "param": [0, 0, 0]
      },
      {
        "param": [0, 0, 0]
      },
      {
        "param": [0, 0, 0]
      }
    ]
  },
  {
    "id": 192,
    "conds": [
      {
        "condType": "DUNGEON_COND_FINISH_CHALLENGE",
        "param": [1, 0, 0]
      },
      {
        "param": [0, 0, 0]
      },
      {
        "param": [0, 0, 0]
      },
      {
        "param": [0, 0, 0]
      }
    ]
  },
  {
    "id": 193,
    "conds": [
      {
        "condType": "DUNGEON_COND_FINISH_CHALLENGE",
        "param": [1, 0, 0]
      },
      {
        "param": [0, 0, 0]
      },
      {
        "param": [0, 0, 0]
      },
      {
        "param": [0, 0, 0]
      }
    ]
  },
  {
    "id": 194,
    "conds": [
      {
        "condType": "DUNGEON_COND_FINISH_QUEST",
        "param": [7281202, 0, 0]
      },
      {
        "param": [0, 0, 0]
      },
      {
        "param": [0, 0, 0]
      },
      {
        "param": [0, 0, 0]
      }
    ]
  },
  {
    "id": 195,
    "conds": [
      {
        "condType": "DUNGEON_COND_FINISH_CHALLENGE",
        "param": [999, 0, 0]
      },
      {
        "param": [0, 0, 0]
      },
      {
        "param": [0, 0, 0]
      },
      {
        "param": [0, 0, 0]
      }
    ]
  },
  {
    "id": 196,
    "conds": [
      {
        "condType": "DUNGEON_COND_FINISH_QUEST",
        "param": [201504, 0, 0]
      },
      {
        "param": [0, 0, 0]
      },
      {
        "param": [0, 0, 0]
      },
      {
        "param": [0, 0, 0]
      }
    ]
  },
  {
    "id": 197,
    "conds": [
      {
        "condType": "DUNGEON_COND_KILL_MONSTER",
        "param": [29050104, 0, 0]
      },
      {
        "param": [0, 0, 0]
      },
      {
        "param": [0, 0, 0]
      },
      {
        "param": [0, 0, 0]
      }
    ]
  },
  {
    "id": 198,
    "conds": [
      {
        "condType": "DUNGEON_COND_FINISH_QUEST",
        "param": [202005, 0, 0]
      },
      {
        "param": [0, 0, 0]
      },
      {
        "param": [0, 0, 0]
      },
      {
        "param": [0, 0, 0]
      }
    ]
  },
  {
    "id": 199,
    "conds": [
      {
        "condType": "DUNGEON_COND_KILL_GROUP_MONSTER",
        "param": [250058001, 0, 0]
      },
      {
        "param": [0, 0, 0]
      },
      {
        "param": [0, 0, 0]
      },
      {
        "param": [0, 0, 0]
      }
    ]
  },
  {
    "id": 200,
    "conds": [
      {
        "condType": "DUNGEON_COND_FINISH_QUEST",
        "param": [4002021, 0, 0]
      },
      {
        "param": [0, 0, 0]
      },
      {
        "param": [0, 0, 0]
      },
      {
        "param": [0, 0, 0]
      }
    ]
  },
  {
    "id": 201,
    "conds": [
      {
        "condType": "DUNGEON_COND_FINISH_QUEST",
        "param": [4002108, 0, 0]
      },
      {
        "param": [0, 0, 0]
      },
      {
        "param": [0, 0, 0]
      },
      {
        "param": [0, 0, 0]
      }
    ]
  },
  {
    "id": 202,
    "conds": [
      {
        "condType": "DUNGEON_COND_FINISH_QUEST",
        "param": [4002206, 0, 0]
      },
      {
        "param": [0, 0, 0]
      },
      {
        "param": [0, 0, 0]
      },
      {
        "param": [0, 0, 0]
      }
    ]
  },
  {
    "id": 203,
    "conds": [
      {
        "condType": "DUNGEON_COND_FINISH_CHALLENGE",
        "param": [1, 0, 0]
      },
      {
        "param": [0, 0, 0]
      },
      {
        "param": [0, 0, 0]
      },
      {
        "param": [0, 0, 0]
      }
    ]
  },
  {
    "id": 204,
    "logicType": "LOGIC_OR",
    "conds": [
      {
        "condType": "DUNGEON_COND_KILL_GROUP_MONSTER",
        "param": [246101003, 0, 0]
      },
      {
        "condType": "DUNGEON_COND_FINISH_QUEST",
        "param": [4003409, 0, 0]
      },
      {
        "param": [0, 0, 0]
      },
      {
        "param": [0, 0, 0]
      }
    ]
  },
  {
    "id": 205,
    "conds": [
      {
        "condType": "DUNGEON_COND_FINISH_CHALLENGE",
        "param": [1, 0, 0]
      },
      {
        "param": [0, 0, 0]
      },
      {
        "param": [0, 0, 0]
      },
      {
        "param": [0, 0, 0]
      }
    ]
  },
  {
    "id": 206,
    "conds": [
      {
        "condType": "DUNGEON_COND_FINISH_CHALLENGE",
        "param": [1, 0, 0]
      },
      {
        "param": [0, 0, 0]
      },
      {
        "param": [0, 0, 0]
      },
      {
        "param": [0, 0, 0]
      }
    ]
  },
  {
    "id": 207,
    "conds": [
      {
        "condType": "DUNGEON_COND_FINISH_CHALLENGE",
        "param": [1, 0, 0]
      },
      {
        "param": [0, 0, 0]
      },
      {
        "param": [0, 0, 0]
      },
      {
        "param": [0, 0, 0]
      }
    ]
  },
  {
    "id": 208,
    "conds": [
      {
        "condType": "DUNGEON_COND_FINISH_QUEST",
        "param": [1101318, 0, 0]
      },
      {
        "param": [0, 0, 0]
      },
      {
        "param": [0, 0, 0]
      },
      {
        "param": [0, 0, 0]
      }
    ]
  },
  {
    "id": 209,
    "conds": [
      {
        "condType": "DUNGEON_COND_FINISH_CHALLENGE",
        "param": [101, 0, 0]
      },
      {
        "param": [0, 0, 0]
      },
      {
        "param": [0, 0, 0]
      },
      {
        "param": [0, 0, 0]
      }
    ]
  },
  {
    "id": 210,
    "conds": [
      {
        "condType": "DUNGEON_COND_KILL_GROUP_MONSTER",
        "param": [220120001, 0, 0]
      },
      {
        "param": [0, 0, 0]
      },
      {
        "param": [0, 0, 0]
      },
      {
        "param": [0, 0, 0]
      }
    ]
  },
  {
    "id": 211,
    "conds": [
      {
        "condType": "DUNGEON_COND_FINISH_CHALLENGE",
        "param": [1, 0, 0]
      },
      {
        "param": [0, 0, 0]
      },
      {
        "param": [0, 0, 0]
      },
      {
        "param": [0, 0, 0]
      }
    ]
  },
  {
    "id": 212,
    "conds": [
      {
        "condType": "DUNGEON_COND_FINISH_CHALLENGE",
        "param": [1, 0, 0]
      },
      {
        "param": [0, 0, 0]
      },
      {
        "param": [0, 0, 0]
      },
      {
        "param": [0, 0, 0]
      }
    ]
  },
  {
    "id": 213,
    "conds": [
      {
        "condType": "DUNGEON_COND_FINISH_QUEST",
        "param": [1203005, 0, 0]
      },
      {
        "param": [0, 0, 0]
      },
      {
        "param": [0, 0, 0]
      },
      {
        "param": [0, 0, 0]
      }
    ]
  },
  {
    "id": 214,
    "conds": [
      {
        "condType": "DUNGEON_COND_FINISH_CHALLENGE",
        "param": [1, 0, 0]
      },
      {
        "param": [0, 0, 0]
      },
      {
        "param": [0, 0, 0]
      },
      {
        "param": [0, 0, 0]
      }
    ]
  },
  {
    "id": 215,
    "conds": [
      {
        "condType": "DUNGEON_COND_FINISH_QUEST",
        "param": [102808, 0, 0]
      },
      {
        "param": [0, 0, 0]
      },
      {
        "param": [0, 0, 0]
      },
      {
        "param": [0, 0, 0]
      }
    ]
  },
  {
    "id": 216,
    "conds": [
      {
        "condType": "DUNGEON_COND_FINISH_QUEST",
        "param": [1204210, 0, 0]
      },
      {
        "param": [0, 0, 0]
      },
      {
        "param": [0, 0, 0]
      },
      {
        "param": [0, 0, 0]
      }
    ]
  },
  {
    "id": 217,
    "conds": [
      {
        "condType": "DUNGEON_COND_KILL_MONSTER",
        "param": [29060203, 0, 0]
      },
      {
        "param": [0, 0, 0]
      },
      {
        "param": [0, 0, 0]
      },
      {
        "param": [0, 0, 0]
      }
    ]
  },
  {
    "id": 218,
    "conds": [
      {
        "condType": "DUNGEON_COND_END_MULTISTAGE_PLAY",
        "param": [245007001, 999, 0]
      },
      {
        "param": [0, 0, 0]
      },
      {
        "param": [0, 0, 0]
      },
      {
        "param": [0, 0, 0]
      }
    ]
  },
  {
    "id": 219,
    "conds": [
      {
        "condType": "DUNGEON_COND_END_MULTISTAGE_PLAY",
        "param": [245013001, 999, 1]
      },
      {
        "param": [0, 0, 0]
      },
      {
        "param": [0, 0, 0]
      },
      {
        "param": [0, 0, 0]
      }
    ]
  },
  {
    "id": 220,
    "conds": [
      {
        "condType": "DUNGEON_COND_END_MULTISTAGE_PLAY",
        "param": [245014001, 999, 1]
      },
      {
        "param": [0, 0, 0]
      },
      {
        "param": [0, 0, 0]
      },
      {
        "param": [0, 0, 0]
      }
    ]
  },
  {
    "id": 221,
    "conds": [
      {
        "condType": "DUNGEON_COND_END_MULTISTAGE_PLAY",
        "param": [245015001, 999, 1]
      },
      {
        "param": [0, 0, 0]
      },
      {
        "param": [0, 0, 0]
      },
      {
        "param": [0, 0, 0]
      }
    ]
  },
  {
    "id": 222,
    "conds": [
      {
        "condType": "DUNGEON_COND_END_MULTISTAGE_PLAY",
        "param": [245016001, 999, 1]
      },
      {
        "param": [0, 0, 0]
      },
      {
        "param": [0, 0, 0]
      },
      {
        "param": [0, 0, 0]
      }
    ]
  },
  {
    "id": 223,
    "conds": [
      {
        "condType": "DUNGEON_COND_FINISH_CHALLENGE",
        "param": [1, 0, 0]
      },
      {
        "param": [0, 0, 0]
      },
      {
        "param": [0, 0, 0]
      },
      {
        "param": [0, 0, 0]
      }
    ]
  },
  {
    "id": 224,
    "conds": [
      {
        "condType": "DUNGEON_COND_END_MULTISTAGE_PLAY",
        "param": [245017001, 999, 1]
      },
      {
        "param": [0, 0, 0]
      },
      {
        "param": [0, 0, 0]
      },
      {
        "param": [0, 0, 0]
      }
    ]
  },
  {
    "id": 225,
    "conds": [
      {
        "condType": "DUNGEON_COND_END_MULTISTAGE_PLAY",
        "param": [245018001, 999, 1]
      },
      {
        "param": [0, 0, 0]
      },
      {
        "param": [0, 0, 0]
      },
      {
        "param": [0, 0, 0]
      }
    ]
  },
  {
    "id": 226,
    "conds": [
      {
        "condType": "DUNGEON_COND_END_MULTISTAGE_PLAY",
        "param": [245019001, 999, 1]
      },
      {
        "param": [0, 0, 0]
      },
      {
        "param": [0, 0, 0]
      },
      {
        "param": [0, 0, 0]
      }
    ]
  },
  {
    "id": 227,
    "conds": [
      {
        "condType": "DUNGEON_COND_END_MULTISTAGE_PLAY",
        "param": [245020001, 999, 1]
      },
      {
        "param": [0, 0, 0]
      },
      {
        "param": [0, 0, 0]
      },
      {
        "param": [0, 0, 0]
      }
    ]
  },
  {
    "id": 228,
    "conds": [
      {
        "condType": "DUNGEON_COND_FINISH_QUEST",
        "param": [4005818, 0, 0]
      },
      {
        "param": [0, 0, 0]
      },
      {
        "param": [0, 0, 0]
      },
      {
        "param": [0, 0, 0]
      }
    ]
  },
  {
    "id": 229,
    "conds": [
      {
        "condType": "DUNGEON_COND_FINISH_CHALLENGE",
        "param": [1, 0, 0]
      },
      {
        "param": [0, 0, 0]
      },
      {
        "param": [0, 0, 0]
      },
      {
        "param": [0, 0, 0]
      }
    ]
  },
  {
    "id": 230,
    "conds": [
      {
        "condType": "DUNGEON_COND_FINISH_QUEST",
        "param": [1203914, 0, 0]
      },
      {
        "param": [0, 0, 0]
      },
      {
        "param": [0, 0, 0]
      },
      {
        "param": [0, 0, 0]
      }
    ]
  },
  {
    "id": 231,
    "conds": [
      {
        "condType": "DUNGEON_COND_FINISH_QUEST",
        "param": [103026, 0, 0]
      },
      {
        "param": [0, 0, 0]
      },
      {
        "param": [0, 0, 0]
      },
      {
        "param": [0, 0, 0]
      }
    ]
  },
  {
    "id": 232,
    "conds": [
      {
        "condType": "DUNGEON_COND_FINISH_QUEST",
        "param": [1102615, 0, 0]
      },
      {
        "param": [0, 0, 0]
      },
      {
        "param": [0, 0, 0]
      },
      {
        "param": [0, 0, 0]
      }
    ]
  },
  {
    "id": 233,
    "conds": [
      {
        "condType": "DUNGEON_COND_FINISH_CHALLENGE",
        "param": [1, 0, 0]
      },
      {
        "param": [0, 0, 0]
      },
      {
        "param": [0, 0, 0]
      },
      {
        "param": [0, 0, 0]
      }
    ]
  },
  {
    "id": 234,
    "conds": [
      {
        "condType": "DUNGEON_COND_FINISH_CHALLENGE",
        "param": [1, 0, 0]
      },
      {
        "param": [0, 0, 0]
      },
      {
        "param": [0, 0, 0]
      },
      {
        "param": [0, 0, 0]
      }
    ]
  },
  {
    "id": 235,
    "conds": [
      {
        "condType": "DUNGEON_COND_FINISH_CHALLENGE",
        "param": [1, 0, 0]
      },
      {
        "param": [0, 0, 0]
      },
      {
        "param": [0, 0, 0]
      },
      {
        "param": [0, 0, 0]
      }
    ]
  },
  {
    "id": 236,
    "conds": [
      {
        "condType": "DUNGEON_COND_FINISH_QUEST",
        "param": [1300213, 0, 0]
      },
      {
        "param": [0, 0, 0]
      },
      {
        "param": [0, 0, 0]
      },
      {
        "param": [0, 0, 0]
      }
    ]
  },
  {
    "id": 237,
    "conds": [
      {
        "condType": "DUNGEON_COND_FINISH_QUEST",
        "param": [103026, 0, 0]
      },
      {
        "param": [0, 0, 0]
      },
      {
        "param": [0, 0, 0]
      },
      {
        "param": [0, 0, 0]
      }
    ]
  },
  {
    "id": 238,
    "conds": [
      {
        "condType": "DUNGEON_COND_FINISH_CHALLENGE",
        "param": [1, 0, 0]
      },
      {
        "param": [0, 0, 0]
      },
      {
        "param": [0, 0, 0]
      },
      {
        "param": [0, 0, 0]
      }
    ]
  },
  {
    "id": 239,
    "conds": [
      {
        "condType": "DUNGEON_COND_FINISH_CHALLENGE",
        "param": [1, 0, 0]
      },
      {
        "param": [0, 0, 0]
      },
      {
        "param": [0, 0, 0]
      },
      {
        "param": [0, 0, 0]
      }
    ]
  },
  {
    "id": 240,
    "conds": [
      {
        "condType": "DUNGEON_COND_FINISH_CHALLENGE",
        "param": [1, 0, 0]
      },
      {
        "param": [0, 0, 0]
      },
      {
        "param": [0, 0, 0]
      },
      {
        "param": [0, 0, 0]
      }
    ]
  },
  {
    "id": 241,
    "conds": [
      {
        "condType": "DUNGEON_COND_FINISH_CHALLENGE",
        "param": [1, 0, 0]
      },
      {
        "param": [0, 0, 0]
      },
      {
        "param": [0, 0, 0]
      },
      {
        "param": [0, 0, 0]
      }
    ]
  },
  {
    "id": 242,
    "conds": [
      {
        "condType": "DUNGEON_COND_FINISH_CHALLENGE",
        "param": [1, 0, 0]
      },
      {
        "param": [0, 0, 0]
      },
      {
        "param": [0, 0, 0]
      },
      {
        "param": [0, 0, 0]
      }
    ]
  },
  {
    "id": 243,
    "conds": [
      {
        "condType": "DUNGEON_COND_KILL_GROUP_MONSTER",
        "param": [220145008, 0, 0]
      },
      {
        "param": [0, 0, 0]
      },
      {
        "param": [0, 0, 0]
      },
      {
        "param": [0, 0, 0]
      }
    ]
  },
  {
    "id": 244,
    "conds": [
      {
        "condType": "DUNGEON_COND_KILL_GROUP_MONSTER",
        "param": [220146003, 0, 0]
      },
      {
        "param": [0, 0, 0]
      },
      {
        "param": [0, 0, 0]
      },
      {
        "param": [0, 0, 0]
      }
    ]
  },
  {
    "id": 245,
    "conds": [
      {
        "condType": "DUNGEON_COND_KILL_GROUP_MONSTER",
        "param": [220147011, 0, 0]
      },
      {
        "param": [0, 0, 0]
      },
      {
        "param": [0, 0, 0]
      },
      {
        "param": [0, 0, 0]
      }
    ]
  },
  {
    "id": 246,
    "conds": [
      {
        "condType": "DUNGEON_COND_KILL_GROUP_MONSTER",
        "param": [220159005, 0, 0]
      },
      {
        "param": [0, 0, 0]
      },
      {
        "param": [0, 0, 0]
      },
      {
        "param": [0, 0, 0]
      }
    ]
  },
  {
    "id": 247,
    "conds": [
      {
        "condType": "DUNGEON_COND_KILL_GROUP_MONSTER",
        "param": [240051011, 0, 0]
      },
      {
        "param": [0, 0, 0]
      },
      {
        "param": [0, 0, 0]
      },
      {
        "param": [0, 0, 0]
      }
    ]
  },
  {
    "id": 248,
    "conds": [
      {
        "condType": "DUNGEON_COND_KILL_GROUP_MONSTER",
        "param": [240052009, 0, 0]
      },
      {
        "param": [0, 0, 0]
      },
      {
        "param": [0, 0, 0]
      },
      {
        "param": [0, 0, 0]
      }
    ]
  },
  {
    "id": 249,
    "conds": [
      {
        "condType": "DUNGEON_COND_FINISH_CHALLENGE",
        "param": [2, 0, 0]
      },
      {
        "param": [0, 0, 0]
      },
      {
        "param": [0, 0, 0]
      },
      {
        "param": [0, 0, 0]
      }
    ]
  },
  {
    "id": 250,
    "conds": [
      {
        "condType": "DUNGEON_COND_FINISH_CHALLENGE",
        "param": [1, 0, 0]
      },
      {
        "param": [0, 0, 0]
      },
      {
        "param": [0, 0, 0]
      },
      {
        "param": [0, 0, 0]
      }
    ]
  },
  {
    "id": 251,
    "conds": [
      {
        "condType": "DUNGEON_COND_FINISH_CHALLENGE",
        "param": [2010074, 0, 0]
      },
      {
        "param": [0, 0, 0]
      },
      {
        "param": [0, 0, 0]
      },
      {
        "param": [0, 0, 0]
      }
    ]
  },
  {
    "id": 252,
    "conds": [
      {
        "condType": "DUNGEON_COND_FINISH_CHALLENGE",
        "param": [2010075, 0, 0]
      },
      {
        "param": [0, 0, 0]
      },
      {
        "param": [0, 0, 0]
      },
      {
        "param": [0, 0, 0]
      }
    ]
  },
  {
    "id": 253,
    "conds": [
      {
        "condType": "DUNGEON_COND_FINISH_CHALLENGE",
        "param": [1, 0, 0]
      },
      {
        "param": [0, 0, 0]
      },
      {
        "param": [0, 0, 0]
      },
      {
        "param": [0, 0, 0]
      }
    ]
  },
  {
    "id": 254,
    "conds": [
      {
        "condType": "DUNGEON_COND_FINISH_CHALLENGE",
        "param": [1, 0, 0]
      },
      {
        "param": [0, 0, 0]
      },
      {
        "param": [0, 0, 0]
      },
      {
        "param": [0, 0, 0]
      }
    ]
  },
  {
    "id": 255,
    "conds": [
      {
        "condType": "DUNGEON_COND_FINISH_CHALLENGE",
        "param": [1, 0, 0]
      },
      {
        "param": [0, 0, 0]
      },
      {
        "param": [0, 0, 0]
      },
      {
        "param": [0, 0, 0]
      }
    ]
  },
  {
    "id": 256,
    "conds": [
      {
        "condType": "DUNGEON_COND_FINISH_CHALLENGE",
        "param": [1, 0, 0]
      },
      {
        "param": [0, 0, 0]
      },
      {
        "param": [0, 0, 0]
      },
      {
        "param": [0, 0, 0]
      }
    ]
  },
  {
    "id": 257,
    "conds": [
      {
        "condType": "DUNGEON_COND_FINISH_QUEST",
        "param": [302106, 0, 0]
      },
      {
        "param": [0, 0, 0]
      },
      {
        "param": [0, 0, 0]
      },
      {
        "param": [0, 0, 0]
      }
    ]
  },
  {
    "id": 258,
    "conds": [
      {
        "condType": "DUNGEON_COND_FINISH_QUEST",
        "param": [1301114, 0, 0]
      },
      {
        "param": [0, 0, 0]
      },
      {
        "param": [0, 0, 0]
      },
      {
        "param": [0, 0, 0]
      }
    ]
  },
  {
    "id": 259,
    "conds": [
      {
        "condType": "DUNGEON_COND_FINISH_QUEST",
        "param": [4008207, 0, 0]
      },
      {
        "param": [0, 0, 0]
      },
      {
        "param": [0, 0, 0]
      },
      {
        "param": [0, 0, 0]
      }
    ]
  },
  {
    "id": 260,
    "conds": [
      {
        "condType": "DUNGEON_COND_FINISH_QUEST",
        "param": [4008316, 0, 0]
      },
      {
        "param": [0, 0, 0]
      },
      {
        "param": [0, 0, 0]
      },
      {
        "param": [0, 0, 0]
      }
    ]
  },
  {
    "id": 261,
    "conds": [
      {
        "condType": "DUNGEON_COND_FINISH_QUEST",
        "param": [4008317, 0, 0]
      },
      {
        "param": [0, 0, 0]
      },
      {
        "param": [0, 0, 0]
      },
      {
        "param": [0, 0, 0]
      }
    ]
  },
  {
    "id": 262,
    "conds": [
      {
        "condType": "DUNGEON_COND_FINISH_QUEST",
        "param": [4008414, 0, 0]
      },
      {
        "param": [0, 0, 0]
      },
      {
        "param": [0, 0, 0]
      },
      {
        "param": [0, 0, 0]
      }
    ]
  },
  {
    "id": 263,
    "conds": [
      {
        "condType": "DUNGEON_COND_FINISH_QUEST",
        "param": [4008413, 0, 0]
      },
      {
        "param": [0, 0, 0]
      },
      {
        "param": [0, 0, 0]
      },
      {
        "param": [0, 0, 0]
      }
    ]
  },
  {
    "id": 264,
    "conds": [
      {
        "condType": "DUNGEON_COND_FINISH_QUEST",
        "param": [4008510, 0, 0]
      },
      {
        "param": [0, 0, 0]
      },
      {
        "param": [0, 0, 0]
      },
      {
        "param": [0, 0, 0]
      }
    ]
  },
  {
    "id": 265,
    "conds": [
      {
        "condType": "DUNGEON_COND_FINISH_QUEST",
        "param": [302804, 0, 0]
      },
      {
        "param": [0, 0, 0]
      },
      {
        "param": [0, 0, 0]
      },
      {
        "param": [0, 0, 0]
      }
    ]
  },
  {
    "id": 266,
    "conds": [
      {
        "condType": "DUNGEON_COND_FINISH_CHALLENGE",
        "param": [1, 0, 0]
      },
      {
        "param": [0, 0, 0]
      },
      {
        "param": [0, 0, 0]
      },
      {
        "param": [0, 0, 0]
      }
    ]
  },
  {
    "id": 267,
    "conds": [
      {
        "condType": "DUNGEON_COND_FINISH_CHALLENGE",
        "param": [1, 0, 0]
      },
      {
        "param": [0, 0, 0]
      },
      {
        "param": [0, 0, 0]
      },
      {
        "param": [0, 0, 0]
      }
    ]
  },
  {
    "id": 268,
    "conds": [
      {
        "condType": "DUNGEON_COND_FINISH_CHALLENGE",
        "param": [1, 0, 0]
      },
      {
        "param": [0, 0, 0]
      },
      {
        "param": [0, 0, 0]
      },
      {
        "param": [0, 0, 0]
      }
    ]
  },
  {
    "id": 269,
    "conds": [
      {
        "condType": "DUNGEON_COND_FINISH_CHALLENGE",
        "param": [1, 0, 0]
      },
      {
        "param": [0, 0, 0]
      },
      {
        "param": [0, 0, 0]
      },
      {
        "param": [0, 0, 0]
      }
    ]
  },
  {
    "id": 270,
    "conds": [
      {
        "condType": "DUNGEON_COND_FINISH_QUEST",
        "param": [303109, 0, 0]
      },
      {
        "param": [0, 0, 0]
      },
      {
        "param": [0, 0, 0]
      },
      {
        "param": [0, 0, 0]
      }
    ]
  },
  {
    "id": 271,
    "conds": [
      {
        "condType": "DUNGEON_COND_FINISH_QUEST",
        "param": [1302221, 0, 0]
      },
      {
        "param": [0, 0, 0]
      },
      {
        "param": [0, 0, 0]
      },
      {
        "param": [0, 0, 0]
      }
    ]
  },
  {
    "id": 272,
    "conds": [
      {
        "condType": "DUNGEON_COND_KILL_MONSTER",
        "param": [29070104, 0, 0]
      },
      {
        "param": [0, 0, 0]
      },
      {
        "param": [0, 0, 0]
      },
      {
        "param": [0, 0, 0]
      }
    ]
  },
  {
    "id": 273,
    "conds": [
      {
        "condType": "DUNGEON_COND_FINISH_CHALLENGE",
        "param": [1, 0, 0]
      },
      {
        "param": [0, 0, 0]
      },
      {
        "param": [0, 0, 0]
      },
      {
        "param": [0, 0, 0]
      }
    ]
  },
  {
    "id": 274,
    "conds": [
      {
        "condType": "DUNGEON_COND_FINISH_CHALLENGE",
        "param": [1, 0, 0]
      },
      {
        "param": [0, 0, 0]
      },
      {
        "param": [0, 0, 0]
      },
      {
        "param": [0, 0, 0]
      }
    ]
  },
  {
    "id": 275,
    "conds": [
      {
        "condType": "DUNGEON_COND_FINISH_CHALLENGE",
        "param": [999, 0, 0]
      },
      {
        "param": [0, 0, 0]
      },
      {
        "param": [0, 0, 0]
      },
      {
        "param": [0, 0, 0]
      }
    ]
  },
  {
    "id": 276,
    "conds": [
      {
        "condType": "DUNGEON_COND_KILL_GROUP_MONSTER",
        "param": [240063008, 0, 0]
      },
      {
        "param": [0, 0, 0]
      },
      {
        "param": [0, 0, 0]
      },
      {
        "param": [0, 0, 0]
      }
    ]
  },
  {
    "id": 277,
    "conds": [
      {
        "condType": "DUNGEON_COND_FINISH_CHALLENGE",
        "param": [2010074, 0, 0]
      },
      {
        "param": [0, 0, 0]
      },
      {
        "param": [0, 0, 0]
      },
      {
        "param": [0, 0, 0]
      }
    ]
  },
  {
    "id": 278,
    "conds": [
      {
        "condType": "DUNGEON_COND_FINISH_QUEST",
        "param": [1301418, 0, 0]
      },
      {
        "param": [0, 0, 0]
      },
      {
        "param": [0, 0, 0]
      },
      {
        "param": [0, 0, 0]
      }
    ]
  },
  {
    "id": 279,
    "conds": [
      {
        "condType": "DUNGEON_COND_FINISH_CHALLENGE",
        "param": [1, 0, 0]
      },
      {
        "param": [0, 0, 0]
      },
      {
        "param": [0, 0, 0]
      },
      {
        "param": [0, 0, 0]
      }
    ]
  },
  {
    "id": 280,
    "conds": [
      {
        "condType": "DUNGEON_COND_FINISH_CHALLENGE",
        "param": [1, 0, 0]
      },
      {
        "param": [0, 0, 0]
      },
      {
        "param": [0, 0, 0]
      },
      {
        "param": [0, 0, 0]
      }
    ]
  },
  {
    "id": 281,
    "conds": [
      {
        "condType": "DUNGEON_COND_FINISH_QUEST",
        "param": [7323210, 0, 0]
      },
      {
        "param": [0, 0, 0]
      },
      {
        "param": [0, 0, 0]
      },
      {
        "param": [0, 0, 0]
      }
    ]
  },
  {
    "id": 282,
    "conds": [
      {
        "condType": "DUNGEON_COND_FINISH_QUEST",
        "param": [7323209, 0, 0]
      },
      {
        "param": [0, 0, 0]
      },
      {
        "param": [0, 0, 0]
      },
      {
        "param": [0, 0, 0]
      }
    ]
  },
  {
    "id": 283,
    "conds": [
      {
        "condType": "DUNGEON_COND_FINISH_QUEST",
        "param": [7323208, 0, 0]
      },
      {
        "param": [0, 0, 0]
      },
      {
        "param": [0, 0, 0]
      },
      {
        "param": [0, 0, 0]
      }
    ]
  },
  {
    "id": 284,
    "conds": [
      {
        "condType": "DUNGEON_COND_FINISH_QUEST",
        "param": [1302613, 0, 0]
      },
      {
        "param": [0, 0, 0]
      },
      {
        "param": [0, 0, 0]
      },
      {
        "param": [0, 0, 0]
      }
    ]
  },
  {
    "id": 285,
    "conds": [
      {
        "condType": "DUNGEON_COND_FINISH_CHALLENGE",
        "param": [1, 0, 0]
      },
      {
        "param": [0, 0, 0]
      },
      {
        "param": [0, 0, 0]
      },
      {
        "param": [0, 0, 0]
      }
    ]
  },
  {
    "id": 286,
    "conds": [
      {
        "condType": "DUNGEON_COND_FINISH_CHALLENGE",
        "param": [1, 0, 0]
      },
      {
        "param": [0, 0, 0]
      },
      {
        "param": [0, 0, 0]
      },
      {
        "param": [0, 0, 0]
      }
    ]
  },
  {
    "id": 287,
    "conds": [
      {
        "condType": "DUNGEON_COND_KILL_MONSTER",
        "param": [29080104, 0, 0]
      },
      {
        "param": [0, 0, 0]
      },
      {
        "param": [0, 0, 0]
      },
      {
        "param": [0, 0, 0]
      }
    ]
  },
  {
    "id": 288,
    "conds": [
      {
        "condType": "DUNGEON_COND_FINISH_QUEST",
        "param": [1302714, 0, 0]
      },
      {
        "param": [0, 0, 0]
      },
      {
        "param": [0, 0, 0]
      },
      {
        "param": [0, 0, 0]
      }
    ]
  },
  {
    "id": 289,
    "conds": [
      {
        "condType": "DUNGEON_COND_FINISH_CHALLENGE",
        "param": [2010074, 0, 0]
      },
      {
        "param": [0, 0, 0]
      },
      {
        "param": [0, 0, 0]
      },
      {
        "param": [0, 0, 0]
      }
    ]
  },
  {
    "id": 290,
    "conds": [
      {
        "condType": "DUNGEON_COND_FINISH_CHALLENGE",
        "param": [1, 0, 0]
      },
      {
        "param": [0, 0, 0]
      },
      {
        "param": [0, 0, 0]
      },
      {
        "param": [0, 0, 0]
      }
    ]
  },
  {
    "id": 291,
    "conds": [
      {
        "condType": "DUNGEON_COND_FINISH_CHALLENGE",
        "param": [1, 0, 0]
      },
      {
        "param": [0, 0, 0]
      },
      {
        "param": [0, 0, 0]
      },
      {
        "param": [0, 0, 0]
      }
    ]
  }
]
