[
  {
    "id": 1,
    "titleTextMapHash": 4256362987,
    "descTextMapHash": 4280241382,
    "styleTextMapHash": 785931401,
    "priority": 40
  },
  {
    "id": 2,
    "titleTextMapHash": 3416852259,
    "descTextMapHash": 1926228222,
    "styleTextMapHash": 3576480929,
    "priority": 20
  },
  {
    "id": 3,
    "titleTextMapHash": 472536571,
    "descTextMapHash": 2224267206,
    "styleTextMapHash": 476009649,
    "priority": 10
  },
  {
    "id": 4,
    "titleTextMapHash": 1412930779,
    "descTextMapHash": 3367965822,
    "styleTextMapHash": 2016077993,
    "priority": 5
  },
  {
    "id": 5,
    "titleTextMapHash": 2625927179,
    "descTextMapHash": 483593886,
    "styleTextMapHash": 803488857,
    "priority": 89
  },
  {
    "id": 6,
    "titleTextMapHash": 2897084635,
    "descTextMapHash": 2958566806,
    "styleTextMapHash": 2619833385,
    "priority": 60
  },
  {
    "id": 7,
    "titleTextMapHash": 1694495699,
    "descTextMapHash": 377064766,
    "styleTextMapHash": 1905860113,
    "priority": 80
  },
  {
    "id": 8,
    "titleTextMapHash": 2308134131,
    "descTextMapHash": 237970494,
    "styleTextMapHash": 14404489,
    "priority": 70
  },
  {
    "id": 9,
    "titleTextMapHash": 1211868003,
    "descTextMapHash": 2359633614,
    "styleTextMapHash": 1053103833,
    "priority": 65
  },
  {
    "id": 10,
    "titleTextMapHash": 833605699,
    "descTextMapHash": 654644494,
    "styleTextMapHash": 3987882601,
    "priority": 40
  },
  {
    "id": 11,
    "titleTextMapHash": 4076007875,
    "descTextMapHash": 3501980678,
    "styleTextMapHash": 1079729009,
    "priority": 90
  },
  {
    "id": 12,
    "titleTextMapHash": 2832345339,
    "descTextMapHash": 4195809846,
    "styleTextMapHash": 1409731833,
    "priority": 100
  },
  {
    "id": 13,
    "titleTextMapHash": 3399648403,
    "descTextMapHash": 3672983830,
    "styleTextMapHash": 656957313,
    "priority": 81
  },
  {
    "id": 14,
    "titleTextMapHash": 2390706763,
    "descTextMapHash": 379515694,
    "styleTextMapHash": 4173483249,
    "priority": 89
  },
  {
    "id": 15,
    "titleTextMapHash": 3183893339,
    "descTextMapHash": 1483381398,
    "styleTextMapHash": 983333305,
    "priority": 50
  },
  {
    "id": 16,
    "titleTextMapHash": 148731115,
    "descTextMapHash": 3374411310,
    "styleTextMapHash": 1784663857,
    "priority": 1
  },
  {
    "id": 17,
    "titleTextMapHash": 798807963,
    "descTextMapHash": 340551478,
    "styleTextMapHash": 3326380457,
    "priority": 40
  },
  {
    "id": 18,
    "titleTextMapHash": 3528439635,
    "descTextMapHash": 187119310,
    "styleTextMapHash": 529473505,
    "priority": 49
  },
  {
    "id": 19,
    "titleTextMapHash": 3707177067,
    "descTextMapHash": 4199333566,
    "styleTextMapHash": 1599668401,
    "priority": 39
  },
  {
    "id": 20,
    "titleTextMapHash": 1313227875,
    "descTextMapHash": 3488498350,
    "styleTextMapHash": 3582413321,
    "priority": 50
  },
  {
    "id": 21,
    "titleTextMapHash": 3603455995,
    "descTextMapHash": 748705510,
    "styleTextMapHash": 3109610137,
    "priority": 48
  },
  {
    "id": 22,
    "titleTextMapHash": 2488928099,
    "descTextMapHash": 1088645390,
    "styleTextMapHash": 1581602873,
    "priority": 47
  },
  {
    "id": 23,
    "titleTextMapHash": 446134563,
    "descTextMapHash": 2007618070,
    "styleTextMapHash": 2152720185,
    "priority": 18
  },
  {
    "id": 24,
    "titleTextMapHash": 2347888859,
    "descTextMapHash": 535440502,
    "styleTextMapHash": 1056509409,
    "priority": 19
  },
  {
    "id": 25,
    "titleTextMapHash": 2511562059,
    "descTextMapHash": 4135449286,
    "styleTextMapHash": 4159088745,
    "priority": 1,
    "LLAHGAEAMED": "EXHIBITION_CARD_ORDER_GREATER_BETTER"
  },
  {
    "id": 26,
    "titleTextMapHash": 3942502523,
    "descTextMapHash": 3489763302,
    "styleTextMapHash": 2951050689,
    "priority": 35,
    "LLAHGAEAMED": "EXHIBITION_CARD_ORDER_GREATER_BETTER"
  },
  {
    "id": 27,
    "titleTextMapHash": 2078133747,
    "descTextMapHash": 55452662,
    "styleTextMapHash": 1728014353,
    "priority": 39,
    "LLAHGAEAMED": "EXHIBITION_CARD_ORDER_GREATER_BETTER"
  },
  {
    "id": 28,
    "titleTextMapHash": 4008286339,
    "descTextMapHash": 3763495134,
    "styleTextMapHash": 1137314849,
    "priority": 37,
    "LLAHGAEAMED": "EXHIBITION_CARD_ORDER_GREATER_BETTER"
  },
  {
    "id": 29,
    "titleTextMapHash": 3674118747,
    "descTextMapHash": 2140780198,
    "styleTextMapHash": 796245465,
    "priority": 40
  },
  {
    "id": 30,
    "titleTextMapHash": 3302878547,
    "descTextMapHash": 1036194526,
    "styleTextMapHash": 680798841,
    "priority": 36,
    "LLAHGAEAMED": "EXHIBITION_CARD_ORDER_GREATER_BETTER"
  },
  {
    "id": 31,
    "titleTextMapHash": 2039033907,
    "descTextMapHash": 415363334,
    "styleTextMapHash": 3058336953,
    "priority": 38,
    "LLAHGAEAMED": "EXHIBITION_CARD_ORDER_GREATER_BETTER"
  },
  {
    "id": 32,
    "titleTextMapHash": 333718027,
    "descTextMapHash": 192930574,
    "styleTextMapHash": 1445627473,
    "priority": 50
  },
  {
    "id": 33,
    "titleTextMapHash": 1286972163,
    "descTextMapHash": 3455349166,
    "styleTextMapHash": 580661921,
    "priority": 50
  },
  {
    "id": 34,
    "titleTextMapHash": 480451667,
    "descTextMapHash": 1622194238,
    "styleTextMapHash": 709261569,
    "priority": 30
  },
  {
    "id": 36,
    "titleTextMapHash": 2693014203,
    "descTextMapHash": 2410917006,
    "styleTextMapHash": 55968905,
    "priority": 30
  },
  {
    "id": 37,
    "titleTextMapHash": 232650323,
    "descTextMapHash": 2602332478,
    "styleTextMapHash": 1590158593,
    "priority": 20
  },
  {
    "id": 39,
    "titleTextMapHash": 2860789843,
    "descTextMapHash": 4004817894,
    "styleTextMapHash": 1802434345,
    "priority": 20
  },
  {
    "id": 40,
    "titleTextMapHash": 2864316483,
    "descTextMapHash": 1828552062,
    "styleTextMapHash": 78002729,
    "priority": 10
  },
  {
    "id": 41,
    "titleTextMapHash": 3298912499,
    "descTextMapHash": 53134470,
    "styleTextMapHash": 2826151785,
    "priority": 45,
    "LLAHGAEAMED": "EXHIBITION_CARD_ORDER_GREATER_BETTER"
  },
  {
    "id": 42,
    "titleTextMapHash": 1969637155,
    "descTextMapHash": 33168646,
    "styleTextMapHash": 3369382985,
    "priority": 48,
    "LLAHGAEAMED": "EXHIBITION_CARD_ORDER_GREATER_BETTER"
  },
  {
    "id": 43,
    "titleTextMapHash": 1583875595,
    "descTextMapHash": 618745454,
    "styleTextMapHash": 2955248393,
    "priority": 10
  },
  {
    "id": 44,
    "titleTextMapHash": 1789942091,
    "descTextMapHash": 2628494694,
    "styleTextMapHash": 3991879913,
    "priority": 55,
    "LLAHGAEAMED": "EXHIBITION_CARD_ORDER_GREATER_BETTER"
  },
  {
    "id": 45,
    "titleTextMapHash": 2153028259,
    "descTextMapHash": 3265754958,
    "styleTextMapHash": 36530545,
    "priority": 50,
    "LLAHGAEAMED": "EXHIBITION_CARD_ORDER_GREATER_BETTER"
  },
  {
    "id": 46,
    "titleTextMapHash": 694759795,
    "descTextMapHash": 1086147934,
    "styleTextMapHash": 3813102497,
    "priority": 100
  },
  {
    "id": 47,
    "titleTextMapHash": 1077014715,
    "descTextMapHash": 2769989926,
    "styleTextMapHash": 1099158809,
    "priority": 100
  },
  {
    "id": 48,
    "titleTextMapHash": 1010453219,
    "descTextMapHash": 1038731462,
    "styleTextMapHash": 2021857361,
    "priority": 85
  },
  {
    "id": 49,
    "titleTextMapHash": 3778639035,
    "descTextMapHash": 1521284478,
    "styleTextMapHash": 3896915849,
    "priority": 70
  },
  {
    "id": 50,
    "titleTextMapHash": 1041096075,
    "descTextMapHash": 1578973286,
    "styleTextMapHash": 1052238617,
    "priority": 89
  },
  {
    "id": 51,
    "titleTextMapHash": 245179227,
    "descTextMapHash": 3314600646,
    "styleTextMapHash": 435492305,
    "priority": 88
  },
  {
    "id": 52,
    "titleTextMapHash": 2031603595,
    "descTextMapHash": 3565656790,
    "styleTextMapHash": 1870842561,
    "priority": 87
  },
  {
    "id": 53,
    "titleTextMapHash": 2207598155,
    "descTextMapHash": 1786863102,
    "styleTextMapHash": 1781521905,
    "priority": 90
  },
  {
    "id": 54,
    "titleTextMapHash": 1034688579,
    "descTextMapHash": 3060128574,
    "styleTextMapHash": 2464607361,
    "priority": 90
  },
  {
    "id": 55,
    "titleTextMapHash": 2902393267,
    "descTextMapHash": 2052308070,
    "styleTextMapHash": 1843242721,
    "priority": 90
  },
  {
    "id": 56,
    "titleTextMapHash": 1026847195,
    "descTextMapHash": 3286807478,
    "styleTextMapHash": 3034242193,
    "priority": 100
  },
  {
    "id": 57,
    "titleTextMapHash": 1850752267,
    "descTextMapHash": 1261656206,
    "styleTextMapHash": 1125826025,
    "priority": 89
  },
  {
    "id": 58,
    "titleTextMapHash": 2728905563,
    "descTextMapHash": 753300798,
    "styleTextMapHash": 3394759473,
    "priority": 70
  },
  {
    "id": 59,
    "titleTextMapHash": 4200779955,
    "descTextMapHash": 4200149878,
    "styleTextMapHash": 2561365777,
    "priority": 60
  },
  {
    "id": 60,
    "titleTextMapHash": 2055213187,
    "descTextMapHash": 1964960910,
    "styleTextMapHash": 3660771561,
    "priority": 80
  },
  {
    "id": 61,
    "titleTextMapHash": 1797465243,
    "descTextMapHash": 3941431902,
    "styleTextMapHash": 2096259209,
    "priority": 90
  },
  {
    "id": 62,
    "titleTextMapHash": 1321151299,
    "descTextMapHash": 1747025894,
    "styleTextMapHash": 16004753,
    "priority": 80
  },
  {
    "id": 63,
    "titleTextMapHash": 1025710627,
    "descTextMapHash": 270841958,
    "styleTextMapHash": 3002568193,
    "priority": 90
  },
  {
    "id": 64,
    "titleTextMapHash": 88649251,
    "descTextMapHash": 3358009958,
    "styleTextMapHash": 3523342265,
    "priority": 80
  },
  {
    "id": 65,
    "titleTextMapHash": 3969065243,
    "descTextMapHash": 2074124014,
    "styleTextMapHash": 4113446265,
    "priority": 90
  },
  {
    "id": 66,
    "titleTextMapHash": 1282357547,
    "descTextMapHash": 3972222334,
    "styleTextMapHash": 1078788737,
    "priority": 80
  },
  {
    "id": 67,
    "titleTextMapHash": 2187299515,
    "descTextMapHash": 4097337742,
    "styleTextMapHash": 708582609,
    "priority": 90
  },
  {
    "id": 68,
    "titleTextMapHash": 3670270955,
    "descTextMapHash": 1665992222,
    "styleTextMapHash": 2341882753,
    "priority": 80
  },
  {
    "id": 69,
    "titleTextMapHash": 618342203,
    "descTextMapHash": 2400165942,
    "styleTextMapHash": 424368137,
    "priority": 90
  },
  {
    "id": 70,
    "titleTextMapHash": 3002462611,
    "descTextMapHash": 3588685054,
    "styleTextMapHash": 3587137369,
    "priority": 80
  },
  {
    "id": 71,
    "titleTextMapHash": 1381849523,
    "descTextMapHash": 3635058902,
    "styleTextMapHash": 984281953,
    "priority": 90
  },
  {
    "id": 72,
    "titleTextMapHash": 4203835099,
    "descTextMapHash": 2545283894,
    "styleTextMapHash": 894884977,
    "priority": 80
  },
  {
    "id": 73,
    "titleTextMapHash": 3134069299,
    "descTextMapHash": 3214092118,
    "styleTextMapHash": 3078686905,
    "priority": 90
  },
  {
    "id": 74,
    "titleTextMapHash": 4254600267,
    "descTextMapHash": 179458270,
    "styleTextMapHash": 1209270945,
    "priority": 80
  },
  {
    "id": 75,
    "titleTextMapHash": 2488285483,
    "descTextMapHash": 975221094,
    "styleTextMapHash": 2062608033,
    "priority": 90
  },
  {
    "id": 76,
    "titleTextMapHash": 23914595,
    "descTextMapHash": 3584189774,
    "styleTextMapHash": 796264777,
    "priority": 80
  },
  {
    "id": 77,
    "titleTextMapHash": 2349431659,
    "descTextMapHash": 2954408566,
    "styleTextMapHash": 3073099881,
    "priority": 90
  },
  {
    "id": 78,
    "titleTextMapHash": 4283623283,
    "descTextMapHash": 3020802750,
    "styleTextMapHash": 1797307473,
    "priority": 100
  },
  {
    "id": 79,
    "titleTextMapHash": 2363607723,
    "descTextMapHash": 68874062,
    "styleTextMapHash": 772064521,
    "priority": 80
  },
  {
    "id": 80,
    "titleTextMapHash": 2454492787,
    "descTextMapHash": 811381910,
    "styleTextMapHash": 693698785,
    "priority": 90
  },
  {
    "id": 81,
    "titleTextMapHash": 3745257859,
    "descTextMapHash": 1107941710,
    "styleTextMapHash": 747712569,
    "priority": 80
  },
  {
    "id": 82,
    "titleTextMapHash": 4227948563,
    "descTextMapHash": 156102222,
    "styleTextMapHash": 3102782553,
    "priority": 90
  },
  {
    "id": 83,
    "titleTextMapHash": 1125984995,
    "descTextMapHash": 1453860790,
    "styleTextMapHash": 1536407145,
    "priority": 80
  },
  {
    "id": 84,
    "titleTextMapHash": 116169915,
    "descTextMapHash": 2616123702,
    "styleTextMapHash": 3486059609,
    "priority": 90
  },
  {
    "id": 85,
    "titleTextMapHash": 4169011171,
    "descTextMapHash": 3117638886,
    "styleTextMapHash": 750345473,
    "priority": 80
  },
  {
    "id": 86,
    "titleTextMapHash": 2535334891,
    "descTextMapHash": 1506669590,
    "styleTextMapHash": 1975066409,
    "priority": 90
  },
  {
    "id": 87,
    "titleTextMapHash": 1859139555,
    "descTextMapHash": 2430667822,
    "styleTextMapHash": 397136713,
    "priority": 80
  },
  {
    "id": 88,
    "titleTextMapHash": 2230546859,
    "descTextMapHash": 22005062,
    "styleTextMapHash": 236330009,
    "priority": 90
  },
  {
    "id": 89,
    "titleTextMapHash": 3794534787,
    "descTextMapHash": 2976822254,
    "styleTextMapHash": 2010853625,
    "priority": 1
  },
  {
    "id": 90,
    "titleTextMapHash": 1876204083,
    "descTextMapHash": 4150718526,
    "styleTextMapHash": 2267307089,
    "priority": 1
  },
  {
    "id": 91,
    "titleTextMapHash": 2347791243,
    "descTextMapHash": 875243134,
    "styleTextMapHash": 406677913,
    "priority": 1
  },
  {
    "id": 92,
    "titleTextMapHash": 599984067,
    "descTextMapHash": 370483958,
    "styleTextMapHash": 962002041,
    "priority": 100,
    "LLAHGAEAMED": "EXHIBITION_CARD_ORDER_GREATER_BETTER"
  },
  {
    "id": 93,
    "titleTextMapHash": 2373373147,
    "descTextMapHash": 1962300998,
    "styleTextMapHash": 2963647473,
    "priority": 1
  },
  {
    "id": 94,
    "titleTextMapHash": 3402678355,
    "descTextMapHash": 59967806,
    "styleTextMapHash": 1586676577,
    "priority": 90
  },
  {
    "id": 95,
    "titleTextMapHash": 3267823371,
    "descTextMapHash": 2150590486,
    "styleTextMapHash": 1093911865,
    "priority": 100,
    "LLAHGAEAMED": "EXHIBITION_CARD_ORDER_GREATER_BETTER"
  },
  {
    "id": 96,
    "titleTextMapHash": 3026622955,
    "descTextMapHash": 1056776782,
    "styleTextMapHash": 2126968353,
    "priority": 1
  },
  {
    "id": 97,
    "titleTextMapHash": 1128411515,
    "descTextMapHash": 1643778822,
    "styleTextMapHash": 4140732297,
    "priority": 90
  },
  {
    "id": 98,
    "titleTextMapHash": 448273883,
    "descTextMapHash": 3696221878,
    "styleTextMapHash": 1617728577,
    "priority": 100,
    "LLAHGAEAMED": "EXHIBITION_CARD_ORDER_GREATER_BETTER"
  },
  {
    "id": 99,
    "titleTextMapHash": 2780736603,
    "descTextMapHash": 1818716190,
    "styleTextMapHash": 488072897,
    "priority": 1
  },
  {
    "id": 100,
    "titleTextMapHash": 2848880379,
    "descTextMapHash": 2004018470,
    "styleTextMapHash": 3968169041,
    "priority": 90
  },
  {
    "id": 101,
    "titleTextMapHash": 2088848483,
    "descTextMapHash": 2731524398,
    "styleTextMapHash": 1447096137,
    "priority": 100,
    "LLAHGAEAMED": "EXHIBITION_CARD_ORDER_GREATER_BETTER"
  },
  {
    "id": 102,
    "titleTextMapHash": 3656378651,
    "descTextMapHash": 2575591302,
    "styleTextMapHash": 2110263425,
    "priority": 1
  },
  {
    "id": 103,
    "titleTextMapHash": 4177380027,
    "descTextMapHash": 804619846,
    "styleTextMapHash": 2921442713,
    "priority": 70
  },
  {
    "id": 104,
    "titleTextMapHash": 3334561931,
    "descTextMapHash": 2263236062,
    "styleTextMapHash": 1474302801,
    "priority": 70
  },
  {
    "id": 105,
    "titleTextMapHash": 1673809331,
    "descTextMapHash": 1298306902,
    "styleTextMapHash": 1553219529,
    "priority": 60
  },
  {
    "id": 106,
    "titleTextMapHash": 2300734851,
    "descTextMapHash": 39744606,
    "styleTextMapHash": 3169379401,
    "priority": 80
  },
  {
    "id": 107,
    "titleTextMapHash": 2133166611,
    "descTextMapHash": 1940824582,
    "styleTextMapHash": 2147904193,
    "priority": 90
  },
  {
    "id": 108,
    "titleTextMapHash": 4143758467,
    "descTextMapHash": 411291606,
    "styleTextMapHash": 117938841,
    "priority": 80
  },
  {
    "id": 109,
    "titleTextMapHash": 449193683,
    "descTextMapHash": 1262707502,
    "styleTextMapHash": 830671809,
    "priority": 90
  },
  {
    "id": 110,
    "titleTextMapHash": 1315458043,
    "descTextMapHash": 1481027470,
    "styleTextMapHash": 3210847609,
    "priority": 80
  },
  {
    "id": 111,
    "titleTextMapHash": 3841730475,
    "descTextMapHash": 1270446158,
    "styleTextMapHash": 1853323265,
    "priority": 90
  },
  {
    "id": 112,
    "titleTextMapHash": 2754083403,
    "descTextMapHash": 3232477550,
    "styleTextMapHash": 2465888433,
    "priority": 80
  },
  {
    "id": 113,
    "titleTextMapHash": 3559903683,
    "descTextMapHash": 3220325334,
    "styleTextMapHash": 1185459993,
    "priority": 90
  },
  {
    "id": 114,
    "titleTextMapHash": 867916195,
    "descTextMapHash": 172489350,
    "styleTextMapHash": 373441497,
    "priority": 80
  },
  {
    "id": 115,
    "titleTextMapHash": 3994712579,
    "descTextMapHash": 2191888694,
    "styleTextMapHash": 326818361,
    "priority": 90
  },
  {
    "id": 116,
    "titleTextMapHash": 1429641467,
    "descTextMapHash": 2524169046,
    "styleTextMapHash": 3919253609,
    "priority": 80
  },
  {
    "id": 117,
    "titleTextMapHash": 2179333619,
    "descTextMapHash": 1462431494,
    "styleTextMapHash": 638322001,
    "priority": 90
  },
  {
    "id": 118,
    "titleTextMapHash": 2171105779,
    "descTextMapHash": 1981150518,
    "styleTextMapHash": 4135483209,
    "priority": 80
  },
  {
    "id": 119,
    "titleTextMapHash": 3822076571,
    "descTextMapHash": 2366812422,
    "styleTextMapHash": 3234864201,
    "priority": 90
  },
  {
    "id": 120,
    "titleTextMapHash": 170756499,
    "descTextMapHash": 3476458566,
    "styleTextMapHash": 647318241,
    "priority": 80
  },
  {
    "id": 121,
    "titleTextMapHash": 2806116291,
    "descTextMapHash": 1985993582,
    "styleTextMapHash": 1037497633,
    "priority": 90
  },
  {
    "id": 122,
    "titleTextMapHash": 1244649555,
    "descTextMapHash": 1856655638,
    "styleTextMapHash": 3824109201,
    "priority": 80
  },
  {
    "id": 123,
    "titleTextMapHash": 3087909667,
    "descTextMapHash": 3968406134,
    "styleTextMapHash": 3370624697,
    "priority": 90
  },
  {
    "id": 124,
    "titleTextMapHash": 3604953251,
    "descTextMapHash": 651908622,
    "styleTextMapHash": 4201647705,
    "priority": 100
  },
  {
    "id": 125,
    "titleTextMapHash": 246612475,
    "descTextMapHash": 186156574,
    "styleTextMapHash": 3937081721,
    "priority": 80
  },
  {
    "id": 126,
    "titleTextMapHash": 4006254451,
    "descTextMapHash": 1338488910,
    "styleTextMapHash": 840134721,
    "priority": 90
  },
  {
    "id": 127,
    "titleTextMapHash": 3783282435,
    "descTextMapHash": 3793828318,
    "styleTextMapHash": 4237415385,
    "priority": 80
  },
  {
    "id": 128,
    "titleTextMapHash": 1410583675,
    "descTextMapHash": 2142045366,
    "styleTextMapHash": 3636361553,
    "priority": 90
  },
  {
    "id": 129,
    "titleTextMapHash": 1990533139,
    "descTextMapHash": 458483870,
    "styleTextMapHash": 923865545,
    "priority": 80
  },
  {
    "id": 130,
    "titleTextMapHash": 2646328563,
    "descTextMapHash": 2653514118,
    "styleTextMapHash": 3218628393,
    "priority": 90
  },
  {
    "id": 131,
    "titleTextMapHash": 383961443,
    "descTextMapHash": 3008736094,
    "styleTextMapHash": 2033374113,
    "priority": 80
  },
  {
    "id": 132,
    "titleTextMapHash": 1784333875,
    "descTextMapHash": 225230174,
    "styleTextMapHash": 2454206513,
    "priority": 90
  },
  {
    "id": 133,
    "titleTextMapHash": 2334452715,
    "descTextMapHash": 2210815022,
    "styleTextMapHash": 3108076417,
    "priority": 80
  },
  {
    "id": 134,
    "titleTextMapHash": 3915516955,
    "descTextMapHash": 1450895982,
    "styleTextMapHash": 3934467345,
    "priority": 90
  },
  {
    "id": 135,
    "titleTextMapHash": 4056126587,
    "descTextMapHash": 3762795462,
    "styleTextMapHash": 2362287105,
    "priority": 80
  },
  {
    "id": 136,
    "titleTextMapHash": 2267944499,
    "descTextMapHash": 2424698638,
    "styleTextMapHash": 141226441,
    "priority": 80
  },
  {
    "id": 137,
    "titleTextMapHash": 1844514235,
    "descTextMapHash": 2078002078,
    "styleTextMapHash": 670102177,
    "priority": 80
  },
  {
    "id": 138,
    "titleTextMapHash": 1198793995,
    "descTextMapHash": 1852901382,
    "styleTextMapHash": 3535704441,
    "priority": 70
  },
  {
    "id": 139,
    "titleTextMapHash": 4204351539,
    "descTextMapHash": 1474652294,
    "styleTextMapHash": 2493649865,
    "priority": 80
  },
  {
    "id": 140,
    "titleTextMapHash": 2673476091,
    "descTextMapHash": 1186141606,
    "styleTextMapHash": 3064320313,
    "priority": 90
  },
  {
    "id": 141,
    "titleTextMapHash": 3482737027,
    "descTextMapHash": 689128206,
    "styleTextMapHash": 131898937,
    "priority": 40
  },
  {
    "id": 142,
    "titleTextMapHash": 2554283651,
    "descTextMapHash": 3872591950,
    "styleTextMapHash": 1777701305,
    "priority": 20
  },
  {
    "id": 143,
    "titleTextMapHash": 4143229235,
    "descTextMapHash": 379425726,
    "styleTextMapHash": 1276842577,
    "priority": 10
  },
  {
    "id": 144,
    "titleTextMapHash": 1841447219,
    "descTextMapHash": 1115081238,
    "styleTextMapHash": 3657878865,
    "priority": 5
  },
  {
    "id": 146,
    "titleTextMapHash": 3314946515,
    "descTextMapHash": 19824286,
    "styleTextMapHash": 3672547121,
    "priority": 89
  },
  {
    "id": 147,
    "titleTextMapHash": 796563299,
    "descTextMapHash": 700289806,
    "styleTextMapHash": 3268687433,
    "priority": 60
  },
  {
    "id": 148,
    "titleTextMapHash": 2049399747,
    "descTextMapHash": 1036681302,
    "styleTextMapHash": 80271145,
    "priority": 80
  },
  {
    "id": 149,
    "titleTextMapHash": 849479547,
    "descTextMapHash": 1859341126,
    "styleTextMapHash": 893012377,
    "priority": 70
  },
  {
    "id": 150,
    "titleTextMapHash": 1703451547,
    "descTextMapHash": 2521653102,
    "styleTextMapHash": 670958153,
    "priority": 65
  },
  {
    "id": 151,
    "titleTextMapHash": 1137216995,
    "descTextMapHash": 3992917662,
    "styleTextMapHash": 1796004345,
    "priority": 40
  },
  {
    "id": 152,
    "titleTextMapHash": 3161282627,
    "descTextMapHash": 3994460222,
    "styleTextMapHash": 2363559473,
    "priority": 90
  },
  {
    "id": 153,
    "titleTextMapHash": 750079667,
    "descTextMapHash": 3378043958,
    "styleTextMapHash": 2723285785,
    "priority": 100
  },
  {
    "id": 156,
    "titleTextMapHash": 165604563,
    "descTextMapHash": 2820363550,
    "styleTextMapHash": 683806177,
    "priority": 81
  },
  {
    "id": 157,
    "titleTextMapHash": 1198010059,
    "descTextMapHash": 4014779142,
    "styleTextMapHash": 4134846097,
    "priority": 89
  },
  {
    "id": 158,
    "titleTextMapHash": 178836139,
    "descTextMapHash": 2927833430,
    "styleTextMapHash": 3987456065,
    "priority": 50
  },
  {
    "id": 159,
    "titleTextMapHash": 2892077675,
    "descTextMapHash": 2476044982,
    "styleTextMapHash": 2015920697,
    "priority": 1
  },
  {
    "id": 160,
    "titleTextMapHash": 2877674651,
    "descTextMapHash": 3827614926,
    "styleTextMapHash": 3593227081,
    "priority": 100
  },
  {
    "id": 161,
    "titleTextMapHash": 2828269819,
    "descTextMapHash": 579626486,
    "styleTextMapHash": 362267433,
    "priority": 100
  },
  {
    "id": 162,
    "titleTextMapHash": 3636576203,
    "descTextMapHash": 36778366,
    "styleTextMapHash": 413150553,
    "priority": 85
  },
  {
    "id": 163,
    "titleTextMapHash": 1396299723,
    "descTextMapHash": 20726086,
    "styleTextMapHash": 1954413505,
    "priority": 70
  },
  {
    "id": 164,
    "titleTextMapHash": 1342545435,
    "descTextMapHash": 3661248630,
    "styleTextMapHash": 2633969705,
    "priority": 89
  },
  {
    "id": 165,
    "titleTextMapHash": 362623963,
    "descTextMapHash": 3366970150,
    "styleTextMapHash": 1357103449,
    "priority": 88
  },
  {
    "id": 166,
    "titleTextMapHash": 495858179,
    "descTextMapHash": 1861583526,
    "styleTextMapHash": 4003052945,
    "priority": 87
  },
  {
    "id": 167,
    "titleTextMapHash": 3728719507,
    "descTextMapHash": 2964019070,
    "styleTextMapHash": 685691409,
    "priority": 90
  },
  {
    "id": 168,
    "titleTextMapHash": 1672834123,
    "descTextMapHash": 848701854,
    "styleTextMapHash": 945547825,
    "priority": 90
  },
  {
    "id": 169,
    "titleTextMapHash": 1124140163,
    "descTextMapHash": 2250059198,
    "styleTextMapHash": 891697865,
    "priority": 90
  },
  {
    "id": 170,
    "titleTextMapHash": 1935091051,
    "descTextMapHash": 2217240494,
    "styleTextMapHash": 1888400257,
    "priority": 100
  },
  {
    "id": 172,
    "titleTextMapHash": 1994940987,
    "descTextMapHash": 2467486430,
    "styleTextMapHash": 187554617,
    "priority": 40
  },
  {
    "id": 173,
    "titleTextMapHash": 1763186467,
    "descTextMapHash": 2621809510,
    "styleTextMapHash": 4291455945,
    "priority": 100
  },
  {
    "id": 174,
    "titleTextMapHash": 4226205403,
    "descTextMapHash": 2460973918,
    "styleTextMapHash": 1709630969,
    "priority": 89
  },
  {
    "id": 175,
    "titleTextMapHash": 3635570443,
    "descTextMapHash": 3324768750,
    "styleTextMapHash": 2786968961,
    "priority": 60
  },
  {
    "id": 176,
    "titleTextMapHash": 2359197595,
    "descTextMapHash": 40269966,
    "styleTextMapHash": 1003275817,
    "priority": 50
  },
  {
    "id": 177,
    "titleTextMapHash": 2967976987,
    "descTextMapHash": 3929188838,
    "styleTextMapHash": 836526889,
    "priority": 55
  },
  {
    "id": 178,
    "titleTextMapHash": 3473310723,
    "descTextMapHash": 2194118934,
    "styleTextMapHash": 978238649,
    "priority": 50
  },
  {
    "id": 179,
    "titleTextMapHash": 3215124555,
    "descTextMapHash": 3947537294,
    "styleTextMapHash": 2627341769,
    "priority": 55
  },
  {
    "id": 180,
    "titleTextMapHash": 842348595,
    "descTextMapHash": 2661559398,
    "styleTextMapHash": 3925998057,
    "priority": 100,
    "LLAHGAEAMED": "EXHIBITION_CARD_ORDER_GREATER_BETTER"
  },
  {
    "id": 181,
    "titleTextMapHash": 679500835,
    "descTextMapHash": 3371867854,
    "styleTextMapHash": 453273009,
    "priority": 90,
    "LLAHGAEAMED": "EXHIBITION_CARD_ORDER_GREATER_BETTER"
  },
  {
    "id": 182,
    "titleTextMapHash": 191382115,
    "descTextMapHash": 2543502590,
    "styleTextMapHash": 34337985,
    "priority": 20
  },
  {
    "id": 183,
    "titleTextMapHash": 4232137147,
    "descTextMapHash": 3869032038,
    "styleTextMapHash": 949902073,
    "priority": 1
  },
  {
    "id": 184,
    "titleTextMapHash": 2541518347,
    "descTextMapHash": 1147483078,
    "styleTextMapHash": 3505801385,
    "priority": 88,
    "LLAHGAEAMED": "EXHIBITION_CARD_ORDER_GREATER_BETTER"
  },
  {
    "id": 185,
    "titleTextMapHash": 1411828451,
    "descTextMapHash": 2179787342,
    "styleTextMapHash": 3052042817,
    "priority": 70,
    "LLAHGAEAMED": "EXHIBITION_CARD_ORDER_LESS_BETTER"
  },
  {
    "id": 186,
    "titleTextMapHash": 2403827851,
    "descTextMapHash": 2629339270,
    "styleTextMapHash": 4231879145,
    "priority": 70,
    "LLAHGAEAMED": "EXHIBITION_CARD_ORDER_GREATER_BETTER"
  },
  {
    "id": 187,
    "titleTextMapHash": 4194156179,
    "descTextMapHash": 1614958558,
    "styleTextMapHash": 1890168857,
    "priority": 75,
    "LLAHGAEAMED": "EXHIBITION_CARD_ORDER_LESS_BETTER"
  },
  {
    "id": 188,
    "titleTextMapHash": 514064827,
    "descTextMapHash": 3912188382,
    "styleTextMapHash": 1440126497,
    "priority": 60,
    "LLAHGAEAMED": "EXHIBITION_CARD_ORDER_GREATER_BETTER"
  },
  {
    "id": 189,
    "titleTextMapHash": 381289443,
    "descTextMapHash": 2972409270,
    "styleTextMapHash": 3968468401,
    "priority": 50,
    "LLAHGAEAMED": "EXHIBITION_CARD_ORDER_GREATER_BETTER"
  },
  {
    "id": 190,
    "titleTextMapHash": 1093931259,
    "descTextMapHash": 1261596966,
    "styleTextMapHash": 3081059377,
    "priority": 30,
    "LLAHGAEAMED": "EXHIBITION_CARD_ORDER_GREATER_BETTER"
  },
  {
    "id": 191,
    "titleTextMapHash": 1499263387,
    "descTextMapHash": 2063146078,
    "styleTextMapHash": 715885937,
    "priority": 40,
    "LLAHGAEAMED": "EXHIBITION_CARD_ORDER_GREATER_BETTER"
  },
  {
    "id": 192,
    "titleTextMapHash": 3802919779,
    "descTextMapHash": 1556125182,
    "styleTextMapHash": 3166599393,
    "priority": 40,
    "LLAHGAEAMED": "EXHIBITION_CARD_ORDER_GREATER_BETTER"
  },
  {
    "id": 193,
    "titleTextMapHash": 3377404451,
    "descTextMapHash": 836990118,
    "styleTextMapHash": 2498520681,
    "priority": 40,
    "LLAHGAEAMED": "EXHIBITION_CARD_ORDER_GREATER_BETTER"
  }
]
