[
  {
    "materialID": 223001,
    "HIILLBAIMMB": [
      {
        "type": "FIREWORKS_REFORM_PARAM_COLOR",
        "PILAKKKBNEG": 230,
        "FKKENLBBGEF": true,
        "GPEBELGENFJ": [50, 410]
      },
      {
        "type": "FIREWORKS_REFORM_PARAM_SIZE",
        "PILAKKKBNEG": 100,
        "FKKENLBBGEF": true,
        "GPEBELGENFJ": [50, 150]
      },
      {
        "type": "FIREWORKS_REFORM_PARAM_HEIGHT",
        "PILAKKKBNEG": 14,
        "FKKENLBBGEF": true,
        "GPEBELGENFJ": [8, 30]
      },
      {
        "type": "FIREWORKS_REFORM_PARAM_DENSITY",
        "PILAKKKBNEG": 100,
        "FKKENLBBGEF": true,
        "GPEBELGENFJ": [50, 150]
      },
      {
        "type": "FIREWORKS_REFORM_PARAM_ROTATION",
        "PILAKKKBNEG": 360,
        "GPEBELGENFJ": []
      }
    ],
    "ECIBJBFGLEI": "SphericalFireworks",
    "LEHCBCKKFEH": "Eff_SceneObj_Fireworks_Bullet",
    "NILMEBNNGJP": ["Eff_SceneObj_Fireworks_01"],
    "JCLNJAEPCBI": 860837618
  },
  {
    "materialID": 223002,
    "HIILLBAIMMB": [
      {
        "type": "FIREWORKS_REFORM_PARAM_COLOR",
        "PILAKKKBNEG": 269,
        "FKKENLBBGEF": true,
        "GPEBELGENFJ": [89, 449]
      },
      {
        "type": "FIREWORKS_REFORM_PARAM_SIZE",
        "PILAKKKBNEG": 100,
        "FKKENLBBGEF": true,
        "GPEBELGENFJ": [50, 150]
      },
      {
        "type": "FIREWORKS_REFORM_PARAM_HEIGHT",
        "PILAKKKBNEG": 14,
        "FKKENLBBGEF": true,
        "GPEBELGENFJ": [8, 30]
      },
      {
        "type": "FIREWORKS_REFORM_PARAM_DENSITY",
        "PILAKKKBNEG": 100,
        "FKKENLBBGEF": true,
        "GPEBELGENFJ": [50, 150]
      },
      {
        "type": "FIREWORKS_REFORM_PARAM_ROTATION",
        "PILAKKKBNEG": 360,
        "GPEBELGENFJ": []
      }
    ],
    "ECIBJBFGLEI": "SphericalFireworks",
    "LEHCBCKKFEH": "Eff_SceneObj_Fireworks_Bullet",
    "NILMEBNNGJP": ["Eff_SceneObj_Fireworks_02"],
    "JCLNJAEPCBI": 1654748746
  },
  {
    "materialID": 223003,
    "HIILLBAIMMB": [
      {
        "type": "FIREWORKS_REFORM_PARAM_COLOR",
        "PILAKKKBNEG": 200,
        "FKKENLBBGEF": true,
        "GPEBELGENFJ": [20, 380]
      },
      {
        "type": "FIREWORKS_REFORM_PARAM_SIZE",
        "PILAKKKBNEG": 100,
        "FKKENLBBGEF": true,
        "GPEBELGENFJ": [50, 150]
      },
      {
        "type": "FIREWORKS_REFORM_PARAM_HEIGHT",
        "PILAKKKBNEG": 14,
        "FKKENLBBGEF": true,
        "GPEBELGENFJ": [8, 30]
      },
      {
        "type": "FIREWORKS_REFORM_PARAM_DENSITY",
        "PILAKKKBNEG": 100,
        "FKKENLBBGEF": true,
        "GPEBELGENFJ": [50, 150]
      },
      {
        "type": "FIREWORKS_REFORM_PARAM_ROTATION",
        "PILAKKKBNEG": 360,
        "GPEBELGENFJ": []
      }
    ],
    "ECIBJBFGLEI": "SphericalFireworks",
    "LEHCBCKKFEH": "Eff_SceneObj_Fireworks_Bullet",
    "NILMEBNNGJP": ["Eff_SceneObj_Fireworks_03"],
    "JCLNJAEPCBI": 414667370
  },
  {
    "materialID": 223004,
    "HIILLBAIMMB": [
      {
        "type": "FIREWORKS_REFORM_PARAM_COLOR",
        "PILAKKKBNEG": 380,
        "FKKENLBBGEF": true,
        "GPEBELGENFJ": [200, 560]
      },
      {
        "type": "FIREWORKS_REFORM_PARAM_SIZE",
        "PILAKKKBNEG": 100,
        "FKKENLBBGEF": true,
        "GPEBELGENFJ": [50, 150]
      },
      {
        "type": "FIREWORKS_REFORM_PARAM_HEIGHT",
        "PILAKKKBNEG": 14,
        "FKKENLBBGEF": true,
        "GPEBELGENFJ": [8, 30]
      },
      {
        "type": "FIREWORKS_REFORM_PARAM_DENSITY",
        "PILAKKKBNEG": 100,
        "FKKENLBBGEF": true,
        "GPEBELGENFJ": [50, 150]
      },
      {
        "type": "FIREWORKS_REFORM_PARAM_ROTATION",
        "PILAKKKBNEG": 360,
        "GPEBELGENFJ": []
      }
    ],
    "ECIBJBFGLEI": "SphericalFireworks",
    "LEHCBCKKFEH": "Eff_SceneObj_Fireworks_Bullet",
    "NILMEBNNGJP": ["Eff_SceneObj_Fireworks_04"],
    "JCLNJAEPCBI": 188220194
  },
  {
    "materialID": 223005,
    "HIILLBAIMMB": [
      {
        "type": "FIREWORKS_REFORM_PARAM_COLOR",
        "PILAKKKBNEG": 380,
        "FKKENLBBGEF": true,
        "GPEBELGENFJ": [200, 560]
      },
      {
        "type": "FIREWORKS_REFORM_PARAM_SIZE",
        "PILAKKKBNEG": 100,
        "FKKENLBBGEF": true,
        "GPEBELGENFJ": [50, 150]
      },
      {
        "type": "FIREWORKS_REFORM_PARAM_HEIGHT",
        "PILAKKKBNEG": 14,
        "FKKENLBBGEF": true,
        "GPEBELGENFJ": [8, 30]
      },
      {
        "type": "FIREWORKS_REFORM_PARAM_DENSITY",
        "PILAKKKBNEG": 100,
        "FKKENLBBGEF": true,
        "GPEBELGENFJ": [50, 150]
      },
      {
        "type": "FIREWORKS_REFORM_PARAM_ROTATION",
        "PILAKKKBNEG": 360,
        "GPEBELGENFJ": []
      }
    ],
    "ECIBJBFGLEI": "SphericalFireworks",
    "LEHCBCKKFEH": "Eff_SceneObj_Fireworks_Bullet",
    "NILMEBNNGJP": ["Eff_SceneObj_Fireworks_05"],
    "JCLNJAEPCBI": 1680932714
  },
  {
    "materialID": 223006,
    "HIILLBAIMMB": [
      {
        "type": "FIREWORKS_REFORM_PARAM_COLOR",
        "PILAKKKBNEG": 380,
        "FKKENLBBGEF": true,
        "GPEBELGENFJ": [200, 560]
      },
      {
        "type": "FIREWORKS_REFORM_PARAM_SIZE",
        "PILAKKKBNEG": 100,
        "FKKENLBBGEF": true,
        "GPEBELGENFJ": [50, 150]
      },
      {
        "type": "FIREWORKS_REFORM_PARAM_HEIGHT",
        "PILAKKKBNEG": 14,
        "FKKENLBBGEF": true,
        "GPEBELGENFJ": [8, 30]
      },
      {
        "type": "FIREWORKS_REFORM_PARAM_DENSITY",
        "PILAKKKBNEG": 100,
        "FKKENLBBGEF": true,
        "GPEBELGENFJ": [50, 150]
      },
      {
        "type": "FIREWORKS_REFORM_PARAM_ROTATION",
        "PILAKKKBNEG": 360,
        "GPEBELGENFJ": []
      }
    ],
    "ECIBJBFGLEI": "SphericalFireworks",
    "LEHCBCKKFEH": "Eff_SceneObj_Fireworks_Bullet",
    "NILMEBNNGJP": ["Eff_SceneObj_Fireworks_06"],
    "JCLNJAEPCBI": 2645318090
  },
  {
    "materialID": 223007,
    "HIILLBAIMMB": [
      {
        "type": "FIREWORKS_REFORM_PARAM_COLOR",
        "PILAKKKBNEG": 522,
        "FKKENLBBGEF": true,
        "GPEBELGENFJ": [342, 702]
      },
      {
        "type": "FIREWORKS_REFORM_PARAM_SIZE",
        "PILAKKKBNEG": 100,
        "FKKENLBBGEF": true,
        "GPEBELGENFJ": [50, 150]
      },
      {
        "type": "FIREWORKS_REFORM_PARAM_HEIGHT",
        "PILAKKKBNEG": 14,
        "FKKENLBBGEF": true,
        "GPEBELGENFJ": [8, 30]
      },
      {
        "type": "FIREWORKS_REFORM_PARAM_DENSITY",
        "PILAKKKBNEG": 100,
        "GPEBELGENFJ": []
      },
      {
        "type": "FIREWORKS_REFORM_PARAM_ROTATION",
        "PILAKKKBNEG": 360,
        "FKKENLBBGEF": true,
        "GPEBELGENFJ": [180, 540]
      }
    ],
    "ECIBJBFGLEI": "PatternShapeFireworks",
    "LEHCBCKKFEH": "Eff_SceneObj_Fireworks_Bullet",
    "NILMEBNNGJP": ["Eff_SceneObj_Fireworks_Shape_01"],
    "JCLNJAEPCBI": 1916046458
  },
  {
    "materialID": 223008,
    "HIILLBAIMMB": [
      {
        "type": "FIREWORKS_REFORM_PARAM_COLOR",
        "PILAKKKBNEG": 318,
        "FKKENLBBGEF": true,
        "GPEBELGENFJ": [138, 498]
      },
      {
        "type": "FIREWORKS_REFORM_PARAM_SIZE",
        "PILAKKKBNEG": 100,
        "FKKENLBBGEF": true,
        "GPEBELGENFJ": [50, 150]
      },
      {
        "type": "FIREWORKS_REFORM_PARAM_HEIGHT",
        "PILAKKKBNEG": 14,
        "FKKENLBBGEF": true,
        "GPEBELGENFJ": [8, 30]
      },
      {
        "type": "FIREWORKS_REFORM_PARAM_DENSITY",
        "PILAKKKBNEG": 100,
        "GPEBELGENFJ": []
      },
      {
        "type": "FIREWORKS_REFORM_PARAM_ROTATION",
        "PILAKKKBNEG": 360,
        "FKKENLBBGEF": true,
        "GPEBELGENFJ": [180, 540]
      }
    ],
    "ECIBJBFGLEI": "PatternShapeFireworks",
    "LEHCBCKKFEH": "Eff_SceneObj_Fireworks_Bullet",
    "NILMEBNNGJP": ["Eff_SceneObj_Fireworks_Shape_02"],
    "JCLNJAEPCBI": 3178253162
  },
  {
    "materialID": 223009,
    "HIILLBAIMMB": [
      {
        "type": "FIREWORKS_REFORM_PARAM_COLOR",
        "PILAKKKBNEG": 400,
        "FKKENLBBGEF": true,
        "GPEBELGENFJ": [220, 580]
      },
      {
        "type": "FIREWORKS_REFORM_PARAM_SIZE",
        "PILAKKKBNEG": 100,
        "FKKENLBBGEF": true,
        "GPEBELGENFJ": [50, 150]
      },
      {
        "type": "FIREWORKS_REFORM_PARAM_HEIGHT",
        "PILAKKKBNEG": 14,
        "FKKENLBBGEF": true,
        "GPEBELGENFJ": [8, 30]
      },
      {
        "type": "FIREWORKS_REFORM_PARAM_DENSITY",
        "PILAKKKBNEG": 100,
        "GPEBELGENFJ": []
      },
      {
        "type": "FIREWORKS_REFORM_PARAM_ROTATION",
        "PILAKKKBNEG": 360,
        "FKKENLBBGEF": true,
        "GPEBELGENFJ": [180, 540]
      }
    ],
    "ECIBJBFGLEI": "PatternShapeFireworks",
    "LEHCBCKKFEH": "Eff_SceneObj_Fireworks_Bullet",
    "NILMEBNNGJP": ["Eff_SceneObj_Fireworks_Shape_03"],
    "JCLNJAEPCBI": 2544560218
  },
  {
    "materialID": 223010,
    "HIILLBAIMMB": [
      {
        "type": "FIREWORKS_REFORM_PARAM_COLOR",
        "PILAKKKBNEG": 380,
        "FKKENLBBGEF": true,
        "GPEBELGENFJ": [200, 560]
      },
      {
        "type": "FIREWORKS_REFORM_PARAM_SIZE",
        "PILAKKKBNEG": 100,
        "FKKENLBBGEF": true,
        "GPEBELGENFJ": [50, 150]
      },
      {
        "type": "FIREWORKS_REFORM_PARAM_HEIGHT",
        "PILAKKKBNEG": 14,
        "FKKENLBBGEF": true,
        "GPEBELGENFJ": [8, 30]
      },
      {
        "type": "FIREWORKS_REFORM_PARAM_DENSITY",
        "PILAKKKBNEG": 100,
        "GPEBELGENFJ": []
      },
      {
        "type": "FIREWORKS_REFORM_PARAM_ROTATION",
        "PILAKKKBNEG": 360,
        "FKKENLBBGEF": true,
        "GPEBELGENFJ": [180, 540]
      }
    ],
    "ECIBJBFGLEI": "PatternShapeFireworks",
    "LEHCBCKKFEH": "Eff_SceneObj_Fireworks_Bullet",
    "NILMEBNNGJP": ["Eff_SceneObj_Fireworks_Shape_04"],
    "JCLNJAEPCBI": 3374634530
  },
  {
    "materialID": 223011,
    "HIILLBAIMMB": [
      {
        "type": "FIREWORKS_REFORM_PARAM_COLOR",
        "PILAKKKBNEG": 318,
        "FKKENLBBGEF": true,
        "GPEBELGENFJ": [138, 498]
      },
      {
        "type": "FIREWORKS_REFORM_PARAM_SIZE",
        "PILAKKKBNEG": 100,
        "FKKENLBBGEF": true,
        "GPEBELGENFJ": [50, 150]
      },
      {
        "type": "FIREWORKS_REFORM_PARAM_HEIGHT",
        "PILAKKKBNEG": 14,
        "FKKENLBBGEF": true,
        "GPEBELGENFJ": [8, 30]
      },
      {
        "type": "FIREWORKS_REFORM_PARAM_DENSITY",
        "PILAKKKBNEG": 100,
        "GPEBELGENFJ": []
      },
      {
        "type": "FIREWORKS_REFORM_PARAM_ROTATION",
        "PILAKKKBNEG": 360,
        "FKKENLBBGEF": true,
        "GPEBELGENFJ": [180, 540]
      }
    ],
    "ECIBJBFGLEI": "PatternShapeFireworks",
    "LEHCBCKKFEH": "Eff_SceneObj_Fireworks_Bullet",
    "NILMEBNNGJP": ["Eff_SceneObj_Fireworks_Shape_05"],
    "JCLNJAEPCBI": 1269098234
  },
  {
    "materialID": 223012,
    "HIILLBAIMMB": [
      {
        "type": "FIREWORKS_REFORM_PARAM_COLOR",
        "PILAKKKBNEG": 380,
        "FKKENLBBGEF": true,
        "GPEBELGENFJ": [200, 560]
      },
      {
        "type": "FIREWORKS_REFORM_PARAM_SIZE",
        "PILAKKKBNEG": 100,
        "FKKENLBBGEF": true,
        "GPEBELGENFJ": [50, 150]
      },
      {
        "type": "FIREWORKS_REFORM_PARAM_HEIGHT",
        "PILAKKKBNEG": 14,
        "FKKENLBBGEF": true,
        "GPEBELGENFJ": [8, 30]
      },
      {
        "type": "FIREWORKS_REFORM_PARAM_DENSITY",
        "PILAKKKBNEG": 100,
        "GPEBELGENFJ": []
      },
      {
        "type": "FIREWORKS_REFORM_PARAM_ROTATION",
        "PILAKKKBNEG": 360,
        "FKKENLBBGEF": true,
        "GPEBELGENFJ": [180, 540]
      }
    ],
    "ECIBJBFGLEI": "PatternShapeFireworks",
    "LEHCBCKKFEH": "Eff_SceneObj_Fireworks_Bullet",
    "NILMEBNNGJP": ["Eff_SceneObj_Fireworks_Shape_06"],
    "JCLNJAEPCBI": 2726657050
  },
  {
    "materialID": 223013,
    "HIILLBAIMMB": [
      {
        "type": "FIREWORKS_REFORM_PARAM_COLOR",
        "PILAKKKBNEG": 212,
        "FKKENLBBGEF": true,
        "GPEBELGENFJ": [32, 392]
      },
      {
        "type": "FIREWORKS_REFORM_PARAM_SIZE",
        "PILAKKKBNEG": 100,
        "FKKENLBBGEF": true,
        "GPEBELGENFJ": [50, 150]
      },
      {
        "type": "FIREWORKS_REFORM_PARAM_HEIGHT",
        "PILAKKKBNEG": 14,
        "FKKENLBBGEF": true,
        "GPEBELGENFJ": [8, 30]
      },
      {
        "type": "FIREWORKS_REFORM_PARAM_DENSITY",
        "PILAKKKBNEG": 100,
        "GPEBELGENFJ": []
      },
      {
        "type": "FIREWORKS_REFORM_PARAM_ROTATION",
        "PILAKKKBNEG": 360,
        "FKKENLBBGEF": true,
        "GPEBELGENFJ": [180, 540]
      }
    ],
    "ECIBJBFGLEI": "PatternShapeFireworks",
    "LEHCBCKKFEH": "Eff_SceneObj_Fireworks_Bullet",
    "NILMEBNNGJP": [
      "Eff_SceneObj_Fireworks_Dice_01",
      "Eff_SceneObj_Fireworks_Dice_02",
      "Eff_SceneObj_Fireworks_Dice_03",
      "Eff_SceneObj_Fireworks_Dice_04",
      "Eff_SceneObj_Fireworks_Dice_05",
      "Eff_SceneObj_Fireworks_Dice_06"
    ],
    "JCLNJAEPCBI": 2146396770
  },
  {
    "materialID": 223014,
    "HIILLBAIMMB": [
      {
        "type": "FIREWORKS_REFORM_PARAM_COLOR",
        "PILAKKKBNEG": 388,
        "FKKENLBBGEF": true,
        "GPEBELGENFJ": [208, 568]
      },
      {
        "type": "FIREWORKS_REFORM_PARAM_SIZE",
        "PILAKKKBNEG": 100,
        "FKKENLBBGEF": true,
        "GPEBELGENFJ": [50, 150]
      },
      {
        "type": "FIREWORKS_REFORM_PARAM_HEIGHT",
        "PILAKKKBNEG": 14,
        "FKKENLBBGEF": true,
        "GPEBELGENFJ": [8, 30]
      },
      {
        "type": "FIREWORKS_REFORM_PARAM_DENSITY",
        "PILAKKKBNEG": 100,
        "GPEBELGENFJ": []
      },
      {
        "type": "FIREWORKS_REFORM_PARAM_ROTATION",
        "PILAKKKBNEG": 360,
        "FKKENLBBGEF": true,
        "GPEBELGENFJ": [180, 540]
      }
    ],
    "ECIBJBFGLEI": "PatternShapeFireworks",
    "LEHCBCKKFEH": "Eff_SceneObj_Fireworks_Bullet",
    "NILMEBNNGJP": ["Eff_SceneObj_Fireworks_Shape_07"],
    "JCLNJAEPCBI": 4053114858
  },
  {
    "materialID": 223015,
    "HIILLBAIMMB": [
      {
        "type": "FIREWORKS_REFORM_PARAM_COLOR",
        "PILAKKKBNEG": 386,
        "FKKENLBBGEF": true,
        "GPEBELGENFJ": [206, 566]
      },
      {
        "type": "FIREWORKS_REFORM_PARAM_SIZE",
        "PILAKKKBNEG": 100,
        "FKKENLBBGEF": true,
        "GPEBELGENFJ": [50, 150]
      },
      {
        "type": "FIREWORKS_REFORM_PARAM_HEIGHT",
        "PILAKKKBNEG": 14,
        "FKKENLBBGEF": true,
        "GPEBELGENFJ": [8, 30]
      },
      {
        "type": "FIREWORKS_REFORM_PARAM_DENSITY",
        "PILAKKKBNEG": 100,
        "GPEBELGENFJ": []
      },
      {
        "type": "FIREWORKS_REFORM_PARAM_ROTATION",
        "PILAKKKBNEG": 360,
        "FKKENLBBGEF": true,
        "GPEBELGENFJ": [180, 540]
      }
    ],
    "ECIBJBFGLEI": "PatternShapeFireworks",
    "LEHCBCKKFEH": "Eff_SceneObj_Fireworks_Bullet",
    "NILMEBNNGJP": ["Eff_SceneObj_Fireworks_Shape_08"],
    "JCLNJAEPCBI": 4216461818
  },
  {
    "materialID": 223016,
    "HIILLBAIMMB": [
      {
        "type": "FIREWORKS_REFORM_PARAM_COLOR",
        "PILAKKKBNEG": 194,
        "FKKENLBBGEF": true,
        "GPEBELGENFJ": [14, 374]
      },
      {
        "type": "FIREWORKS_REFORM_PARAM_SIZE",
        "PILAKKKBNEG": 100,
        "FKKENLBBGEF": true,
        "GPEBELGENFJ": [50, 150]
      },
      {
        "type": "FIREWORKS_REFORM_PARAM_HEIGHT",
        "PILAKKKBNEG": 14,
        "FKKENLBBGEF": true,
        "GPEBELGENFJ": [8, 30]
      },
      {
        "type": "FIREWORKS_REFORM_PARAM_DENSITY",
        "PILAKKKBNEG": 100,
        "GPEBELGENFJ": []
      },
      {
        "type": "FIREWORKS_REFORM_PARAM_ROTATION",
        "PILAKKKBNEG": 360,
        "FKKENLBBGEF": true,
        "GPEBELGENFJ": [180, 540]
      }
    ],
    "ECIBJBFGLEI": "PatternShapeFireworks",
    "LEHCBCKKFEH": "Eff_SceneObj_Fireworks_Bullet",
    "NILMEBNNGJP": ["Eff_SceneObj_Fireworks_Shape_09"],
    "JCLNJAEPCBI": 573479674
  },
  {
    "materialID": 223017,
    "HIILLBAIMMB": [
      {
        "type": "FIREWORKS_REFORM_PARAM_COLOR",
        "PILAKKKBNEG": 493,
        "FKKENLBBGEF": true,
        "GPEBELGENFJ": [313, 673]
      },
      {
        "type": "FIREWORKS_REFORM_PARAM_SIZE",
        "PILAKKKBNEG": 100,
        "FKKENLBBGEF": true,
        "GPEBELGENFJ": [50, 150]
      },
      {
        "type": "FIREWORKS_REFORM_PARAM_HEIGHT",
        "PILAKKKBNEG": 14,
        "FKKENLBBGEF": true,
        "GPEBELGENFJ": [8, 30]
      },
      {
        "type": "FIREWORKS_REFORM_PARAM_DENSITY",
        "PILAKKKBNEG": 100,
        "GPEBELGENFJ": []
      },
      {
        "type": "FIREWORKS_REFORM_PARAM_ROTATION",
        "PILAKKKBNEG": 360,
        "FKKENLBBGEF": true,
        "GPEBELGENFJ": [180, 540]
      }
    ],
    "ECIBJBFGLEI": "PatternShapeFireworks",
    "LEHCBCKKFEH": "Eff_SceneObj_Fireworks_Bullet",
    "NILMEBNNGJP": ["Eff_SceneObj_Fireworks_Shape_10"],
    "JCLNJAEPCBI": 1992667202
  },
  {
    "materialID": 223018,
    "HIILLBAIMMB": [
      {
        "type": "FIREWORKS_REFORM_PARAM_COLOR",
        "PILAKKKBNEG": 386,
        "FKKENLBBGEF": true,
        "GPEBELGENFJ": [206, 566]
      },
      {
        "type": "FIREWORKS_REFORM_PARAM_SIZE",
        "PILAKKKBNEG": 100,
        "FKKENLBBGEF": true,
        "GPEBELGENFJ": [50, 150]
      },
      {
        "type": "FIREWORKS_REFORM_PARAM_HEIGHT",
        "PILAKKKBNEG": 14,
        "FKKENLBBGEF": true,
        "GPEBELGENFJ": [8, 30]
      },
      {
        "type": "FIREWORKS_REFORM_PARAM_DENSITY",
        "PILAKKKBNEG": 100,
        "GPEBELGENFJ": []
      },
      {
        "type": "FIREWORKS_REFORM_PARAM_ROTATION",
        "PILAKKKBNEG": 360,
        "FKKENLBBGEF": true,
        "GPEBELGENFJ": [180, 540]
      }
    ],
    "ECIBJBFGLEI": "PatternShapeFireworks",
    "LEHCBCKKFEH": "Eff_SceneObj_Fireworks_Bullet",
    "NILMEBNNGJP": ["Eff_SceneObj_Fireworks_Shape_11"],
    "JCLNJAEPCBI": 2514039834
  }
]
