[
  {
    "IIKJJLJJCNB": 1,
    "campNameTextMapHash": 1935736076,
    "ICKOFGHIKEJ": 1,
    "CDHFDOHBJDM": 20170101,
    "questId": 4008109,
    "FEKOLKPJNFG": 4008106,
    "CBLHEHNPKNI": [1201701, 1201702]
  },
  {
    "IIKJJLJJCNB": 2,
    "campNameTextMapHash": 380485788,
    "ICKOFGHIKEJ": 1,
    "CDHFDOHBJDM": 20170102,
    "questId": 4008114,
    "FEKOLKPJNFG": 4008108,
    "CBLHEHNPKNI": [1201703, 1201704],
    "LGCDOGMPMOO": 1
  },
  {
    "IIKJJLJJCNB": 3,
    "campNameTextMapHash": 3201021900,
    "ICKOFGHIKEJ": 2,
    "CDHFDOHBJDM": 20170103,
    "CBLHEHNPKNI": [1201705, 1201706],
    "LGCDOGMPMOO": 2
  },
  {
    "IIKJJLJJCNB": 4,
    "campNameTextMapHash": 3559699356,
    "ICKOFGHIKEJ": 3,
    "CDHFDOHBJDM": 20170104,
    "CBLHEHNPKNI": [1201707, 1201708],
    "LGCDOGMPMOO": 3
  },
  {
    "IIKJJLJJCNB": 5,
    "campNameTextMapHash": 877087676,
    "ICKOFGHIKEJ": 4,
    "CDHFDOHBJDM": 20170105,
    "CBLHEHNPKNI": [1201709, 1201710],
    "LGCDOGMPMOO": 4
  }
]
