[
  {
    "id": 1,
    "MAALGBPCKDN": 1,
    "unlockLevel": 1,
    "monsterId": 36090191,
    "configId": 10001023,
    "iconPath": "ART/UI/Atlas/Activity/FungusFighter/UI_Icon_Fungus_Partner_Un_Gamma_Water",
    "nameTextMapHash": 2317913440,
    "descriptionTextMapHash": 1809608805,
    "ANAFLEADMME": 1432519381,
    "CHLOHOILHCG": "ART/UI/Atlas/BuffElement/UI_Buff_Item_Recovery_HpAdd",
    "BECEOKJEEFP": 3,
    "NFFNEJHGNKL": [1, 2]
  },
  {
    "id": 2,
    "MAALGBPCKDN": 8,
    "unlockLevel": 4,
    "monsterId": 36090291,
    "configId": 10001024,
    "iconPath": "ART/UI/Atlas/Activity/FungusFighter/UI_Icon_Fungus_Partner_Un_Delta_Grass",
    "nameTextMapHash": 641978648,
    "descriptionTextMapHash": 260731581,
    "ANAFLEADMME": 2297909333,
    "CHLOHOILHCG": "ART/UI/Atlas/BuffElement/UI_Buff_Item_Atk_Nomal",
    "BECEOKJEEFP": 6,
    "NFFNEJHGNKL": [4, 5]
  },
  {
    "id": 3,
    "MAALGBPCKDN": 3,
    "unlockLevel": 2,
    "monsterId": 36090391,
    "configId": 10001025,
    "iconPath": "ART/UI/Atlas/Activity/FungusFighter/UI_Icon_Fungus_Partner_Un_Delta_Wind",
    "nameTextMapHash": 3194781656,
    "descriptionTextMapHash": 1628491629,
    "ANAFLEADMME": 3489302629,
    "CHLOHOILHCG": "ART/UI/Atlas/BuffElement/UI_Buff_Item_Other_SPRise",
    "BECEOKJEEFP": 9,
    "NFFNEJHGNKL": [7, 8]
  },
  {
    "id": 4,
    "MAALGBPCKDN": 4,
    "unlockLevel": 2,
    "monsterId": 36090491,
    "configId": 10001026,
    "iconPath": "ART/UI/Atlas/Activity/FungusFighter/UI_Icon_Fungus_Partner_Trois_Epsilon_Electric",
    "nameTextMapHash": 3075579696,
    "descriptionTextMapHash": 542637197,
    "ANAFLEADMME": 938894445,
    "CHLOHOILHCG": "ART/UI/Atlas/BuffElement/UI_Buff_Item_Atk_Nomal",
    "BECEOKJEEFP": 12,
    "NFFNEJHGNKL": [10, 11]
  },
  {
    "id": 5,
    "MAALGBPCKDN": 7,
    "unlockLevel": 4,
    "monsterId": 36090591,
    "configId": 10001027,
    "iconPath": "ART/UI/Atlas/Activity/FungusFighter/UI_Icon_Fungus_Partner_Trois_Alpha_Ice",
    "nameTextMapHash": 2245677168,
    "descriptionTextMapHash": 3508915477,
    "ANAFLEADMME": 1695398181,
    "CHLOHOILHCG": "ART/UI/Atlas/BuffElement/UI_Buff_Item_Def_Add",
    "BECEOKJEEFP": 15,
    "NFFNEJHGNKL": [13, 14]
  },
  {
    "id": 6,
    "MAALGBPCKDN": 6,
    "unlockLevel": 3,
    "monsterId": 36090691,
    "configId": 10001028,
    "iconPath": "ART/UI/Atlas/Activity/FungusFighter/UI_Icon_Fungus_Partner_Trois_Gamma_Fire",
    "nameTextMapHash": 3238277336,
    "descriptionTextMapHash": 1327743365,
    "ANAFLEADMME": 1071198541,
    "CHLOHOILHCG": "ART/UI/Atlas/BuffElement/UI_Buff_Item_Def_Add",
    "BECEOKJEEFP": 18,
    "NFFNEJHGNKL": [16, 17]
  },
  {
    "id": 7,
    "MAALGBPCKDN": 2,
    "unlockLevel": 1,
    "monsterId": 36090791,
    "configId": 10001029,
    "iconPath": "ART/UI/Atlas/Activity/FungusFighter/UI_Icon_Fungus_Partner_Deux_Alpha_Fire",
    "nameTextMapHash": 2395478832,
    "descriptionTextMapHash": 4093794797,
    "ANAFLEADMME": 2803801845,
    "CHLOHOILHCG": "ART/UI/Atlas/BuffElement/UI_Buff_Item_Atk_Nomal",
    "BECEOKJEEFP": 21,
    "NFFNEJHGNKL": [19, 20]
  },
  {
    "id": 8,
    "MAALGBPCKDN": 9,
    "unlockLevel": 5,
    "monsterId": 36090891,
    "configId": 10001030,
    "iconPath": "ART/UI/Atlas/Activity/FungusFighter/UI_Icon_Fungus_Partner_Deux_Epsilon_Wind",
    "nameTextMapHash": 1590777368,
    "descriptionTextMapHash": 795392197,
    "ANAFLEADMME": 1038002829,
    "CHLOHOILHCG": "ART/UI/Atlas/BuffElement/UI_Buff_Item_Recovery_HpAdd",
    "BECEOKJEEFP": 24,
    "NFFNEJHGNKL": [22, 23]
  },
  {
    "id": 9,
    "MAALGBPCKDN": 5,
    "unlockLevel": 2,
    "monsterId": 36090991,
    "configId": 10001031,
    "iconPath": "ART/UI/Atlas/Activity/FungusFighter/UI_Icon_Fungus_Partner_Deux_Beta_Rock",
    "nameTextMapHash": 384790352,
    "descriptionTextMapHash": 1875404789,
    "ANAFLEADMME": 305482765,
    "CHLOHOILHCG": "ART/UI/Atlas/BuffElement/UI_Buff_Item_Def_Add",
    "BECEOKJEEFP": 27,
    "NFFNEJHGNKL": [25, 26]
  },
  {
    "id": 10,
    "MAALGBPCKDN": 10,
    "unlockLevel": 5,
    "monsterId": 36091091,
    "configId": 10001032,
    "iconPath": "ART/UI/Atlas/Activity/FungusFighter/UI_Icon_Fungus_Partner_Deux_Delta_Electric",
    "nameTextMapHash": 213991928,
    "descriptionTextMapHash": 3993952597,
    "ANAFLEADMME": 1629678325,
    "CHLOHOILHCG": "ART/UI/Atlas/BuffElement/UI_Buff_Item_Other_SPRise",
    "BECEOKJEEFP": 30,
    "NFFNEJHGNKL": [28, 29]
  }
]
