[
  {
    "HHONGCEIPCD": 1,
    "HCCHBMMCHBE": 1,
    "FEKOLKPJNFG": 4008120,
    "FGHENAFDOKF": 1,
    "ICKOFGHIKEJ": 1,
    "NOFBPDMLFFF": [1, 2, 1, 3, 3, 2, 1, 2, 3],
    "PPKIDBDPPKI": [1, 1, 1, 2, 2, 2, 3, 3, 3],
    "HEBPMAKPFAP": [1, 2],
    "BIFLAIEAKON": [[], []],
    "CBLHEHNPKNI": [1201711, 1201721]
  },
  {
    "HHONGCEIPCD": 2,
    "HCCHBMMCHBE": 10,
    "FEKOLKPJNFG": 4008121,
    "FGHENAFDOKF": 1,
    "ICKOFGHIKEJ": 1,
    "NOFBPDMLFFF": [3, 3, 4, 4, 4, 5, 4, 5, 5],
    "PPKIDBDPPKI": [3, 3, 3, 4, 4, 4, 5, 5, 5],
    "HEBPMAKPFAP": [1, 3],
    "HJGIGHKEBGB": 1,
    "BIFLAIEAKON": [[], []],
    "CBLHEHNPKNI": [1201712, 1201722],
    "tutorialId": 12043
  },
  {
    "HHONGCEIPCD": 3,
    "HCCHBMMCHBE": 9,
    "FEKOLKPJNFG": 4008102,
    "FGHENAFDOKF": 1,
    "ICKOFGHIKEJ": 1,
    "NOFBPDMLFFF": [5, 1, 1, 4, 5, 5, 1, 5, 1],
    "PPKIDBDPPKI": [4, 4, 4, 5, 5, 5, 1, 1, 1],
    "HEBPMAKPFAP": [1, 2, 3],
    "HJGIGHKEBGB": 2,
    "BIFLAIEAKON": [[], []],
    "CBLHEHNPKNI": [1201713, 1201723]
  },
  {
    "HHONGCEIPCD": 4,
    "HCCHBMMCHBE": 5,
    "FEKOLKPJNFG": 4008104,
    "FGHENAFDOKF": 1,
    "ICKOFGHIKEJ": 1,
    "NOFBPDMLFFF": [3, 3, 6, 2, 6, 2, 2, 3, 3],
    "PPKIDBDPPKI": [6, 6, 6, 2, 2, 2, 3, 3, 3],
    "HEBPMAKPFAP": [2, 4],
    "BIFLAIEAKON": [[6, 2, 0, 3, 6, 0, 0, 0, 0], []],
    "CBLHEHNPKNI": [1201714, 1201724],
    "tutorialId": 12044
  },
  {
    "HHONGCEIPCD": 5,
    "HCCHBMMCHBE": 2,
    "FGHENAFDOKF": 1,
    "ICKOFGHIKEJ": 2,
    "NOFBPDMLFFF": [1, 1, 1, 4, 1, 4, 5, 4, 5],
    "PPKIDBDPPKI": [1, 1, 1, 4, 4, 4, 5, 5, 5],
    "HEBPMAKPFAP": [1, 2, 4],
    "BIFLAIEAKON": [[0, 5, 0, 0, 4, 0, 0, 5, 0], []],
    "CBLHEHNPKNI": [1201715, 1201725]
  },
  {
    "HHONGCEIPCD": 6,
    "HCCHBMMCHBE": 7,
    "FGHENAFDOKF": 1,
    "ICKOFGHIKEJ": 2,
    "NOFBPDMLFFF": [2, 1, 1, 2, 3, 3, 3, 2, 3],
    "PPKIDBDPPKI": [1, 1, 1, 2, 2, 2, 3, 3, 3],
    "HEBPMAKPFAP": [2, 4],
    "BIFLAIEAKON": [[0, 0, 0, 1, 3, 2, 0, 0, 0], []],
    "CBLHEHNPKNI": [1201716, 1201726]
  },
  {
    "HHONGCEIPCD": 7,
    "HCCHBMMCHBE": 3,
    "FGHENAFDOKF": 1,
    "ICKOFGHIKEJ": 3,
    "NOFBPDMLFFF": [3, 3, 4, 5, 4, 5, 5, 3, 3],
    "PPKIDBDPPKI": [4, 4, 4, 5, 5, 5, 3, 3, 3],
    "HEBPMAKPFAP": [2, 3, 4],
    "HJGIGHKEBGB": 1,
    "BIFLAIEAKON": [
      [0, 0, 0, 3, 5, 0, 0, 0, 0],
      [0, 4, 0, 0, 5, 0, 0, 3, 0]
    ],
    "CBLHEHNPKNI": [1201717, 1201727]
  },
  {
    "HHONGCEIPCD": 8,
    "HCCHBMMCHBE": 6,
    "FGHENAFDOKF": 1,
    "ICKOFGHIKEJ": 3,
    "NOFBPDMLFFF": [6, 2, 6, 2, 6, 2, 3, 2, 6],
    "PPKIDBDPPKI": [6, 6, 6, 2, 2, 2, 3, 3, 3],
    "HEBPMAKPFAP": [1, 2, 4],
    "BIFLAIEAKON": [
      [0, 0, 0, 6, 3, 0, 0, 0, 0],
      [0, 0, 0, 2, 3, 0, 0, 0, 0]
    ],
    "CBLHEHNPKNI": [1201718, 1201728]
  },
  {
    "HHONGCEIPCD": 9,
    "HCCHBMMCHBE": 4,
    "FGHENAFDOKF": 1,
    "ICKOFGHIKEJ": 4,
    "NOFBPDMLFFF": [1, 1, 3, 2, 2, 2, 3, 1, 2],
    "PPKIDBDPPKI": [1, 1, 1, 2, 2, 2, 3, 3, 3],
    "HEBPMAKPFAP": [1, 2, 4],
    "BIFLAIEAKON": [[0, 1, 0, 0, 2, 0, 0, 3, 0], []],
    "CBLHEHNPKNI": [1201719, 1201729]
  },
  {
    "HHONGCEIPCD": 10,
    "HCCHBMMCHBE": 8,
    "FGHENAFDOKF": 1,
    "ICKOFGHIKEJ": 4,
    "NOFBPDMLFFF": [4, 4, 5, 4, 4, 3, 3, 5, 5],
    "PPKIDBDPPKI": [4, 4, 4, 5, 5, 5, 3, 3, 3],
    "HEBPMAKPFAP": [1, 2, 4],
    "BIFLAIEAKON": [[0, 5, 0, 0, 3, 0, 0, 0, 0], []],
    "CBLHEHNPKNI": [1201720, 1201730]
  }
]
