[
  {
    "id": 70220001,
    "hp": 1358.4000244140625,
    "hpCurve": "GROW_CURVE_HP",
    "attack": 12.5600004196167,
    "attackCurve": "GROW_CURVE_ATTACK",
    "defense": 500.0,
    "defenseCurve": "GROW_CURVE_DEFENSE"
  },
  {
    "id": 70220002,
    "hp": 1358.4000244140625,
    "hpCurve": "GROW_CURVE_HP",
    "attack": 12.5600004196167,
    "attackCurve": "GROW_CURVE_ATTACK",
    "defense": 500.0,
    "defenseCurve": "GROW_CURVE_DEFENSE"
  },
  {
    "id": 70220003,
    "hp": 1358.4000244140625,
    "hpCurve": "GROW_CURVE_HP",
    "attack": 2.51200008392334,
    "attackCurve": "GROW_CURVE_ATTACK",
    "defense": 500.0,
    "defenseCurve": "GROW_CURVE_DEFENSE"
  },
  {
    "id": 70220004,
    "hp": 1358.4000244140625,
    "hpCurve": "GROW_CURVE_HP",
    "attack": 6.791999816894531,
    "attackCurve": "GROW_CURVE_HP",
    "defense": 500.0,
    "defenseCurve": "GROW_CURVE_DEFENSE"
  },
  {
    "id": 70220005,
    "hp": 1358.4000244140625,
    "hpCurve": "GROW_CURVE_HP",
    "attack": 6.791999816894531,
    "attackCurve": "GROW_CURVE_HP",
    "defense": 500.0,
    "defenseCurve": "GROW_CURVE_DEFENSE"
  },
  {
    "id": 70220007,
    "hp": 1358.4000244140625,
    "hpCurve": "GROW_CURVE_HP",
    "attack": 2.51200008392334,
    "attackCurve": "GROW_CURVE_ATTACK",
    "defense": 500.0,
    "defenseCurve": "GROW_CURVE_DEFENSE"
  },
  {
    "id": 70220023,
    "hp": 1358.4000244140625,
    "hpCurve": "GROW_CURVE_HP",
    "attack": 12.5600004196167,
    "attackCurve": "GROW_CURVE_ATTACK",
    "defense": 500.0,
    "defenseCurve": "GROW_CURVE_DEFENSE"
  },
  {
    "id": 70220035,
    "hp": 1358.4000244140625,
    "hpCurve": "GROW_CURVE_HP",
    "attack": 6.791999816894531,
    "attackCurve": "GROW_CURVE_HP",
    "defense": 500.0,
    "defenseCurve": "GROW_CURVE_DEFENSE"
  },
  {
    "id": 70220075,
    "hp": 1358.4000244140625,
    "hpCurve": "GROW_CURVE_HP",
    "attack": 28.97920036315918,
    "attackCurve": "GROW_CURVE_HP",
    "defense": 500.0,
    "defenseCurve": "GROW_CURVE_DEFENSE"
  },
  {
    "id": 70310001,
    "hp": 1358.4000244140625,
    "hpCurve": "GROW_CURVE_HP",
    "attack": 12.5600004196167,
    "attackCurve": "GROW_CURVE_ATTACK",
    "defense": 500.0,
    "defenseCurve": "GROW_CURVE_DEFENSE"
  },
  {
    "id": 70310002,
    "hp": 1358.4000244140625,
    "hpCurve": "GROW_CURVE_HP",
    "attack": 12.5600004196167,
    "attackCurve": "GROW_CURVE_ATTACK",
    "defense": 500.0,
    "defenseCurve": "GROW_CURVE_DEFENSE"
  },
  {
    "id": 70310003,
    "hp": 1358.4000244140625,
    "hpCurve": "GROW_CURVE_HP",
    "attack": 12.5600004196167,
    "attackCurve": "GROW_CURVE_ATTACK",
    "defense": 500.0,
    "defenseCurve": "GROW_CURVE_DEFENSE"
  },
  {
    "id": 70310004,
    "hp": 1358.4000244140625,
    "hpCurve": "GROW_CURVE_HP",
    "attack": 12.5600004196167,
    "attackCurve": "GROW_CURVE_ATTACK",
    "defense": 500.0,
    "defenseCurve": "GROW_CURVE_DEFENSE"
  },
  {
    "id": 70320001,
    "hp": 1358.4000244140625,
    "hpCurve": "GROW_CURVE_HP",
    "attack": 125.5999984741211,
    "attackCurve": "GROW_CURVE_ATTACK",
    "defense": 500.0,
    "defenseCurve": "GROW_CURVE_DEFENSE"
  },
  {
    "id": 70320002,
    "hp": 1358.4000244140625,
    "hpCurve": "GROW_CURVE_HP",
    "attack": 125.5999984741211,
    "attackCurve": "GROW_CURVE_ATTACK",
    "defense": 500.0,
    "defenseCurve": "GROW_CURVE_DEFENSE"
  },
  {
    "id": 70380004,
    "hp": 600.0,
    "hpCurve": "GROW_CURVE_HP",
    "attack": 49.29999923706055,
    "attackCurve": "GROW_CURVE_ATTACK",
    "defense": 500.0,
    "defenseCurve": "GROW_CURVE_DEFENSE"
  },
  {
    "id": 70900006,
    "hp": 1358.4000244140625,
    "hpCurve": "GROW_CURVE_HP",
    "attackCurve": "GROW_CURVE_ATTACK",
    "defense": 500.0,
    "defenseCurve": "GROW_CURVE_DEFENSE"
  },
  {
    "id": 70900007,
    "hp": 1358.4000244140625,
    "hpCurve": "GROW_CURVE_HP",
    "attackCurve": "GROW_CURVE_ATTACK",
    "defense": 500.0,
    "defenseCurve": "GROW_CURVE_DEFENSE"
  },
  {
    "id": 70900008,
    "hp": 1358.4000244140625,
    "hpCurve": "GROW_CURVE_HP",
    "attackCurve": "GROW_CURVE_ATTACK",
    "defense": 500.0,
    "defenseCurve": "GROW_CURVE_DEFENSE"
  },
  {
    "id": 70900009,
    "hp": 1358.4000244140625,
    "hpCurve": "GROW_CURVE_HP",
    "attackCurve": "GROW_CURVE_ATTACK",
    "defense": 500.0,
    "defenseCurve": "GROW_CURVE_DEFENSE"
  },
  {
    "id": 70900010,
    "hp": 1358.4000244140625,
    "hpCurve": "GROW_CURVE_HP",
    "attackCurve": "GROW_CURVE_ATTACK",
    "defense": 500.0,
    "defenseCurve": "GROW_CURVE_DEFENSE"
  },
  {
    "id": 70900011,
    "hp": 1358.4000244140625,
    "hpCurve": "GROW_CURVE_HP",
    "attackCurve": "GROW_CURVE_ATTACK",
    "defense": 500.0,
    "defenseCurve": "GROW_CURVE_DEFENSE"
  },
  {
    "id": 70900012,
    "hp": 1358.4000244140625,
    "hpCurve": "GROW_CURVE_HP",
    "attack": 125.5999984741211,
    "attackCurve": "GROW_CURVE_ATTACK",
    "defense": 500.0,
    "defenseCurve": "GROW_CURVE_DEFENSE"
  },
  {
    "id": 70900013,
    "hp": 1358.4000244140625,
    "hpCurve": "GROW_CURVE_HP",
    "attack": 125.5999984741211,
    "attackCurve": "GROW_CURVE_ATTACK",
    "defense": 500.0,
    "defenseCurve": "GROW_CURVE_DEFENSE"
  },
  {
    "id": 70900020,
    "hp": 1358.4000244140625,
    "hpCurve": "GROW_CURVE_HP",
    "attackCurve": "GROW_CURVE_ATTACK",
    "defense": 500.0,
    "defenseCurve": "GROW_CURVE_DEFENSE"
  },
  {
    "id": 70900021,
    "hp": 1358.4000244140625,
    "hpCurve": "GROW_CURVE_HP",
    "attackCurve": "GROW_CURVE_ATTACK",
    "defense": 500.0,
    "defenseCurve": "GROW_CURVE_DEFENSE"
  },
  {
    "id": 70510001,
    "hp": 1358.4000244140625,
    "hpCurve": "GROW_CURVE_HP",
    "attack": 5.02400016784668,
    "attackCurve": "GROW_CURVE_ATTACK",
    "defense": 500.0,
    "defenseCurve": "GROW_CURVE_DEFENSE"
  },
  {
    "id": 70510002,
    "hp": 1358.4000244140625,
    "hpCurve": "GROW_CURVE_HP",
    "attack": 5.02400016784668,
    "attackCurve": "GROW_CURVE_ATTACK",
    "defense": 500.0,
    "defenseCurve": "GROW_CURVE_DEFENSE"
  },
  {
    "id": 70510003,
    "hp": 1358.4000244140625,
    "hpCurve": "GROW_CURVE_HP",
    "attack": 5.02400016784668,
    "attackCurve": "GROW_CURVE_ATTACK",
    "defense": 500.0,
    "defenseCurve": "GROW_CURVE_DEFENSE"
  },
  {
    "id": 70510004,
    "hp": 1358.4000244140625,
    "hpCurve": "GROW_CURVE_HP",
    "attack": 5.02400016784668,
    "attackCurve": "GROW_CURVE_ATTACK",
    "defense": 500.0,
    "defenseCurve": "GROW_CURVE_DEFENSE"
  },
  {
    "id": 70510005,
    "hp": 1358.4000244140625,
    "hpCurve": "GROW_CURVE_HP",
    "attack": 5.02400016784668,
    "attackCurve": "GROW_CURVE_ATTACK",
    "defense": 500.0,
    "defenseCurve": "GROW_CURVE_DEFENSE"
  },
  {
    "id": 70510006,
    "hp": 1358.4000244140625,
    "hpCurve": "GROW_CURVE_HP",
    "attack": 5.02400016784668,
    "attackCurve": "GROW_CURVE_ATTACK",
    "defense": 500.0,
    "defenseCurve": "GROW_CURVE_DEFENSE"
  },
  {
    "id": 70510007,
    "hp": 1358.4000244140625,
    "hpCurve": "GROW_CURVE_HP",
    "attack": 5.02400016784668,
    "attackCurve": "GROW_CURVE_ATTACK",
    "defense": 500.0,
    "defenseCurve": "GROW_CURVE_DEFENSE"
  },
  {
    "id": 70300055,
    "hp": 200.0,
    "hpCurve": "GROW_CURVE_HP",
    "attackCurve": "GROW_CURVE_ATTACK",
    "defense": 500.0,
    "defenseCurve": "GROW_CURVE_DEFENSE"
  },
  {
    "id": 70900238,
    "hp": 1358.4000244140625,
    "hpCurve": "GROW_CURVE_HP",
    "attack": 5.02400016784668,
    "attackCurve": "GROW_CURVE_ATTACK",
    "defense": 500.0,
    "defenseCurve": "GROW_CURVE_DEFENSE"
  },
  {
    "id": 70900239,
    "hp": 1358.4000244140625,
    "hpCurve": "GROW_CURVE_HP",
    "attack": 5.02400016784668,
    "attackCurve": "GROW_CURVE_ATTACK",
    "defense": 500.0,
    "defenseCurve": "GROW_CURVE_DEFENSE"
  },
  {
    "id": 70900244,
    "hp": 1358.4000244140625,
    "hpCurve": "GROW_CURVE_HP",
    "attack": 5.02400016784668,
    "attackCurve": "GROW_CURVE_ATTACK",
    "defense": 500.0,
    "defenseCurve": "GROW_CURVE_DEFENSE"
  },
  {
    "id": 70900245,
    "hp": 1358.4000244140625,
    "hpCurve": "GROW_CURVE_HP",
    "attack": 5.02400016784668,
    "attackCurve": "GROW_CURVE_ATTACK",
    "defense": 500.0,
    "defenseCurve": "GROW_CURVE_DEFENSE"
  },
  {
    "id": 70220020,
    "hp": 1358.4000244140625,
    "hpCurve": "GROW_CURVE_HP",
    "attack": 12.5600004196167,
    "attackCurve": "GROW_CURVE_ATTACK",
    "defense": 500.0,
    "defenseCurve": "GROW_CURVE_DEFENSE"
  },
  {
    "id": 70220028,
    "hp": 1358.4000244140625,
    "hpCurve": "GROW_CURVE_HP",
    "attack": 5.02400016784668,
    "attackCurve": "GROW_CURVE_ATTACK",
    "defense": 500.0,
    "defenseCurve": "GROW_CURVE_DEFENSE"
  },
  {
    "id": 70380006,
    "hp": 1358.4000244140625,
    "hpCurve": "GROW_CURVE_HP",
    "attack": 37.68000030517578,
    "attackCurve": "GROW_CURVE_ATTACK",
    "defense": 500.0,
    "defenseCurve": "GROW_CURVE_DEFENSE"
  },
  {
    "id": 70900037,
    "hp": 1358.4000244140625,
    "hpCurve": "GROW_CURVE_HP",
    "attack": 125.5999984741211,
    "attackCurve": "GROW_CURVE_ATTACK",
    "defense": 500.0,
    "defenseCurve": "GROW_CURVE_DEFENSE"
  },
  {
    "id": 70900207,
    "hp": 1358.4000244140625,
    "hpCurve": "GROW_CURVE_HP",
    "attack": 12.5600004196167,
    "attackCurve": "GROW_CURVE_ATTACK",
    "defense": 500.0,
    "defenseCurve": "GROW_CURVE_DEFENSE"
  },
  {
    "id": 70900208,
    "hp": 1358.4000244140625,
    "hpCurve": "GROW_CURVE_HP",
    "attack": 6.28000020980835,
    "attackCurve": "GROW_CURVE_ATTACK",
    "defense": 500.0,
    "defenseCurve": "GROW_CURVE_DEFENSE"
  },
  {
    "id": 70900230,
    "hp": 1358.4000244140625,
    "hpCurve": "GROW_CURVE_HP",
    "attack": 6.28000020980835,
    "attackCurve": "GROW_CURVE_ATTACK",
    "defense": 500.0,
    "defenseCurve": "GROW_CURVE_DEFENSE"
  },
  {
    "id": 70900248,
    "hp": 13.583999633789062,
    "hpCurve": "GROW_CURVE_HP",
    "attack": 12.5600004196167,
    "attackCurve": "GROW_CURVE_ATTACK",
    "defense": 500.0,
    "defenseCurve": "GROW_CURVE_DEFENSE"
  },
  {
    "id": 70900249,
    "hp": 1358.4000244140625,
    "hpCurve": "GROW_CURVE_HP",
    "attack": 6.28000020980835,
    "attackCurve": "GROW_CURVE_ATTACK",
    "defense": 500.0,
    "defenseCurve": "GROW_CURVE_DEFENSE"
  },
  {
    "id": 70900281,
    "hp": 1358.4000244140625,
    "hpCurve": "GROW_CURVE_HP",
    "attack": 2.51200008392334,
    "attackCurve": "GROW_CURVE_ATTACK",
    "defense": 500.0,
    "defenseCurve": "GROW_CURVE_DEFENSE"
  },
  {
    "id": 70900301,
    "hp": 1358.4000244140625,
    "hpCurve": "GROW_CURVE_HP",
    "attack": 12.5600004196167,
    "attackCurve": "GROW_CURVE_ATTACK",
    "defense": 500.0,
    "defenseCurve": "GROW_CURVE_DEFENSE"
  },
  {
    "id": 70300075,
    "hp": 35.861759185791016,
    "hpCurve": "GROW_CURVE_HP",
    "attackCurve": "GROW_CURVE_ATTACK",
    "defense": 500.0,
    "defenseCurve": "GROW_CURVE_DEFENSE"
  },
  {
    "id": 70300076,
    "hp": 35.861759185791016,
    "hpCurve": "GROW_CURVE_HP",
    "attackCurve": "GROW_CURVE_ATTACK",
    "defense": 500.0,
    "defenseCurve": "GROW_CURVE_DEFENSE"
  },
  {
    "id": 70300077,
    "hp": 6.791999816894531,
    "hpCurve": "GROW_CURVE_HP",
    "attackCurve": "GROW_CURVE_ATTACK",
    "defense": 500.0,
    "defenseCurve": "GROW_CURVE_DEFENSE"
  },
  {
    "id": 70300078,
    "hp": 6.791999816894531,
    "hpCurve": "GROW_CURVE_HP",
    "attackCurve": "GROW_CURVE_ATTACK",
    "defense": 500.0,
    "defenseCurve": "GROW_CURVE_DEFENSE"
  },
  {
    "id": 70300079,
    "hp": 400.0,
    "hpCurve": "GROW_CURVE_HP",
    "attack": 49.29999923706055,
    "attackCurve": "GROW_CURVE_ATTACK",
    "defense": 500.0,
    "defenseCurve": "GROW_CURVE_DEFENSE"
  },
  {
    "id": 70300091,
    "hp": 12.225600242614746,
    "hpCurve": "GROW_CURVE_HP",
    "attackCurve": "GROW_CURVE_ATTACK",
    "defense": 500.0,
    "defenseCurve": "GROW_CURVE_DEFENSE"
  },
  {
    "id": 70300101,
    "hp": 12.225600242614746,
    "hpCurve": "GROW_CURVE_HP",
    "attackCurve": "GROW_CURVE_ATTACK",
    "defense": 500.0,
    "defenseCurve": "GROW_CURVE_DEFENSE"
  },
  {
    "id": 70300083,
    "hp": 20.0,
    "hpCurve": "GROW_CURVE_HP",
    "attackCurve": "GROW_CURVE_ATTACK",
    "defense": 500.0,
    "defenseCurve": "GROW_CURVE_DEFENSE"
  },
  {
    "id": 70300087,
    "hp": 20.0,
    "hpCurve": "GROW_CURVE_HP",
    "attackCurve": "GROW_CURVE_ATTACK",
    "defense": 500.0,
    "defenseCurve": "GROW_CURVE_DEFENSE"
  },
  {
    "id": 70300111,
    "hp": 1.0,
    "hpCurve": "GROW_CURVE_DEFENSE",
    "attackCurve": "GROW_CURVE_ATTACK",
    "defense": 500.0,
    "defenseCurve": "GROW_CURVE_DEFENSE"
  },
  {
    "id": 70300113,
    "hp": 1.0,
    "hpCurve": "GROW_CURVE_DEFENSE",
    "attackCurve": "GROW_CURVE_ATTACK",
    "defense": 500.0,
    "defenseCurve": "GROW_CURVE_DEFENSE"
  },
  {
    "id": 70220034,
    "hp": 1358.4000244140625,
    "hpCurve": "GROW_CURVE_HP",
    "attack": 6.791999816894531,
    "attackCurve": "GROW_CURVE_HP",
    "defense": 500.0,
    "defenseCurve": "GROW_CURVE_DEFENSE"
  },
  {
    "id": 70360016,
    "hp": 1358.4000244140625,
    "hpCurve": "GROW_CURVE_HP",
    "attack": 1.25600004196167,
    "attackCurve": "GROW_CURVE_ATTACK",
    "defense": 500.0,
    "defenseCurve": "GROW_CURVE_DEFENSE"
  },
  {
    "id": 70360017,
    "hp": 1358.4000244140625,
    "hpCurve": "GROW_CURVE_HP",
    "attack": 1.25600004196167,
    "attackCurve": "GROW_CURVE_ATTACK",
    "defense": 500.0,
    "defenseCurve": "GROW_CURVE_DEFENSE"
  },
  {
    "id": 70360018,
    "hp": 1358.4000244140625,
    "hpCurve": "GROW_CURVE_HP",
    "attack": 1.25600004196167,
    "attackCurve": "GROW_CURVE_ATTACK",
    "defense": 500.0,
    "defenseCurve": "GROW_CURVE_DEFENSE"
  },
  {
    "id": 70360020,
    "hp": 6.791999816894531,
    "hpCurve": "GROW_CURVE_HP",
    "attack": 1.25600004196167,
    "attackCurve": "GROW_CURVE_ATTACK",
    "defense": 500.0,
    "defenseCurve": "GROW_CURVE_DEFENSE"
  },
  {
    "id": 70360021,
    "hp": 1358.4000244140625,
    "hpCurve": "GROW_CURVE_HP",
    "attack": 25.1200008392334,
    "attackCurve": "GROW_CURVE_ATTACK",
    "defense": 500.0,
    "defenseCurve": "GROW_CURVE_DEFENSE"
  },
  {
    "id": 70360022,
    "hp": 1358.4000244140625,
    "hpCurve": "GROW_CURVE_HP",
    "attack": 25.1200008392334,
    "attackCurve": "GROW_CURVE_ATTACK",
    "defense": 500.0,
    "defenseCurve": "GROW_CURVE_DEFENSE"
  },
  {
    "id": 70350021,
    "hp": 1358.4000244140625,
    "hpCurve": "GROW_CURVE_HP",
    "attack": 12.5600004196167,
    "attackCurve": "GROW_CURVE_ATTACK",
    "defense": 500.0,
    "defenseCurve": "GROW_CURVE_DEFENSE"
  },
  {
    "id": 70350027,
    "hp": 1358.4000244140625,
    "hpCurve": "GROW_CURVE_HP",
    "attack": 12.5600004196167,
    "attackCurve": "GROW_CURVE_ATTACK",
    "defense": 500.0,
    "defenseCurve": "GROW_CURVE_DEFENSE"
  },
  {
    "id": 70900275,
    "hp": 1358.4000244140625,
    "hpCurve": "GROW_CURVE_HP",
    "attack": 37.68000030517578,
    "attackCurve": "GROW_CURVE_ATTACK",
    "defense": 500.0,
    "defenseCurve": "GROW_CURVE_DEFENSE"
  },
  {
    "id": 70900269,
    "hp": 1358.4000244140625,
    "hpCurve": "GROW_CURVE_HP",
    "attack": 2.51200008392334,
    "attackCurve": "GROW_CURVE_ATTACK",
    "defense": 500.0,
    "defenseCurve": "GROW_CURVE_DEFENSE"
  },
  {
    "id": 70350023,
    "hp": 565.2000122070312,
    "hpCurve": "GROW_CURVE_DEFENDING",
    "attack": 2.51200008392334,
    "attackCurve": "GROW_CURVE_ATTACK",
    "defense": 500.0,
    "defenseCurve": "GROW_CURVE_DEFENSE"
  },
  {
    "id": 70350019,
    "hp": 1358.4000244140625,
    "hpCurve": "GROW_CURVE_HP",
    "attack": 12.5600004196167,
    "attackCurve": "GROW_CURVE_ATTACK",
    "defense": 500.0,
    "defenseCurve": "GROW_CURVE_DEFENSE"
  },
  {
    "id": 70350035,
    "hp": 565.2000122070312,
    "hpCurve": "GROW_CURVE_DEFENDING",
    "attack": 2.51200008392334,
    "attackCurve": "GROW_CURVE_ATTACK",
    "defense": 500.0,
    "defenseCurve": "GROW_CURVE_DEFENSE"
  },
  {
    "id": 70350036,
    "hp": 452.1600036621094,
    "hpCurve": "GROW_CURVE_DEFENDING",
    "attackCurve": "GROW_CURVE_ATTACK",
    "defense": 500.0,
    "defenseCurve": "GROW_CURVE_DEFENSE"
  },
  {
    "id": 70360066,
    "hp": 1358.4000244140625,
    "hpCurve": "GROW_CURVE_HP",
    "attack": 7.60699987411499,
    "attackCurve": "GROW_CURVE_HP",
    "defense": 500.0,
    "defenseCurve": "GROW_CURVE_DEFENSE"
  },
  {
    "id": 70360069,
    "hp": 565.2000122070312,
    "hpCurve": "GROW_CURVE_DEFENDING",
    "attack": 2.51200008392334,
    "attackCurve": "GROW_CURVE_ATTACK",
    "defense": 500.0,
    "defenseCurve": "GROW_CURVE_DEFENSE"
  },
  {
    "id": 70220036,
    "hp": 4.523471832275391,
    "hpCurve": "GROW_CURVE_HP",
    "attack": 7.535999774932861,
    "attackCurve": "GROW_CURVE_ATTACK",
    "defense": 500.0,
    "defenseCurve": "GROW_CURVE_DEFENSE"
  },
  {
    "id": 70710116,
    "hp": 791.280029296875,
    "hpCurve": "GROW_CURVE_DEFENDING",
    "attackCurve": "GROW_CURVE_ATTACK",
    "defense": 500.0,
    "defenseCurve": "GROW_CURVE_DEFENSE"
  },
  {
    "id": 70380019,
    "hp": 678.239990234375,
    "hpCurve": "GROW_CURVE_DEFENDING",
    "attackCurve": "GROW_CURVE_ATTACK",
    "defense": 500.0,
    "defenseCurve": "GROW_CURVE_DEFENSE"
  },
  {
    "id": 72000007,
    "hp": 678.239990234375,
    "hpCurve": "GROW_CURVE_DEFENDING",
    "attackCurve": "GROW_CURVE_ATTACK",
    "defense": 500.0,
    "defenseCurve": "GROW_CURVE_DEFENSE"
  },
  {
    "id": 70360100,
    "hp": 1358.4000244140625,
    "hpCurve": "GROW_CURVE_HP",
    "attack": 150.72000122070312,
    "attackCurve": "GROW_CURVE_ATTACK",
    "defense": 500.0,
    "defenseCurve": "GROW_CURVE_DEFENSE"
  },
  {
    "id": 72000008,
    "hp": 1358.4000244140625,
    "hpCurve": "GROW_CURVE_HP",
    "attack": 100.4800033569336,
    "attackCurve": "GROW_CURVE_ATTACK",
    "defense": 500.0,
    "defenseCurve": "GROW_CURVE_DEFENSE"
  },
  {
    "id": 70350086,
    "hp": 791.280029296875,
    "hpCurve": "GROW_CURVE_DEFENDING",
    "attackCurve": "GROW_CURVE_ATTACK",
    "defense": 500.0,
    "defenseCurve": "GROW_CURVE_DEFENSE"
  },
  {
    "id": 70310028,
    "hp": 565.2000122070312,
    "hpCurve": "GROW_CURVE_DEFENDING",
    "attackCurve": "GROW_CURVE_ATTACK",
    "defense": 500.0,
    "defenseCurve": "GROW_CURVE_DEFENSE"
  },
  {
    "id": 70220054,
    "hp": 10.867199897766113,
    "hpCurve": "GROW_CURVE_HP",
    "attack": 11.303999900817871,
    "attackCurve": "GROW_CURVE_ATTACK",
    "defense": 500.0,
    "defenseCurve": "GROW_CURVE_DEFENSE"
  },
  {
    "id": 70360108,
    "hp": 0.9508799910545349,
    "hpCurve": "GROW_CURVE_HP",
    "attackCurve": "GROW_CURVE_ATTACK",
    "defenseCurve": "GROW_CURVE_DEFENSE"
  },
  {
    "id": 70220043,
    "hp": 1358.4000244140625,
    "hpCurve": "GROW_CURVE_HP",
    "attack": 6.791999816894531,
    "attackCurve": "GROW_CURVE_HP",
    "defense": 500.0,
    "defenseCurve": "GROW_CURVE_DEFENSE"
  },
  {
    "id": 70220045,
    "hp": 1358.4000244140625,
    "hpCurve": "GROW_CURVE_HP",
    "attack": 5.434000015258789,
    "attackCurve": "GROW_CURVE_HP",
    "defense": 500.0,
    "defenseCurve": "GROW_CURVE_DEFENSE"
  },
  {
    "id": 70220055,
    "hp": 1358.4000244140625,
    "hpCurve": "GROW_CURVE_HP",
    "attack": 6.791999816894531,
    "attackCurve": "GROW_CURVE_HP",
    "defense": 500.0,
    "defenseCurve": "GROW_CURVE_DEFENSE"
  },
  {
    "id": 70310021,
    "hp": 169.55999755859375,
    "hpCurve": "GROW_CURVE_DEFENDING",
    "attackCurve": "GROW_CURVE_ATTACK",
    "defense": 500.0,
    "defenseCurve": "GROW_CURVE_DEFENSE"
  },
  {
    "id": 70360132,
    "hp": 1358.4000244140625,
    "hpCurve": "GROW_CURVE_HP",
    "attack": 12.5600004196167,
    "attackCurve": "GROW_CURVE_ATTACK",
    "defense": 500.0,
    "defenseCurve": "GROW_CURVE_DEFENSE"
  },
  {
    "id": 70220061,
    "hp": 4.523471832275391,
    "hpCurve": "GROW_CURVE_HP",
    "attack": 7.535999774932861,
    "attackCurve": "GROW_CURVE_ATTACK",
    "defense": 500.0,
    "defenseCurve": "GROW_CURVE_DEFENSE"
  },
  {
    "id": 70350201,
    "hp": 27.167999267578125,
    "hpCurve": "GROW_CURVE_HP",
    "attackCurve": "GROW_CURVE_ATTACK",
    "defense": 500.0,
    "defenseCurve": "GROW_CURVE_DEFENSE"
  },
  {
    "id": 70350099,
    "hp": 1000.0,
    "hpCurve": "GROW_CURVE_HP",
    "attack": 250.0,
    "attackCurve": "GROW_CURVE_TOWERATK",
    "defense": 500.0,
    "defenseCurve": "GROW_CURVE_DEFENSE"
  },
  {
    "id": 70350100,
    "hp": 1000.0,
    "hpCurve": "GROW_CURVE_HP",
    "attack": 500.0,
    "attackCurve": "GROW_CURVE_TOWERATK",
    "defense": 500.0,
    "defenseCurve": "GROW_CURVE_DEFENSE"
  },
  {
    "id": 70350101,
    "hp": 1000.0,
    "hpCurve": "GROW_CURVE_HP",
    "attack": 100.0,
    "attackCurve": "GROW_CURVE_TOWERATK",
    "defense": 500.0,
    "defenseCurve": "GROW_CURVE_DEFENSE"
  },
  {
    "id": 70350102,
    "hp": 1000.0,
    "hpCurve": "GROW_CURVE_HP",
    "attack": 300.0,
    "attackCurve": "GROW_CURVE_TOWERATK",
    "defense": 500.0,
    "defenseCurve": "GROW_CURVE_DEFENSE"
  },
  {
    "id": 70350103,
    "hp": 1000.0,
    "hpCurve": "GROW_CURVE_HP",
    "attack": 200.0,
    "attackCurve": "GROW_CURVE_TOWERATK",
    "defense": 500.0,
    "defenseCurve": "GROW_CURVE_DEFENSE"
  },
  {
    "id": 70350108,
    "hp": 1000.0,
    "hpCurve": "GROW_CURVE_HP",
    "attack": 300.0,
    "attackCurve": "GROW_CURVE_TOWERATK",
    "defense": 500.0,
    "defenseCurve": "GROW_CURVE_DEFENSE"
  },
  {
    "id": 70350111,
    "hp": 1000.0,
    "hpCurve": "GROW_CURVE_HP",
    "attack": 800.0,
    "attackCurve": "GROW_CURVE_TOWERATK",
    "defense": 500.0,
    "defenseCurve": "GROW_CURVE_DEFENSE"
  },
  {
    "id": 70350139,
    "hp": 1358.4000244140625,
    "hpCurve": "GROW_CURVE_HP",
    "attack": 82.89600372314453,
    "attackCurve": "GROW_CURVE_ATTACK",
    "defense": 500.0,
    "defenseCurve": "GROW_CURVE_DEFENSE"
  },
  {
    "id": 45001001,
    "hp": 282.6000061035156,
    "hpCurve": "GROW_CURVE_DEFENDING",
    "attack": 2.7170000076293945,
    "attackCurve": "GROW_CURVE_HP",
    "defenseCurve": "GROW_CURVE_DEFENSE"
  },
  {
    "id": 45001002,
    "hp": 282.6000061035156,
    "hpCurve": "GROW_CURVE_DEFENDING",
    "attack": 2.7170000076293945,
    "attackCurve": "GROW_CURVE_HP",
    "defenseCurve": "GROW_CURVE_DEFENSE"
  },
  {
    "id": 70710408,
    "hp": 12.225600242614746,
    "hpCurve": "GROW_CURVE_HP",
    "attackCurve": "GROW_CURVE_ATTACK",
    "defense": 500.0,
    "defenseCurve": "GROW_CURVE_DEFENSE"
  },
  {
    "id": 70710438,
    "hp": 678.239990234375,
    "hpCurve": "GROW_CURVE_DEFENDING",
    "attackCurve": "GROW_CURVE_ATTACK",
    "defense": 500.0,
    "defenseCurve": "GROW_CURVE_DEFENSE"
  },
  {
    "id": 70220074,
    "hp": 10.867199897766113,
    "hpCurve": "GROW_CURVE_HP",
    "attack": 11.303999900817871,
    "attackCurve": "GROW_CURVE_ATTACK",
    "defense": 500.0,
    "defenseCurve": "GROW_CURVE_DEFENSE"
  },
  {
    "id": 70900388,
    "hp": 1358.4000244140625,
    "hpCurve": "GROW_CURVE_HP",
    "attack": 6.791999816894531,
    "attackCurve": "GROW_CURVE_HP",
    "defense": 500.0,
    "defenseCurve": "GROW_CURVE_DEFENSE"
  },
  {
    "id": 70290067,
    "hp": 203.75999450683594,
    "hpCurve": "GROW_CURVE_HP",
    "attack": 5.02400016784668,
    "attackCurve": "GROW_CURVE_ATTACK",
    "defense": 500.0,
    "defenseCurve": "GROW_CURVE_DEFENSE"
  },
  {
    "id": 70290068,
    "hp": 1358.4000244140625,
    "hpCurve": "GROW_CURVE_HP",
    "attack": 5.02400016784668,
    "attackCurve": "GROW_CURVE_ATTACK",
    "defense": 500.0,
    "defenseCurve": "GROW_CURVE_DEFENSE"
  },
  {
    "id": 70290106,
    "hp": 1358.4000244140625,
    "hpCurve": "GROW_CURVE_HP",
    "attack": 62.79999923706055,
    "attackCurve": "GROW_CURVE_ATTACK",
    "defense": 500.0,
    "defenseCurve": "GROW_CURVE_DEFENSE"
  },
  {
    "id": 70310107,
    "hp": 226.0800018310547,
    "hpCurve": "GROW_CURVE_DEFENDING",
    "attackCurve": "GROW_CURVE_ATTACK",
    "defense": 500.0,
    "defenseCurve": "GROW_CURVE_DEFENSE"
  },
  {
    "id": 70310085,
    "hp": 1358.4000244140625,
    "hpCurve": "GROW_CURVE_HP",
    "attack": 37.68000030517578,
    "attackCurve": "GROW_CURVE_ATTACK",
    "defense": 500.0,
    "defenseCurve": "GROW_CURVE_DEFENSE"
  },
  {
    "id": 70800047,
    "hp": 282.6000061035156,
    "hpCurve": "GROW_CURVE_DEFENDING",
    "attackCurve": "GROW_CURVE_ATTACK",
    "defense": 500.0,
    "defenseCurve": "GROW_CURVE_DEFENSE"
  },
  {
    "id": 70310100,
    "hp": 1358.4000244140625,
    "hpCurve": "GROW_CURVE_HP",
    "attack": 6.791999816894531,
    "attackCurve": "GROW_CURVE_HP",
    "defense": 500.0,
    "defenseCurve": "GROW_CURVE_DEFENSE"
  },
  {
    "id": 70310101,
    "hp": 1358.4000244140625,
    "hpCurve": "GROW_CURVE_HP",
    "attack": 6.791999816894531,
    "attackCurve": "GROW_CURVE_HP",
    "defense": 500.0,
    "defenseCurve": "GROW_CURVE_DEFENSE"
  },
  {
    "id": 70310112,
    "hp": 135.6479949951172,
    "hpCurve": "GROW_CURVE_DEFENDING",
    "attackCurve": "GROW_CURVE_ATTACK",
    "defense": 500.0,
    "defenseCurve": "GROW_CURVE_DEFENSE"
  },
  {
    "id": 70310113,
    "hp": 169.55999755859375,
    "hpCurve": "GROW_CURVE_DEFENDING",
    "attackCurve": "GROW_CURVE_ATTACK",
    "defense": 500.0,
    "defenseCurve": "GROW_CURVE_DEFENSE"
  },
  {
    "id": 70310123,
    "hp": 169.55999755859375,
    "hpCurve": "GROW_CURVE_DEFENDING",
    "attackCurve": "GROW_CURVE_ATTACK",
    "defense": 500.0,
    "defenseCurve": "GROW_CURVE_DEFENSE"
  },
  {
    "id": 70360308,
    "hp": 67.91999816894531,
    "hpCurve": "GROW_CURVE_HP",
    "attackCurve": "GROW_CURVE_ATTACK",
    "defense": 500.0,
    "defenseCurve": "GROW_CURVE_DEFENSE"
  },
  {
    "id": 70300205,
    "hp": 17.930879592895508,
    "hpCurve": "GROW_CURVE_HP",
    "attackCurve": "GROW_CURVE_ATTACK",
    "defense": 500.0,
    "defenseCurve": "GROW_CURVE_DEFENSE"
  },
  {
    "id": 42601027,
    "hp": 1358.4000244140625,
    "hpCurve": "GROW_CURVE_HP",
    "attack": 25.1200008392334,
    "attackCurve": "GROW_CURVE_ATTACK",
    "defense": 500.0,
    "defenseCurve": "GROW_CURVE_DEFENSE"
  },
  {
    "id": 70800105,
    "hp": 1358.4000244140625,
    "hpCurve": "GROW_CURVE_HP",
    "attack": 17.65920066833496,
    "attackCurve": "GROW_CURVE_HP",
    "defense": 500.0,
    "defenseCurve": "GROW_CURVE_DEFENSE"
  },
  {
    "id": 71700332,
    "hp": 1290.47998046875,
    "hpCurve": "GROW_CURVE_HP",
    "attackCurve": "GROW_CURVE_ATTACK",
    "defense": 500.0,
    "defenseCurve": "GROW_CURVE_DEFENSE"
  },
  {
    "id": 70800057,
    "hp": 1358.4000244140625,
    "hpCurve": "GROW_CURVE_HP",
    "attack": 17.65920066833496,
    "attackCurve": "GROW_CURVE_HP",
    "defense": 500.0,
    "defenseCurve": "GROW_CURVE_DEFENSE"
  },
  {
    "id": 70290254,
    "hp": 40.75199890136719,
    "hpCurve": "GROW_CURVE_HP",
    "attackCurve": "GROW_CURVE_ATTACK",
    "defense": 500.0,
    "defenseCurve": "GROW_CURVE_DEFENSE"
  },
  {
    "id": 70290296,
    "hp": 81.50399780273438,
    "hpCurve": "GROW_CURVE_HP",
    "attackCurve": "GROW_CURVE_ATTACK",
    "defense": 500.0,
    "defenseCurve": "GROW_CURVE_DEFENSE"
  },
  {
    "id": 70290297,
    "hp": 122.25599670410156,
    "hpCurve": "GROW_CURVE_HP",
    "attackCurve": "GROW_CURVE_ATTACK",
    "defense": 500.0,
    "defenseCurve": "GROW_CURVE_DEFENSE"
  },
  {
    "id": 70290308,
    "hp": 1358.4000244140625,
    "hpCurve": "GROW_CURVE_HP",
    "attack": 6.791999816894531,
    "attackCurve": "GROW_CURVE_HP",
    "defense": 500.0,
    "defenseCurve": "GROW_CURVE_DEFENSE"
  },
  {
    "id": 70290323,
    "hp": 1358.4000244140625,
    "hpCurve": "GROW_CURVE_HP",
    "attack": 4.075200080871582,
    "attackCurve": "GROW_CURVE_HP",
    "defense": 500.0,
    "defenseCurve": "GROW_CURVE_DEFENSE"
  },
  {
    "id": 70290324,
    "hp": 1358.4000244140625,
    "hpCurve": "GROW_CURVE_HP",
    "attack": 5.433599948883057,
    "attackCurve": "GROW_CURVE_HP",
    "defense": 500.0,
    "defenseCurve": "GROW_CURVE_DEFENSE"
  },
  {
    "id": 70290214,
    "hp": 4.523471832275391,
    "hpCurve": "GROW_CURVE_HP",
    "attack": 7.535999774932861,
    "attackCurve": "GROW_CURVE_ATTACK",
    "defense": 500.0,
    "defenseCurve": "GROW_CURVE_DEFENSE"
  },
  {
    "id": 70290394,
    "hp": 1358.4000244140625,
    "hpCurve": "GROW_CURVE_HP",
    "attack": 6.791999816894531,
    "attackCurve": "GROW_CURVE_HP",
    "defense": 500.0,
    "defenseCurve": "GROW_CURVE_DEFENSE"
  },
  {
    "id": 70350450,
    "hp": 1130.4000244140625,
    "hpCurve": "GROW_CURVE_DEFENDING",
    "attack": 2.51200008392334,
    "attackCurve": "GROW_CURVE_ATTACK",
    "defense": 500.0,
    "defenseCurve": "GROW_CURVE_DEFENSE"
  },
  {
    "id": 70290309,
    "hp": 1358.4000244140625,
    "hpCurve": "GROW_CURVE_HP",
    "attack": 6.791999816894531,
    "attackCurve": "GROW_CURVE_HP",
    "defense": 500.0,
    "defenseCurve": "GROW_CURVE_DEFENSE"
  },
  {
    "id": 70800189,
    "hp": 1130.4000244140625,
    "hpCurve": "GROW_CURVE_DEFENDING",
    "attackCurve": "GROW_CURVE_ATTACK",
    "defense": 500.0,
    "defenseCurve": "GROW_CURVE_DEFENSE"
  },
  {
    "id": 70350452,
    "hp": 1130.4000244140625,
    "hpCurve": "GROW_CURVE_DEFENDING",
    "attackCurve": "GROW_CURVE_ATTACK",
    "defense": 500.0,
    "defenseCurve": "GROW_CURVE_DEFENSE"
  },
  {
    "id": 70380220,
    "hp": 395.6400146484375,
    "hpCurve": "GROW_CURVE_DEFENDING",
    "attackCurve": "GROW_CURVE_ATTACK",
    "defense": 500.0,
    "defenseCurve": "GROW_CURVE_DEFENSE"
  },
  {
    "id": 70380221,
    "hp": 395.6400146484375,
    "hpCurve": "GROW_CURVE_DEFENDING",
    "attackCurve": "GROW_CURVE_ATTACK",
    "defense": 500.0,
    "defenseCurve": "GROW_CURVE_DEFENSE"
  },
  {
    "id": 70380222,
    "hp": 395.6400146484375,
    "hpCurve": "GROW_CURVE_DEFENDING",
    "attackCurve": "GROW_CURVE_ATTACK",
    "defense": 500.0,
    "defenseCurve": "GROW_CURVE_DEFENSE"
  },
  {
    "id": 70380223,
    "hp": 395.6400146484375,
    "hpCurve": "GROW_CURVE_DEFENDING",
    "attackCurve": "GROW_CURVE_ATTACK",
    "defense": 500.0,
    "defenseCurve": "GROW_CURVE_DEFENSE"
  },
  {
    "id": 70380307,
    "hp": 13.583999633789062,
    "hpCurve": "GROW_CURVE_HP",
    "attackCurve": "GROW_CURVE_ATTACK",
    "defense": 500.0,
    "defenseCurve": "GROW_CURVE_DEFENSE"
  },
  {
    "id": 70380308,
    "hp": 13.583999633789062,
    "hpCurve": "GROW_CURVE_HP",
    "attack": 15.071999549865723,
    "attackCurve": "GROW_CURVE_ATTACK",
    "defense": 500.0,
    "defenseCurve": "GROW_CURVE_DEFENSE"
  },
  {
    "id": 70380309,
    "hp": 13.583999633789062,
    "hpCurve": "GROW_CURVE_HP",
    "attackCurve": "GROW_CURVE_ATTACK",
    "defense": 500.0,
    "defenseCurve": "GROW_CURVE_DEFENSE"
  },
  {
    "id": 70380310,
    "hp": 13.583999633789062,
    "hpCurve": "GROW_CURVE_HP",
    "attackCurve": "GROW_CURVE_ATTACK",
    "defense": 500.0,
    "defenseCurve": "GROW_CURVE_DEFENSE"
  },
  {
    "id": 72000019,
    "hp": 40.75199890136719,
    "hpCurve": "GROW_CURVE_HP",
    "attack": 100.4800033569336,
    "attackCurve": "GROW_CURVE_ATTACK",
    "defense": 500.0,
    "defenseCurve": "GROW_CURVE_DEFENSE"
  },
  {
    "id": 70220107,
    "hp": 1358.4000244140625,
    "hpCurve": "GROW_CURVE_HP",
    "attack": 6.791999816894531,
    "attackCurve": "GROW_CURVE_HP",
    "defense": 500.0,
    "defenseCurve": "GROW_CURVE_DEFENSE"
  },
  {
    "id": 70220108,
    "hp": 1358.4000244140625,
    "hpCurve": "GROW_CURVE_HP",
    "attack": 6.791999816894531,
    "attackCurve": "GROW_CURVE_HP",
    "defense": 500.0,
    "defenseCurve": "GROW_CURVE_DEFENSE"
  },
  {
    "id": 70220109,
    "hp": 1358.4000244140625,
    "hpCurve": "GROW_CURVE_HP",
    "attack": 6.791999816894531,
    "attackCurve": "GROW_CURVE_HP",
    "defense": 500.0,
    "defenseCurve": "GROW_CURVE_DEFENSE"
  },
  {
    "id": 70220125,
    "hp": 1358.4000244140625,
    "hpCurve": "GROW_CURVE_HP",
    "attack": 6.791999816894531,
    "attackCurve": "GROW_CURVE_HP",
    "defense": 500.0,
    "defenseCurve": "GROW_CURVE_DEFENSE"
  },
  {
    "id": 70220126,
    "hp": 1358.4000244140625,
    "hpCurve": "GROW_CURVE_HP",
    "attack": 6.791999816894531,
    "attackCurve": "GROW_CURVE_HP",
    "defense": 500.0,
    "defenseCurve": "GROW_CURVE_DEFENSE"
  },
  {
    "id": 70350462,
    "hp": 452.1600036621094,
    "hpCurve": "GROW_CURVE_DEFENDING",
    "attackCurve": "GROW_CURVE_ATTACK",
    "defense": 500.0,
    "defenseCurve": "GROW_CURVE_DEFENSE"
  },
  {
    "id": 70330449,
    "hp": 1358.4000244140625,
    "hpCurve": "GROW_CURVE_HP",
    "attack": 5.02400016784668,
    "attackCurve": "GROW_CURVE_ATTACK",
    "defense": 500.0,
    "defenseCurve": "GROW_CURVE_DEFENSE"
  },
  {
    "id": 70290769,
    "hp": 122.25599670410156,
    "hpCurve": "GROW_CURVE_HP",
    "attackCurve": "GROW_CURVE_ATTACK",
    "defense": 500.0,
    "defenseCurve": "GROW_CURVE_DEFENSE"
  },
  {
    "id": 70290630,
    "hp": 1130.4000244140625,
    "hpCurve": "GROW_CURVE_DEFENDING",
    "attackCurve": "GROW_CURVE_ATTACK",
    "defense": 500.0,
    "defenseCurve": "GROW_CURVE_DEFENSE"
  },
  {
    "id": 70800615,
    "hp": 1358.4000244140625,
    "hpCurve": "GROW_CURVE_HP",
    "attack": 108.6719970703125,
    "attackCurve": "GROW_CURVE_HP",
    "defense": 500.0,
    "defenseCurve": "GROW_CURVE_DEFENSE"
  },
  {
    "id": 70800800,
    "hp": 1358.4000244140625,
    "hpCurve": "GROW_CURVE_HP",
    "attack": 9.055999755859375,
    "attackCurve": "GROW_CURVE_HP",
    "defense": 500.0,
    "defenseCurve": "GROW_CURVE_DEFENSE"
  },
  {
    "id": 70800801,
    "hp": 1358.4000244140625,
    "hpCurve": "GROW_CURVE_HP",
    "attack": 9.055999755859375,
    "attackCurve": "GROW_CURVE_HP",
    "defense": 500.0,
    "defenseCurve": "GROW_CURVE_DEFENSE"
  },
  {
    "id": 70800802,
    "hp": 1358.4000244140625,
    "hpCurve": "GROW_CURVE_HP",
    "attack": 9.055999755859375,
    "attackCurve": "GROW_CURVE_HP",
    "defense": 500.0,
    "defenseCurve": "GROW_CURVE_DEFENSE"
  },
  {
    "id": 70800803,
    "hp": 1358.4000244140625,
    "hpCurve": "GROW_CURVE_HP",
    "attack": 9.055999755859375,
    "attackCurve": "GROW_CURVE_HP",
    "defense": 500.0,
    "defenseCurve": "GROW_CURVE_DEFENSE"
  },
  {
    "id": 70350478,
    "hp": 1130.4000244140625,
    "hpCurve": "GROW_CURVE_DEFENDING",
    "attackCurve": "GROW_CURVE_ATTACK",
    "defense": 500.0,
    "defenseCurve": "GROW_CURVE_DEFENSE"
  },
  {
    "id": 70290815,
    "hp": 1130.4000244140625,
    "hpCurve": "GROW_CURVE_DEFENDING",
    "attackCurve": "GROW_CURVE_ATTACK",
    "defense": 500.0,
    "defenseCurve": "GROW_CURVE_DEFENSE"
  },
  {
    "id": 70350495,
    "hp": 1130.4000244140625,
    "hpCurve": "GROW_CURVE_DEFENDING",
    "attackCurve": "GROW_CURVE_ATTACK",
    "defense": 500.0,
    "defenseCurve": "GROW_CURVE_DEFENSE"
  },
  {
    "id": 70290934,
    "hp": 452.1600036621094,
    "hpCurve": "GROW_CURVE_DEFENDING",
    "attackCurve": "GROW_CURVE_ATTACK",
    "defense": 500.0,
    "defenseCurve": "GROW_CURVE_DEFENSE"
  },
  {
    "id": 45002001,
    "hp": 282.6000061035156,
    "hpCurve": "GROW_CURVE_DEFENDING",
    "attack": 4.075200080871582,
    "attackCurve": "GROW_CURVE_HP",
    "defense": 500.0,
    "defenseCurve": "GROW_CURVE_DEFENSE"
  },
  {
    "id": 45002002,
    "hp": 282.6000061035156,
    "hpCurve": "GROW_CURVE_DEFENDING",
    "attack": 4.075200080871582,
    "attackCurve": "GROW_CURVE_HP",
    "defense": 500.0,
    "defenseCurve": "GROW_CURVE_DEFENSE"
  },
  {
    "id": 45002003,
    "hp": 282.6000061035156,
    "hpCurve": "GROW_CURVE_DEFENDING",
    "attack": 4.075200080871582,
    "attackCurve": "GROW_CURVE_HP",
    "defense": 500.0,
    "defenseCurve": "GROW_CURVE_DEFENSE"
  },
  {
    "id": 70310495,
    "hp": 1358.4000244140625,
    "hpCurve": "GROW_CURVE_HP",
    "attack": 17.583999633789062,
    "attackCurve": "GROW_CURVE_ATTACK",
    "defense": 500.0,
    "defenseCurve": "GROW_CURVE_DEFENSE"
  },
  {
    "id": 70290930,
    "hp": 1358.4000244140625,
    "hpCurve": "GROW_CURVE_HP",
    "attack": 10.04800033569336,
    "attackCurve": "GROW_CURVE_ATTACK",
    "defense": 500.0,
    "defenseCurve": "GROW_CURVE_DEFENSE"
  },
  {
    "id": 70290935,
    "hp": 1358.4000244140625,
    "hpCurve": "GROW_CURVE_HP",
    "attack": 10.04800033569336,
    "attackCurve": "GROW_CURVE_ATTACK",
    "defense": 500.0,
    "defenseCurve": "GROW_CURVE_DEFENSE"
  },
  {
    "id": 70290936,
    "hp": 1358.4000244140625,
    "hpCurve": "GROW_CURVE_HP",
    "attack": 10.04800033569336,
    "attackCurve": "GROW_CURVE_ATTACK",
    "defense": 500.0,
    "defenseCurve": "GROW_CURVE_DEFENSE"
  },
  {
    "id": 70290932,
    "hp": 1358.4000244140625,
    "hpCurve": "GROW_CURVE_HP",
    "attack": 10.04800033569336,
    "attackCurve": "GROW_CURVE_ATTACK",
    "defense": 500.0,
    "defenseCurve": "GROW_CURVE_DEFENSE"
  },
  {
    "id": 70290804,
    "hp": 54.33599853515625,
    "hpCurve": "GROW_CURVE_HP",
    "attackCurve": "GROW_CURVE_ATTACK",
    "defense": 500.0,
    "defenseCurve": "GROW_CURVE_DEFENSE"
  },
  {
    "id": 70390156,
    "hp": 565.2000122070312,
    "hpCurve": "GROW_CURVE_DEFENDING",
    "attackCurve": "GROW_CURVE_ATTACK",
    "defense": 500.0,
    "defenseCurve": "GROW_CURVE_DEFENSE"
  }
]
