[
  {
    "LGAJJNOCCFB": 111011,
    "MDDLNIADHPL": 1101
  },
  {
    "LGAJJNOCCFB": 111023,
    "MDDLNIADHPL": 1102
  },
  {
    "LGAJJNOCCFB": 111051,
    "MDDLNIADHPL": 1105
  },
  {
    "LGAJJNOCCFB": 111062,
    "MDDLNIADHPL": 1106
  },
  {
    "LGAJJNOCCFB": 112011,
    "MDDLNIADHPL": 1201
  },
  {
    "LGAJJNOCCFB": 112031,
    "MDDLNIADHPL": 1203
  },
  {
    "LGAJJNOCCFB": 112051,
    "MDDLNIADHPL": 1205
  },
  {
    "LGAJJNOCCFB": 112062,
    "MDDLNIADHPL": 1206
  },
  {
    "LGAJJNOCCFB": 113021,
    "MDDLNIADHPL": 1302
  },
  {
    "LGAJJNOCCFB": 114011,
    "MDDLNIADHPL": 1401
  },
  {
    "LGAJJNOCCFB": 114031,
    "MDDLNIADHPL": 1403
  },
  {
    "LGAJJNOCCFB": 114061,
    "MDDLNIADHPL": 1406
  },
  {
    "LGAJJNOCCFB": 114062,
    "MDDLNIADHPL": 1406
  },
  {
    "LGAJJNOCCFB": 115011,
    "MDDLNIADHPL": 1501
  },
  {
    "LGAJJNOCCFB": 115012,
    "MDDLNIADHPL": 1501
  },
  {
    "LGAJJNOCCFB": 115021,
    "MDDLNIADHPL": 1502
  },
  {
    "LGAJJNOCCFB": 116051,
    "MDDLNIADHPL": 1605
  },
  {
    "LGAJJNOCCFB": 117011,
    "MDDLNIADHPL": 1701
  },
  {
    "LGAJJNOCCFB": 117022,
    "MDDLNIADHPL": 1702
  },
  {
    "LGAJJNOCCFB": 122010,
    "MDDLNIADHPL": 2201
  },
  {
    "LGAJJNOCCFB": 122014,
    "MDDLNIADHPL": 2201
  },
  {
    "LGAJJNOCCFB": 122011,
    "MDDLNIADHPL": 2201
  },
  {
    "LGAJJNOCCFB": 122012,
    "MDDLNIADHPL": 2201
  },
  {
    "LGAJJNOCCFB": 122013,
    "MDDLNIADHPL": 2201
  },
  {
    "LGAJJNOCCFB": 125011,
    "MDDLNIADHPL": 2501
  },
  {
    "LGAJJNOCCFB": 125012,
    "MDDLNIADHPL": 2501
  },
  {
    "LGAJJNOCCFB": 132021,
    "MDDLNIADHPL": 3202
  },
  {
    "LGAJJNOCCFB": 135011,
    "MDDLNIADHPL": 3501
  },
  {
    "LGAJJNOCCFB": 303210,
    "MDDLNIADHPL": 332015
  }
]
