[
  {
    "type": "GCG_TAG_UNIQUE",
    "IPFGBDGLJLO": ["GCG_TAG_IDENTIFIER_NONE", "GCG_TAG_IDENTIFIER_NONE"],
    "nameTextMapHash": 407206283,
    "KNAMFKOEDHL": 1004544973658231877
  },
  {
    "type": "GCG_TAG_SLOWLY",
    "IPFGBDGLJLO": ["GCG_TAG_IDENTIFIER_NONE", "GCG_TAG_IDENTIFIER_NONE"],
    "nameTextMapHash": 3397255531,
    "KNAMFKOEDHL": 6656338842842655980
  },
  {
    "type": "GCG_TAG_FORBIDDEN_ATTACK",
    "IPFGBDGLJLO": ["GCG_TAG_IDENTIFIER_NONE", "GCG_TAG_IDENTIFIER_NONE"],
    "nameTextMapHash": 3283662251,
    "KNAMFKOEDHL": 1004544973658231877
  },
  {
    "type": "GCG_TAG_IMMUNE_FREEZING",
    "IPFGBDGLJLO": ["GCG_TAG_IDENTIFIER_NONE", "GCG_TAG_IDENTIFIER_NONE"],
    "nameTextMapHash": 3388716851,
    "KNAMFKOEDHL": 1004544973658231877
  },
  {
    "type": "GCG_TAG_IMMUNE_CONTROL",
    "IPFGBDGLJLO": ["GCG_TAG_IDENTIFIER_NONE", "GCG_TAG_IDENTIFIER_NONE"],
    "nameTextMapHash": 2163202795,
    "KNAMFKOEDHL": 1004544973658231877
  },
  {
    "type": "GCG_TAG_NATION_MONDSTADT",
    "IPFGBDGLJLO": ["GCG_TAG_IDENTIFIER_CHAR", "GCG_TAG_IDENTIFIER_NONE"],
    "nameTextMapHash": 3622220579,
    "KNAMFKOEDHL": 14976287110851814006
  },
  {
    "type": "GCG_TAG_NATION_LIYUE",
    "IPFGBDGLJLO": ["GCG_TAG_IDENTIFIER_CHAR", "GCG_TAG_IDENTIFIER_NONE"],
    "nameTextMapHash": 1271778987,
    "KNAMFKOEDHL": 4696535618941526560
  },
  {
    "type": "GCG_TAG_NATION_INAZUMA",
    "IPFGBDGLJLO": ["GCG_TAG_IDENTIFIER_CHAR", "GCG_TAG_IDENTIFIER_NONE"],
    "nameTextMapHash": 1547136635,
    "KNAMFKOEDHL": 1260580560562732045
  },
  {
    "type": "GCG_TAG_NATION_SUMERU",
    "IPFGBDGLJLO": ["GCG_TAG_IDENTIFIER_CHAR", "GCG_TAG_IDENTIFIER_NONE"],
    "nameTextMapHash": 3926786643,
    "KNAMFKOEDHL": 814120501212077913
  },
  {
    "type": "GCG_TAG_NATION_FONTAINE",
    "IPFGBDGLJLO": ["GCG_TAG_IDENTIFIER_CHAR", "GCG_TAG_IDENTIFIER_NONE"],
    "nameTextMapHash": 242250147,
    "KNAMFKOEDHL": 1358725264478105030
  },
  {
    "type": "GCG_TAG_NATION_NATLAN",
    "IPFGBDGLJLO": ["GCG_TAG_IDENTIFIER_CHAR", "GCG_TAG_IDENTIFIER_NONE"],
    "nameTextMapHash": 3332492851,
    "KNAMFKOEDHL": 1358725264478105030
  },
  {
    "type": "GCG_TAG_NATION_SNEZHNAYA",
    "IPFGBDGLJLO": ["GCG_TAG_IDENTIFIER_CHAR", "GCG_TAG_IDENTIFIER_NONE"],
    "nameTextMapHash": 536575635,
    "KNAMFKOEDHL": 1358725264478105030
  },
  {
    "type": "GCG_TAG_NATION_KHAENRIAH",
    "IPFGBDGLJLO": ["GCG_TAG_IDENTIFIER_CHAR", "GCG_TAG_IDENTIFIER_NONE"],
    "nameTextMapHash": 4075667307,
    "KNAMFKOEDHL": 1358725264478105030
  },
  {
    "type": "GCG_TAG_CAMP_FATUI",
    "IPFGBDGLJLO": ["GCG_TAG_IDENTIFIER_CHAR", "GCG_TAG_IDENTIFIER_NONE"],
    "nameTextMapHash": 2363243827,
    "KNAMFKOEDHL": 12828384377677672703
  },
  {
    "type": "GCG_TAG_CAMP_HILICHURL",
    "IPFGBDGLJLO": ["GCG_TAG_IDENTIFIER_CHAR", "GCG_TAG_IDENTIFIER_NONE"],
    "nameTextMapHash": 148952339,
    "KNAMFKOEDHL": 6599890639049932331
  },
  {
    "type": "GCG_TAG_CAMP_MONSTER",
    "IPFGBDGLJLO": ["GCG_TAG_IDENTIFIER_CHAR", "GCG_TAG_IDENTIFIER_NONE"],
    "nameTextMapHash": 880768891,
    "KNAMFKOEDHL": 2957994650369717115
  },
  {
    "type": "GCG_TAG_CAMP_KAIRAGI",
    "IPFGBDGLJLO": ["GCG_TAG_IDENTIFIER_CHAR", "GCG_TAG_IDENTIFIER_NONE"],
    "nameTextMapHash": 2722933019,
    "KNAMFKOEDHL": 17043646208734099878
  },
  {
    "type": "GCG_TAG_WEAPON_NONE",
    "IPFGBDGLJLO": ["GCG_TAG_IDENTIFIER_WEAPON", "GCG_TAG_IDENTIFIER_NONE"],
    "nameTextMapHash": 834528379,
    "KNAMFKOEDHL": 10076346042770660856
  },
  {
    "type": "GCG_TAG_WEAPON_CATALYST",
    "IPFGBDGLJLO": ["GCG_TAG_IDENTIFIER_WEAPON", "GCG_TAG_IDENTIFIER_NONE"],
    "nameTextMapHash": 4174579731,
    "KNAMFKOEDHL": 10460112264554126181
  },
  {
    "type": "GCG_TAG_WEAPON_BOW",
    "IPFGBDGLJLO": ["GCG_TAG_IDENTIFIER_WEAPON", "GCG_TAG_IDENTIFIER_NONE"],
    "nameTextMapHash": 4214539155,
    "KNAMFKOEDHL": 8633729853852023352
  },
  {
    "type": "GCG_TAG_WEAPON_CLAYMORE",
    "IPFGBDGLJLO": ["GCG_TAG_IDENTIFIER_WEAPON", "GCG_TAG_IDENTIFIER_NONE"],
    "nameTextMapHash": 2994597931,
    "KNAMFKOEDHL": 11096876900700979268
  },
  {
    "type": "GCG_TAG_WEAPON_POLE",
    "IPFGBDGLJLO": ["GCG_TAG_IDENTIFIER_WEAPON", "GCG_TAG_IDENTIFIER_NONE"],
    "nameTextMapHash": 3212334867,
    "KNAMFKOEDHL": 5388472105498263597
  },
  {
    "type": "GCG_TAG_WEAPON_SWORD",
    "IPFGBDGLJLO": ["GCG_TAG_IDENTIFIER_WEAPON", "GCG_TAG_IDENTIFIER_NONE"],
    "nameTextMapHash": 2853832131,
    "KNAMFKOEDHL": 6186706934955058378
  },
  {
    "type": "GCG_TAG_ELEMENT_NONE",
    "IPFGBDGLJLO": ["GCG_TAG_IDENTIFIER_ELEMENT", "GCG_TAG_IDENTIFIER_NONE"],
    "nameTextMapHash": 3763114459,
    "KNAMFKOEDHL": 10795679770337043813
  },
  {
    "type": "GCG_TAG_ELEMENT_CRYO",
    "IPFGBDGLJLO": ["GCG_TAG_IDENTIFIER_ELEMENT", "GCG_TAG_IDENTIFIER_NONE"],
    "nameTextMapHash": 4267146763,
    "KNAMFKOEDHL": 15155640386402176224
  },
  {
    "type": "GCG_TAG_ELEMENT_HYDRO",
    "IPFGBDGLJLO": ["GCG_TAG_IDENTIFIER_ELEMENT", "GCG_TAG_IDENTIFIER_NONE"],
    "nameTextMapHash": 2763885419,
    "KNAMFKOEDHL": 12575247641328615314
  },
  {
    "type": "GCG_TAG_ELEMENT_PYRO",
    "IPFGBDGLJLO": ["GCG_TAG_IDENTIFIER_ELEMENT", "GCG_TAG_IDENTIFIER_NONE"],
    "nameTextMapHash": 570858331,
    "KNAMFKOEDHL": 4665440631868752468
  },
  {
    "type": "GCG_TAG_ELEMENT_ELECTRO",
    "IPFGBDGLJLO": ["GCG_TAG_IDENTIFIER_ELEMENT", "GCG_TAG_IDENTIFIER_NONE"],
    "nameTextMapHash": 3010705315,
    "KNAMFKOEDHL": 13900955393097607090
  },
  {
    "type": "GCG_TAG_ELEMENT_ANEMO",
    "IPFGBDGLJLO": ["GCG_TAG_IDENTIFIER_ELEMENT", "GCG_TAG_IDENTIFIER_NONE"],
    "nameTextMapHash": 497883395,
    "KNAMFKOEDHL": 4686926039007132838
  },
  {
    "type": "GCG_TAG_ELEMENT_GEO",
    "IPFGBDGLJLO": ["GCG_TAG_IDENTIFIER_ELEMENT", "GCG_TAG_IDENTIFIER_NONE"],
    "nameTextMapHash": 1050918155,
    "KNAMFKOEDHL": 2737607213084404718
  },
  {
    "type": "GCG_TAG_ELEMENT_DENDRO",
    "IPFGBDGLJLO": ["GCG_TAG_IDENTIFIER_ELEMENT", "GCG_TAG_IDENTIFIER_NONE"],
    "nameTextMapHash": 3544484259,
    "KNAMFKOEDHL": 9113915042349895926
  },
  {
    "type": "GCG_TAG_WEAPON",
    "IPFGBDGLJLO": ["GCG_TAG_IDENTIFIER_MODIFY", "GCG_TAG_IDENTIFIER_NONE"],
    "nameTextMapHash": 3144822883,
    "KNAMFKOEDHL": 9334915546791857022
  },
  {
    "type": "GCG_TAG_ARTIFACT",
    "IPFGBDGLJLO": ["GCG_TAG_IDENTIFIER_MODIFY", "GCG_TAG_IDENTIFIER_NONE"],
    "nameTextMapHash": 3831282435,
    "KNAMFKOEDHL": 12291438720774250080
  },
  {
    "type": "GCG_TAG_TALENT",
    "IPFGBDGLJLO": ["GCG_TAG_IDENTIFIER_MODIFY", "GCG_TAG_IDENTIFIER_NONE"],
    "nameTextMapHash": 85314363,
    "KNAMFKOEDHL": 1004544973658231877
  },
  {
    "type": "GCG_TAG_SHEILD",
    "IPFGBDGLJLO": ["GCG_TAG_IDENTIFIER_MODIFY", "GCG_TAG_IDENTIFIER_NONE"],
    "nameTextMapHash": 3943658827,
    "KNAMFKOEDHL": 12137617840686746237
  },
  {
    "type": "GCG_TAG_PLACE",
    "IPFGBDGLJLO": ["GCG_TAG_IDENTIFIER_ASSIST", "GCG_TAG_IDENTIFIER_NONE"],
    "nameTextMapHash": 2670585163,
    "KNAMFKOEDHL": 17170587988087636870
  },
  {
    "type": "GCG_TAG_ALLY",
    "IPFGBDGLJLO": ["GCG_TAG_IDENTIFIER_ASSIST", "GCG_TAG_IDENTIFIER_NONE"],
    "nameTextMapHash": 2071640235,
    "KNAMFKOEDHL": 1358725264478105030
  },
  {
    "type": "GCG_TAG_ITEM",
    "IPFGBDGLJLO": ["GCG_TAG_IDENTIFIER_ASSIST", "GCG_TAG_IDENTIFIER_NONE"],
    "nameTextMapHash": 1379075299,
    "KNAMFKOEDHL": 1726699334760393207
  },
  {
    "type": "GCG_TAG_RESONANCE",
    "IPFGBDGLJLO": ["GCG_TAG_IDENTIFIER_EVENT", "GCG_TAG_IDENTIFIER_NONE"],
    "nameTextMapHash": 2983102475,
    "KNAMFKOEDHL": 17385511553203783277
  },
  {
    "type": "GCG_TAG_FOOD",
    "IPFGBDGLJLO": ["GCG_TAG_IDENTIFIER_EVENT", "GCG_TAG_IDENTIFIER_NONE"],
    "nameTextMapHash": 2705394779,
    "KNAMFKOEDHL": 17822006323246213675
  },
  {
    "type": "GCG_TAG_DENDRO_PRODUCE",
    "IPFGBDGLJLO": ["GCG_TAG_IDENTIFIER_NONE", "GCG_TAG_IDENTIFIER_NONE"],
    "nameTextMapHash": 3130526043,
    "KNAMFKOEDHL": 9113915042349895926
  }
]
