[
  {
    "id": 30100001,
    "KEACHGHNLED": 2019608153
  },
  {
    "id": 30100002,
    "KEACHGHNLED": 3339729449
  },
  {
    "id": 30100011,
    "KEACHGHNLED": 2125629617
  },
  {
    "id": 30100012,
    "KEACHGHNLED": 1216969905
  },
  {
    "id": 30100013,
    "KEACHGHNLED": 3784626617
  },
  {
    "id": 30100014,
    "KEACHGHNLED": 4052358705
  },
  {
    "id": 30100015,
    "KEACHGHNLED": 2137972481
  },
  {
    "id": 30100016,
    "KEACHGHNLED": 222725049
  },
  {
    "id": 30100021,
    "KEACHGHNLED": 1012141553
  },
  {
    "id": 30100022,
    "KEACHGHNLED": 4182375697
  },
  {
    "id": 30200001,
    "KEACHGHNLED": 3747842241
  },
  {
    "id": 30200002,
    "KEACHGHNLED": 2707824249
  },
  {
    "id": 30101011,
    "KEACHGHNLED": 1326620097,
    "KIJDMNMKHJL": 30101011
  },
  {
    "id": 30101012,
    "KEACHGHNLED": 2046170273,
    "KIJDMNMKHJL": 30101012
  },
  {
    "id": 30101013,
    "KEACHGHNLED": 3602346153,
    "KIJDMNMKHJL": 30101013
  },
  {
    "id": 30101014,
    "KEACHGHNLED": 3693575649,
    "KIJDMNMKHJL": 30101014
  },
  {
    "id": 30101015,
    "KEACHGHNLED": 4213082737
  },
  {
    "id": 30101016,
    "KEACHGHNLED": 2461838593
  },
  {
    "id": 30101021,
    "KEACHGHNLED": 2462580561,
    "KIJDMNMKHJL": 30101021
  },
  {
    "id": 30101022,
    "KEACHGHNLED": 1942842481,
    "KIJDMNMKHJL": 30101022
  },
  {
    "id": 30101023,
    "KEACHGHNLED": 345826089
  },
  {
    "id": 30101025,
    "KEACHGHNLED": 1771875545
  },
  {
    "id": 30101031,
    "KEACHGHNLED": 2841149161,
    "KIJDMNMKHJL": 30101031
  },
  {
    "id": 30101032,
    "KEACHGHNLED": 2845768769,
    "KIJDMNMKHJL": 30101032
  },
  {
    "id": 30101033,
    "KEACHGHNLED": 3139688921,
    "KIJDMNMKHJL": 30101033
  },
  {
    "id": 30101034,
    "KEACHGHNLED": 2640241425
  },
  {
    "id": 30101035,
    "KEACHGHNLED": 2205283993
  },
  {
    "id": 30101036,
    "KEACHGHNLED": 3798017609
  },
  {
    "id": 30101037,
    "KEACHGHNLED": 835190449
  },
  {
    "id": 30101038,
    "KEACHGHNLED": 2685814289
  },
  {
    "id": 30101039,
    "KEACHGHNLED": 177884945
  },
  {
    "id": 30101049,
    "KEACHGHNLED": 1263101969,
    "KIJDMNMKHJL": 30101049
  },
  {
    "id": 30101040,
    "KEACHGHNLED": 1422647849,
    "KIJDMNMKHJL": 30101040
  },
  {
    "id": 30101041,
    "KEACHGHNLED": 3616054169,
    "KIJDMNMKHJL": 30101041
  },
  {
    "id": 30101048,
    "KEACHGHNLED": 4208460049,
    "KIJDMNMKHJL": 30101048
  },
  {
    "id": 30101042,
    "KEACHGHNLED": 4175797761
  },
  {
    "id": 30101043,
    "KEACHGHNLED": 2270766225
  },
  {
    "id": 30101044,
    "KEACHGHNLED": 3142278169
  },
  {
    "id": 30101046,
    "KEACHGHNLED": 1635007401,
    "KIJDMNMKHJL": 30101046
  },
  {
    "id": 30101050,
    "KEACHGHNLED": 3871035577,
    "KIJDMNMKHJL": 30101050
  },
  {
    "id": 30101047,
    "KEACHGHNLED": 3867126689
  },
  {
    "id": 30101201,
    "KEACHGHNLED": 1083639465
  },
  {
    "id": 30101051,
    "KEACHGHNLED": 2126936065,
    "KIJDMNMKHJL": 30101051
  },
  {
    "id": 30101053,
    "KEACHGHNLED": 3548636169,
    "KIJDMNMKHJL": 30101053
  },
  {
    "id": 30101063,
    "KEACHGHNLED": 371360457,
    "KIJDMNMKHJL": 30101063
  },
  {
    "id": 30101061,
    "KEACHGHNLED": 2930680065,
    "KIJDMNMKHJL": 30101061
  },
  {
    "id": 30101064,
    "KEACHGHNLED": 2755952281,
    "KIJDMNMKHJL": 30101064
  },
  {
    "id": 30101065,
    "KEACHGHNLED": 3470608673,
    "KIJDMNMKHJL": 30101065
  },
  {
    "id": 30101062,
    "KEACHGHNLED": 1876906473
  },
  {
    "id": 30101071,
    "KEACHGHNLED": 178435585,
    "KIJDMNMKHJL": 30101071
  },
  {
    "id": 30101072,
    "KEACHGHNLED": 392441153,
    "KIJDMNMKHJL": 30101072
  },
  {
    "id": 30101082,
    "KEACHGHNLED": 2493460953,
    "KIJDMNMKHJL": 30101082
  },
  {
    "id": 30101083,
    "KEACHGHNLED": 1742335681,
    "KIJDMNMKHJL": 30101083
  },
  {
    "id": 30101086,
    "KEACHGHNLED": 2676150641,
    "KIJDMNMKHJL": 30101086
  },
  {
    "id": 30101084,
    "KEACHGHNLED": 1125589225
  },
  {
    "id": 30101085,
    "KEACHGHNLED": 4251873513
  },
  {
    "id": 30101090,
    "KEACHGHNLED": 930768625,
    "KIJDMNMKHJL": 30101090
  },
  {
    "id": 30101091,
    "KEACHGHNLED": 2474467401,
    "KIJDMNMKHJL": 30101091
  },
  {
    "id": 30101101,
    "KEACHGHNLED": 23819425,
    "KIJDMNMKHJL": 30101101
  },
  {
    "id": 30101095,
    "KEACHGHNLED": 3910346353,
    "KIJDMNMKHJL": 30101095
  },
  {
    "id": 30101096,
    "KEACHGHNLED": 3853204081
  },
  {
    "id": 30101097,
    "KEACHGHNLED": 1659882817,
    "KIJDMNMKHJL": 30101097
  },
  {
    "id": 30101103,
    "KEACHGHNLED": 2604171497,
    "KIJDMNMKHJL": 30101103
  },
  {
    "id": 30101092,
    "KEACHGHNLED": 2232523569
  },
  {
    "id": 30101098,
    "KEACHGHNLED": 3041728233,
    "KIJDMNMKHJL": 30101098
  },
  {
    "id": 30101100,
    "KEACHGHNLED": 3901690281,
    "KIJDMNMKHJL": 30101100
  },
  {
    "id": 30101102,
    "KEACHGHNLED": 1278464273
  },
  {
    "id": 30101093,
    "KEACHGHNLED": 3457367033
  },
  {
    "id": 30101094,
    "KEACHGHNLED": 1092773121
  },
  {
    "id": 30101202,
    "KEACHGHNLED": 199679297
  },
  {
    "id": 30101099,
    "KEACHGHNLED": 3842283905
  },
  {
    "id": 30101111,
    "KEACHGHNLED": 3700049329,
    "KIJDMNMKHJL": 30101111
  },
  {
    "id": 30101112,
    "KEACHGHNLED": 3489986657,
    "KIJDMNMKHJL": 30101112
  },
  {
    "id": 30101113,
    "KEACHGHNLED": 3828878625
  },
  {
    "id": 30101114,
    "KEACHGHNLED": 760106393
  },
  {
    "id": 30101115,
    "KEACHGHNLED": 3942446217
  },
  {
    "id": 30101116,
    "KEACHGHNLED": 2638637193
  },
  {
    "id": 30102011,
    "KEACHGHNLED": 3115159985,
    "KIJDMNMKHJL": 30102011
  },
  {
    "id": 30102012,
    "KEACHGHNLED": 1918630041,
    "KIJDMNMKHJL": 30102012
  },
  {
    "id": 30102021,
    "KEACHGHNLED": 962478817,
    "KIJDMNMKHJL": 30102021
  },
  {
    "id": 30102022,
    "KEACHGHNLED": 36170369
  },
  {
    "id": 30102023,
    "KEACHGHNLED": 1744972433
  },
  {
    "id": 30102031,
    "KEACHGHNLED": 1183435041
  },
  {
    "id": 30102032,
    "KEACHGHNLED": 2366751513
  },
  {
    "id": 30102033,
    "KEACHGHNLED": 3484451617
  },
  {
    "id": 30102035,
    "KEACHGHNLED": 798330833,
    "KIJDMNMKHJL": 30102035
  },
  {
    "id": 30102034,
    "KEACHGHNLED": 3099435313
  },
  {
    "id": 30102039,
    "KEACHGHNLED": 3453396913,
    "KIJDMNMKHJL": 30102039
  },
  {
    "id": 30102040,
    "KEACHGHNLED": 3063823233,
    "KIJDMNMKHJL": 30102040
  },
  {
    "id": 30102041,
    "KEACHGHNLED": 530465953,
    "KIJDMNMKHJL": 30102041
  },
  {
    "id": 30102048,
    "KEACHGHNLED": 1628500129,
    "KIJDMNMKHJL": 30102048
  },
  {
    "id": 30102061,
    "KEACHGHNLED": 1002787785,
    "KIJDMNMKHJL": 30102061
  },
  {
    "id": 30102064,
    "KEACHGHNLED": 271676321
  },
  {
    "id": 30102062,
    "KEACHGHNLED": 369787249,
    "KIJDMNMKHJL": 30102062
  },
  {
    "id": 30102063,
    "KEACHGHNLED": 2662228961,
    "KIJDMNMKHJL": 30102063
  },
  {
    "id": 30102049,
    "KEACHGHNLED": 2279284865,
    "KIJDMNMKHJL": 30102049
  },
  {
    "id": 30102042,
    "KEACHGHNLED": 2556387633
  },
  {
    "id": 30102043,
    "KEACHGHNLED": 2166400457
  },
  {
    "id": 30102046,
    "KEACHGHNLED": 712683953,
    "KIJDMNMKHJL": 30102046
  },
  {
    "id": 30102044,
    "KEACHGHNLED": 2976756641
  },
  {
    "id": 30102045,
    "KEACHGHNLED": 1994421553
  },
  {
    "id": 30102047,
    "KEACHGHNLED": 2206921905,
    "KIJDMNMKHJL": 30102047
  },
  {
    "id": 30102050,
    "KEACHGHNLED": 857435201,
    "KIJDMNMKHJL": 30102050
  },
  {
    "id": 30102059,
    "KEACHGHNLED": 1645804993,
    "KIJDMNMKHJL": 30102059
  },
  {
    "id": 30102051,
    "KEACHGHNLED": 2048808825
  },
  {
    "id": 30102052,
    "KEACHGHNLED": 2029495977
  },
  {
    "id": 30102053,
    "KEACHGHNLED": 864257089,
    "KIJDMNMKHJL": 30102053
  },
  {
    "id": 30102054,
    "KEACHGHNLED": 3951872393,
    "KIJDMNMKHJL": 30102054
  },
  {
    "id": 30102055,
    "KEACHGHNLED": 955282289
  },
  {
    "id": 30102056,
    "KEACHGHNLED": 3652317257
  },
  {
    "id": 30102057,
    "KEACHGHNLED": 3182645961
  },
  {
    "id": 30102058,
    "KEACHGHNLED": 1503363913,
    "KIJDMNMKHJL": 30102058
  },
  {
    "id": 30104011,
    "KEACHGHNLED": 3226192497,
    "KIJDMNMKHJL": 30104011
  },
  {
    "id": 30104012,
    "KEACHGHNLED": 468205017,
    "KIJDMNMKHJL": 30104012
  },
  {
    "id": 30104013,
    "KEACHGHNLED": 1308398297,
    "KIJDMNMKHJL": 30104013
  },
  {
    "id": 30104090,
    "KEACHGHNLED": 2863905601,
    "KIJDMNMKHJL": 30104090
  },
  {
    "id": 30104091,
    "KEACHGHNLED": 225160393
  },
  {
    "id": 30104092,
    "KEACHGHNLED": 1016979793
  },
  {
    "id": 30104101,
    "KEACHGHNLED": 252579497,
    "KIJDMNMKHJL": 30104101
  },
  {
    "id": 30104102,
    "KEACHGHNLED": 1241766913,
    "KIJDMNMKHJL": 30104102
  },
  {
    "id": 30104040,
    "KEACHGHNLED": 2069287505,
    "KIJDMNMKHJL": 30104040
  },
  {
    "id": 30104042,
    "KEACHGHNLED": 2164366393
  },
  {
    "id": 30104048,
    "KEACHGHNLED": 2352951873,
    "KIJDMNMKHJL": 30104048
  },
  {
    "id": 30104122,
    "KEACHGHNLED": 3224366361,
    "KIJDMNMKHJL": 30104122
  },
  {
    "id": 30104047,
    "KEACHGHNLED": 818012097,
    "KIJDMNMKHJL": 30104047
  },
  {
    "id": 30104049,
    "KEACHGHNLED": 581787681
  },
  {
    "id": 30104043,
    "KEACHGHNLED": 1042649585
  },
  {
    "id": 30104044,
    "KEACHGHNLED": 1123197265
  },
  {
    "id": 30104045,
    "KEACHGHNLED": 2980506129
  },
  {
    "id": 30104051,
    "KEACHGHNLED": 3817753697,
    "KIJDMNMKHJL": 30104051
  },
  {
    "id": 30104058,
    "KEACHGHNLED": 3380635961,
    "KIJDMNMKHJL": 30104058
  },
  {
    "id": 30104141,
    "KEACHGHNLED": 3599300585,
    "KIJDMNMKHJL": 30104141
  },
  {
    "id": 30104142,
    "KEACHGHNLED": 1932619777,
    "KIJDMNMKHJL": 30104142
  },
  {
    "id": 30104148,
    "KEACHGHNLED": 3769478337,
    "KIJDMNMKHJL": 30104148
  },
  {
    "id": 30104143,
    "KEACHGHNLED": 406969209
  },
  {
    "id": 30104149,
    "KEACHGHNLED": 2667319809,
    "KIJDMNMKHJL": 30104149
  },
  {
    "id": 30104145,
    "KEACHGHNLED": 3443325577
  },
  {
    "id": 30104146,
    "KEACHGHNLED": 3768304041
  },
  {
    "id": 30104147,
    "KEACHGHNLED": 3850353881
  },
  {
    "id": 30104161,
    "KEACHGHNLED": 771492209,
    "KIJDMNMKHJL": 30104161
  },
  {
    "id": 30104162,
    "KEACHGHNLED": 3398570281,
    "KIJDMNMKHJL": 30104162
  },
  {
    "id": 30104167,
    "KEACHGHNLED": 3189310745,
    "KIJDMNMKHJL": 30104167
  },
  {
    "id": 30104168,
    "KEACHGHNLED": 874336633,
    "KIJDMNMKHJL": 30104168
  },
  {
    "id": 30104169,
    "KEACHGHNLED": 2198193225,
    "KIJDMNMKHJL": 30104169
  },
  {
    "id": 30104163,
    "KEACHGHNLED": 2997320673
  },
  {
    "id": 30104164,
    "KEACHGHNLED": 4050998593
  },
  {
    "id": 30104165,
    "KEACHGHNLED": 4120231753
  },
  {
    "id": 30104166,
    "KEACHGHNLED": 2993151177
  },
  {
    "id": 30104174,
    "KEACHGHNLED": 1555014673
  },
  {
    "id": 30104175,
    "KEACHGHNLED": 860082073
  },
  {
    "id": 30104176,
    "KEACHGHNLED": 1370105409
  },
  {
    "id": 30104177,
    "KEACHGHNLED": 4134859377
  },
  {
    "id": 30104157,
    "KEACHGHNLED": 2217942193,
    "KIJDMNMKHJL": 30104157
  },
  {
    "id": 30104052,
    "KEACHGHNLED": 376971161
  },
  {
    "id": 30104050,
    "KEACHGHNLED": 423869305,
    "KIJDMNMKHJL": 30104050
  },
  {
    "id": 30104056,
    "KEACHGHNLED": 3083602825
  },
  {
    "id": 30104054,
    "KEACHGHNLED": 2578133145
  },
  {
    "id": 30104055,
    "KEACHGHNLED": 392823737
  },
  {
    "id": 30105011,
    "KEACHGHNLED": 4151852673,
    "KIJDMNMKHJL": 30105011
  },
  {
    "id": 30105012,
    "KEACHGHNLED": 2280169161,
    "KIJDMNMKHJL": 30105012
  },
  {
    "id": 30105013,
    "KEACHGHNLED": 2043425849
  },
  {
    "id": 30105014,
    "KEACHGHNLED": 4136779537
  },
  {
    "id": 30105021,
    "KEACHGHNLED": 2052639681,
    "KIJDMNMKHJL": 30105021
  },
  {
    "id": 30105022,
    "KEACHGHNLED": 1916241561,
    "KIJDMNMKHJL": 30105022
  },
  {
    "id": 30105023,
    "KEACHGHNLED": 2176561785,
    "KIJDMNMKHJL": 30105023
  },
  {
    "id": 30105031,
    "KEACHGHNLED": 1322089489,
    "KIJDMNMKHJL": 30105031
  },
  {
    "id": 30105032,
    "KEACHGHNLED": 1255793185,
    "KIJDMNMKHJL": 30105032
  },
  {
    "id": 30105034,
    "KEACHGHNLED": 4134443113
  },
  {
    "id": 30105035,
    "KEACHGHNLED": 887411729,
    "KIJDMNMKHJL": 30105035
  },
  {
    "id": 30105036,
    "KEACHGHNLED": 4176758817,
    "KIJDMNMKHJL": 30105036
  },
  {
    "id": 30105037,
    "KEACHGHNLED": 3234127929,
    "KIJDMNMKHJL": 30105037
  },
  {
    "id": 30105038,
    "KEACHGHNLED": 1259725489,
    "KIJDMNMKHJL": 30105038
  },
  {
    "id": 30105041,
    "KEACHGHNLED": 3619319865,
    "KIJDMNMKHJL": 30105041
  },
  {
    "id": 30105042,
    "KEACHGHNLED": 1919351417,
    "KIJDMNMKHJL": 30105042
  },
  {
    "id": 30105043,
    "KEACHGHNLED": 2674120905,
    "KIJDMNMKHJL": 30105043
  },
  {
    "id": 30111011,
    "KEACHGHNLED": 3416131649,
    "KIJDMNMKHJL": 30111011
  },
  {
    "id": 30111012,
    "KEACHGHNLED": 3332586665,
    "KIJDMNMKHJL": 30111012
  },
  {
    "id": 30111013,
    "KEACHGHNLED": 3938238305,
    "KIJDMNMKHJL": 30111013
  },
  {
    "id": 30111014,
    "KEACHGHNLED": 3629407033,
    "KIJDMNMKHJL": 30111014
  }
]
