[
  {
    "eventId": 1,
    "eventType": "HOME_AVATAR_REWARD_EVENT",
    "avatarId": 10000003,
    "talkId": 6900312,
    "rewardId": 990002,
    "furnitureSuitId": 31,
    "order": 1
  },
  {
    "eventId": 2,
    "eventType": "HOME_AVATAR_REWARD_EVENT",
    "avatarId": 10000020,
    "rewardId": 990002,
    "furnitureSuitId": 32,
    "order": 2
  },
  {
    "eventId": 3,
    "eventType": "HOME_AVATAR_REWARD_EVENT",
    "avatarId": 10000020,
    "rewardId": 990002,
    "furnitureSuitId": 31,
    "order": 3
  },
  {
    "eventId": 4,
    "eventType": "HOME_AVATAR_REWARD_EVENT",
    "avatarId": 10000043,
    "rewardId": 990002,
    "furnitureSuitId": 32,
    "order": 4
  },
  {
    "eventId": 5,
    "eventType": "HOME_AVATAR_SUMMON_EVENT",
    "avatarId": 10000003,
    "talkId": 6900313,
    "furnitureSuitId": 31,
    "GKOAJADBMKI": 300
  },
  {
    "eventId": 6,
    "eventType": "HOME_AVATAR_SUMMON_EVENT",
    "avatarId": 10000020,
    "furnitureSuitId": 32,
    "GKOAJADBMKI": 300
  },
  {
    "eventId": 7,
    "eventType": "HOME_AVATAR_SUMMON_EVENT",
    "avatarId": 10000020,
    "furnitureSuitId": 31,
    "GKOAJADBMKI": 300
  },
  {
    "eventId": 8,
    "eventType": "HOME_AVATAR_SUMMON_EVENT",
    "avatarId": 10000043,
    "furnitureSuitId": 32,
    "GKOAJADBMKI": 300
  },
  {
    "eventId": 1001,
    "eventType": "HOME_AVATAR_REWARD_EVENT",
    "avatarId": 10000003,
    "talkId": 6900350,
    "rewardId": 4110031,
    "furnitureSuitId": 33,
    "order": 5
  },
  {
    "eventId": 1002,
    "eventType": "HOME_AVATAR_REWARD_EVENT",
    "avatarId": 10000003,
    "talkId": 6900351,
    "rewardId": 4110032,
    "furnitureSuitId": 41,
    "order": 6
  },
  {
    "eventId": 1011,
    "eventType": "HOME_AVATAR_SUMMON_EVENT",
    "avatarId": 10000003,
    "talkId": 6900350,
    "furnitureSuitId": 33,
    "GKOAJADBMKI": 300
  },
  {
    "eventId": 1012,
    "eventType": "HOME_AVATAR_SUMMON_EVENT",
    "avatarId": 10000003,
    "talkId": 6900351,
    "furnitureSuitId": 41,
    "GKOAJADBMKI": 300
  },
  {
    "eventId": 1101,
    "eventType": "HOME_AVATAR_REWARD_EVENT",
    "avatarId": 10000006,
    "talkId": 6900650,
    "rewardId": 4110051,
    "furnitureSuitId": 33,
    "order": 7
  },
  {
    "eventId": 1102,
    "eventType": "HOME_AVATAR_REWARD_EVENT",
    "avatarId": 10000006,
    "talkId": 6900651,
    "rewardId": 4110052,
    "furnitureSuitId": 37,
    "order": 8
  },
  {
    "eventId": 1111,
    "eventType": "HOME_AVATAR_SUMMON_EVENT",
    "avatarId": 10000006,
    "talkId": 6900650,
    "furnitureSuitId": 33,
    "GKOAJADBMKI": 300
  },
  {
    "eventId": 1112,
    "eventType": "HOME_AVATAR_SUMMON_EVENT",
    "avatarId": 10000006,
    "talkId": 6900651,
    "furnitureSuitId": 37,
    "GKOAJADBMKI": 300
  },
  {
    "eventId": 1201,
    "eventType": "HOME_AVATAR_REWARD_EVENT",
    "avatarId": 10000014,
    "talkId": 6901450,
    "rewardId": 4110061,
    "furnitureSuitId": 34,
    "order": 9
  },
  {
    "eventId": 1202,
    "eventType": "HOME_AVATAR_REWARD_EVENT",
    "avatarId": 10000014,
    "talkId": 6901451,
    "rewardId": 4110062,
    "furnitureSuitId": 41,
    "order": 10
  },
  {
    "eventId": 1211,
    "eventType": "HOME_AVATAR_SUMMON_EVENT",
    "avatarId": 10000014,
    "talkId": 6901450,
    "furnitureSuitId": 34,
    "GKOAJADBMKI": 300
  },
  {
    "eventId": 1212,
    "eventType": "HOME_AVATAR_SUMMON_EVENT",
    "avatarId": 10000014,
    "talkId": 6901451,
    "furnitureSuitId": 41,
    "GKOAJADBMKI": 300
  },
  {
    "eventId": 1301,
    "eventType": "HOME_AVATAR_REWARD_EVENT",
    "avatarId": 10000015,
    "talkId": 6901551,
    "rewardId": 4110071,
    "furnitureSuitId": 41,
    "order": 11
  },
  {
    "eventId": 1302,
    "eventType": "HOME_AVATAR_REWARD_EVENT",
    "avatarId": 10000015,
    "talkId": 6901550,
    "rewardId": 4110072,
    "furnitureSuitId": 47,
    "order": 12
  },
  {
    "eventId": 1311,
    "eventType": "HOME_AVATAR_SUMMON_EVENT",
    "avatarId": 10000015,
    "talkId": 6901551,
    "furnitureSuitId": 41,
    "GKOAJADBMKI": 300
  },
  {
    "eventId": 1312,
    "eventType": "HOME_AVATAR_SUMMON_EVENT",
    "avatarId": 10000015,
    "talkId": 6901550,
    "furnitureSuitId": 47,
    "GKOAJADBMKI": 300
  },
  {
    "eventId": 1401,
    "eventType": "HOME_AVATAR_REWARD_EVENT",
    "avatarId": 10000016,
    "talkId": 6901651,
    "rewardId": 4110081,
    "furnitureSuitId": 39,
    "order": 13
  },
  {
    "eventId": 1402,
    "eventType": "HOME_AVATAR_REWARD_EVENT",
    "avatarId": 10000016,
    "talkId": 6901650,
    "rewardId": 4110082,
    "furnitureSuitId": 47,
    "order": 14
  },
  {
    "eventId": 1411,
    "eventType": "HOME_AVATAR_SUMMON_EVENT",
    "avatarId": 10000016,
    "talkId": 6901651,
    "furnitureSuitId": 39,
    "GKOAJADBMKI": 300
  },
  {
    "eventId": 1412,
    "eventType": "HOME_AVATAR_SUMMON_EVENT",
    "avatarId": 10000016,
    "talkId": 6901650,
    "furnitureSuitId": 47,
    "GKOAJADBMKI": 300
  },
  {
    "eventId": 1501,
    "eventType": "HOME_AVATAR_REWARD_EVENT",
    "avatarId": 10000020,
    "talkId": 6902051,
    "rewardId": 4110091,
    "furnitureSuitId": 38,
    "order": 15
  },
  {
    "eventId": 1502,
    "eventType": "HOME_AVATAR_REWARD_EVENT",
    "avatarId": 10000020,
    "talkId": 6902050,
    "rewardId": 4110092,
    "furnitureSuitId": 40,
    "order": 16
  },
  {
    "eventId": 1511,
    "eventType": "HOME_AVATAR_SUMMON_EVENT",
    "avatarId": 10000020,
    "talkId": 6902051,
    "furnitureSuitId": 38,
    "GKOAJADBMKI": 300
  },
  {
    "eventId": 1512,
    "eventType": "HOME_AVATAR_SUMMON_EVENT",
    "avatarId": 10000020,
    "talkId": 6902050,
    "furnitureSuitId": 40,
    "GKOAJADBMKI": 300
  },
  {
    "eventId": 1601,
    "eventType": "HOME_AVATAR_REWARD_EVENT",
    "avatarId": 10000021,
    "talkId": 6902151,
    "rewardId": 4110101,
    "furnitureSuitId": 40,
    "order": 17
  },
  {
    "eventId": 1602,
    "eventType": "HOME_AVATAR_REWARD_EVENT",
    "avatarId": 10000021,
    "talkId": 6902150,
    "rewardId": 4110102,
    "furnitureSuitId": 45,
    "order": 18
  },
  {
    "eventId": 1611,
    "eventType": "HOME_AVATAR_SUMMON_EVENT",
    "avatarId": 10000021,
    "talkId": 6902151,
    "furnitureSuitId": 40,
    "GKOAJADBMKI": 300
  },
  {
    "eventId": 1612,
    "eventType": "HOME_AVATAR_SUMMON_EVENT",
    "avatarId": 10000021,
    "talkId": 6902150,
    "furnitureSuitId": 45,
    "GKOAJADBMKI": 300
  },
  {
    "eventId": 1701,
    "eventType": "HOME_AVATAR_REWARD_EVENT",
    "avatarId": 10000022,
    "talkId": 6902250,
    "rewardId": 4110111,
    "furnitureSuitId": 41,
    "order": 19
  },
  {
    "eventId": 1702,
    "eventType": "HOME_AVATAR_REWARD_EVENT",
    "avatarId": 10000022,
    "talkId": 6902251,
    "rewardId": 4110112,
    "furnitureSuitId": 47,
    "order": 20
  },
  {
    "eventId": 1711,
    "eventType": "HOME_AVATAR_SUMMON_EVENT",
    "avatarId": 10000022,
    "talkId": 6902250,
    "furnitureSuitId": 41,
    "GKOAJADBMKI": 300
  },
  {
    "eventId": 1712,
    "eventType": "HOME_AVATAR_SUMMON_EVENT",
    "avatarId": 10000022,
    "talkId": 6902251,
    "furnitureSuitId": 47,
    "GKOAJADBMKI": 300
  },
  {
    "eventId": 1801,
    "eventType": "HOME_AVATAR_REWARD_EVENT",
    "avatarId": 10000023,
    "talkId": 6902351,
    "rewardId": 4110121,
    "furnitureSuitId": 38,
    "order": 21
  },
  {
    "eventId": 1802,
    "eventType": "HOME_AVATAR_REWARD_EVENT",
    "avatarId": 10000023,
    "talkId": 6902350,
    "rewardId": 4110122,
    "furnitureSuitId": 42,
    "order": 22
  },
  {
    "eventId": 1811,
    "eventType": "HOME_AVATAR_SUMMON_EVENT",
    "avatarId": 10000023,
    "talkId": 6902351,
    "furnitureSuitId": 38,
    "GKOAJADBMKI": 300
  },
  {
    "eventId": 1812,
    "eventType": "HOME_AVATAR_SUMMON_EVENT",
    "avatarId": 10000023,
    "talkId": 6902350,
    "furnitureSuitId": 42,
    "GKOAJADBMKI": 300
  },
  {
    "eventId": 1901,
    "eventType": "HOME_AVATAR_REWARD_EVENT",
    "avatarId": 10000024,
    "talkId": 6902450,
    "rewardId": 4110131,
    "furnitureSuitId": 42,
    "order": 23
  },
  {
    "eventId": 1902,
    "eventType": "HOME_AVATAR_REWARD_EVENT",
    "avatarId": 10000024,
    "talkId": 6902451,
    "rewardId": 4110132,
    "furnitureSuitId": 45,
    "order": 24
  },
  {
    "eventId": 1911,
    "eventType": "HOME_AVATAR_SUMMON_EVENT",
    "avatarId": 10000024,
    "talkId": 6902450,
    "furnitureSuitId": 42,
    "GKOAJADBMKI": 300
  },
  {
    "eventId": 1912,
    "eventType": "HOME_AVATAR_SUMMON_EVENT",
    "avatarId": 10000024,
    "talkId": 6902451,
    "furnitureSuitId": 45,
    "GKOAJADBMKI": 300
  },
  {
    "eventId": 2001,
    "eventType": "HOME_AVATAR_REWARD_EVENT",
    "avatarId": 10000025,
    "talkId": 6902550,
    "rewardId": 4110141,
    "furnitureSuitId": 35,
    "order": 25
  },
  {
    "eventId": 2002,
    "eventType": "HOME_AVATAR_REWARD_EVENT",
    "avatarId": 10000025,
    "talkId": 6902551,
    "rewardId": 4110142,
    "furnitureSuitId": 43,
    "order": 26
  },
  {
    "eventId": 2011,
    "eventType": "HOME_AVATAR_SUMMON_EVENT",
    "avatarId": 10000025,
    "talkId": 6902550,
    "furnitureSuitId": 35,
    "GKOAJADBMKI": 300
  },
  {
    "eventId": 2012,
    "eventType": "HOME_AVATAR_SUMMON_EVENT",
    "avatarId": 10000025,
    "talkId": 6902551,
    "furnitureSuitId": 43,
    "GKOAJADBMKI": 300
  },
  {
    "eventId": 2101,
    "eventType": "HOME_AVATAR_REWARD_EVENT",
    "avatarId": 10000026,
    "talkId": 6902651,
    "rewardId": 4110151,
    "furnitureSuitId": 38,
    "order": 27
  },
  {
    "eventId": 2102,
    "eventType": "HOME_AVATAR_REWARD_EVENT",
    "avatarId": 10000026,
    "talkId": 6902650,
    "rewardId": 4110152,
    "furnitureSuitId": 44,
    "order": 28
  },
  {
    "eventId": 2111,
    "eventType": "HOME_AVATAR_SUMMON_EVENT",
    "avatarId": 10000026,
    "talkId": 6902651,
    "furnitureSuitId": 38,
    "GKOAJADBMKI": 300
  },
  {
    "eventId": 2112,
    "eventType": "HOME_AVATAR_SUMMON_EVENT",
    "avatarId": 10000026,
    "talkId": 6902650,
    "furnitureSuitId": 44,
    "GKOAJADBMKI": 300
  },
  {
    "eventId": 2201,
    "eventType": "HOME_AVATAR_REWARD_EVENT",
    "avatarId": 10000027,
    "talkId": 6902751,
    "rewardId": 4110161,
    "furnitureSuitId": 35,
    "order": 29
  },
  {
    "eventId": 2202,
    "eventType": "HOME_AVATAR_REWARD_EVENT",
    "avatarId": 10000027,
    "talkId": 6902750,
    "rewardId": 4110162,
    "furnitureSuitId": 43,
    "order": 30
  },
  {
    "eventId": 2211,
    "eventType": "HOME_AVATAR_SUMMON_EVENT",
    "avatarId": 10000027,
    "talkId": 6902751,
    "furnitureSuitId": 35,
    "GKOAJADBMKI": 300
  },
  {
    "eventId": 2212,
    "eventType": "HOME_AVATAR_SUMMON_EVENT",
    "avatarId": 10000027,
    "talkId": 6902750,
    "furnitureSuitId": 43,
    "GKOAJADBMKI": 300
  },
  {
    "eventId": 2301,
    "eventType": "HOME_AVATAR_REWARD_EVENT",
    "avatarId": 10000029,
    "talkId": 6902950,
    "rewardId": 4110171,
    "furnitureSuitId": 37,
    "order": 31
  },
  {
    "eventId": 2302,
    "eventType": "HOME_AVATAR_REWARD_EVENT",
    "avatarId": 10000029,
    "talkId": 6902951,
    "rewardId": 4110172,
    "furnitureSuitId": 45,
    "order": 32
  },
  {
    "eventId": 2311,
    "eventType": "HOME_AVATAR_SUMMON_EVENT",
    "avatarId": 10000029,
    "talkId": 6902950,
    "furnitureSuitId": 37,
    "GKOAJADBMKI": 300
  },
  {
    "eventId": 2312,
    "eventType": "HOME_AVATAR_SUMMON_EVENT",
    "avatarId": 10000029,
    "talkId": 6902951,
    "furnitureSuitId": 45,
    "GKOAJADBMKI": 300
  },
  {
    "eventId": 2401,
    "eventType": "HOME_AVATAR_REWARD_EVENT",
    "avatarId": 10000030,
    "talkId": 6903050,
    "rewardId": 4110181,
    "furnitureSuitId": 35,
    "order": 33
  },
  {
    "eventId": 2402,
    "eventType": "HOME_AVATAR_REWARD_EVENT",
    "avatarId": 10000030,
    "talkId": 6903051,
    "rewardId": 4110182,
    "furnitureSuitId": 43,
    "order": 34
  },
  {
    "eventId": 2411,
    "eventType": "HOME_AVATAR_SUMMON_EVENT",
    "avatarId": 10000030,
    "talkId": 6903050,
    "furnitureSuitId": 35,
    "GKOAJADBMKI": 300
  },
  {
    "eventId": 2412,
    "eventType": "HOME_AVATAR_SUMMON_EVENT",
    "avatarId": 10000030,
    "talkId": 6903051,
    "furnitureSuitId": 43,
    "GKOAJADBMKI": 300
  },
  {
    "eventId": 2501,
    "eventType": "HOME_AVATAR_REWARD_EVENT",
    "avatarId": 10000031,
    "talkId": 6903150,
    "rewardId": 4110191,
    "furnitureSuitId": 33,
    "order": 35
  },
  {
    "eventId": 2502,
    "eventType": "HOME_AVATAR_REWARD_EVENT",
    "avatarId": 10000031,
    "talkId": 6903151,
    "rewardId": 4110192,
    "furnitureSuitId": 46,
    "order": 36
  },
  {
    "eventId": 2511,
    "eventType": "HOME_AVATAR_SUMMON_EVENT",
    "avatarId": 10000031,
    "talkId": 6903150,
    "furnitureSuitId": 33,
    "GKOAJADBMKI": 300
  },
  {
    "eventId": 2512,
    "eventType": "HOME_AVATAR_SUMMON_EVENT",
    "avatarId": 10000031,
    "talkId": 6903151,
    "furnitureSuitId": 46,
    "GKOAJADBMKI": 300
  },
  {
    "eventId": 2601,
    "eventType": "HOME_AVATAR_REWARD_EVENT",
    "avatarId": 10000032,
    "talkId": 6903251,
    "rewardId": 4110201,
    "furnitureSuitId": 39,
    "order": 37
  },
  {
    "eventId": 2602,
    "eventType": "HOME_AVATAR_REWARD_EVENT",
    "avatarId": 10000032,
    "talkId": 6903250,
    "rewardId": 4110202,
    "furnitureSuitId": 46,
    "order": 38
  },
  {
    "eventId": 2611,
    "eventType": "HOME_AVATAR_SUMMON_EVENT",
    "avatarId": 10000032,
    "talkId": 6903251,
    "furnitureSuitId": 39,
    "GKOAJADBMKI": 300
  },
  {
    "eventId": 2612,
    "eventType": "HOME_AVATAR_SUMMON_EVENT",
    "avatarId": 10000032,
    "talkId": 6903250,
    "furnitureSuitId": 46,
    "GKOAJADBMKI": 300
  },
  {
    "eventId": 2701,
    "eventType": "HOME_AVATAR_REWARD_EVENT",
    "avatarId": 10000033,
    "talkId": 6903350,
    "rewardId": 4110211,
    "furnitureSuitId": 38,
    "order": 39
  },
  {
    "eventId": 2702,
    "eventType": "HOME_AVATAR_REWARD_EVENT",
    "avatarId": 10000033,
    "talkId": 6903351,
    "rewardId": 4110212,
    "furnitureSuitId": 42,
    "order": 40
  },
  {
    "eventId": 2711,
    "eventType": "HOME_AVATAR_SUMMON_EVENT",
    "avatarId": 10000033,
    "talkId": 6903350,
    "furnitureSuitId": 38,
    "GKOAJADBMKI": 300
  },
  {
    "eventId": 2712,
    "eventType": "HOME_AVATAR_SUMMON_EVENT",
    "avatarId": 10000033,
    "talkId": 6903351,
    "furnitureSuitId": 42,
    "GKOAJADBMKI": 300
  },
  {
    "eventId": 2801,
    "eventType": "HOME_AVATAR_REWARD_EVENT",
    "avatarId": 10000034,
    "talkId": 6903451,
    "rewardId": 4110221,
    "furnitureSuitId": 34,
    "order": 41
  },
  {
    "eventId": 2802,
    "eventType": "HOME_AVATAR_REWARD_EVENT",
    "avatarId": 10000034,
    "talkId": 6903450,
    "rewardId": 4110222,
    "furnitureSuitId": 39,
    "order": 42
  },
  {
    "eventId": 2811,
    "eventType": "HOME_AVATAR_SUMMON_EVENT",
    "avatarId": 10000034,
    "talkId": 6903451,
    "furnitureSuitId": 34,
    "GKOAJADBMKI": 300
  },
  {
    "eventId": 2812,
    "eventType": "HOME_AVATAR_SUMMON_EVENT",
    "avatarId": 10000034,
    "talkId": 6903450,
    "furnitureSuitId": 39,
    "GKOAJADBMKI": 300
  },
  {
    "eventId": 2901,
    "eventType": "HOME_AVATAR_REWARD_EVENT",
    "avatarId": 10000035,
    "talkId": 6903551,
    "rewardId": 4110231,
    "furnitureSuitId": 44,
    "order": 43
  },
  {
    "eventId": 2902,
    "eventType": "HOME_AVATAR_REWARD_EVENT",
    "avatarId": 10000035,
    "talkId": 6903550,
    "rewardId": 4110232,
    "furnitureSuitId": 46,
    "order": 44
  },
  {
    "eventId": 2911,
    "eventType": "HOME_AVATAR_SUMMON_EVENT",
    "avatarId": 10000035,
    "talkId": 6903551,
    "furnitureSuitId": 44,
    "GKOAJADBMKI": 300
  },
  {
    "eventId": 2912,
    "eventType": "HOME_AVATAR_SUMMON_EVENT",
    "avatarId": 10000035,
    "talkId": 6903550,
    "furnitureSuitId": 46,
    "GKOAJADBMKI": 300
  },
  {
    "eventId": 3001,
    "eventType": "HOME_AVATAR_REWARD_EVENT",
    "avatarId": 10000036,
    "talkId": 6903651,
    "rewardId": 4110241,
    "furnitureSuitId": 36,
    "order": 45
  },
  {
    "eventId": 3002,
    "eventType": "HOME_AVATAR_REWARD_EVENT",
    "avatarId": 10000036,
    "talkId": 6903650,
    "rewardId": 4110242,
    "furnitureSuitId": 46,
    "order": 46
  },
  {
    "eventId": 3011,
    "eventType": "HOME_AVATAR_SUMMON_EVENT",
    "avatarId": 10000036,
    "talkId": 6903651,
    "furnitureSuitId": 36,
    "GKOAJADBMKI": 300
  },
  {
    "eventId": 3012,
    "eventType": "HOME_AVATAR_SUMMON_EVENT",
    "avatarId": 10000036,
    "talkId": 6903650,
    "furnitureSuitId": 46,
    "GKOAJADBMKI": 300
  },
  {
    "eventId": 3101,
    "eventType": "HOME_AVATAR_REWARD_EVENT",
    "avatarId": 10000037,
    "talkId": 6903751,
    "rewardId": 4110251,
    "furnitureSuitId": 36,
    "order": 47
  },
  {
    "eventId": 3102,
    "eventType": "HOME_AVATAR_REWARD_EVENT",
    "avatarId": 10000037,
    "talkId": 6903750,
    "rewardId": 4110252,
    "furnitureSuitId": 42,
    "order": 48
  },
  {
    "eventId": 3111,
    "eventType": "HOME_AVATAR_SUMMON_EVENT",
    "avatarId": 10000037,
    "talkId": 6903751,
    "furnitureSuitId": 36,
    "GKOAJADBMKI": 300
  },
  {
    "eventId": 3112,
    "eventType": "HOME_AVATAR_SUMMON_EVENT",
    "avatarId": 10000037,
    "talkId": 6903750,
    "furnitureSuitId": 42,
    "GKOAJADBMKI": 300
  },
  {
    "eventId": 3201,
    "eventType": "HOME_AVATAR_REWARD_EVENT",
    "avatarId": 10000038,
    "talkId": 6903850,
    "rewardId": 4110261,
    "furnitureSuitId": 37,
    "order": 49
  },
  {
    "eventId": 3202,
    "eventType": "HOME_AVATAR_REWARD_EVENT",
    "avatarId": 10000038,
    "talkId": 6903851,
    "rewardId": 4110262,
    "furnitureSuitId": 46,
    "order": 50
  },
  {
    "eventId": 3211,
    "eventType": "HOME_AVATAR_SUMMON_EVENT",
    "avatarId": 10000038,
    "talkId": 6903850,
    "furnitureSuitId": 37,
    "GKOAJADBMKI": 300
  },
  {
    "eventId": 3212,
    "eventType": "HOME_AVATAR_SUMMON_EVENT",
    "avatarId": 10000038,
    "talkId": 6903851,
    "furnitureSuitId": 46,
    "GKOAJADBMKI": 300
  },
  {
    "eventId": 3301,
    "eventType": "HOME_AVATAR_REWARD_EVENT",
    "avatarId": 10000039,
    "talkId": 6903951,
    "rewardId": 4110271,
    "furnitureSuitId": 40,
    "order": 51
  },
  {
    "eventId": 3302,
    "eventType": "HOME_AVATAR_REWARD_EVENT",
    "avatarId": 10000039,
    "talkId": 6903950,
    "rewardId": 4110272,
    "furnitureSuitId": 39,
    "order": 52
  },
  {
    "eventId": 3311,
    "eventType": "HOME_AVATAR_SUMMON_EVENT",
    "avatarId": 10000039,
    "talkId": 6903951,
    "furnitureSuitId": 40,
    "GKOAJADBMKI": 300
  },
  {
    "eventId": 3312,
    "eventType": "HOME_AVATAR_SUMMON_EVENT",
    "avatarId": 10000039,
    "talkId": 6903950,
    "furnitureSuitId": 39,
    "GKOAJADBMKI": 300
  },
  {
    "eventId": 3401,
    "eventType": "HOME_AVATAR_REWARD_EVENT",
    "avatarId": 10000042,
    "talkId": 6904251,
    "rewardId": 4110291,
    "furnitureSuitId": 36,
    "order": 53
  },
  {
    "eventId": 3402,
    "eventType": "HOME_AVATAR_REWARD_EVENT",
    "avatarId": 10000042,
    "talkId": 6904250,
    "rewardId": 4110292,
    "furnitureSuitId": 43,
    "order": 54
  },
  {
    "eventId": 3411,
    "eventType": "HOME_AVATAR_SUMMON_EVENT",
    "avatarId": 10000042,
    "talkId": 6904251,
    "furnitureSuitId": 36,
    "GKOAJADBMKI": 300
  },
  {
    "eventId": 3412,
    "eventType": "HOME_AVATAR_SUMMON_EVENT",
    "avatarId": 10000042,
    "talkId": 6904250,
    "furnitureSuitId": 43,
    "GKOAJADBMKI": 300
  },
  {
    "eventId": 3501,
    "eventType": "HOME_AVATAR_REWARD_EVENT",
    "avatarId": 10000043,
    "talkId": 6904350,
    "rewardId": 4110301,
    "furnitureSuitId": 37,
    "order": 55
  },
  {
    "eventId": 3502,
    "eventType": "HOME_AVATAR_REWARD_EVENT",
    "avatarId": 10000043,
    "talkId": 6904351,
    "rewardId": 4110302,
    "furnitureSuitId": 45,
    "order": 56
  },
  {
    "eventId": 3511,
    "eventType": "HOME_AVATAR_SUMMON_EVENT",
    "avatarId": 10000043,
    "talkId": 6904350,
    "furnitureSuitId": 37,
    "GKOAJADBMKI": 300
  },
  {
    "eventId": 3512,
    "eventType": "HOME_AVATAR_SUMMON_EVENT",
    "avatarId": 10000043,
    "talkId": 6904351,
    "furnitureSuitId": 45,
    "GKOAJADBMKI": 300
  },
  {
    "eventId": 3601,
    "eventType": "HOME_AVATAR_REWARD_EVENT",
    "avatarId": 10000044,
    "talkId": 6904451,
    "rewardId": 4110311,
    "furnitureSuitId": 42,
    "order": 57
  },
  {
    "eventId": 3602,
    "eventType": "HOME_AVATAR_REWARD_EVENT",
    "avatarId": 10000044,
    "talkId": 6904450,
    "rewardId": 4110312,
    "furnitureSuitId": 44,
    "order": 58
  },
  {
    "eventId": 3611,
    "eventType": "HOME_AVATAR_SUMMON_EVENT",
    "avatarId": 10000044,
    "talkId": 6904451,
    "furnitureSuitId": 42,
    "GKOAJADBMKI": 300
  },
  {
    "eventId": 3612,
    "eventType": "HOME_AVATAR_SUMMON_EVENT",
    "avatarId": 10000044,
    "talkId": 6904450,
    "furnitureSuitId": 44,
    "GKOAJADBMKI": 300
  },
  {
    "eventId": 3701,
    "eventType": "HOME_AVATAR_REWARD_EVENT",
    "avatarId": 10000045,
    "talkId": 6904550,
    "rewardId": 4110321,
    "furnitureSuitId": 41,
    "order": 59
  },
  {
    "eventId": 3702,
    "eventType": "HOME_AVATAR_REWARD_EVENT",
    "avatarId": 10000045,
    "talkId": 6904551,
    "rewardId": 4110322,
    "furnitureSuitId": 47,
    "order": 60
  },
  {
    "eventId": 3711,
    "eventType": "HOME_AVATAR_SUMMON_EVENT",
    "avatarId": 10000045,
    "talkId": 6904550,
    "furnitureSuitId": 41,
    "GKOAJADBMKI": 300
  },
  {
    "eventId": 3712,
    "eventType": "HOME_AVATAR_SUMMON_EVENT",
    "avatarId": 10000045,
    "talkId": 6904551,
    "furnitureSuitId": 47,
    "GKOAJADBMKI": 300
  },
  {
    "eventId": 3801,
    "eventType": "HOME_AVATAR_REWARD_EVENT",
    "avatarId": 10000046,
    "talkId": 6904650,
    "rewardId": 4110331,
    "furnitureSuitId": 36,
    "order": 61
  },
  {
    "eventId": 3802,
    "eventType": "HOME_AVATAR_REWARD_EVENT",
    "avatarId": 10000046,
    "talkId": 6904651,
    "rewardId": 4110332,
    "furnitureSuitId": 44,
    "order": 62
  },
  {
    "eventId": 3811,
    "eventType": "HOME_AVATAR_SUMMON_EVENT",
    "avatarId": 10000046,
    "talkId": 6904650,
    "furnitureSuitId": 36,
    "GKOAJADBMKI": 300
  },
  {
    "eventId": 3812,
    "eventType": "HOME_AVATAR_SUMMON_EVENT",
    "avatarId": 10000046,
    "talkId": 6904651,
    "furnitureSuitId": 44,
    "GKOAJADBMKI": 300
  },
  {
    "eventId": 3901,
    "eventType": "HOME_AVATAR_REWARD_EVENT",
    "avatarId": 10000048,
    "talkId": 6904850,
    "rewardId": 4110351,
    "furnitureSuitId": 36,
    "order": 63
  },
  {
    "eventId": 3902,
    "eventType": "HOME_AVATAR_REWARD_EVENT",
    "avatarId": 10000048,
    "talkId": 6904851,
    "rewardId": 4110352,
    "furnitureSuitId": 43,
    "order": 64
  },
  {
    "eventId": 3911,
    "eventType": "HOME_AVATAR_SUMMON_EVENT",
    "avatarId": 10000048,
    "talkId": 6904850,
    "furnitureSuitId": 36,
    "GKOAJADBMKI": 300
  },
  {
    "eventId": 3912,
    "eventType": "HOME_AVATAR_SUMMON_EVENT",
    "avatarId": 10000048,
    "talkId": 6904851,
    "furnitureSuitId": 43,
    "GKOAJADBMKI": 300
  },
  {
    "eventId": 4001,
    "eventType": "HOME_AVATAR_REWARD_EVENT",
    "avatarId": 10000051,
    "talkId": 6905151,
    "rewardId": 4110381,
    "furnitureSuitId": 33,
    "order": 65
  },
  {
    "eventId": 4002,
    "eventType": "HOME_AVATAR_REWARD_EVENT",
    "avatarId": 10000051,
    "talkId": 6905150,
    "rewardId": 4110382,
    "furnitureSuitId": 34,
    "order": 66
  },
  {
    "eventId": 4011,
    "eventType": "HOME_AVATAR_SUMMON_EVENT",
    "avatarId": 10000051,
    "talkId": 6905151,
    "furnitureSuitId": 33,
    "GKOAJADBMKI": 300
  },
  {
    "eventId": 4012,
    "eventType": "HOME_AVATAR_SUMMON_EVENT",
    "avatarId": 10000051,
    "talkId": 6905150,
    "furnitureSuitId": 34,
    "GKOAJADBMKI": 300
  },
  {
    "eventId": 4101,
    "eventType": "HOME_AVATAR_REWARD_EVENT",
    "avatarId": 10000041,
    "talkId": 6904150,
    "rewardId": 4110281,
    "furnitureSuitId": 33,
    "order": 67
  },
  {
    "eventId": 4102,
    "eventType": "HOME_AVATAR_REWARD_EVENT",
    "avatarId": 10000041,
    "talkId": 6904151,
    "rewardId": 4110282,
    "furnitureSuitId": 38,
    "order": 68
  },
  {
    "eventId": 4111,
    "eventType": "HOME_AVATAR_SUMMON_EVENT",
    "avatarId": 10000041,
    "talkId": 6904150,
    "furnitureSuitId": 33,
    "GKOAJADBMKI": 300
  },
  {
    "eventId": 4112,
    "eventType": "HOME_AVATAR_SUMMON_EVENT",
    "avatarId": 10000041,
    "talkId": 6904151,
    "furnitureSuitId": 38,
    "GKOAJADBMKI": 300
  },
  {
    "eventId": 4201,
    "eventType": "HOME_AVATAR_REWARD_EVENT",
    "avatarId": 10000062,
    "talkId": 6906250,
    "rewardId": 4110431,
    "furnitureSuitId": 45,
    "order": 69
  },
  {
    "eventId": 4202,
    "eventType": "HOME_AVATAR_REWARD_EVENT",
    "avatarId": 10000062,
    "talkId": 6906251,
    "rewardId": 4110432,
    "furnitureSuitId": 46,
    "order": 70
  },
  {
    "eventId": 4211,
    "eventType": "HOME_AVATAR_SUMMON_EVENT",
    "avatarId": 10000062,
    "talkId": 6906250,
    "furnitureSuitId": 45,
    "GKOAJADBMKI": 300
  },
  {
    "eventId": 4212,
    "eventType": "HOME_AVATAR_SUMMON_EVENT",
    "avatarId": 10000062,
    "talkId": 6906251,
    "furnitureSuitId": 46,
    "GKOAJADBMKI": 300
  },
  {
    "eventId": 4301,
    "eventType": "HOME_AVATAR_REWARD_EVENT",
    "avatarId": 10000047,
    "talkId": 6904711,
    "rewardId": 4110341,
    "furnitureSuitId": 53,
    "order": 71
  },
  {
    "eventId": 4302,
    "eventType": "HOME_AVATAR_REWARD_EVENT",
    "avatarId": 10000047,
    "talkId": 6904710,
    "rewardId": 4110342,
    "furnitureSuitId": 59,
    "order": 72
  },
  {
    "eventId": 4311,
    "eventType": "HOME_AVATAR_SUMMON_EVENT",
    "avatarId": 10000047,
    "talkId": 6904711,
    "furnitureSuitId": 53,
    "GKOAJADBMKI": 300
  },
  {
    "eventId": 4312,
    "eventType": "HOME_AVATAR_SUMMON_EVENT",
    "avatarId": 10000047,
    "talkId": 6904710,
    "furnitureSuitId": 59,
    "GKOAJADBMKI": 300
  },
  {
    "eventId": 4401,
    "eventType": "HOME_AVATAR_REWARD_EVENT",
    "avatarId": 10000002,
    "talkId": 6900210,
    "rewardId": 4110021,
    "furnitureSuitId": 54,
    "order": 73
  },
  {
    "eventId": 4402,
    "eventType": "HOME_AVATAR_REWARD_EVENT",
    "avatarId": 10000002,
    "talkId": 6900211,
    "rewardId": 4110022,
    "furnitureSuitId": 57,
    "order": 74
  },
  {
    "eventId": 4411,
    "eventType": "HOME_AVATAR_SUMMON_EVENT",
    "avatarId": 10000002,
    "talkId": 6900210,
    "furnitureSuitId": 54,
    "GKOAJADBMKI": 300
  },
  {
    "eventId": 4412,
    "eventType": "HOME_AVATAR_SUMMON_EVENT",
    "avatarId": 10000002,
    "talkId": 6900211,
    "furnitureSuitId": 57,
    "GKOAJADBMKI": 300
  },
  {
    "eventId": 4501,
    "eventType": "HOME_AVATAR_REWARD_EVENT",
    "avatarId": 10000049,
    "talkId": 6904910,
    "rewardId": 4110361,
    "furnitureSuitId": 49,
    "order": 75
  },
  {
    "eventId": 4502,
    "eventType": "HOME_AVATAR_REWARD_EVENT",
    "avatarId": 10000049,
    "talkId": 6904911,
    "rewardId": 4110362,
    "furnitureSuitId": 55,
    "order": 76
  },
  {
    "eventId": 4511,
    "eventType": "HOME_AVATAR_SUMMON_EVENT",
    "avatarId": 10000049,
    "talkId": 6904910,
    "furnitureSuitId": 49,
    "GKOAJADBMKI": 300
  },
  {
    "eventId": 4512,
    "eventType": "HOME_AVATAR_SUMMON_EVENT",
    "avatarId": 10000049,
    "talkId": 6904911,
    "furnitureSuitId": 55,
    "GKOAJADBMKI": 300
  },
  {
    "eventId": 4601,
    "eventType": "HOME_AVATAR_REWARD_EVENT",
    "avatarId": 10000053,
    "talkId": 6905311,
    "rewardId": 4110391,
    "furnitureSuitId": 50,
    "order": 77
  },
  {
    "eventId": 4602,
    "eventType": "HOME_AVATAR_REWARD_EVENT",
    "avatarId": 10000053,
    "talkId": 6905310,
    "rewardId": 4110392,
    "furnitureSuitId": 56,
    "order": 78
  },
  {
    "eventId": 4611,
    "eventType": "HOME_AVATAR_SUMMON_EVENT",
    "avatarId": 10000053,
    "talkId": 6905311,
    "furnitureSuitId": 50,
    "GKOAJADBMKI": 300
  },
  {
    "eventId": 4612,
    "eventType": "HOME_AVATAR_SUMMON_EVENT",
    "avatarId": 10000053,
    "talkId": 6905310,
    "furnitureSuitId": 56,
    "GKOAJADBMKI": 300
  },
  {
    "eventId": 4701,
    "eventType": "HOME_AVATAR_REWARD_EVENT",
    "avatarId": 10000052,
    "talkId": 6905211,
    "rewardId": 4110401,
    "furnitureSuitId": 51,
    "order": 79
  },
  {
    "eventId": 4702,
    "eventType": "HOME_AVATAR_REWARD_EVENT",
    "avatarId": 10000052,
    "talkId": 6905212,
    "rewardId": 4110402,
    "furnitureSuitId": 57,
    "order": 80
  },
  {
    "eventId": 4711,
    "eventType": "HOME_AVATAR_SUMMON_EVENT",
    "avatarId": 10000052,
    "talkId": 6905211,
    "furnitureSuitId": 51,
    "GKOAJADBMKI": 300
  },
  {
    "eventId": 4712,
    "eventType": "HOME_AVATAR_SUMMON_EVENT",
    "avatarId": 10000052,
    "talkId": 6905212,
    "furnitureSuitId": 57,
    "GKOAJADBMKI": 300
  },
  {
    "eventId": 4801,
    "eventType": "HOME_AVATAR_REWARD_EVENT",
    "avatarId": 10000056,
    "talkId": 6905610,
    "rewardId": 4110411,
    "furnitureSuitId": 48,
    "order": 81
  },
  {
    "eventId": 4802,
    "eventType": "HOME_AVATAR_REWARD_EVENT",
    "avatarId": 10000056,
    "talkId": 6905611,
    "rewardId": 4110412,
    "furnitureSuitId": 52,
    "order": 82
  },
  {
    "eventId": 4811,
    "eventType": "HOME_AVATAR_SUMMON_EVENT",
    "avatarId": 10000056,
    "talkId": 6905610,
    "furnitureSuitId": 48,
    "GKOAJADBMKI": 300
  },
  {
    "eventId": 4812,
    "eventType": "HOME_AVATAR_SUMMON_EVENT",
    "avatarId": 10000056,
    "talkId": 6905611,
    "furnitureSuitId": 52,
    "GKOAJADBMKI": 300
  },
  {
    "eventId": 4901,
    "eventType": "HOME_AVATAR_REWARD_EVENT",
    "avatarId": 10000054,
    "talkId": 6905410,
    "rewardId": 4110421,
    "furnitureSuitId": 56,
    "order": 83
  },
  {
    "eventId": 4902,
    "eventType": "HOME_AVATAR_REWARD_EVENT",
    "avatarId": 10000054,
    "talkId": 6905411,
    "rewardId": 4110422,
    "furnitureSuitId": 58,
    "order": 84
  },
  {
    "eventId": 4911,
    "eventType": "HOME_AVATAR_SUMMON_EVENT",
    "avatarId": 10000054,
    "talkId": 6905410,
    "furnitureSuitId": 56,
    "GKOAJADBMKI": 300
  },
  {
    "eventId": 4912,
    "eventType": "HOME_AVATAR_SUMMON_EVENT",
    "avatarId": 10000054,
    "talkId": 6905411,
    "furnitureSuitId": 58,
    "GKOAJADBMKI": 300
  },
  {
    "eventId": 5001,
    "eventType": "HOME_AVATAR_REWARD_EVENT",
    "avatarId": 10000050,
    "talkId": 6905008,
    "rewardId": 4110371,
    "furnitureSuitId": 55,
    "order": 85
  },
  {
    "eventId": 5002,
    "eventType": "HOME_AVATAR_REWARD_EVENT",
    "avatarId": 10000050,
    "talkId": 6905007,
    "rewardId": 4110372,
    "furnitureSuitId": 59,
    "order": 86
  },
  {
    "eventId": 5011,
    "eventType": "HOME_AVATAR_SUMMON_EVENT",
    "avatarId": 10000050,
    "talkId": 6905008,
    "furnitureSuitId": 55,
    "GKOAJADBMKI": 300
  },
  {
    "eventId": 5012,
    "eventType": "HOME_AVATAR_SUMMON_EVENT",
    "avatarId": 10000050,
    "talkId": 6905007,
    "furnitureSuitId": 59,
    "GKOAJADBMKI": 300
  },
  {
    "eventId": 5101,
    "eventType": "HOME_AVATAR_REWARD_EVENT",
    "avatarId": 10000055,
    "talkId": 6905507,
    "rewardId": 4110451,
    "furnitureSuitId": 50,
    "order": 87
  },
  {
    "eventId": 5102,
    "eventType": "HOME_AVATAR_REWARD_EVENT",
    "avatarId": 10000055,
    "talkId": 6905508,
    "rewardId": 4110452,
    "furnitureSuitId": 49,
    "order": 88
  },
  {
    "eventId": 5111,
    "eventType": "HOME_AVATAR_SUMMON_EVENT",
    "avatarId": 10000055,
    "talkId": 6905507,
    "furnitureSuitId": 50,
    "GKOAJADBMKI": 300
  },
  {
    "eventId": 5112,
    "eventType": "HOME_AVATAR_SUMMON_EVENT",
    "avatarId": 10000055,
    "talkId": 6905508,
    "furnitureSuitId": 49,
    "GKOAJADBMKI": 300
  },
  {
    "eventId": 5201,
    "eventType": "HOME_AVATAR_REWARD_EVENT",
    "avatarId": 10000057,
    "talkId": 6905707,
    "rewardId": 4110441,
    "furnitureSuitId": 53,
    "order": 89
  },
  {
    "eventId": 5202,
    "eventType": "HOME_AVATAR_REWARD_EVENT",
    "avatarId": 10000057,
    "talkId": 6905708,
    "rewardId": 4110442,
    "furnitureSuitId": 54,
    "order": 90
  },
  {
    "eventId": 5211,
    "eventType": "HOME_AVATAR_SUMMON_EVENT",
    "avatarId": 10000057,
    "talkId": 6905707,
    "furnitureSuitId": 53,
    "GKOAJADBMKI": 300
  },
  {
    "eventId": 5212,
    "eventType": "HOME_AVATAR_SUMMON_EVENT",
    "avatarId": 10000057,
    "talkId": 6905708,
    "furnitureSuitId": 54,
    "GKOAJADBMKI": 300
  },
  {
    "eventId": 5301,
    "eventType": "HOME_AVATAR_REWARD_EVENT",
    "avatarId": 10000063,
    "talkId": 6906307,
    "rewardId": 4110461,
    "furnitureSuitId": 44,
    "order": 91
  },
  {
    "eventId": 5302,
    "eventType": "HOME_AVATAR_REWARD_EVENT",
    "avatarId": 10000063,
    "talkId": 6906308,
    "rewardId": 4110462,
    "furnitureSuitId": 43,
    "order": 92
  },
  {
    "eventId": 5311,
    "eventType": "HOME_AVATAR_SUMMON_EVENT",
    "avatarId": 10000063,
    "talkId": 6906307,
    "furnitureSuitId": 44,
    "GKOAJADBMKI": 300
  },
  {
    "eventId": 5312,
    "eventType": "HOME_AVATAR_SUMMON_EVENT",
    "avatarId": 10000063,
    "talkId": 6906308,
    "furnitureSuitId": 43,
    "GKOAJADBMKI": 300
  },
  {
    "eventId": 5401,
    "eventType": "HOME_AVATAR_REWARD_EVENT",
    "avatarId": 10000064,
    "talkId": 6906407,
    "rewardId": 4110471,
    "furnitureSuitId": 35,
    "order": 93
  },
  {
    "eventId": 5402,
    "eventType": "HOME_AVATAR_REWARD_EVENT",
    "avatarId": 10000064,
    "talkId": 6906408,
    "rewardId": 4110472,
    "furnitureSuitId": 43,
    "order": 94
  },
  {
    "eventId": 5411,
    "eventType": "HOME_AVATAR_SUMMON_EVENT",
    "avatarId": 10000064,
    "talkId": 6906407,
    "furnitureSuitId": 35,
    "GKOAJADBMKI": 300
  },
  {
    "eventId": 5412,
    "eventType": "HOME_AVATAR_SUMMON_EVENT",
    "avatarId": 10000064,
    "talkId": 6906408,
    "furnitureSuitId": 43,
    "GKOAJADBMKI": 300
  },
  {
    "eventId": 5501,
    "eventType": "HOME_AVATAR_REWARD_EVENT",
    "avatarId": 10000058,
    "talkId": 6905807,
    "rewardId": 4110481,
    "furnitureSuitId": 51,
    "order": 95
  },
  {
    "eventId": 5502,
    "eventType": "HOME_AVATAR_REWARD_EVENT",
    "avatarId": 10000058,
    "talkId": 6905808,
    "rewardId": 4110482,
    "furnitureSuitId": 49,
    "order": 96
  },
  {
    "eventId": 5511,
    "eventType": "HOME_AVATAR_SUMMON_EVENT",
    "avatarId": 10000058,
    "talkId": 6905807,
    "furnitureSuitId": 51,
    "GKOAJADBMKI": 300
  },
  {
    "eventId": 5512,
    "eventType": "HOME_AVATAR_SUMMON_EVENT",
    "avatarId": 10000058,
    "talkId": 6905808,
    "furnitureSuitId": 49,
    "GKOAJADBMKI": 300
  },
  {
    "eventId": 5601,
    "eventType": "HOME_AVATAR_REWARD_EVENT",
    "avatarId": 10000066,
    "talkId": 6906607,
    "rewardId": 4110491,
    "furnitureSuitId": 54,
    "order": 97
  },
  {
    "eventId": 5602,
    "eventType": "HOME_AVATAR_REWARD_EVENT",
    "avatarId": 10000066,
    "talkId": 6906608,
    "rewardId": 4110492,
    "furnitureSuitId": 48,
    "order": 98
  },
  {
    "eventId": 5611,
    "eventType": "HOME_AVATAR_SUMMON_EVENT",
    "avatarId": 10000066,
    "talkId": 6906607,
    "furnitureSuitId": 54,
    "GKOAJADBMKI": 300
  },
  {
    "eventId": 5612,
    "eventType": "HOME_AVATAR_SUMMON_EVENT",
    "avatarId": 10000066,
    "talkId": 6906608,
    "furnitureSuitId": 48,
    "GKOAJADBMKI": 300
  },
  {
    "eventId": 5701,
    "eventType": "HOME_AVATAR_REWARD_EVENT",
    "avatarId": 10000060,
    "talkId": 6900807,
    "rewardId": 4110501,
    "furnitureSuitId": 44,
    "order": 99
  },
  {
    "eventId": 5702,
    "eventType": "HOME_AVATAR_REWARD_EVENT",
    "avatarId": 10000060,
    "talkId": 6900808,
    "rewardId": 4110502,
    "furnitureSuitId": 42,
    "order": 100
  },
  {
    "eventId": 5711,
    "eventType": "HOME_AVATAR_SUMMON_EVENT",
    "avatarId": 10000060,
    "talkId": 6900807,
    "furnitureSuitId": 44,
    "GKOAJADBMKI": 300
  },
  {
    "eventId": 5712,
    "eventType": "HOME_AVATAR_SUMMON_EVENT",
    "avatarId": 10000060,
    "talkId": 6900808,
    "furnitureSuitId": 42,
    "GKOAJADBMKI": 300
  },
  {
    "eventId": 5801,
    "eventType": "HOME_AVATAR_REWARD_EVENT",
    "avatarId": 10000065,
    "talkId": 6900907,
    "rewardId": 4110511,
    "furnitureSuitId": 58,
    "order": 101
  },
  {
    "eventId": 5802,
    "eventType": "HOME_AVATAR_REWARD_EVENT",
    "avatarId": 10000065,
    "talkId": 6900908,
    "rewardId": 4110512,
    "furnitureSuitId": 55,
    "order": 102
  },
  {
    "eventId": 5811,
    "eventType": "HOME_AVATAR_SUMMON_EVENT",
    "avatarId": 10000065,
    "talkId": 6900907,
    "furnitureSuitId": 58,
    "GKOAJADBMKI": 300
  },
  {
    "eventId": 5812,
    "eventType": "HOME_AVATAR_SUMMON_EVENT",
    "avatarId": 10000065,
    "talkId": 6900908,
    "furnitureSuitId": 55,
    "GKOAJADBMKI": 300
  },
  {
    "eventId": 5901,
    "eventType": "HOME_AVATAR_REWARD_EVENT",
    "avatarId": 10000059,
    "talkId": 6905907,
    "rewardId": 4110521,
    "furnitureSuitId": 49,
    "order": 103
  },
  {
    "eventId": 5902,
    "eventType": "HOME_AVATAR_REWARD_EVENT",
    "avatarId": 10000059,
    "talkId": 6905908,
    "rewardId": 4110522,
    "furnitureSuitId": 56,
    "order": 104
  },
  {
    "eventId": 5911,
    "eventType": "HOME_AVATAR_SUMMON_EVENT",
    "avatarId": 10000059,
    "talkId": 6905907,
    "furnitureSuitId": 49,
    "GKOAJADBMKI": 300
  },
  {
    "eventId": 5912,
    "eventType": "HOME_AVATAR_SUMMON_EVENT",
    "avatarId": 10000059,
    "talkId": 6905908,
    "furnitureSuitId": 56,
    "GKOAJADBMKI": 300
  },
  {
    "eventId": 6001,
    "eventType": "HOME_AVATAR_REWARD_EVENT",
    "avatarId": 10000069,
    "talkId": 6906910,
    "rewardId": 4110541,
    "furnitureSuitId": 60,
    "order": 105
  },
  {
    "eventId": 6002,
    "eventType": "HOME_AVATAR_REWARD_EVENT",
    "avatarId": 10000069,
    "talkId": 6906911,
    "rewardId": 4110542,
    "furnitureSuitId": 73,
    "order": 106
  },
  {
    "eventId": 6011,
    "eventType": "HOME_AVATAR_SUMMON_EVENT",
    "avatarId": 10000069,
    "talkId": 6906910,
    "furnitureSuitId": 60,
    "GKOAJADBMKI": 300
  },
  {
    "eventId": 6012,
    "eventType": "HOME_AVATAR_SUMMON_EVENT",
    "avatarId": 10000069,
    "talkId": 6906911,
    "furnitureSuitId": 73,
    "GKOAJADBMKI": 300
  },
  {
    "eventId": 6101,
    "eventType": "HOME_AVATAR_REWARD_EVENT",
    "avatarId": 10000067,
    "talkId": 6906710,
    "rewardId": 4110551,
    "furnitureSuitId": 60,
    "order": 107
  },
  {
    "eventId": 6102,
    "eventType": "HOME_AVATAR_REWARD_EVENT",
    "avatarId": 10000067,
    "talkId": 6906711,
    "rewardId": 4110552,
    "furnitureSuitId": 67,
    "order": 108
  },
  {
    "eventId": 6111,
    "eventType": "HOME_AVATAR_SUMMON_EVENT",
    "avatarId": 10000067,
    "talkId": 6906710,
    "furnitureSuitId": 60,
    "GKOAJADBMKI": 300
  },
  {
    "eventId": 6112,
    "eventType": "HOME_AVATAR_SUMMON_EVENT",
    "avatarId": 10000067,
    "talkId": 6906711,
    "furnitureSuitId": 67,
    "GKOAJADBMKI": 300
  },
  {
    "eventId": 6201,
    "eventType": "HOME_AVATAR_REWARD_EVENT",
    "avatarId": 10000068,
    "talkId": 6906810,
    "rewardId": 4110531,
    "furnitureSuitId": 61,
    "order": 109
  },
  {
    "eventId": 6202,
    "eventType": "HOME_AVATAR_REWARD_EVENT",
    "avatarId": 10000068,
    "talkId": 6906811,
    "rewardId": 4110532,
    "furnitureSuitId": 66,
    "order": 110
  },
  {
    "eventId": 6211,
    "eventType": "HOME_AVATAR_SUMMON_EVENT",
    "avatarId": 10000068,
    "talkId": 6906810,
    "furnitureSuitId": 61,
    "GKOAJADBMKI": 300
  },
  {
    "eventId": 6212,
    "eventType": "HOME_AVATAR_SUMMON_EVENT",
    "avatarId": 10000068,
    "talkId": 6906811,
    "furnitureSuitId": 66,
    "GKOAJADBMKI": 300
  },
  {
    "eventId": 6301,
    "eventType": "HOME_AVATAR_REWARD_EVENT",
    "avatarId": 10000070,
    "talkId": 6907010,
    "rewardId": 4110581,
    "furnitureSuitId": 61,
    "order": 111
  },
  {
    "eventId": 6302,
    "eventType": "HOME_AVATAR_REWARD_EVENT",
    "avatarId": 10000070,
    "talkId": 6907011,
    "rewardId": 4110582,
    "furnitureSuitId": 68,
    "order": 112
  },
  {
    "eventId": 6311,
    "eventType": "HOME_AVATAR_SUMMON_EVENT",
    "avatarId": 10000070,
    "talkId": 6907010,
    "furnitureSuitId": 61,
    "GKOAJADBMKI": 300
  },
  {
    "eventId": 6312,
    "eventType": "HOME_AVATAR_SUMMON_EVENT",
    "avatarId": 10000070,
    "talkId": 6907011,
    "furnitureSuitId": 68,
    "GKOAJADBMKI": 300
  },
  {
    "eventId": 6401,
    "eventType": "HOME_AVATAR_REWARD_EVENT",
    "avatarId": 10000071,
    "talkId": 6907110,
    "rewardId": 4110561,
    "furnitureSuitId": 67,
    "order": 113
  },
  {
    "eventId": 6402,
    "eventType": "HOME_AVATAR_REWARD_EVENT",
    "avatarId": 10000071,
    "talkId": 6907111,
    "rewardId": 4110562,
    "furnitureSuitId": 63,
    "order": 114
  },
  {
    "eventId": 6411,
    "eventType": "HOME_AVATAR_SUMMON_EVENT",
    "avatarId": 10000071,
    "talkId": 6907110,
    "furnitureSuitId": 67,
    "GKOAJADBMKI": 300
  },
  {
    "eventId": 6412,
    "eventType": "HOME_AVATAR_SUMMON_EVENT",
    "avatarId": 10000071,
    "talkId": 6907111,
    "furnitureSuitId": 63,
    "GKOAJADBMKI": 300
  },
  {
    "eventId": 6501,
    "eventType": "HOME_AVATAR_REWARD_EVENT",
    "avatarId": 10000072,
    "talkId": 6907210,
    "rewardId": 4110571,
    "furnitureSuitId": 65,
    "order": 115
  },
  {
    "eventId": 6502,
    "eventType": "HOME_AVATAR_REWARD_EVENT",
    "avatarId": 10000072,
    "talkId": 6907211,
    "rewardId": 4110572,
    "furnitureSuitId": 70,
    "order": 116
  },
  {
    "eventId": 6511,
    "eventType": "HOME_AVATAR_SUMMON_EVENT",
    "avatarId": 10000072,
    "talkId": 6907210,
    "furnitureSuitId": 65,
    "GKOAJADBMKI": 300
  },
  {
    "eventId": 6512,
    "eventType": "HOME_AVATAR_SUMMON_EVENT",
    "avatarId": 10000072,
    "talkId": 6907211,
    "furnitureSuitId": 70,
    "GKOAJADBMKI": 300
  },
  {
    "eventId": 6601,
    "eventType": "HOME_AVATAR_REWARD_EVENT",
    "avatarId": 10000073,
    "talkId": 6907307,
    "rewardId": 4110601,
    "furnitureSuitId": 64,
    "order": 117
  },
  {
    "eventId": 6602,
    "eventType": "HOME_AVATAR_REWARD_EVENT",
    "avatarId": 10000073,
    "talkId": 6907308,
    "rewardId": 4110602,
    "furnitureSuitId": 72,
    "order": 118
  },
  {
    "eventId": 6611,
    "eventType": "HOME_AVATAR_SUMMON_EVENT",
    "avatarId": 10000073,
    "talkId": 6907307,
    "furnitureSuitId": 64,
    "GKOAJADBMKI": 300
  },
  {
    "eventId": 6612,
    "eventType": "HOME_AVATAR_SUMMON_EVENT",
    "avatarId": 10000073,
    "talkId": 6907308,
    "furnitureSuitId": 72,
    "GKOAJADBMKI": 300
  },
  {
    "eventId": 6701,
    "eventType": "HOME_AVATAR_REWARD_EVENT",
    "avatarId": 10000074,
    "talkId": 6907407,
    "rewardId": 4110591,
    "furnitureSuitId": 64,
    "order": 119
  },
  {
    "eventId": 6702,
    "eventType": "HOME_AVATAR_REWARD_EVENT",
    "avatarId": 10000074,
    "talkId": 6907408,
    "rewardId": 4110592,
    "furnitureSuitId": 70,
    "order": 120
  },
  {
    "eventId": 6711,
    "eventType": "HOME_AVATAR_SUMMON_EVENT",
    "avatarId": 10000074,
    "talkId": 6907407,
    "furnitureSuitId": 64,
    "GKOAJADBMKI": 300
  },
  {
    "eventId": 6712,
    "eventType": "HOME_AVATAR_SUMMON_EVENT",
    "avatarId": 10000074,
    "talkId": 6907408,
    "furnitureSuitId": 70,
    "GKOAJADBMKI": 300
  },
  {
    "eventId": 6801,
    "eventType": "HOME_AVATAR_REWARD_EVENT",
    "avatarId": 10000075,
    "talkId": 6907507,
    "rewardId": 4110621,
    "furnitureSuitId": 69,
    "order": 121
  },
  {
    "eventId": 6802,
    "eventType": "HOME_AVATAR_REWARD_EVENT",
    "avatarId": 10000075,
    "talkId": 6907508,
    "rewardId": 4110622,
    "furnitureSuitId": 73,
    "order": 122
  },
  {
    "eventId": 6811,
    "eventType": "HOME_AVATAR_SUMMON_EVENT",
    "avatarId": 10000075,
    "talkId": 6907507,
    "furnitureSuitId": 69,
    "GKOAJADBMKI": 300
  },
  {
    "eventId": 6812,
    "eventType": "HOME_AVATAR_SUMMON_EVENT",
    "avatarId": 10000075,
    "talkId": 6907508,
    "furnitureSuitId": 73,
    "GKOAJADBMKI": 300
  },
  {
    "eventId": 6901,
    "eventType": "HOME_AVATAR_REWARD_EVENT",
    "avatarId": 10000076,
    "talkId": 6907607,
    "rewardId": 4110611,
    "furnitureSuitId": 63,
    "order": 123
  },
  {
    "eventId": 6902,
    "eventType": "HOME_AVATAR_REWARD_EVENT",
    "avatarId": 10000076,
    "talkId": 6907608,
    "rewardId": 4110612,
    "furnitureSuitId": 66,
    "order": 124
  },
  {
    "eventId": 6911,
    "eventType": "HOME_AVATAR_SUMMON_EVENT",
    "avatarId": 10000076,
    "talkId": 6907607,
    "furnitureSuitId": 63,
    "GKOAJADBMKI": 300
  },
  {
    "eventId": 6912,
    "eventType": "HOME_AVATAR_SUMMON_EVENT",
    "avatarId": 10000076,
    "talkId": 6907608,
    "furnitureSuitId": 66,
    "GKOAJADBMKI": 300
  },
  {
    "eventId": 7001,
    "eventType": "HOME_AVATAR_REWARD_EVENT",
    "avatarId": 10000077,
    "talkId": 6907707,
    "rewardId": 4110631,
    "furnitureSuitId": 38,
    "order": 125
  },
  {
    "eventId": 7002,
    "eventType": "HOME_AVATAR_REWARD_EVENT",
    "avatarId": 10000077,
    "talkId": 6907708,
    "rewardId": 4110632,
    "furnitureSuitId": 44,
    "order": 126
  },
  {
    "eventId": 7011,
    "eventType": "HOME_AVATAR_SUMMON_EVENT",
    "avatarId": 10000077,
    "talkId": 6907707,
    "furnitureSuitId": 38,
    "GKOAJADBMKI": 300
  },
  {
    "eventId": 7012,
    "eventType": "HOME_AVATAR_SUMMON_EVENT",
    "avatarId": 10000077,
    "talkId": 6907708,
    "furnitureSuitId": 44,
    "GKOAJADBMKI": 300
  },
  {
    "eventId": 7101,
    "eventType": "HOME_AVATAR_REWARD_EVENT",
    "avatarId": 10000078,
    "talkId": 6907807,
    "rewardId": 4110641,
    "furnitureSuitId": 62,
    "order": 127
  },
  {
    "eventId": 7102,
    "eventType": "HOME_AVATAR_REWARD_EVENT",
    "avatarId": 10000078,
    "talkId": 6907808,
    "rewardId": 4110642,
    "furnitureSuitId": 63,
    "order": 128
  },
  {
    "eventId": 7111,
    "eventType": "HOME_AVATAR_SUMMON_EVENT",
    "avatarId": 10000078,
    "talkId": 6907807,
    "furnitureSuitId": 62,
    "GKOAJADBMKI": 300
  },
  {
    "eventId": 7112,
    "eventType": "HOME_AVATAR_SUMMON_EVENT",
    "avatarId": 10000078,
    "talkId": 6907808,
    "furnitureSuitId": 63,
    "GKOAJADBMKI": 300
  },
  {
    "eventId": 7201,
    "eventType": "HOME_AVATAR_REWARD_EVENT",
    "avatarId": 10000079,
    "talkId": 6907907,
    "rewardId": 4110651,
    "furnitureSuitId": 71,
    "order": 129
  },
  {
    "eventId": 7202,
    "eventType": "HOME_AVATAR_REWARD_EVENT",
    "avatarId": 10000079,
    "talkId": 6907908,
    "rewardId": 4110652,
    "furnitureSuitId": 62,
    "order": 130
  },
  {
    "eventId": 7211,
    "eventType": "HOME_AVATAR_SUMMON_EVENT",
    "avatarId": 10000079,
    "talkId": 6907907,
    "furnitureSuitId": 71,
    "GKOAJADBMKI": 300
  },
  {
    "eventId": 7212,
    "eventType": "HOME_AVATAR_SUMMON_EVENT",
    "avatarId": 10000079,
    "talkId": 6907908,
    "furnitureSuitId": 62,
    "GKOAJADBMKI": 300
  },
  {
    "eventId": 7301,
    "eventType": "HOME_AVATAR_REWARD_EVENT",
    "avatarId": 10000080,
    "talkId": 6908007,
    "rewardId": 4110661,
    "furnitureSuitId": 46,
    "order": 131
  },
  {
    "eventId": 7302,
    "eventType": "HOME_AVATAR_REWARD_EVENT",
    "avatarId": 10000080,
    "talkId": 6908008,
    "rewardId": 4110662,
    "furnitureSuitId": 38,
    "order": 132
  },
  {
    "eventId": 7311,
    "eventType": "HOME_AVATAR_SUMMON_EVENT",
    "avatarId": 10000080,
    "talkId": 6908007,
    "furnitureSuitId": 46,
    "GKOAJADBMKI": 300
  },
  {
    "eventId": 7312,
    "eventType": "HOME_AVATAR_SUMMON_EVENT",
    "avatarId": 10000080,
    "talkId": 6908008,
    "furnitureSuitId": 38,
    "GKOAJADBMKI": 300
  },
  {
    "eventId": 7401,
    "eventType": "HOME_AVATAR_REWARD_EVENT",
    "avatarId": 10000081,
    "talkId": 6908107,
    "rewardId": 4110671,
    "furnitureSuitId": 72,
    "order": 133
  },
  {
    "eventId": 7402,
    "eventType": "HOME_AVATAR_REWARD_EVENT",
    "avatarId": 10000081,
    "talkId": 6908108,
    "rewardId": 4110672,
    "furnitureSuitId": 68,
    "order": 134
  },
  {
    "eventId": 7411,
    "eventType": "HOME_AVATAR_SUMMON_EVENT",
    "avatarId": 10000081,
    "talkId": 6908107,
    "furnitureSuitId": 72,
    "GKOAJADBMKI": 300
  },
  {
    "eventId": 7412,
    "eventType": "HOME_AVATAR_SUMMON_EVENT",
    "avatarId": 10000081,
    "talkId": 6908108,
    "furnitureSuitId": 68,
    "GKOAJADBMKI": 300
  },
  {
    "eventId": 7501,
    "eventType": "HOME_AVATAR_REWARD_EVENT",
    "avatarId": 10000082,
    "talkId": 6908207,
    "rewardId": 4110681,
    "furnitureSuitId": 35,
    "order": 135
  },
  {
    "eventId": 7502,
    "eventType": "HOME_AVATAR_REWARD_EVENT",
    "avatarId": 10000082,
    "talkId": 6908208,
    "rewardId": 4110682,
    "furnitureSuitId": 38,
    "order": 136
  },
  {
    "eventId": 7511,
    "eventType": "HOME_AVATAR_SUMMON_EVENT",
    "avatarId": 10000082,
    "talkId": 6908207,
    "furnitureSuitId": 35,
    "GKOAJADBMKI": 300
  },
  {
    "eventId": 7512,
    "eventType": "HOME_AVATAR_SUMMON_EVENT",
    "avatarId": 10000082,
    "talkId": 6908208,
    "furnitureSuitId": 38,
    "GKOAJADBMKI": 300
  }
]
