[
  {
    "goodsId": 214101,
    "itemId": 369101,
    "poolId": 1,
    "cond": [
      {
        "DALOMKNICIG": []
      }
    ],
    "buyLimit": 1,
    "costItems": [
      {
        "id": 204,
        "count": 100
      },
      {},
      {}
    ],
    "weight": 1
  },
  {
    "goodsId": 214102,
    "itemId": 369102,
    "poolId": 1,
    "cond": [
      {
        "DALOMKNICIG": []
      }
    ],
    "buyLimit": 1,
    "costItems": [
      {
        "id": 204,
        "count": 100
      },
      {},
      {}
    ],
    "weight": 1
  },
  {
    "goodsId": 214103,
    "itemId": 369103,
    "poolId": 1,
    "cond": [
      {
        "DALOMKNICIG": []
      }
    ],
    "buyLimit": 1,
    "costItems": [
      {
        "id": 204,
        "count": 100
      },
      {},
      {}
    ],
    "weight": 1
  },
  {
    "goodsId": 214104,
    "itemId": 369104,
    "poolId": 1,
    "cond": [
      {
        "DALOMKNICIG": []
      }
    ],
    "buyLimit": 1,
    "costItems": [
      {
        "id": 204,
        "count": 100
      },
      {},
      {}
    ],
    "weight": 1
  },
  {
    "goodsId": 214105,
    "itemId": 369105,
    "poolId": 1,
    "cond": [
      {
        "DALOMKNICIG": []
      }
    ],
    "buyLimit": 1,
    "costItems": [
      {
        "id": 204,
        "count": 100
      },
      {},
      {}
    ],
    "weight": 1
  },
  {
    "goodsId": 214106,
    "itemId": 369106,
    "poolId": 1,
    "cond": [
      {
        "DALOMKNICIG": []
      }
    ],
    "buyLimit": 1,
    "costItems": [
      {
        "id": 204,
        "count": 100
      },
      {},
      {}
    ],
    "weight": 1
  },
  {
    "goodsId": 214107,
    "itemId": 369107,
    "poolId": 1,
    "cond": [
      {
        "DALOMKNICIG": []
      }
    ],
    "buyLimit": 1,
    "costItems": [
      {
        "id": 204,
        "count": 100
      },
      {},
      {}
    ],
    "weight": 1
  },
  {
    "goodsId": 214108,
    "itemId": 369108,
    "poolId": 1,
    "cond": [
      {
        "DALOMKNICIG": []
      }
    ],
    "buyLimit": 1,
    "costItems": [
      {
        "id": 204,
        "count": 100
      },
      {},
      {}
    ],
    "weight": 1
  },
  {
    "goodsId": 214109,
    "itemId": 369109,
    "poolId": 1,
    "cond": [
      {
        "DALOMKNICIG": []
      }
    ],
    "buyLimit": 1,
    "costItems": [
      {
        "id": 204,
        "count": 100
      },
      {},
      {}
    ],
    "weight": 1
  },
  {
    "goodsId": 214110,
    "itemId": 369110,
    "poolId": 1,
    "cond": [
      {
        "DALOMKNICIG": []
      }
    ],
    "buyLimit": 1,
    "costItems": [
      {
        "id": 204,
        "count": 100
      },
      {},
      {}
    ],
    "weight": 1
  },
  {
    "goodsId": 214111,
    "itemId": 372101,
    "poolId": 2,
    "cond": [
      {
        "DALOMKNICIG": []
      }
    ],
    "buyLimit": 6,
    "costItems": [
      {
        "id": 204,
        "count": 40
      },
      {},
      {}
    ],
    "weight": 1
  },
  {
    "goodsId": 214112,
    "itemId": 372102,
    "poolId": 2,
    "cond": [
      {
        "DALOMKNICIG": []
      }
    ],
    "buyLimit": 6,
    "costItems": [
      {
        "id": 204,
        "count": 40
      },
      {},
      {}
    ],
    "weight": 1
  },
  {
    "goodsId": 214113,
    "itemId": 372103,
    "poolId": 2,
    "cond": [
      {
        "DALOMKNICIG": []
      }
    ],
    "buyLimit": 6,
    "costItems": [
      {
        "id": 204,
        "count": 40
      },
      {},
      {}
    ],
    "weight": 1
  },
  {
    "goodsId": 214114,
    "itemId": 372104,
    "poolId": 2,
    "cond": [
      {
        "DALOMKNICIG": []
      }
    ],
    "buyLimit": 6,
    "costItems": [
      {
        "id": 204,
        "count": 40
      },
      {},
      {}
    ],
    "weight": 1
  },
  {
    "goodsId": 214115,
    "itemId": 372105,
    "poolId": 2,
    "cond": [
      {
        "DALOMKNICIG": []
      }
    ],
    "buyLimit": 6,
    "costItems": [
      {
        "id": 204,
        "count": 40
      },
      {},
      {}
    ],
    "weight": 1
  },
  {
    "goodsId": 214116,
    "itemId": 372106,
    "poolId": 2,
    "cond": [
      {
        "DALOMKNICIG": []
      }
    ],
    "buyLimit": 6,
    "costItems": [
      {
        "id": 204,
        "count": 40
      },
      {},
      {}
    ],
    "weight": 1
  },
  {
    "goodsId": 214165,
    "itemId": 369155,
    "poolId": 1,
    "cond": [
      {
        "DALOMKNICIG": []
      }
    ],
    "buyLimit": 1,
    "costItems": [
      {
        "id": 204,
        "count": 100
      },
      {},
      {}
    ],
    "weight": 1
  },
  {
    "goodsId": 214117,
    "itemId": 141002,
    "poolId": 3,
    "cond": [
      {
        "DALOMKNICIG": []
      }
    ],
    "buyLimit": 1,
    "costItems": [
      {
        "id": 204,
        "count": 100
      },
      {},
      {}
    ],
    "weight": 1
  },
  {
    "goodsId": 214118,
    "itemId": 141005,
    "poolId": 3,
    "cond": [
      {
        "DALOMKNICIG": []
      }
    ],
    "buyLimit": 1,
    "costItems": [
      {
        "id": 204,
        "count": 100
      },
      {},
      {}
    ],
    "weight": 1
  },
  {
    "goodsId": 214119,
    "itemId": 141006,
    "poolId": 3,
    "cond": [
      {
        "DALOMKNICIG": []
      }
    ],
    "buyLimit": 1,
    "costItems": [
      {
        "id": 204,
        "count": 100
      },
      {},
      {}
    ],
    "weight": 1
  },
  {
    "goodsId": 214120,
    "itemId": 141007,
    "poolId": 3,
    "cond": [
      {
        "DALOMKNICIG": []
      }
    ],
    "buyLimit": 1,
    "costItems": [
      {
        "id": 204,
        "count": 100
      },
      {},
      {}
    ],
    "weight": 1
  },
  {
    "goodsId": 214121,
    "itemId": 141008,
    "poolId": 3,
    "cond": [
      {
        "DALOMKNICIG": []
      }
    ],
    "buyLimit": 1,
    "costItems": [
      {
        "id": 204,
        "count": 100
      },
      {},
      {}
    ],
    "weight": 1
  },
  {
    "goodsId": 214122,
    "itemId": 141009,
    "poolId": 3,
    "cond": [
      {
        "DALOMKNICIG": []
      }
    ],
    "buyLimit": 1,
    "costItems": [
      {
        "id": 204,
        "count": 100
      },
      {},
      {}
    ],
    "weight": 1
  },
  {
    "goodsId": 214123,
    "itemId": 141010,
    "poolId": 3,
    "cond": [
      {
        "DALOMKNICIG": []
      }
    ],
    "buyLimit": 1,
    "costItems": [
      {
        "id": 204,
        "count": 100
      },
      {},
      {}
    ],
    "weight": 1
  },
  {
    "goodsId": 214124,
    "itemId": 141012,
    "poolId": 3,
    "cond": [
      {
        "DALOMKNICIG": []
      }
    ],
    "buyLimit": 1,
    "costItems": [
      {
        "id": 204,
        "count": 100
      },
      {},
      {}
    ],
    "weight": 1
  },
  {
    "goodsId": 214125,
    "itemId": 141013,
    "poolId": 3,
    "cond": [
      {
        "DALOMKNICIG": []
      }
    ],
    "buyLimit": 1,
    "costItems": [
      {
        "id": 204,
        "count": 100
      },
      {},
      {}
    ],
    "weight": 1
  },
  {
    "goodsId": 214126,
    "itemId": 141017,
    "poolId": 3,
    "cond": [
      {
        "DALOMKNICIG": []
      }
    ],
    "buyLimit": 1,
    "costItems": [
      {
        "id": 204,
        "count": 100
      },
      {},
      {}
    ],
    "weight": 1
  },
  {
    "goodsId": 214127,
    "itemId": 141025,
    "poolId": 3,
    "cond": [
      {
        "DALOMKNICIG": []
      }
    ],
    "buyLimit": 1,
    "costItems": [
      {
        "id": 204,
        "count": 100
      },
      {},
      {}
    ],
    "weight": 1
  },
  {
    "goodsId": 214128,
    "itemId": 141029,
    "poolId": 3,
    "cond": [
      {
        "DALOMKNICIG": []
      }
    ],
    "buyLimit": 1,
    "costItems": [
      {
        "id": 204,
        "count": 100
      },
      {},
      {}
    ],
    "weight": 1
  },
  {
    "goodsId": 214129,
    "itemId": 141030,
    "poolId": 3,
    "cond": [
      {
        "DALOMKNICIG": []
      }
    ],
    "buyLimit": 1,
    "costItems": [
      {
        "id": 204,
        "count": 100
      },
      {},
      {}
    ],
    "weight": 1
  },
  {
    "goodsId": 214130,
    "itemId": 141031,
    "poolId": 3,
    "cond": [
      {
        "DALOMKNICIG": []
      }
    ],
    "buyLimit": 1,
    "costItems": [
      {
        "id": 204,
        "count": 100
      },
      {},
      {}
    ],
    "weight": 1
  },
  {
    "goodsId": 214131,
    "itemId": 141033,
    "poolId": 3,
    "cond": [
      {
        "DALOMKNICIG": []
      }
    ],
    "buyLimit": 1,
    "costItems": [
      {
        "id": 204,
        "count": 100
      },
      {},
      {}
    ],
    "weight": 1
  },
  {
    "goodsId": 214132,
    "itemId": 141035,
    "poolId": 3,
    "cond": [
      {
        "DALOMKNICIG": []
      }
    ],
    "buyLimit": 1,
    "costItems": [
      {
        "id": 204,
        "count": 100
      },
      {},
      {}
    ],
    "weight": 1
  },
  {
    "goodsId": 214133,
    "itemId": 141036,
    "poolId": 3,
    "cond": [
      {
        "DALOMKNICIG": []
      }
    ],
    "buyLimit": 1,
    "costItems": [
      {
        "id": 204,
        "count": 100
      },
      {},
      {}
    ],
    "weight": 1
  },
  {
    "goodsId": 214134,
    "itemId": 141037,
    "poolId": 3,
    "cond": [
      {
        "DALOMKNICIG": []
      }
    ],
    "buyLimit": 1,
    "costItems": [
      {
        "id": 204,
        "count": 100
      },
      {},
      {}
    ],
    "weight": 1
  },
  {
    "goodsId": 214135,
    "itemId": 141040,
    "poolId": 3,
    "cond": [
      {
        "DALOMKNICIG": []
      }
    ],
    "buyLimit": 1,
    "costItems": [
      {
        "id": 204,
        "count": 100
      },
      {},
      {}
    ],
    "weight": 1
  },
  {
    "goodsId": 214136,
    "itemId": 141041,
    "poolId": 3,
    "cond": [
      {
        "DALOMKNICIG": []
      }
    ],
    "buyLimit": 1,
    "costItems": [
      {
        "id": 204,
        "count": 100
      },
      {},
      {}
    ],
    "weight": 1
  },
  {
    "goodsId": 214137,
    "itemId": 141051,
    "poolId": 3,
    "cond": [
      {
        "AFKFGOMCKNB": "HOMEWORLD_LIMIT_SHOP_COND_TYPE_QUEST_FINISH",
        "DALOMKNICIG": [201310]
      }
    ],
    "buyLimit": 1,
    "costItems": [
      {
        "id": 204,
        "count": 100
      },
      {},
      {}
    ],
    "weight": 1
  },
  {
    "goodsId": 214138,
    "itemId": 141055,
    "poolId": 3,
    "cond": [
      {
        "AFKFGOMCKNB": "HOMEWORLD_LIMIT_SHOP_COND_TYPE_QUEST_FINISH",
        "DALOMKNICIG": [201310]
      }
    ],
    "buyLimit": 1,
    "costItems": [
      {
        "id": 204,
        "count": 100
      },
      {},
      {}
    ],
    "weight": 1
  },
  {
    "goodsId": 214139,
    "itemId": 141057,
    "poolId": 3,
    "cond": [
      {
        "AFKFGOMCKNB": "HOMEWORLD_LIMIT_SHOP_COND_TYPE_QUEST_FINISH",
        "DALOMKNICIG": [201310]
      }
    ],
    "buyLimit": 1,
    "costItems": [
      {
        "id": 204,
        "count": 100
      },
      {},
      {}
    ],
    "weight": 1
  },
  {
    "goodsId": 214140,
    "itemId": 141058,
    "poolId": 3,
    "cond": [
      {
        "AFKFGOMCKNB": "HOMEWORLD_LIMIT_SHOP_COND_TYPE_QUEST_FINISH",
        "DALOMKNICIG": [201310]
      }
    ],
    "buyLimit": 1,
    "costItems": [
      {
        "id": 204,
        "count": 100
      },
      {},
      {}
    ],
    "weight": 1
  },
  {
    "goodsId": 214141,
    "itemId": 141059,
    "poolId": 3,
    "cond": [
      {
        "AFKFGOMCKNB": "HOMEWORLD_LIMIT_SHOP_COND_TYPE_QUEST_FINISH",
        "DALOMKNICIG": [201310]
      }
    ],
    "buyLimit": 1,
    "costItems": [
      {
        "id": 204,
        "count": 100
      },
      {},
      {}
    ],
    "weight": 1
  },
  {
    "goodsId": 214142,
    "itemId": 141060,
    "poolId": 3,
    "cond": [
      {
        "AFKFGOMCKNB": "HOMEWORLD_LIMIT_SHOP_COND_TYPE_QUEST_FINISH",
        "DALOMKNICIG": [201310]
      }
    ],
    "buyLimit": 1,
    "costItems": [
      {
        "id": 204,
        "count": 100
      },
      {},
      {}
    ],
    "weight": 1
  },
  {
    "goodsId": 214143,
    "itemId": 141061,
    "poolId": 3,
    "cond": [
      {
        "AFKFGOMCKNB": "HOMEWORLD_LIMIT_SHOP_COND_TYPE_QUEST_FINISH",
        "DALOMKNICIG": [201310]
      }
    ],
    "buyLimit": 1,
    "costItems": [
      {
        "id": 204,
        "count": 100
      },
      {},
      {}
    ],
    "weight": 1
  },
  {
    "goodsId": 214144,
    "itemId": 141062,
    "poolId": 3,
    "cond": [
      {
        "AFKFGOMCKNB": "HOMEWORLD_LIMIT_SHOP_COND_TYPE_QUEST_FINISH",
        "DALOMKNICIG": [201310]
      }
    ],
    "buyLimit": 1,
    "costItems": [
      {
        "id": 204,
        "count": 100
      },
      {},
      {}
    ],
    "weight": 1
  },
  {
    "goodsId": 214145,
    "itemId": 141063,
    "poolId": 3,
    "cond": [
      {
        "AFKFGOMCKNB": "HOMEWORLD_LIMIT_SHOP_COND_TYPE_QUEST_FINISH",
        "DALOMKNICIG": [201310]
      }
    ],
    "buyLimit": 1,
    "costItems": [
      {
        "id": 204,
        "count": 100
      },
      {},
      {}
    ],
    "weight": 1
  },
  {
    "goodsId": 214146,
    "itemId": 141064,
    "poolId": 3,
    "cond": [
      {
        "AFKFGOMCKNB": "HOMEWORLD_LIMIT_SHOP_COND_TYPE_QUEST_FINISH",
        "DALOMKNICIG": [201310]
      }
    ],
    "buyLimit": 1,
    "costItems": [
      {
        "id": 204,
        "count": 100
      },
      {},
      {}
    ],
    "weight": 1
  },
  {
    "goodsId": 214147,
    "itemId": 141065,
    "poolId": 3,
    "cond": [
      {
        "AFKFGOMCKNB": "HOMEWORLD_LIMIT_SHOP_COND_TYPE_QUEST_FINISH",
        "DALOMKNICIG": [7217320]
      }
    ],
    "buyLimit": 1,
    "costItems": [
      {
        "id": 204,
        "count": 100
      },
      {},
      {}
    ],
    "weight": 1
  },
  {
    "goodsId": 214148,
    "itemId": 141066,
    "poolId": 3,
    "cond": [
      {
        "AFKFGOMCKNB": "HOMEWORLD_LIMIT_SHOP_COND_TYPE_QUEST_FINISH",
        "DALOMKNICIG": [7217320]
      }
    ],
    "buyLimit": 1,
    "costItems": [
      {
        "id": 204,
        "count": 100
      },
      {},
      {}
    ],
    "weight": 1
  },
  {
    "goodsId": 214149,
    "itemId": 141067,
    "poolId": 3,
    "cond": [
      {
        "AFKFGOMCKNB": "HOMEWORLD_LIMIT_SHOP_COND_TYPE_QUEST_FINISH",
        "DALOMKNICIG": [7217320]
      }
    ],
    "buyLimit": 1,
    "costItems": [
      {
        "id": 204,
        "count": 100
      },
      {},
      {}
    ],
    "weight": 1
  },
  {
    "goodsId": 214150,
    "itemId": 141068,
    "poolId": 3,
    "cond": [
      {
        "AFKFGOMCKNB": "HOMEWORLD_LIMIT_SHOP_COND_TYPE_QUEST_FINISH",
        "DALOMKNICIG": [201310]
      }
    ],
    "buyLimit": 1,
    "costItems": [
      {
        "id": 204,
        "count": 100
      },
      {},
      {}
    ],
    "weight": 1
  },
  {
    "goodsId": 214151,
    "itemId": 141069,
    "poolId": 3,
    "cond": [
      {
        "AFKFGOMCKNB": "HOMEWORLD_LIMIT_SHOP_COND_TYPE_QUEST_FINISH",
        "DALOMKNICIG": [201310]
      }
    ],
    "buyLimit": 1,
    "costItems": [
      {
        "id": 204,
        "count": 100
      },
      {},
      {}
    ],
    "weight": 1
  },
  {
    "goodsId": 214152,
    "itemId": 141070,
    "poolId": 3,
    "cond": [
      {
        "AFKFGOMCKNB": "HOMEWORLD_LIMIT_SHOP_COND_TYPE_QUEST_FINISH",
        "DALOMKNICIG": [201310]
      }
    ],
    "buyLimit": 1,
    "costItems": [
      {
        "id": 204,
        "count": 100
      },
      {},
      {}
    ],
    "weight": 1
  },
  {
    "goodsId": 214153,
    "itemId": 141071,
    "poolId": 3,
    "cond": [
      {
        "AFKFGOMCKNB": "HOMEWORLD_LIMIT_SHOP_COND_TYPE_QUEST_FINISH",
        "DALOMKNICIG": [201310]
      }
    ],
    "buyLimit": 1,
    "costItems": [
      {
        "id": 204,
        "count": 100
      },
      {},
      {}
    ],
    "weight": 1
  },
  {
    "goodsId": 214154,
    "itemId": 141072,
    "poolId": 3,
    "cond": [
      {
        "AFKFGOMCKNB": "HOMEWORLD_LIMIT_SHOP_COND_TYPE_QUEST_FINISH",
        "DALOMKNICIG": [201310]
      }
    ],
    "buyLimit": 1,
    "costItems": [
      {
        "id": 204,
        "count": 100
      },
      {},
      {}
    ],
    "weight": 1
  },
  {
    "goodsId": 214155,
    "itemId": 141018,
    "poolId": 3,
    "cond": [
      {
        "DALOMKNICIG": []
      }
    ],
    "buyLimit": 1,
    "costItems": [
      {
        "id": 204,
        "count": 100
      },
      {},
      {}
    ],
    "weight": 1
  },
  {
    "goodsId": 214156,
    "itemId": 141020,
    "poolId": 3,
    "cond": [
      {
        "DALOMKNICIG": []
      }
    ],
    "buyLimit": 1,
    "costItems": [
      {
        "id": 204,
        "count": 100
      },
      {},
      {}
    ],
    "weight": 1
  },
  {
    "goodsId": 214157,
    "itemId": 141021,
    "poolId": 3,
    "cond": [
      {
        "DALOMKNICIG": []
      }
    ],
    "buyLimit": 1,
    "costItems": [
      {
        "id": 204,
        "count": 100
      },
      {},
      {}
    ],
    "weight": 1
  },
  {
    "goodsId": 214158,
    "itemId": 141022,
    "poolId": 3,
    "cond": [
      {
        "DALOMKNICIG": []
      }
    ],
    "buyLimit": 1,
    "costItems": [
      {
        "id": 204,
        "count": 100
      },
      {},
      {}
    ],
    "weight": 1
  },
  {
    "goodsId": 214159,
    "itemId": 141023,
    "poolId": 3,
    "cond": [
      {
        "DALOMKNICIG": []
      }
    ],
    "buyLimit": 1,
    "costItems": [
      {
        "id": 204,
        "count": 100
      },
      {},
      {}
    ],
    "weight": 1
  },
  {
    "goodsId": 214160,
    "itemId": 141042,
    "poolId": 3,
    "cond": [
      {
        "DALOMKNICIG": []
      }
    ],
    "buyLimit": 1,
    "costItems": [
      {
        "id": 204,
        "count": 100
      },
      {},
      {}
    ],
    "weight": 1
  },
  {
    "goodsId": 214161,
    "itemId": 141043,
    "poolId": 3,
    "cond": [
      {
        "DALOMKNICIG": []
      }
    ],
    "buyLimit": 1,
    "costItems": [
      {
        "id": 204,
        "count": 100
      },
      {},
      {}
    ],
    "weight": 1
  },
  {
    "goodsId": 214162,
    "itemId": 141044,
    "poolId": 3,
    "cond": [
      {
        "DALOMKNICIG": []
      }
    ],
    "buyLimit": 1,
    "costItems": [
      {
        "id": 204,
        "count": 100
      },
      {},
      {}
    ],
    "weight": 1
  },
  {
    "goodsId": 214163,
    "itemId": 141045,
    "poolId": 3,
    "cond": [
      {
        "DALOMKNICIG": []
      }
    ],
    "buyLimit": 1,
    "costItems": [
      {
        "id": 204,
        "count": 100
      },
      {},
      {}
    ],
    "weight": 1
  },
  {
    "goodsId": 214164,
    "itemId": 141046,
    "poolId": 3,
    "cond": [
      {
        "DALOMKNICIG": []
      }
    ],
    "buyLimit": 1,
    "costItems": [
      {
        "id": 204,
        "count": 100
      },
      {},
      {}
    ],
    "weight": 1
  }
]
