[
  {
    "ID": 1,
    "costPoints": 10,
    "LABPPMCAOFM": {
      "BIADMFAIIKE": "IRODORI_CHESS_CARD_TARGET_GADGETS",
      "BPONLNCHNFD": [70350413],
      "OAMBHJKOBJL": "IRODORI_CHESS_CARD_EFFECT_ADD_SGV",
      "FKMAPFCGJBH": "SGV_AttackDamageLevel",
      "GNEBNBDLECG": 1
    },
    "BBKGKGIIEIA": [
      {
        "BIADMFAIIKE": "IRODORI_CHESS_CARD_TARGET_GADGETS",
        "BPONLNCHNFD": [70350413],
        "OAMBHJKOBJL": "IRODORI_CHESS_CARD_EFFECT_ADD_SGV",
        "FKMAPFCGJBH": "SGV_AttackSpeedLevel",
        "GNEBNBDLECG": 1
      }
    ],
    "cardType": "IRODORI_CHESS_CARD_STRENGTHEN",
    "EPNNHMDGFKJ": "IRODORI_CARD_TAG_WATER",
    "GHDLEFOLNAE": 1435939934,
    "descTextMapHash": 822483241,
    "descParam": [0.0, 0.0, 0.0],
    "HMNEJMNLBHI": [
      {
        "EJJFKECLFNE": "IRODORI_CARD_NUMERICAL_ATTACK",
        "CEHBDJCCCLC": "IRODORI_CARD_NUMERICAL_BASE",
        "DFFFEHOHHAK": 2000.0
      },
      {
        "EJJFKECLFNE": "IRODORI_CARD_NUMERICAL_ATTACK_INTERVAL",
        "CEHBDJCCCLC": "IRODORI_CARD_NUMERICAL_PERCENTAGE",
        "DFFFEHOHHAK": -0.20000000298023224
      }
    ]
  },
  {
    "ID": 2,
    "costPoints": 20,
    "LABPPMCAOFM": {
      "BIADMFAIIKE": "IRODORI_CHESS_CARD_TARGET_GADGETS",
      "BPONLNCHNFD": [70350413],
      "OAMBHJKOBJL": "IRODORI_CHESS_CARD_EFFECT_ADD_SGV",
      "FKMAPFCGJBH": "SGV_WaterImpulse",
      "GNEBNBDLECG": 1
    },
    "BBKGKGIIEIA": [
      {
        "BPONLNCHNFD": [],
        "FKMAPFCGJBH": ""
      }
    ],
    "cardType": "IRODORI_CHESS_CARD_STRENGTHEN",
    "NKMCIINMDLG": "IRODORI_CARD_QUALITY_GOOD",
    "EPNNHMDGFKJ": "IRODORI_CARD_TAG_WATER",
    "GHDLEFOLNAE": 2201362086,
    "descTextMapHash": 1860583793,
    "descParam": [8.0, 0.0, 0.0],
    "HMNEJMNLBHI": [{}, {}]
  },
  {
    "ID": 3,
    "costPoints": 40,
    "LABPPMCAOFM": {
      "BIADMFAIIKE": "IRODORI_CHESS_CARD_TARGET_GADGETS",
      "BPONLNCHNFD": [70350413],
      "OAMBHJKOBJL": "IRODORI_CHESS_CARD_EFFECT_ADD_SGV",
      "FKMAPFCGJBH": "SGV_TargetAOE",
      "GNEBNBDLECG": 1
    },
    "BBKGKGIIEIA": [
      {
        "BPONLNCHNFD": [],
        "FKMAPFCGJBH": ""
      }
    ],
    "cardType": "IRODORI_CHESS_CARD_STRENGTHEN",
    "NKMCIINMDLG": "IRODORI_CARD_QUALITY_PERCECT",
    "EPNNHMDGFKJ": "IRODORI_CARD_TAG_WATER",
    "GHDLEFOLNAE": 1179226686,
    "descTextMapHash": 1180439801,
    "descParam": [0.0, 0.0, 0.0],
    "HMNEJMNLBHI": [{}, {}]
  },
  {
    "ID": 4,
    "costPoints": 40,
    "LABPPMCAOFM": {
      "BIADMFAIIKE": "IRODORI_CHESS_CARD_TARGET_GADGETS",
      "BPONLNCHNFD": [70350413],
      "OAMBHJKOBJL": "IRODORI_CHESS_CARD_EFFECT_ADD_SGV",
      "FKMAPFCGJBH": "SGV_AttackDamageLevel",
      "GNEBNBDLECG": -1
    },
    "BBKGKGIIEIA": [
      {
        "BIADMFAIIKE": "IRODORI_CHESS_CARD_TARGET_GADGETS",
        "BPONLNCHNFD": [70350413],
        "OAMBHJKOBJL": "IRODORI_CHESS_CARD_EFFECT_ADD_SGV",
        "FKMAPFCGJBH": "SGV_RangeLevel",
        "GNEBNBDLECG": 3
      }
    ],
    "cardType": "IRODORI_CHESS_CARD_STRENGTHEN",
    "NKMCIINMDLG": "IRODORI_CARD_QUALITY_PERCECT",
    "EPNNHMDGFKJ": "IRODORI_CARD_TAG_WATER",
    "GHDLEFOLNAE": 134083238,
    "descTextMapHash": 2115922001,
    "descParam": [0.0, 0.0, 0.0],
    "HMNEJMNLBHI": [
      {
        "EJJFKECLFNE": "IRODORI_CARD_NUMERICAL_ATTACK",
        "CEHBDJCCCLC": "IRODORI_CARD_NUMERICAL_BASE",
        "DFFFEHOHHAK": -2000.0
      },
      {
        "EJJFKECLFNE": "IRODORI_CARD_NUMERICAL_ATTACK_RANGE",
        "CEHBDJCCCLC": "IRODORI_CARD_NUMERICAL_BASE",
        "DFFFEHOHHAK": 6.0
      }
    ]
  },
  {
    "ID": 5,
    "costPoints": 20,
    "LABPPMCAOFM": {
      "BIADMFAIIKE": "IRODORI_CHESS_CARD_TARGET_GADGETS",
      "BPONLNCHNFD": [70350413],
      "OAMBHJKOBJL": "IRODORI_CHESS_CARD_EFFECT_ADD_SGV",
      "FKMAPFCGJBH": "SGV_ElementMasteryLevel",
      "GNEBNBDLECG": 1
    },
    "BBKGKGIIEIA": [
      {
        "BIADMFAIIKE": "IRODORI_CHESS_CARD_TARGET_GADGETS",
        "BPONLNCHNFD": [70350413],
        "OAMBHJKOBJL": "IRODORI_CHESS_CARD_EFFECT_ADD_SGV",
        "FKMAPFCGJBH": "SGV_AttackSpeedLevel",
        "GNEBNBDLECG": 1
      }
    ],
    "cardType": "IRODORI_CHESS_CARD_STRENGTHEN",
    "NKMCIINMDLG": "IRODORI_CARD_QUALITY_GOOD",
    "EPNNHMDGFKJ": "IRODORI_CARD_TAG_WATER",
    "GHDLEFOLNAE": 3783534534,
    "descTextMapHash": 2501651289,
    "descParam": [0.0, 0.0, 0.0],
    "HMNEJMNLBHI": [
      {
        "EJJFKECLFNE": "IRODORI_CARD_NUMERICAL_MASTERY",
        "CEHBDJCCCLC": "IRODORI_CARD_NUMERICAL_BASE",
        "DFFFEHOHHAK": 75.0
      },
      {
        "EJJFKECLFNE": "IRODORI_CARD_NUMERICAL_ATTACK_INTERVAL",
        "CEHBDJCCCLC": "IRODORI_CARD_NUMERICAL_PERCENTAGE",
        "DFFFEHOHHAK": -0.20000000298023224
      }
    ]
  },
  {
    "ID": 6,
    "costPoints": 10,
    "LABPPMCAOFM": {
      "BIADMFAIIKE": "IRODORI_CHESS_CARD_TARGET_GADGETS",
      "BPONLNCHNFD": [70350413],
      "OAMBHJKOBJL": "IRODORI_CHESS_CARD_EFFECT_ADD_SGV",
      "FKMAPFCGJBH": "SGV_AttackDamageLevel",
      "GNEBNBDLECG": 2
    },
    "BBKGKGIIEIA": [
      {
        "BPONLNCHNFD": [],
        "FKMAPFCGJBH": ""
      }
    ],
    "cardType": "IRODORI_CHESS_CARD_STRENGTHEN",
    "EPNNHMDGFKJ": "IRODORI_CARD_TAG_WATER",
    "GHDLEFOLNAE": 3288264398,
    "descTextMapHash": 842515657,
    "descParam": [0.0, 0.0, 0.0],
    "HMNEJMNLBHI": [
      {
        "EJJFKECLFNE": "IRODORI_CARD_NUMERICAL_ATTACK",
        "CEHBDJCCCLC": "IRODORI_CARD_NUMERICAL_BASE",
        "DFFFEHOHHAK": 4000.0
      },
      {}
    ]
  },
  {
    "ID": 7,
    "costPoints": 10,
    "LABPPMCAOFM": {
      "BIADMFAIIKE": "IRODORI_CHESS_CARD_TARGET_GADGETS",
      "BPONLNCHNFD": [70350416],
      "OAMBHJKOBJL": "IRODORI_CHESS_CARD_EFFECT_ADD_SGV",
      "FKMAPFCGJBH": "SGV_AttackDamageLevel",
      "GNEBNBDLECG": 1
    },
    "BBKGKGIIEIA": [
      {
        "BIADMFAIIKE": "IRODORI_CHESS_CARD_TARGET_GADGETS",
        "BPONLNCHNFD": [70350416],
        "OAMBHJKOBJL": "IRODORI_CHESS_CARD_EFFECT_ADD_SGV",
        "FKMAPFCGJBH": "SGV_AttackSpeedLevel",
        "GNEBNBDLECG": 1
      }
    ],
    "cardType": "IRODORI_CHESS_CARD_STRENGTHEN",
    "EPNNHMDGFKJ": "IRODORI_CARD_TAG_WIND",
    "GHDLEFOLNAE": 2927144454,
    "descTextMapHash": 2247920769,
    "descParam": [0.0, 0.0, 0.0],
    "HMNEJMNLBHI": [
      {
        "EJJFKECLFNE": "IRODORI_CARD_NUMERICAL_ATTACK",
        "CEHBDJCCCLC": "IRODORI_CARD_NUMERICAL_BASE",
        "DFFFEHOHHAK": 2000.0
      },
      {
        "EJJFKECLFNE": "IRODORI_CARD_NUMERICAL_ATTACK_INTERVAL",
        "CEHBDJCCCLC": "IRODORI_CARD_NUMERICAL_PERCENTAGE",
        "DFFFEHOHHAK": -0.20000000298023224
      }
    ]
  },
  {
    "ID": 8,
    "costPoints": 40,
    "LABPPMCAOFM": {
      "BIADMFAIIKE": "IRODORI_CHESS_CARD_TARGET_GADGETS",
      "BPONLNCHNFD": [70350416],
      "OAMBHJKOBJL": "IRODORI_CHESS_CARD_EFFECT_ADD_SGV",
      "FKMAPFCGJBH": "SGV_ShootBullet",
      "GNEBNBDLECG": 1
    },
    "BBKGKGIIEIA": [
      {
        "BPONLNCHNFD": [],
        "FKMAPFCGJBH": ""
      }
    ],
    "cardType": "IRODORI_CHESS_CARD_STRENGTHEN",
    "NKMCIINMDLG": "IRODORI_CARD_QUALITY_PERCECT",
    "EPNNHMDGFKJ": "IRODORI_CARD_TAG_WIND",
    "GHDLEFOLNAE": 234182422,
    "descTextMapHash": 1747520889,
    "descParam": [0.0, 0.0, 0.0],
    "HMNEJMNLBHI": [
      {
        "EJJFKECLFNE": "IRODORI_CARD_NUMERICAL_ATTACK",
        "CEHBDJCCCLC": "IRODORI_CARD_NUMERICAL_PERCENTAGE",
        "DFFFEHOHHAK": 2.0
      },
      {}
    ]
  },
  {
    "ID": 9,
    "costPoints": 20,
    "LABPPMCAOFM": {
      "BIADMFAIIKE": "IRODORI_CHESS_CARD_TARGET_GADGETS",
      "BPONLNCHNFD": [70350416],
      "OAMBHJKOBJL": "IRODORI_CHESS_CARD_EFFECT_ADD_SGV",
      "FKMAPFCGJBH": "SGV_TowUnits",
      "GNEBNBDLECG": 1
    },
    "BBKGKGIIEIA": [
      {
        "BPONLNCHNFD": [],
        "FKMAPFCGJBH": ""
      }
    ],
    "cardType": "IRODORI_CHESS_CARD_STRENGTHEN",
    "NKMCIINMDLG": "IRODORI_CARD_QUALITY_GOOD",
    "EPNNHMDGFKJ": "IRODORI_CARD_TAG_WIND",
    "GHDLEFOLNAE": 4189837230,
    "descTextMapHash": 3314507897,
    "descParam": [0.0, 0.0, 0.0],
    "HMNEJMNLBHI": [{}, {}]
  },
  {
    "ID": 10,
    "costPoints": 10,
    "LABPPMCAOFM": {
      "BIADMFAIIKE": "IRODORI_CHESS_CARD_TARGET_GADGETS",
      "BPONLNCHNFD": [70350417],
      "OAMBHJKOBJL": "IRODORI_CHESS_CARD_EFFECT_ADD_SGV",
      "FKMAPFCGJBH": "SGV_AttackDamageLevel",
      "GNEBNBDLECG": 1
    },
    "BBKGKGIIEIA": [
      {
        "BIADMFAIIKE": "IRODORI_CHESS_CARD_TARGET_GADGETS",
        "BPONLNCHNFD": [70350417],
        "OAMBHJKOBJL": "IRODORI_CHESS_CARD_EFFECT_ADD_SGV",
        "FKMAPFCGJBH": "SGV_RangeLevel",
        "GNEBNBDLECG": 1
      }
    ],
    "cardType": "IRODORI_CHESS_CARD_STRENGTHEN",
    "EPNNHMDGFKJ": "IRODORI_CARD_TAG_ELECTRIC",
    "GHDLEFOLNAE": 4060971878,
    "descTextMapHash": 3413131689,
    "descParam": [0.0, 0.0, 0.0],
    "HMNEJMNLBHI": [
      {
        "EJJFKECLFNE": "IRODORI_CARD_NUMERICAL_ATTACK",
        "CEHBDJCCCLC": "IRODORI_CARD_NUMERICAL_BASE",
        "DFFFEHOHHAK": 2000.0
      },
      {
        "EJJFKECLFNE": "IRODORI_CARD_NUMERICAL_ATTACK_RANGE",
        "CEHBDJCCCLC": "IRODORI_CARD_NUMERICAL_BASE",
        "DFFFEHOHHAK": 8.0
      }
    ]
  },
  {
    "ID": 11,
    "costPoints": 20,
    "LABPPMCAOFM": {
      "BIADMFAIIKE": "IRODORI_CHESS_CARD_TARGET_ALL",
      "BPONLNCHNFD": [],
      "OAMBHJKOBJL": "IRODORI_CHESS_CARD_EFFECT_ADD_SGV",
      "FKMAPFCGJBH": "SGV_UpgradeElectricRecation",
      "GNEBNBDLECG": 1
    },
    "BBKGKGIIEIA": [
      {
        "BPONLNCHNFD": [],
        "FKMAPFCGJBH": ""
      }
    ],
    "cardType": "IRODORI_CHESS_CARD_STRENGTHEN",
    "NKMCIINMDLG": "IRODORI_CARD_QUALITY_GOOD",
    "EPNNHMDGFKJ": "IRODORI_CARD_TAG_ELECTRIC",
    "GHDLEFOLNAE": 1526692086,
    "descTextMapHash": 2002158305,
    "descParam": [0.0, 0.0, 0.0],
    "HMNEJMNLBHI": [{}, {}]
  },
  {
    "ID": 12,
    "costPoints": 40,
    "LABPPMCAOFM": {
      "BIADMFAIIKE": "IRODORI_CHESS_CARD_TARGET_GADGETS",
      "BPONLNCHNFD": [70350417],
      "OAMBHJKOBJL": "IRODORI_CHESS_CARD_EFFECT_ADD_SGV",
      "FKMAPFCGJBH": "SGV_UpgradeNormalAttack",
      "GNEBNBDLECG": 1
    },
    "BBKGKGIIEIA": [
      {
        "BPONLNCHNFD": [],
        "FKMAPFCGJBH": ""
      }
    ],
    "cardType": "IRODORI_CHESS_CARD_STRENGTHEN",
    "NKMCIINMDLG": "IRODORI_CARD_QUALITY_PERCECT",
    "EPNNHMDGFKJ": "IRODORI_CARD_TAG_ELECTRIC",
    "GHDLEFOLNAE": 2942749918,
    "descTextMapHash": 3965891137,
    "descParam": [0.0, 0.0, 0.0],
    "HMNEJMNLBHI": [
      {
        "EJJFKECLFNE": "IRODORI_CARD_NUMERICAL_ATTACK",
        "CEHBDJCCCLC": "IRODORI_CARD_NUMERICAL_PERCENTAGE",
        "DFFFEHOHHAK": 1.5
      },
      {}
    ]
  },
  {
    "ID": 13,
    "costPoints": 40,
    "LABPPMCAOFM": {
      "BIADMFAIIKE": "IRODORI_CHESS_CARD_TARGET_GADGETS",
      "BPONLNCHNFD": [70350417],
      "OAMBHJKOBJL": "IRODORI_CHESS_CARD_EFFECT_ADD_SGV",
      "FKMAPFCGJBH": "SGV_ExtraThunder",
      "GNEBNBDLECG": 1
    },
    "BBKGKGIIEIA": [
      {
        "BPONLNCHNFD": [],
        "FKMAPFCGJBH": ""
      }
    ],
    "cardType": "IRODORI_CHESS_CARD_STRENGTHEN",
    "NKMCIINMDLG": "IRODORI_CARD_QUALITY_PERCECT",
    "EPNNHMDGFKJ": "IRODORI_CARD_TAG_ELECTRIC",
    "GHDLEFOLNAE": 4139391094,
    "descTextMapHash": 1046716521,
    "descParam": [0.0, 0.0, 0.0],
    "HMNEJMNLBHI": [{}, {}]
  },
  {
    "ID": 14,
    "costPoints": 20,
    "LABPPMCAOFM": {
      "BIADMFAIIKE": "IRODORI_CHESS_CARD_TARGET_GADGETS",
      "BPONLNCHNFD": [70350417],
      "OAMBHJKOBJL": "IRODORI_CHESS_CARD_EFFECT_ADD_SGV",
      "FKMAPFCGJBH": "SGV_Confine",
      "GNEBNBDLECG": 1
    },
    "BBKGKGIIEIA": [
      {
        "BPONLNCHNFD": [],
        "FKMAPFCGJBH": ""
      }
    ],
    "cardType": "IRODORI_CHESS_CARD_STRENGTHEN",
    "NKMCIINMDLG": "IRODORI_CARD_QUALITY_GOOD",
    "EPNNHMDGFKJ": "IRODORI_CARD_TAG_ELECTRIC",
    "GHDLEFOLNAE": 3447746710,
    "descTextMapHash": 2408406937,
    "descParam": [10.0, 1.0, 0.0],
    "HMNEJMNLBHI": [{}, {}]
  },
  {
    "ID": 15,
    "costPoints": 20,
    "LABPPMCAOFM": {
      "BIADMFAIIKE": "IRODORI_CHESS_CARD_TARGET_GADGETS",
      "BPONLNCHNFD": [70350417],
      "OAMBHJKOBJL": "IRODORI_CHESS_CARD_EFFECT_ADD_SGV",
      "FKMAPFCGJBH": "SGV_ExtraTargets",
      "GNEBNBDLECG": 1
    },
    "BBKGKGIIEIA": [
      {
        "BPONLNCHNFD": [],
        "FKMAPFCGJBH": ""
      }
    ],
    "cardType": "IRODORI_CHESS_CARD_STRENGTHEN",
    "NKMCIINMDLG": "IRODORI_CARD_QUALITY_GOOD",
    "EPNNHMDGFKJ": "IRODORI_CARD_TAG_ELECTRIC",
    "GHDLEFOLNAE": 2668495142,
    "descTextMapHash": 571903425,
    "descParam": [1.0, 0.0, 0.0],
    "HMNEJMNLBHI": [{}, {}]
  },
  {
    "ID": 16,
    "costPoints": 10,
    "LABPPMCAOFM": {
      "BIADMFAIIKE": "IRODORI_CHESS_CARD_TARGET_GADGETS",
      "BPONLNCHNFD": [70350417],
      "OAMBHJKOBJL": "IRODORI_CHESS_CARD_EFFECT_ADD_SGV",
      "FKMAPFCGJBH": "SGV_AttackDamageLevel",
      "GNEBNBDLECG": 1
    },
    "BBKGKGIIEIA": [
      {
        "BIADMFAIIKE": "IRODORI_CHESS_CARD_TARGET_GADGETS",
        "BPONLNCHNFD": [70350417],
        "OAMBHJKOBJL": "IRODORI_CHESS_CARD_EFFECT_ADD_SGV",
        "FKMAPFCGJBH": "SGV_AttackSpeedLevel",
        "GNEBNBDLECG": 1
      }
    ],
    "cardType": "IRODORI_CHESS_CARD_STRENGTHEN",
    "EPNNHMDGFKJ": "IRODORI_CARD_TAG_ELECTRIC",
    "GHDLEFOLNAE": 560020302,
    "descTextMapHash": 2398546089,
    "descParam": [0.0, 0.0, 0.0],
    "HMNEJMNLBHI": [
      {
        "EJJFKECLFNE": "IRODORI_CARD_NUMERICAL_ATTACK",
        "CEHBDJCCCLC": "IRODORI_CARD_NUMERICAL_BASE",
        "DFFFEHOHHAK": 2000.0
      },
      {
        "EJJFKECLFNE": "IRODORI_CARD_NUMERICAL_ATTACK_INTERVAL",
        "CEHBDJCCCLC": "IRODORI_CARD_NUMERICAL_PERCENTAGE",
        "DFFFEHOHHAK": -0.20000000298023224
      }
    ]
  },
  {
    "ID": 17,
    "costPoints": 10,
    "LABPPMCAOFM": {
      "BIADMFAIIKE": "IRODORI_CHESS_CARD_TARGET_GADGETS",
      "BPONLNCHNFD": [70350414],
      "OAMBHJKOBJL": "IRODORI_CHESS_CARD_EFFECT_ADD_SGV",
      "FKMAPFCGJBH": "SGV_AttackDamageLevel",
      "GNEBNBDLECG": 1
    },
    "BBKGKGIIEIA": [
      {
        "BIADMFAIIKE": "IRODORI_CHESS_CARD_TARGET_GADGETS",
        "BPONLNCHNFD": [70350414],
        "OAMBHJKOBJL": "IRODORI_CHESS_CARD_EFFECT_ADD_SGV",
        "FKMAPFCGJBH": "SGV_RangeLevel",
        "GNEBNBDLECG": 1
      }
    ],
    "cardType": "IRODORI_CHESS_CARD_STRENGTHEN",
    "EPNNHMDGFKJ": "IRODORI_CARD_TAG_FIRE",
    "GHDLEFOLNAE": 2207796038,
    "descTextMapHash": 3529145473,
    "descParam": [0.0, 0.0, 0.0],
    "HMNEJMNLBHI": [
      {
        "EJJFKECLFNE": "IRODORI_CARD_NUMERICAL_ATTACK",
        "CEHBDJCCCLC": "IRODORI_CARD_NUMERICAL_BASE",
        "DFFFEHOHHAK": 2000.0
      },
      {
        "EJJFKECLFNE": "IRODORI_CARD_NUMERICAL_ATTACK_RANGE",
        "CEHBDJCCCLC": "IRODORI_CARD_NUMERICAL_BASE",
        "DFFFEHOHHAK": 8.0
      }
    ]
  },
  {
    "ID": 18,
    "costPoints": 20,
    "LABPPMCAOFM": {
      "BIADMFAIIKE": "IRODORI_CHESS_CARD_TARGET_GADGETS",
      "BPONLNCHNFD": [70350414],
      "OAMBHJKOBJL": "IRODORI_CHESS_CARD_EFFECT_ADD_SGV",
      "FKMAPFCGJBH": "SGV_Enbreak",
      "GNEBNBDLECG": 1
    },
    "BBKGKGIIEIA": [
      {
        "BPONLNCHNFD": [],
        "FKMAPFCGJBH": ""
      }
    ],
    "cardType": "IRODORI_CHESS_CARD_STRENGTHEN",
    "NKMCIINMDLG": "IRODORI_CARD_QUALITY_GOOD",
    "EPNNHMDGFKJ": "IRODORI_CARD_TAG_FIRE",
    "GHDLEFOLNAE": 2968350262,
    "descTextMapHash": 971401681,
    "descParam": [0.0, 0.0, 0.0],
    "HMNEJMNLBHI": [{}, {}]
  },
  {
    "ID": 19,
    "costPoints": 40,
    "LABPPMCAOFM": {
      "BIADMFAIIKE": "IRODORI_CHESS_CARD_TARGET_GADGETS",
      "BPONLNCHNFD": [70350414],
      "OAMBHJKOBJL": "IRODORI_CHESS_CARD_EFFECT_ADD_SGV",
      "FKMAPFCGJBH": "SGV_Missile",
      "GNEBNBDLECG": 1
    },
    "BBKGKGIIEIA": [
      {
        "BPONLNCHNFD": [],
        "FKMAPFCGJBH": ""
      }
    ],
    "cardType": "IRODORI_CHESS_CARD_STRENGTHEN",
    "NKMCIINMDLG": "IRODORI_CARD_QUALITY_PERCECT",
    "EPNNHMDGFKJ": "IRODORI_CARD_TAG_FIRE",
    "GHDLEFOLNAE": 678128262,
    "descTextMapHash": 4058535809,
    "descParam": [0.0, 0.0, 0.0],
    "HMNEJMNLBHI": [{}, {}]
  },
  {
    "ID": 20,
    "costPoints": 20,
    "LABPPMCAOFM": {
      "BIADMFAIIKE": "IRODORI_CHESS_CARD_TARGET_GADGETS",
      "BPONLNCHNFD": [70350414],
      "OAMBHJKOBJL": "IRODORI_CHESS_CARD_EFFECT_ADD_SGV",
      "FKMAPFCGJBH": "SGV_RangeLevel",
      "GNEBNBDLECG": 2
    },
    "BBKGKGIIEIA": [
      {
        "BPONLNCHNFD": [],
        "FKMAPFCGJBH": ""
      }
    ],
    "cardType": "IRODORI_CHESS_CARD_STRENGTHEN",
    "NKMCIINMDLG": "IRODORI_CARD_QUALITY_GOOD",
    "EPNNHMDGFKJ": "IRODORI_CARD_TAG_FIRE",
    "GHDLEFOLNAE": 3540864942,
    "descTextMapHash": 1579853905,
    "descParam": [0.0, 0.0, 0.0],
    "HMNEJMNLBHI": [
      {
        "EJJFKECLFNE": "IRODORI_CARD_NUMERICAL_ATTACK_RANGE",
        "CEHBDJCCCLC": "IRODORI_CARD_NUMERICAL_BASE",
        "DFFFEHOHHAK": 8.0
      },
      {}
    ]
  },
  {
    "ID": 21,
    "costPoints": 10,
    "LABPPMCAOFM": {
      "BIADMFAIIKE": "IRODORI_CHESS_CARD_TARGET_GADGETS",
      "BPONLNCHNFD": [70350414],
      "OAMBHJKOBJL": "IRODORI_CHESS_CARD_EFFECT_ADD_SGV",
      "FKMAPFCGJBH": "SGV_AttackDamageLevel",
      "GNEBNBDLECG": 1
    },
    "BBKGKGIIEIA": [
      {
        "BIADMFAIIKE": "IRODORI_CHESS_CARD_TARGET_GADGETS",
        "BPONLNCHNFD": [70350414],
        "OAMBHJKOBJL": "IRODORI_CHESS_CARD_EFFECT_ADD_SGV",
        "FKMAPFCGJBH": "SGV_AttackSpeedLevel",
        "GNEBNBDLECG": 1
      }
    ],
    "cardType": "IRODORI_CHESS_CARD_STRENGTHEN",
    "EPNNHMDGFKJ": "IRODORI_CARD_TAG_FIRE",
    "GHDLEFOLNAE": 3189710246,
    "descTextMapHash": 3265489609,
    "descParam": [0.0, 0.0, 0.0],
    "HMNEJMNLBHI": [
      {
        "EJJFKECLFNE": "IRODORI_CARD_NUMERICAL_ATTACK",
        "CEHBDJCCCLC": "IRODORI_CARD_NUMERICAL_BASE",
        "DFFFEHOHHAK": 2000.0
      },
      {
        "EJJFKECLFNE": "IRODORI_CARD_NUMERICAL_ATTACK_INTERVAL",
        "CEHBDJCCCLC": "IRODORI_CARD_NUMERICAL_PERCENTAGE",
        "DFFFEHOHHAK": -0.20000000298023224
      }
    ]
  },
  {
    "ID": 22,
    "costPoints": 10,
    "LABPPMCAOFM": {
      "BIADMFAIIKE": "IRODORI_CHESS_CARD_TARGET_GADGETS",
      "BPONLNCHNFD": [70350414],
      "OAMBHJKOBJL": "IRODORI_CHESS_CARD_EFFECT_ADD_SGV",
      "FKMAPFCGJBH": "SGV_ElementMasteryLevel",
      "GNEBNBDLECG": 1
    },
    "BBKGKGIIEIA": [
      {
        "BPONLNCHNFD": [],
        "FKMAPFCGJBH": ""
      }
    ],
    "cardType": "IRODORI_CHESS_CARD_STRENGTHEN",
    "EPNNHMDGFKJ": "IRODORI_CARD_TAG_FIRE",
    "GHDLEFOLNAE": 579377054,
    "descTextMapHash": 4262655265,
    "descParam": [0.0, 0.0, 0.0],
    "HMNEJMNLBHI": [
      {
        "EJJFKECLFNE": "IRODORI_CARD_NUMERICAL_MASTERY",
        "CEHBDJCCCLC": "IRODORI_CARD_NUMERICAL_BASE",
        "DFFFEHOHHAK": 75.0
      },
      {}
    ]
  },
  {
    "ID": 23,
    "costPoints": 10,
    "LABPPMCAOFM": {
      "BIADMFAIIKE": "IRODORI_CHESS_CARD_TARGET_GADGETS",
      "BPONLNCHNFD": [70350415],
      "OAMBHJKOBJL": "IRODORI_CHESS_CARD_EFFECT_ADD_SGV",
      "FKMAPFCGJBH": "SGV_RangeLevel",
      "GNEBNBDLECG": 1
    },
    "BBKGKGIIEIA": [
      {
        "BIADMFAIIKE": "IRODORI_CHESS_CARD_TARGET_GADGETS",
        "BPONLNCHNFD": [70350415],
        "OAMBHJKOBJL": "IRODORI_CHESS_CARD_EFFECT_ADD_SGV",
        "FKMAPFCGJBH": "SGV_AttackSpeedLevel",
        "GNEBNBDLECG": 1
      }
    ],
    "cardType": "IRODORI_CHESS_CARD_STRENGTHEN",
    "EPNNHMDGFKJ": "IRODORI_CARD_TAG_ICE",
    "GHDLEFOLNAE": 325510510,
    "descTextMapHash": 1231354681,
    "descParam": [0.0, 0.0, 0.0],
    "HMNEJMNLBHI": [
      {
        "EJJFKECLFNE": "IRODORI_CARD_NUMERICAL_ATTACK_RANGE",
        "CEHBDJCCCLC": "IRODORI_CARD_NUMERICAL_BASE",
        "DFFFEHOHHAK": 8.0
      },
      {
        "EJJFKECLFNE": "IRODORI_CARD_NUMERICAL_ATTACK_INTERVAL",
        "CEHBDJCCCLC": "IRODORI_CARD_NUMERICAL_PERCENTAGE",
        "DFFFEHOHHAK": -0.20000000298023224
      }
    ]
  },
  {
    "ID": 24,
    "costPoints": 10,
    "LABPPMCAOFM": {
      "BIADMFAIIKE": "IRODORI_CHESS_CARD_TARGET_GADGETS",
      "BPONLNCHNFD": [70350415],
      "OAMBHJKOBJL": "IRODORI_CHESS_CARD_EFFECT_ADD_SGV",
      "FKMAPFCGJBH": "SGV_Resistancedown",
      "GNEBNBDLECG": 1
    },
    "BBKGKGIIEIA": [
      {
        "BPONLNCHNFD": [],
        "FKMAPFCGJBH": ""
      }
    ],
    "cardType": "IRODORI_CHESS_CARD_STRENGTHEN",
    "EPNNHMDGFKJ": "IRODORI_CARD_TAG_ICE",
    "GHDLEFOLNAE": 1864257462,
    "descTextMapHash": 3978375673,
    "descParam": [0.0, 0.0, 0.0],
    "HMNEJMNLBHI": [{}, {}]
  },
  {
    "ID": 25,
    "costPoints": 40,
    "LABPPMCAOFM": {
      "BIADMFAIIKE": "IRODORI_CHESS_CARD_TARGET_GADGETS",
      "BPONLNCHNFD": [70350415],
      "OAMBHJKOBJL": "IRODORI_CHESS_CARD_EFFECT_ADD_SGV",
      "FKMAPFCGJBH": "SGV_TDSpecialGrade_Ice",
      "GNEBNBDLECG": 1
    },
    "BBKGKGIIEIA": [
      {
        "BPONLNCHNFD": [],
        "FKMAPFCGJBH": ""
      }
    ],
    "cardType": "IRODORI_CHESS_CARD_STRENGTHEN",
    "NKMCIINMDLG": "IRODORI_CARD_QUALITY_PERCECT",
    "EPNNHMDGFKJ": "IRODORI_CARD_TAG_ICE",
    "GHDLEFOLNAE": 3034090182,
    "descTextMapHash": 1670603649,
    "descParam": [0.0, 0.0, 0.0],
    "HMNEJMNLBHI": [{}, {}]
  },
  {
    "ID": 26,
    "costPoints": 20,
    "LABPPMCAOFM": {
      "BIADMFAIIKE": "IRODORI_CHESS_CARD_TARGET_GADGETS",
      "BPONLNCHNFD": [70350415],
      "OAMBHJKOBJL": "IRODORI_CHESS_CARD_EFFECT_ADD_SGV",
      "FKMAPFCGJBH": "SGV_Ice_Fog",
      "GNEBNBDLECG": 1
    },
    "BBKGKGIIEIA": [
      {
        "BPONLNCHNFD": [],
        "FKMAPFCGJBH": ""
      }
    ],
    "cardType": "IRODORI_CHESS_CARD_STRENGTHEN",
    "NKMCIINMDLG": "IRODORI_CARD_QUALITY_GOOD",
    "EPNNHMDGFKJ": "IRODORI_CARD_TAG_ICE",
    "GHDLEFOLNAE": 2975664950,
    "descTextMapHash": 2178765889,
    "descParam": [25.0, 10.0, 0.0],
    "HMNEJMNLBHI": [{}, {}]
  },
  {
    "ID": 27,
    "costPoints": 10,
    "LABPPMCAOFM": {
      "BIADMFAIIKE": "IRODORI_CHESS_CARD_TARGET_GADGETS",
      "BPONLNCHNFD": [70350397],
      "OAMBHJKOBJL": "IRODORI_CHESS_CARD_EFFECT_ADD_SGV",
      "FKMAPFCGJBH": "SGV_RangeLevel",
      "GNEBNBDLECG": 1
    },
    "BBKGKGIIEIA": [
      {
        "BIADMFAIIKE": "IRODORI_CHESS_CARD_TARGET_GADGETS",
        "BPONLNCHNFD": [70350397],
        "OAMBHJKOBJL": "IRODORI_CHESS_CARD_EFFECT_ADD_SGV",
        "FKMAPFCGJBH": "SGV_AttackSpeedLevel",
        "GNEBNBDLECG": 1
      }
    ],
    "cardType": "IRODORI_CHESS_CARD_STRENGTHEN",
    "EPNNHMDGFKJ": "IRODORI_CARD_TAG_PHYSICS",
    "GHDLEFOLNAE": 2714661502,
    "descTextMapHash": 4212671241,
    "descParam": [0.0, 0.0, 0.0],
    "HMNEJMNLBHI": [
      {
        "EJJFKECLFNE": "IRODORI_CARD_NUMERICAL_ATTACK_RANGE",
        "CEHBDJCCCLC": "IRODORI_CARD_NUMERICAL_BASE",
        "DFFFEHOHHAK": 8.0
      },
      {
        "EJJFKECLFNE": "IRODORI_CARD_NUMERICAL_ATTACK_INTERVAL",
        "CEHBDJCCCLC": "IRODORI_CARD_NUMERICAL_PERCENTAGE",
        "DFFFEHOHHAK": -0.20000000298023224
      }
    ]
  },
  {
    "ID": 28,
    "costPoints": 40,
    "LABPPMCAOFM": {
      "BIADMFAIIKE": "IRODORI_CHESS_CARD_TARGET_GADGETS",
      "BPONLNCHNFD": [70350397],
      "OAMBHJKOBJL": "IRODORI_CHESS_CARD_EFFECT_ADD_SGV",
      "FKMAPFCGJBH": "SGV_EnergyBallAttack",
      "GNEBNBDLECG": 1
    },
    "BBKGKGIIEIA": [
      {
        "BPONLNCHNFD": [],
        "FKMAPFCGJBH": ""
      }
    ],
    "cardType": "IRODORI_CHESS_CARD_STRENGTHEN",
    "NKMCIINMDLG": "IRODORI_CARD_QUALITY_PERCECT",
    "EPNNHMDGFKJ": "IRODORI_CARD_TAG_PHYSICS",
    "GHDLEFOLNAE": 2454508198,
    "descTextMapHash": 1005832577,
    "descParam": [0.0, 0.0, 0.0],
    "HMNEJMNLBHI": [{}, {}]
  },
  {
    "ID": 29,
    "costPoints": 20,
    "LABPPMCAOFM": {
      "BIADMFAIIKE": "IRODORI_CHESS_CARD_TARGET_ALL",
      "BPONLNCHNFD": [],
      "OAMBHJKOBJL": "IRODORI_CHESS_CARD_EFFECT_ADD_SGV",
      "FKMAPFCGJBH": "SGV_ReducePhysicalResistance",
      "GNEBNBDLECG": 1
    },
    "BBKGKGIIEIA": [
      {
        "BPONLNCHNFD": [],
        "FKMAPFCGJBH": ""
      }
    ],
    "cardType": "IRODORI_CHESS_CARD_STRENGTHEN",
    "NKMCIINMDLG": "IRODORI_CARD_QUALITY_GOOD",
    "EPNNHMDGFKJ": "IRODORI_CARD_TAG_PHYSICS",
    "GHDLEFOLNAE": 3499922230,
    "descTextMapHash": 3854375929,
    "descParam": [0.0, 0.0, 0.0],
    "HMNEJMNLBHI": [{}, {}]
  },
  {
    "ID": 30,
    "costPoints": 40,
    "LABPPMCAOFM": {
      "BIADMFAIIKE": "IRODORI_CHESS_CARD_TARGET_GADGETS",
      "BPONLNCHNFD": [70350397],
      "OAMBHJKOBJL": "IRODORI_CHESS_CARD_EFFECT_ADD_SGV",
      "FKMAPFCGJBH": "SGV_DamageShieldExplosion",
      "GNEBNBDLECG": 1
    },
    "BBKGKGIIEIA": [
      {
        "BPONLNCHNFD": [],
        "FKMAPFCGJBH": ""
      }
    ],
    "cardType": "IRODORI_CHESS_CARD_STRENGTHEN",
    "NKMCIINMDLG": "IRODORI_CARD_QUALITY_PERCECT",
    "EPNNHMDGFKJ": "IRODORI_CARD_TAG_PHYSICS",
    "GHDLEFOLNAE": 3689191526,
    "descTextMapHash": 602233617,
    "descParam": [0.0, 0.0, 0.0],
    "HMNEJMNLBHI": [{}, {}]
  },
  {
    "ID": 31,
    "costPoints": 20,
    "LABPPMCAOFM": {
      "BIADMFAIIKE": "IRODORI_CHESS_CARD_TARGET_GADGETS",
      "BPONLNCHNFD": [70350397],
      "OAMBHJKOBJL": "IRODORI_CHESS_CARD_EFFECT_ADD_SGV",
      "FKMAPFCGJBH": "SGV_DamageByTime",
      "GNEBNBDLECG": 1
    },
    "BBKGKGIIEIA": [
      {
        "BPONLNCHNFD": [],
        "FKMAPFCGJBH": ""
      }
    ],
    "cardType": "IRODORI_CHESS_CARD_STRENGTHEN",
    "NKMCIINMDLG": "IRODORI_CARD_QUALITY_GOOD",
    "EPNNHMDGFKJ": "IRODORI_CARD_TAG_PHYSICS",
    "GHDLEFOLNAE": 2005419878,
    "descTextMapHash": 142804161,
    "descParam": [0.10000000149011612, 10.0, 0.0],
    "HMNEJMNLBHI": [{}, {}]
  },
  {
    "ID": 32,
    "costPoints": 20,
    "LABPPMCAOFM": {
      "BIADMFAIIKE": "IRODORI_CHESS_CARD_TARGET_GADGETS",
      "BPONLNCHNFD": [70350397],
      "OAMBHJKOBJL": "IRODORI_CHESS_CARD_EFFECT_ADD_SGV",
      "FKMAPFCGJBH": "SGV_RangeLevel",
      "GNEBNBDLECG": 2
    },
    "BBKGKGIIEIA": [
      {
        "BPONLNCHNFD": [],
        "FKMAPFCGJBH": ""
      }
    ],
    "cardType": "IRODORI_CHESS_CARD_STRENGTHEN",
    "NKMCIINMDLG": "IRODORI_CARD_QUALITY_GOOD",
    "EPNNHMDGFKJ": "IRODORI_CARD_TAG_PHYSICS",
    "GHDLEFOLNAE": 3353992798,
    "descTextMapHash": 2956124889,
    "descParam": [0.0, 0.0, 0.0],
    "HMNEJMNLBHI": [
      {
        "EJJFKECLFNE": "IRODORI_CARD_NUMERICAL_ATTACK_RANGE",
        "CEHBDJCCCLC": "IRODORI_CARD_NUMERICAL_BASE",
        "DFFFEHOHHAK": 16.0
      },
      {}
    ]
  },
  {
    "ID": 33,
    "costPoints": 10,
    "LABPPMCAOFM": {
      "BIADMFAIIKE": "IRODORI_CHESS_CARD_TARGET_GADGETS",
      "BPONLNCHNFD": [70350397],
      "OAMBHJKOBJL": "IRODORI_CHESS_CARD_EFFECT_ADD_SGV",
      "FKMAPFCGJBH": "SGV_AttackDamageLevel",
      "GNEBNBDLECG": 1
    },
    "BBKGKGIIEIA": [
      {
        "BIADMFAIIKE": "IRODORI_CHESS_CARD_TARGET_GADGETS",
        "BPONLNCHNFD": [70350397],
        "OAMBHJKOBJL": "IRODORI_CHESS_CARD_EFFECT_ADD_SGV",
        "FKMAPFCGJBH": "SGV_AttackSpeedLevel",
        "GNEBNBDLECG": 1
      }
    ],
    "cardType": "IRODORI_CHESS_CARD_STRENGTHEN",
    "EPNNHMDGFKJ": "IRODORI_CARD_TAG_PHYSICS",
    "GHDLEFOLNAE": 2206194902,
    "descTextMapHash": 399321841,
    "descParam": [0.0, 0.0, 0.0],
    "HMNEJMNLBHI": [
      {
        "EJJFKECLFNE": "IRODORI_CARD_NUMERICAL_ATTACK",
        "CEHBDJCCCLC": "IRODORI_CARD_NUMERICAL_BASE",
        "DFFFEHOHHAK": 2000.0
      },
      {
        "EJJFKECLFNE": "IRODORI_CARD_NUMERICAL_ATTACK_INTERVAL",
        "CEHBDJCCCLC": "IRODORI_CARD_NUMERICAL_PERCENTAGE",
        "DFFFEHOHHAK": -0.20000000298023224
      }
    ]
  },
  {
    "ID": 34,
    "costPoints": 20,
    "LABPPMCAOFM": {
      "BIADMFAIIKE": "IRODORI_CHESS_CARD_TARGET_GADGETS",
      "BPONLNCHNFD": [70350419],
      "OAMBHJKOBJL": "IRODORI_CHESS_CARD_EFFECT_ADD_SGV",
      "FKMAPFCGJBH": "SGV_SpeedDown",
      "GNEBNBDLECG": 1
    },
    "BBKGKGIIEIA": [
      {
        "BPONLNCHNFD": [],
        "FKMAPFCGJBH": ""
      }
    ],
    "cardType": "IRODORI_CHESS_CARD_STRENGTHEN",
    "NKMCIINMDLG": "IRODORI_CARD_QUALITY_GOOD",
    "EPNNHMDGFKJ": "IRODORI_CARD_TAG_REPEL",
    "GHDLEFOLNAE": 1171389542,
    "descTextMapHash": 2486380801,
    "descParam": [4.0, 0.0, 0.0],
    "HMNEJMNLBHI": [{}, {}]
  },
  {
    "ID": 35,
    "costPoints": 40,
    "LABPPMCAOFM": {
      "BIADMFAIIKE": "IRODORI_CHESS_CARD_TARGET_GADGETS",
      "BPONLNCHNFD": [70350419],
      "OAMBHJKOBJL": "IRODORI_CHESS_CARD_EFFECT_ADD_SGV",
      "FKMAPFCGJBH": "SGV_Durability",
      "GNEBNBDLECG": 1
    },
    "BBKGKGIIEIA": [
      {
        "BPONLNCHNFD": [],
        "FKMAPFCGJBH": ""
      }
    ],
    "cardType": "IRODORI_CHESS_CARD_STRENGTHEN",
    "NKMCIINMDLG": "IRODORI_CARD_QUALITY_PERCECT",
    "EPNNHMDGFKJ": "IRODORI_CARD_TAG_REPEL",
    "GHDLEFOLNAE": 448141934,
    "descTextMapHash": 2137669289,
    "descParam": [4.0, 0.0, 0.0],
    "HMNEJMNLBHI": [{}, {}]
  },
  {
    "ID": 36,
    "costPoints": 20,
    "LABPPMCAOFM": {
      "BIADMFAIIKE": "IRODORI_CHESS_CARD_TARGET_GADGETS",
      "BPONLNCHNFD": [70350418],
      "OAMBHJKOBJL": "IRODORI_CHESS_CARD_EFFECT_ADD_SGV",
      "FKMAPFCGJBH": "SGV_Trap_Extradamage",
      "GNEBNBDLECG": 2
    },
    "BBKGKGIIEIA": [
      {
        "BPONLNCHNFD": [],
        "FKMAPFCGJBH": ""
      }
    ],
    "cardType": "IRODORI_CHESS_CARD_STRENGTHEN",
    "NKMCIINMDLG": "IRODORI_CARD_QUALITY_GOOD",
    "EPNNHMDGFKJ": "IRODORI_CARD_TAG_TRAP",
    "GHDLEFOLNAE": 81209510,
    "descTextMapHash": 2364865313,
    "descParam": [0.0, 0.0, 0.0],
    "HMNEJMNLBHI": [{}, {}]
  },
  {
    "ID": 37,
    "costPoints": 40,
    "LABPPMCAOFM": {
      "BIADMFAIIKE": "IRODORI_CHESS_CARD_TARGET_GADGETS",
      "BPONLNCHNFD": [70350418],
      "OAMBHJKOBJL": "IRODORI_CHESS_CARD_EFFECT_ADD_SGV",
      "FKMAPFCGJBH": "SGV_Trap_Reset",
      "GNEBNBDLECG": 1
    },
    "BBKGKGIIEIA": [
      {
        "BPONLNCHNFD": [],
        "FKMAPFCGJBH": ""
      }
    ],
    "cardType": "IRODORI_CHESS_CARD_STRENGTHEN",
    "NKMCIINMDLG": "IRODORI_CARD_QUALITY_PERCECT",
    "EPNNHMDGFKJ": "IRODORI_CARD_TAG_TRAP",
    "GHDLEFOLNAE": 2911948830,
    "descTextMapHash": 3083159673,
    "descParam": [7.0, 0.0, 0.0],
    "HMNEJMNLBHI": [{}, {}]
  },
  {
    "ID": 38,
    "costPoints": 40,
    "LABPPMCAOFM": {
      "BIADMFAIIKE": "IRODORI_CHESS_CARD_TARGET_GADGETS",
      "BPONLNCHNFD": [70350418],
      "OAMBHJKOBJL": "IRODORI_CHESS_CARD_EFFECT_ADD_SGV",
      "FKMAPFCGJBH": "SGV_Trap_Multiple",
      "GNEBNBDLECG": 1
    },
    "BBKGKGIIEIA": [
      {
        "BPONLNCHNFD": [],
        "FKMAPFCGJBH": ""
      }
    ],
    "cardType": "IRODORI_CHESS_CARD_STRENGTHEN",
    "NKMCIINMDLG": "IRODORI_CARD_QUALITY_PERCECT",
    "EPNNHMDGFKJ": "IRODORI_CARD_TAG_TRAP",
    "GHDLEFOLNAE": 4061514910,
    "descTextMapHash": 2639234681,
    "descParam": [0.0, 0.0, 0.0],
    "HMNEJMNLBHI": [{}, {}]
  },
  {
    "ID": 39,
    "costPoints": 20,
    "LABPPMCAOFM": {
      "BIADMFAIIKE": "IRODORI_CHESS_CARD_TARGET_GADGETS",
      "BPONLNCHNFD": [70350418],
      "OAMBHJKOBJL": "IRODORI_CHESS_CARD_EFFECT_ADD_SGV",
      "FKMAPFCGJBH": "SGV_Trap_Extratime",
      "GNEBNBDLECG": 1
    },
    "BBKGKGIIEIA": [
      {
        "BPONLNCHNFD": [],
        "FKMAPFCGJBH": ""
      }
    ],
    "cardType": "IRODORI_CHESS_CARD_STRENGTHEN",
    "NKMCIINMDLG": "IRODORI_CARD_QUALITY_GOOD",
    "EPNNHMDGFKJ": "IRODORI_CARD_TAG_TRAP",
    "GHDLEFOLNAE": 1574170814,
    "descTextMapHash": 909594697,
    "descParam": [2.0, 0.0, 0.0],
    "HMNEJMNLBHI": [{}, {}]
  },
  {
    "ID": 40,
    "costPoints": 10,
    "LABPPMCAOFM": {
      "BIADMFAIIKE": "IRODORI_CHESS_CARD_TARGET_GADGETS",
      "BPONLNCHNFD": [70350418],
      "OAMBHJKOBJL": "IRODORI_CHESS_CARD_EFFECT_ADD_SGV",
      "FKMAPFCGJBH": "SGV_Trap_Extradamage",
      "GNEBNBDLECG": 1
    },
    "BBKGKGIIEIA": [
      {
        "BPONLNCHNFD": [],
        "FKMAPFCGJBH": ""
      }
    ],
    "cardType": "IRODORI_CHESS_CARD_STRENGTHEN",
    "EPNNHMDGFKJ": "IRODORI_CARD_TAG_TRAP",
    "GHDLEFOLNAE": 542180726,
    "descTextMapHash": 977125785,
    "descParam": [50.0, 0.0, 0.0],
    "HMNEJMNLBHI": [{}, {}]
  },
  {
    "ID": 41,
    "costPoints": 40,
    "LABPPMCAOFM": {
      "BIADMFAIIKE": "IRODORI_CHESS_CARD_TARGET_GADGETS",
      "BPONLNCHNFD": [70350412],
      "OAMBHJKOBJL": "IRODORI_CHESS_CARD_EFFECT_ADD_SGV",
      "FKMAPFCGJBH": "SGV_Mine_Reset",
      "GNEBNBDLECG": 1
    },
    "BBKGKGIIEIA": [
      {
        "BPONLNCHNFD": [],
        "FKMAPFCGJBH": ""
      }
    ],
    "cardType": "IRODORI_CHESS_CARD_STRENGTHEN",
    "NKMCIINMDLG": "IRODORI_CARD_QUALITY_PERCECT",
    "EPNNHMDGFKJ": "IRODORI_CARD_TAG_BOMB",
    "GHDLEFOLNAE": 786500982,
    "descTextMapHash": 157259969,
    "descParam": [7.0, 0.0, 0.0],
    "HMNEJMNLBHI": [{}, {}]
  },
  {
    "ID": 42,
    "costPoints": 20,
    "LABPPMCAOFM": {
      "BIADMFAIIKE": "IRODORI_CHESS_CARD_TARGET_GADGETS",
      "BPONLNCHNFD": [70350412],
      "OAMBHJKOBJL": "IRODORI_CHESS_CARD_EFFECT_ADD_SGV",
      "FKMAPFCGJBH": "SGV_ExplosionReturnPoint",
      "GNEBNBDLECG": 1
    },
    "BBKGKGIIEIA": [
      {
        "BPONLNCHNFD": [],
        "FKMAPFCGJBH": ""
      }
    ],
    "cardType": "IRODORI_CHESS_CARD_STRENGTHEN",
    "NKMCIINMDLG": "IRODORI_CARD_QUALITY_GOOD",
    "EPNNHMDGFKJ": "IRODORI_CARD_TAG_BOMB",
    "GHDLEFOLNAE": 920823542,
    "descTextMapHash": 3167909705,
    "descParam": [20.0, 0.0, 0.0],
    "HMNEJMNLBHI": [{}, {}]
  },
  {
    "ID": 43,
    "costPoints": 10,
    "LABPPMCAOFM": {
      "BIADMFAIIKE": "IRODORI_CHESS_CARD_TARGET_GADGETS",
      "BPONLNCHNFD": [70350412],
      "OAMBHJKOBJL": "IRODORI_CHESS_CARD_EFFECT_ADD_SGV",
      "FKMAPFCGJBH": "SGV_Mine_Extradamage",
      "GNEBNBDLECG": 1
    },
    "BBKGKGIIEIA": [
      {
        "BPONLNCHNFD": [],
        "FKMAPFCGJBH": ""
      }
    ],
    "cardType": "IRODORI_CHESS_CARD_STRENGTHEN",
    "EPNNHMDGFKJ": "IRODORI_CARD_TAG_BOMB",
    "GHDLEFOLNAE": 3137233790,
    "descTextMapHash": 1992285033,
    "descParam": [50.0, 0.0, 0.0],
    "HMNEJMNLBHI": [{}, {}]
  },
  {
    "ID": 44,
    "costPoints": 10,
    "LABPPMCAOFM": {
      "BIADMFAIIKE": "IRODORI_CHESS_CARD_TARGET_GADGETS",
      "BPONLNCHNFD": [70350414, 70350417, 70350416, 70350419],
      "OAMBHJKOBJL": "IRODORI_CHESS_CARD_EFFECT_ADD_TARGET_GEAR_NUM",
      "FKMAPFCGJBH": "",
      "GNEBNBDLECG": 1
    },
    "BBKGKGIIEIA": [
      {
        "BPONLNCHNFD": [],
        "FKMAPFCGJBH": ""
      }
    ],
    "NKMCIINMDLG": "IRODORI_CARD_QUALITY_GOOD",
    "EPNNHMDGFKJ": "IRODORI_CARD_TAG_OTHER",
    "GHDLEFOLNAE": 3179741622,
    "descTextMapHash": 748754481,
    "descParam": [1.0, 0.0, 0.0],
    "HMNEJMNLBHI": [{}, {}]
  },
  {
    "ID": 45,
    "costPoints": 10,
    "LABPPMCAOFM": {
      "BIADMFAIIKE": "IRODORI_CHESS_CARD_TARGET_GADGETS",
      "BPONLNCHNFD": [70350397],
      "OAMBHJKOBJL": "IRODORI_CHESS_CARD_EFFECT_ADD_TARGET_GEAR_NUM",
      "FKMAPFCGJBH": "",
      "GNEBNBDLECG": 2
    },
    "BBKGKGIIEIA": [
      {
        "BPONLNCHNFD": [],
        "FKMAPFCGJBH": ""
      }
    ],
    "NKMCIINMDLG": "IRODORI_CARD_QUALITY_GOOD",
    "EPNNHMDGFKJ": "IRODORI_CARD_TAG_OTHER",
    "GHDLEFOLNAE": 1620511198,
    "descTextMapHash": 1236721729,
    "descParam": [2.0, 0.0, 0.0],
    "HMNEJMNLBHI": [{}, {}]
  },
  {
    "ID": 46,
    "costPoints": 10,
    "LABPPMCAOFM": {
      "BIADMFAIIKE": "IRODORI_CHESS_CARD_TARGET_GADGETS",
      "BPONLNCHNFD": [70350413],
      "OAMBHJKOBJL": "IRODORI_CHESS_CARD_EFFECT_ADD_TARGET_GEAR_NUM",
      "FKMAPFCGJBH": "",
      "GNEBNBDLECG": 2
    },
    "BBKGKGIIEIA": [
      {
        "BPONLNCHNFD": [],
        "FKMAPFCGJBH": ""
      }
    ],
    "NKMCIINMDLG": "IRODORI_CARD_QUALITY_GOOD",
    "EPNNHMDGFKJ": "IRODORI_CARD_TAG_OTHER",
    "GHDLEFOLNAE": 617194334,
    "descTextMapHash": 3211399089,
    "descParam": [2.0, 0.0, 0.0],
    "HMNEJMNLBHI": [{}, {}]
  },
  {
    "ID": 47,
    "costPoints": 10,
    "LABPPMCAOFM": {
      "BIADMFAIIKE": "IRODORI_CHESS_CARD_TARGET_GADGETS",
      "BPONLNCHNFD": [70350417],
      "OAMBHJKOBJL": "IRODORI_CHESS_CARD_EFFECT_ADD_TARGET_GEAR_NUM",
      "FKMAPFCGJBH": "",
      "GNEBNBDLECG": 2
    },
    "BBKGKGIIEIA": [
      {
        "BPONLNCHNFD": [],
        "FKMAPFCGJBH": ""
      }
    ],
    "NKMCIINMDLG": "IRODORI_CARD_QUALITY_GOOD",
    "EPNNHMDGFKJ": "IRODORI_CARD_TAG_OTHER",
    "GHDLEFOLNAE": 288277654,
    "descTextMapHash": 2996872985,
    "descParam": [2.0, 0.0, 0.0],
    "HMNEJMNLBHI": [{}, {}]
  },
  {
    "ID": 48,
    "costPoints": 10,
    "LABPPMCAOFM": {
      "BPONLNCHNFD": [],
      "OAMBHJKOBJL": "IRODORI_CHESS_CARD_EFFECT_MOD_REFUND_BY_COST",
      "FKMAPFCGJBH": "",
      "GNEBNBDLECG": 8000
    },
    "BBKGKGIIEIA": [
      {
        "BPONLNCHNFD": [],
        "FKMAPFCGJBH": ""
      }
    ],
    "NKMCIINMDLG": "IRODORI_CARD_QUALITY_GOOD",
    "EPNNHMDGFKJ": "IRODORI_CARD_TAG_OTHER",
    "GHDLEFOLNAE": 3252430342,
    "descTextMapHash": 1932172841,
    "descParam": [80.0, 0.0, 0.0],
    "HMNEJMNLBHI": [{}, {}]
  },
  {
    "ID": 49,
    "costPoints": 10,
    "LABPPMCAOFM": {
      "BPONLNCHNFD": [],
      "OAMBHJKOBJL": "IRODORI_CHESS_CARD_EFFECT_ADD_ABILITY_GROUP",
      "FKMAPFCGJBH": "Ability_TowerDefence_V3_Avatar_SkillCDMinus"
    },
    "BBKGKGIIEIA": [
      {
        "BPONLNCHNFD": [],
        "FKMAPFCGJBH": ""
      }
    ],
    "NKMCIINMDLG": "IRODORI_CARD_QUALITY_GOOD",
    "EPNNHMDGFKJ": "IRODORI_CARD_TAG_CHARACTER",
    "GHDLEFOLNAE": 3722629014,
    "descTextMapHash": 2528109953,
    "descParam": [35.0, 0.0, 0.0],
    "HMNEJMNLBHI": [{}, {}]
  },
  {
    "ID": 50,
    "costPoints": 10,
    "LABPPMCAOFM": {
      "BPONLNCHNFD": [],
      "OAMBHJKOBJL": "IRODORI_CHESS_CARD_EFFECT_ADD_ABILITY_GROUP",
      "FKMAPFCGJBH": "Ability_TowerDefence_V3_Avatar_Strengthen"
    },
    "BBKGKGIIEIA": [
      {
        "BPONLNCHNFD": [],
        "FKMAPFCGJBH": ""
      }
    ],
    "NKMCIINMDLG": "IRODORI_CARD_QUALITY_GOOD",
    "EPNNHMDGFKJ": "IRODORI_CARD_TAG_CHARACTER",
    "GHDLEFOLNAE": 189052390,
    "descTextMapHash": 658865321,
    "descParam": [25.0, 25.0, 25.0],
    "HMNEJMNLBHI": [{}, {}]
  },
  {
    "ID": 51,
    "costPoints": 10,
    "LABPPMCAOFM": {
      "BPONLNCHNFD": [],
      "OAMBHJKOBJL": "IRODORI_CHESS_CARD_EFFECT_ADD_ABILITY_GROUP",
      "FKMAPFCGJBH": "Ability_TowerDefence_V3_Avatar_Weaken_Monster_Health_Recover"
    },
    "BBKGKGIIEIA": [
      {
        "BPONLNCHNFD": [],
        "FKMAPFCGJBH": ""
      }
    ],
    "NKMCIINMDLG": "IRODORI_CARD_QUALITY_GOOD",
    "EPNNHMDGFKJ": "IRODORI_CARD_TAG_CHARACTER",
    "GHDLEFOLNAE": 1105389678,
    "descTextMapHash": 1722530457,
    "descParam": [100.0, 0.0, 0.0],
    "HMNEJMNLBHI": [{}, {}]
  },
  {
    "ID": 52,
    "costPoints": 10,
    "LABPPMCAOFM": {
      "BPONLNCHNFD": [],
      "OAMBHJKOBJL": "IRODORI_CHESS_CARD_EFFECT_LUA_CUSTOM",
      "FKMAPFCGJBH": ""
    },
    "BBKGKGIIEIA": [
      {
        "BPONLNCHNFD": [],
        "FKMAPFCGJBH": ""
      }
    ],
    "NKMCIINMDLG": "IRODORI_CARD_QUALITY_GOOD",
    "EPNNHMDGFKJ": "IRODORI_CARD_TAG_OTHER",
    "GHDLEFOLNAE": 3014882846,
    "descTextMapHash": 1183356857,
    "descParam": [100.0, 0.0, 0.0],
    "HMNEJMNLBHI": [{}, {}]
  },
  {
    "ID": 53,
    "costPoints": 10,
    "LABPPMCAOFM": {
      "BPONLNCHNFD": [],
      "OAMBHJKOBJL": "IRODORI_CHESS_CARD_EFFECT_LUA_CUSTOM",
      "FKMAPFCGJBH": ""
    },
    "BBKGKGIIEIA": [
      {
        "BPONLNCHNFD": [],
        "FKMAPFCGJBH": ""
      }
    ],
    "NKMCIINMDLG": "IRODORI_CARD_QUALITY_GOOD",
    "EPNNHMDGFKJ": "IRODORI_CARD_TAG_OTHER",
    "GHDLEFOLNAE": 390124462,
    "descTextMapHash": 1629645129,
    "descParam": [12.0, 0.0, 0.0],
    "HMNEJMNLBHI": [{}, {}]
  }
]
