[
  {
    "JCFKABANLNI": 1,
    "gadgetId": 70350413,
    "FGNEGEFOJAP": 1,
    "gearNameTextMapHash": 817272258,
    "gearShortNameTextMapHash": 2737592193,
    "descTextMapHash": 507890396,
    "gearIconPath": "UI_Property_Prop_TowerWater",
    "MDKAMNCIPLE": "UI_TheatreMechanicus_TypeIcon_Water",
    "mapIconPath": "UI_TheatreMechanicus_Element_Water",
    "attack": 10000,
    "attackSpeed": 4,
    "attackRange": -1
  },
  {
    "JCFKABANLNI": 2,
    "gadgetId": 70350414,
    "FGNEGEFOJAP": 1,
    "gearNameTextMapHash": 2441370474,
    "gearShortNameTextMapHash": 3200560025,
    "descTextMapHash": 2909906068,
    "gearIconPath": "UI_Property_Prop_TowerFire",
    "MDKAMNCIPLE": "UI_TheatreMechanicus_TypeIcon_Fire",
    "mapIconPath": "UI_TheatreMechanicus_Element_Fire",
    "attack": 10000,
    "attackSpeed": 5,
    "attackRange": -1
  },
  {
    "JCFKABANLNI": 3,
    "gadgetId": 70350417,
    "FGNEGEFOJAP": 1,
    "gearNameTextMapHash": 743529442,
    "gearShortNameTextMapHash": 1960603441,
    "descTextMapHash": 1659680372,
    "gearIconPath": "UI_Property_Prop_TowerElectric",
    "MDKAMNCIPLE": "UI_TheatreMechanicus_TypeIcon_Electric",
    "mapIconPath": "UI_TheatreMechanicus_Element_Elect",
    "attack": 10000,
    "attackSpeed": 4,
    "attackRange": -1
  },
  {
    "JCFKABANLNI": 4,
    "gadgetId": 70350416,
    "isEnableRotate": true,
    "FGNEGEFOJAP": 1,
    "gearNameTextMapHash": 652793914,
    "gearShortNameTextMapHash": 2317925841,
    "descTextMapHash": 4222711388,
    "gearIconPath": "UI_Property_Prop_TowerWind",
    "MDKAMNCIPLE": "UI_TheatreMechanicus_TypeIcon_Wind",
    "mapIconPath": "UI_TheatreMechanicus_Element_Wind",
    "attack": 10000,
    "attackSpeed": 4,
    "attackRange": -1
  },
  {
    "JCFKABANLNI": 5,
    "gadgetId": 70350415,
    "FGNEGEFOJAP": 1,
    "gearNameTextMapHash": 3567891258,
    "gearShortNameTextMapHash": 443808353,
    "descTextMapHash": 3829741156,
    "gearIconPath": "UI_Property_Prop_TowerIce",
    "MDKAMNCIPLE": "UI_TheatreMechanicus_TypeIcon_Ice",
    "mapIconPath": "UI_TheatreMechanicus_Element_Frost",
    "attack": 10000,
    "attackSpeed": 3,
    "attackRange": -1
  },
  {
    "JCFKABANLNI": 6,
    "gadgetId": 70350397,
    "FGNEGEFOJAP": 1,
    "gearNameTextMapHash": 1653102994,
    "gearShortNameTextMapHash": 3532643049,
    "descTextMapHash": 1906618748,
    "gearIconPath": "UI_Property_Prop_TowerPhysics_01",
    "MDKAMNCIPLE": "UI_TheatreMechanicus_TypeIcon_Physics",
    "mapIconPath": "UI_TheatreMechanicus_Element_Physics",
    "attack": 10000,
    "attackSpeed": 2,
    "attackRange": -1
  },
  {
    "JCFKABANLNI": 7,
    "gadgetId": 70350412,
    "FGNEGEFOJAP": 1,
    "gearNameTextMapHash": 85896194,
    "gearShortNameTextMapHash": 3069493729,
    "descTextMapHash": 3189693612,
    "gearIconPath": "UI_Property_Prop_TowerBoom_01",
    "MDKAMNCIPLE": "UI_TheatreMechanicus_TypeIcon_TowerBoom",
    "mapIconPath": "UI_TheatreMechanicus_Element_Boom",
    "attack": 10000,
    "CNEEDGHLGOJ": -1,
    "attackSpeed": -1,
    "attackRange": 4
  },
  {
    "JCFKABANLNI": 10,
    "gadgetId": 70350418,
    "FGNEGEFOJAP": 1,
    "gearNameTextMapHash": 1439726074,
    "gearShortNameTextMapHash": 4080501745,
    "descTextMapHash": 293150996,
    "gearIconPath": "UI_Property_Prop_TowerTrap_01",
    "MDKAMNCIPLE": "UI_TheatreMechanicus_TypeIcon_TowerTrap",
    "mapIconPath": "UI_TheatreMechanicus_Element_Trap",
    "attack": -1,
    "CNEEDGHLGOJ": -1,
    "attackSpeed": -1,
    "attackRange": 4
  },
  {
    "JCFKABANLNI": 11,
    "gadgetId": 70350419,
    "isEnableRotate": true,
    "FGNEGEFOJAP": 1,
    "gearNameTextMapHash": 800691746,
    "gearShortNameTextMapHash": 1500236857,
    "descTextMapHash": 57532300,
    "gearIconPath": "UI_Property_Ani_Prop_TowerRepel_01",
    "MDKAMNCIPLE": "UI_TheatreMechanicus_TypeIcon_TowerRepel",
    "mapIconPath": "UI_TheatreMechanicus_Element_Repel",
    "attack": -1,
    "CNEEDGHLGOJ": -1,
    "attackSpeed": -1,
    "attackRange": 2
  }
]
