[
  {
    "levelId": 1,
    "stageId": 1,
    "watcherId": 12010601,
    "levelNameTextMapHash": 1270069152,
    "FBICHKJAFND": "ART/UI/Atlas/LanternRiteV2/UI_LanternRiteV2_LampExplore_Projection_01",
    "NAPKMHENLAH": "ART/UI/Atlas/LanternRiteV2/UI_LanternRiteV2_LampExplore_Projection_01",
    "DLMNJFACPON": 0.001484000007621944,
    "INEOHJNIKPP": 0.06888899952173233,
    "KBCILPGIDAM": 0.6693059802055359,
    "OOHANDHMIOH": 2,
    "CIIPHEHGOMC": [0.0, 0.0, 0.0, 0.0, 0.0, 0.0],
    "NNIHLLCKLIN": [],
    "BFCGKBHLCEJ": [],
    "KGFFFCFCAOP": [],
    "KKLLAGOPOEH": [],
    "CIPMOKHPPAN": [[], []],
    "AFDGEDGIDBB": [
      {
        "prefabPath": "ART/Others/Gadget/Static/Prop/Property_Prop_ProjectionParts_01_03_Vo",
        "JJCBMDBAPFJ": "ART/Others/Gadget/Static/Prop/Property_Prop_ProjectionParts_01_25_Vo",
        "CHEFMMLBIDF": [0.0, 0.0, 0.0, 90.0, 180.0, 0.0],
        "ALFELHAGPFO": [0.0, 0.0, 0.0, 0.0, 0.0, 0.0],
        "EBKEKCOKMAP": [50.0, 5.0],
        "EJJODMACJLD": [],
        "LMHPMFBGBML": []
      },
      {
        "prefabPath": "",
        "JJCBMDBAPFJ": "",
        "CHEFMMLBIDF": [],
        "ALFELHAGPFO": [],
        "EBKEKCOKMAP": [],
        "EJJODMACJLD": [],
        "LMHPMFBGBML": []
      },
      {
        "prefabPath": "",
        "JJCBMDBAPFJ": "",
        "CHEFMMLBIDF": [],
        "ALFELHAGPFO": [],
        "EBKEKCOKMAP": [],
        "EJJODMACJLD": [],
        "LMHPMFBGBML": []
      }
    ]
  },
  {
    "levelId": 2,
    "stageId": 1,
    "watcherId": 12010602,
    "levelNameTextMapHash": 1399174272,
    "FBICHKJAFND": "ART/UI/Atlas/LanternRiteV2/UI_LanternRiteV2_LampExplore_Projection_02",
    "NAPKMHENLAH": "ART/UI/Atlas/LanternRiteV2/UI_LanternRiteV2_LampExplore_Projection_02",
    "DLMNJFACPON": 0.0056940000504255295,
    "INEOHJNIKPP": 0.0182499997317791,
    "KBCILPGIDAM": 0.6379169821739197,
    "OOHANDHMIOH": 2,
    "CIIPHEHGOMC": [0.0, 0.0, 0.0, 0.0, 0.0, 0.0],
    "NNIHLLCKLIN": [],
    "BFCGKBHLCEJ": [],
    "KGFFFCFCAOP": [],
    "KKLLAGOPOEH": [],
    "CIPMOKHPPAN": [[], []],
    "AFDGEDGIDBB": [
      {
        "prefabPath": "ART/Others/Gadget/Static/Prop/Property_Prop_ProjectionParts_01_02_Vo",
        "JJCBMDBAPFJ": "ART/Others/Gadget/Static/Prop/Property_Prop_ProjectionParts_01_21_Vo",
        "CHEFMMLBIDF": [0.0, 0.0, 0.0, 90.0, 180.0, 0.0],
        "ALFELHAGPFO": [0.0, 0.0, 0.0, 0.0, 0.0, 0.0],
        "EBKEKCOKMAP": [30.0, 5.0],
        "EJJODMACJLD": [],
        "LMHPMFBGBML": []
      },
      {
        "prefabPath": "",
        "JJCBMDBAPFJ": "",
        "CHEFMMLBIDF": [],
        "ALFELHAGPFO": [],
        "EBKEKCOKMAP": [],
        "EJJODMACJLD": [],
        "LMHPMFBGBML": []
      },
      {
        "prefabPath": "",
        "JJCBMDBAPFJ": "",
        "CHEFMMLBIDF": [],
        "ALFELHAGPFO": [],
        "EBKEKCOKMAP": [],
        "EJJODMACJLD": [],
        "LMHPMFBGBML": []
      }
    ]
  },
  {
    "levelId": 3,
    "stageId": 1,
    "watcherId": 12010603,
    "levelNameTextMapHash": 1627081888,
    "FBICHKJAFND": "ART/UI/Atlas/LanternRiteV2/UI_LanternRiteV2_LampExplore_Projection_03",
    "NAPKMHENLAH": "ART/UI/Atlas/LanternRiteV2/UI_LanternRiteV2_LampExplore_Projection_03",
    "DLMNJFACPON": 0.00684700021520257,
    "INEOHJNIKPP": -0.016194000840187073,
    "KBCILPGIDAM": 0.6419439911842346,
    "OOHANDHMIOH": 2,
    "CIIPHEHGOMC": [0.0, 0.0, 0.0, 0.0, 0.0, 0.0],
    "NNIHLLCKLIN": [],
    "BFCGKBHLCEJ": [],
    "KGFFFCFCAOP": [],
    "KKLLAGOPOEH": [],
    "CIPMOKHPPAN": [[], []],
    "AFDGEDGIDBB": [
      {
        "prefabPath": "ART/Others/Gadget/Static/Prop/Property_Prop_ProjectionParts_01_01_Vo",
        "JJCBMDBAPFJ": "ART/Others/Gadget/Static/Prop/Property_Prop_ProjectionParts_01_20_Vo",
        "CHEFMMLBIDF": [0.0, 0.0, 0.0, -90.0, 0.0, 0.0],
        "ALFELHAGPFO": [0.0, 0.0, 0.0, 0.0, 30.0, 0.0],
        "EBKEKCOKMAP": [50.0, 5.0],
        "EJJODMACJLD": [],
        "LMHPMFBGBML": []
      },
      {
        "prefabPath": "",
        "JJCBMDBAPFJ": "",
        "CHEFMMLBIDF": [],
        "ALFELHAGPFO": [],
        "EBKEKCOKMAP": [],
        "EJJODMACJLD": [],
        "LMHPMFBGBML": []
      },
      {
        "prefabPath": "",
        "JJCBMDBAPFJ": "",
        "CHEFMMLBIDF": [],
        "ALFELHAGPFO": [],
        "EBKEKCOKMAP": [],
        "EJJODMACJLD": [],
        "LMHPMFBGBML": []
      }
    ]
  },
  {
    "levelId": 4,
    "stageId": 2,
    "watcherId": 12010604,
    "levelNameTextMapHash": 2254330752,
    "FBICHKJAFND": "ART/UI/Atlas/LanternRiteV2/UI_LanternRiteV2_LampExplore_Projection_04",
    "NAPKMHENLAH": "ART/UI/Atlas/LanternRiteV2/UI_LanternRiteV2_LampExplore_Projection_04",
    "INEOHJNIKPP": 0.06777799874544144,
    "KBCILPGIDAM": 0.5243890285491943,
    "OOHANDHMIOH": 1,
    "CIIPHEHGOMC": [0.0, 0.0, 0.0, 90.0, 180.0, 0.0],
    "NNIHLLCKLIN": [],
    "BFCGKBHLCEJ": [],
    "KGFFFCFCAOP": [],
    "KKLLAGOPOEH": [],
    "CIPMOKHPPAN": [[1, 0], []],
    "AFDGEDGIDBB": [
      {
        "prefabPath": "ART/Others/Gadget/Static/Prop/Property_Prop_ProjectionParts_01_17_Vo",
        "JJCBMDBAPFJ": "ART/Others/Gadget/Static/Prop/Property_Prop_ProjectionParts_01_27_Vo",
        "EMBBDLMLDFD": 11,
        "CHEFMMLBIDF": [0.0, 0.0, 0.0, 0.0, 0.0, 0.0],
        "ALFELHAGPFO": [0.0, 0.0, 0.0, 341.0, 271.0, 278.0],
        "EBKEKCOKMAP": [180.0, 10.0],
        "EJJODMACJLD": [],
        "LMHPMFBGBML": []
      },
      {
        "prefabPath": "ART/Others/Gadget/Static/Prop/Property_Prop_ProjectionParts_01_18_Vo",
        "JJCBMDBAPFJ": "ART/Others/Gadget/Static/Prop/Property_Prop_ProjectionParts_01_26_Vo",
        "EMBBDLMLDFD": 2,
        "CHEFMMLBIDF": [
          -0.3100000023841858, -0.14000000059604645, 0.6899999976158142, 0.0,
          0.0, 0.0
        ],
        "ALFELHAGPFO": [
          0.20000000298023224, -0.14000000059604645, 1.100000023841858, 0.0,
          0.0, 0.0
        ],
        "OKEFAEDONCG": "SingleAxisTranslation",
        "EBKEKCOKMAP": [],
        "EJJODMACJLD": [1.0, 0.0, 0.800000011920929],
        "LMHPMFBGBML": [-0.10000000149011612, 0.6700000166893005],
        "JFOMOMBOFPN": 0.10000000149011612
      },
      {
        "prefabPath": "",
        "JJCBMDBAPFJ": "",
        "CHEFMMLBIDF": [],
        "ALFELHAGPFO": [],
        "EBKEKCOKMAP": [],
        "EJJODMACJLD": [],
        "LMHPMFBGBML": []
      }
    ]
  },
  {
    "levelId": 5,
    "stageId": 2,
    "watcherId": 12010605,
    "levelNameTextMapHash": 532233104,
    "FBICHKJAFND": "ART/UI/Atlas/LanternRiteV2/UI_LanternRiteV2_LampExplore_Projection_05",
    "NAPKMHENLAH": "ART/UI/Atlas/LanternRiteV2/UI_LanternRiteV2_LampExplore_Projection_05",
    "INEOHJNIKPP": 0.044833000749349594,
    "KBCILPGIDAM": 0.5929170250892639,
    "OOHANDHMIOH": 1,
    "CIIPHEHGOMC": [0.0, 0.0, 0.0, 90.0, 180.0, 0.0],
    "NNIHLLCKLIN": [],
    "BFCGKBHLCEJ": [],
    "KGFFFCFCAOP": [],
    "KKLLAGOPOEH": [],
    "CIPMOKHPPAN": [[1, 0], []],
    "AFDGEDGIDBB": [
      {
        "prefabPath": "ART/Others/Gadget/Static/Prop/Property_Prop_ProjectionParts_01_16_Vo",
        "JJCBMDBAPFJ": "ART/Others/Gadget/Static/Prop/Property_Prop_ProjectionParts_01_29_Vo",
        "EMBBDLMLDFD": 11,
        "CHEFMMLBIDF": [0.0, 0.5, 0.0, 0.0, 0.0, 0.0],
        "ALFELHAGPFO": [0.0, 0.5, 0.0, 0.0, 0.0, 90.0],
        "EBKEKCOKMAP": [30.0, 10.0],
        "EJJODMACJLD": [],
        "LMHPMFBGBML": []
      },
      {
        "prefabPath": "ART/Others/Gadget/Static/Prop/Property_Prop_ProjectionParts_01_15_Vo",
        "JJCBMDBAPFJ": "ART/Others/Gadget/Static/Prop/Property_Prop_ProjectionParts_01_28_Vo",
        "EMBBDLMLDFD": 2,
        "CHEFMMLBIDF": [0.0, -1.0, 0.3199999928474426, 0.0, 0.0, 0.0],
        "ALFELHAGPFO": [0.0, -1.0, 0.3199999928474426, 90.0, 0.0, 0.0],
        "OKEFAEDONCG": "SingleAxisRotation",
        "EBKEKCOKMAP": [],
        "EJJODMACJLD": [1.0, 0.0, 0.0],
        "LMHPMFBGBML": [],
        "JFOMOMBOFPN": 10.0
      },
      {
        "prefabPath": "",
        "JJCBMDBAPFJ": "",
        "CHEFMMLBIDF": [],
        "ALFELHAGPFO": [],
        "EBKEKCOKMAP": [],
        "EJJODMACJLD": [],
        "LMHPMFBGBML": []
      }
    ]
  },
  {
    "levelId": 6,
    "stageId": 2,
    "watcherId": 12010606,
    "levelNameTextMapHash": 1775689848,
    "FBICHKJAFND": "ART/UI/Atlas/LanternRiteV2/UI_LanternRiteV2_LampExplore_Projection_06s",
    "NAPKMHENLAH": "ART/UI/Atlas/LanternRiteV2/UI_LanternRiteV2_LampExplore_Projection_06",
    "INEOHJNIKPP": 0.05041699856519699,
    "KBCILPGIDAM": 0.5694440007209778,
    "OOHANDHMIOH": 1,
    "CIIPHEHGOMC": [0.0, 0.0, 0.0, 90.0, 180.0, 0.0],
    "NNIHLLCKLIN": [],
    "BFCGKBHLCEJ": [],
    "KGFFFCFCAOP": [],
    "KKLLAGOPOEH": [],
    "CIPMOKHPPAN": [[1, 0], []],
    "AFDGEDGIDBB": [
      {
        "prefabPath": "ART/Others/Gadget/Static/Prop/Property_Prop_ProjectionParts_01_14_Vo",
        "JJCBMDBAPFJ": "ART/Others/Gadget/Static/Prop/Property_Prop_ProjectionParts_01_30_Vo",
        "EMBBDLMLDFD": 11,
        "CHEFMMLBIDF": [0.0, 0.0, 0.0, 0.0, 0.0, 0.0],
        "ALFELHAGPFO": [0.0, 0.0, 0.0, 16.0, 22.0, 81.0],
        "EBKEKCOKMAP": [180.0, 10.0],
        "EJJODMACJLD": [],
        "LMHPMFBGBML": []
      },
      {
        "prefabPath": "ART/Others/Gadget/Static/Prop/Property_Prop_ProjectionParts_01_13_Vo",
        "JJCBMDBAPFJ": "ART/Others/Gadget/Static/Prop/Property_Prop_ProjectionParts_01_31_Vo",
        "EMBBDLMLDFD": 2,
        "CHEFMMLBIDF": [
          -0.4099999964237213, 0.6800000071525574, 0.0, 0.0, 0.0, 0.0
        ],
        "ALFELHAGPFO": [
          -0.4099999964237213, 0.6800000071525574, 0.0, 81.0, 2.0, 162.0
        ],
        "EBKEKCOKMAP": [10.0, 10.0],
        "EJJODMACJLD": [],
        "LMHPMFBGBML": []
      },
      {
        "prefabPath": "",
        "JJCBMDBAPFJ": "",
        "CHEFMMLBIDF": [],
        "ALFELHAGPFO": [],
        "EBKEKCOKMAP": [],
        "EJJODMACJLD": [],
        "LMHPMFBGBML": []
      }
    ]
  },
  {
    "levelId": 7,
    "stageId": 3,
    "watcherId": 12010608,
    "levelNameTextMapHash": 3747915856,
    "FBICHKJAFND": "ART/UI/Atlas/LanternRiteV2/UI_LanternRiteV2_LampExplore_Projection_07",
    "NAPKMHENLAH": "ART/UI/Atlas/LanternRiteV2/UI_LanternRiteV2_LampExplore_Projection_07",
    "DLMNJFACPON": -0.0017969999462366104,
    "INEOHJNIKPP": 0.03513899818062782,
    "KBCILPGIDAM": 0.6648610234260559,
    "OOHANDHMIOH": 3,
    "PCBIBKGCPEF": 11,
    "CIIPHEHGOMC": [-0.20000000298023224, 0.0, 0.0, 90.0, 180.0, 0.0],
    "NNIHLLCKLIN": [-0.20000000298023224, 0.0, 0.0, 90.0, 90.0, 0.0],
    "PCNHJDKKPBA": "SingleAxisRotation",
    "BFCGKBHLCEJ": [],
    "KGFFFCFCAOP": [0.0, 1.0, 0.0],
    "KKLLAGOPOEH": [-90.0, 90.0],
    "HGCIIDFINOL": 20.0,
    "CIPMOKHPPAN": [[], []],
    "AFDGEDGIDBB": [
      {
        "prefabPath": "ART/Others/Gadget/Static/Prop/Property_Prop_ProjectionParts_01_10_Vo",
        "JJCBMDBAPFJ": "ART/Others/Gadget/Static/Prop/Property_Prop_ProjectionParts_01_34_Vo",
        "EMBBDLMLDFD": 1,
        "CHEFMMLBIDF": [
          -0.20000000298023224, 1.0, 0.46000000834465027, 0.0, 0.0, 0.0
        ],
        "ALFELHAGPFO": [
          -0.20000000298023224, 1.0, 0.46000000834465027, 45.0, 277.0, 137.0
        ],
        "EBKEKCOKMAP": [25.0, 25.0],
        "EJJODMACJLD": [],
        "LMHPMFBGBML": []
      },
      {
        "prefabPath": "ART/Others/Gadget/Static/Prop/Property_Prop_ProjectionParts_01_12_Vo",
        "JJCBMDBAPFJ": "ART/Others/Gadget/Static/Prop/Property_Prop_ProjectionParts_01_35_Vo",
        "EMBBDLMLDFD": 2,
        "CHEFMMLBIDF": [
          0.20000000298023224, -1.0, -0.46000000834465027, 0.0, 0.0, 0.0
        ],
        "ALFELHAGPFO": [
          0.20000000298023224, -1.0, -0.46000000834465027, 328.0, 74.0, 57.0
        ],
        "EBKEKCOKMAP": [25.0, 20.0],
        "EJJODMACJLD": [],
        "LMHPMFBGBML": []
      },
      {
        "prefabPath": "",
        "JJCBMDBAPFJ": "",
        "CHEFMMLBIDF": [],
        "ALFELHAGPFO": [],
        "EBKEKCOKMAP": [],
        "EJJODMACJLD": [],
        "LMHPMFBGBML": []
      }
    ]
  },
  {
    "levelId": 8,
    "stageId": 3,
    "watcherId": 12010607,
    "levelNameTextMapHash": 1322719296,
    "FBICHKJAFND": "ART/UI/Atlas/LanternRiteV2/UI_LanternRiteV2_LampExplore_Projection_08",
    "NAPKMHENLAH": "ART/UI/Atlas/LanternRiteV2/UI_LanternRiteV2_LampExplore_Projection_08",
    "DLMNJFACPON": 0.01916700042784214,
    "INEOHJNIKPP": 0.019443999975919724,
    "KBCILPGIDAM": 0.535971999168396,
    "OOHANDHMIOH": 3,
    "PCBIBKGCPEF": 11,
    "CIIPHEHGOMC": [0.0, 0.0, 0.0, 90.0, 180.0, 0.0],
    "NNIHLLCKLIN": [0.0, 0.0, 0.0, 90.0, 90.0, 0.0],
    "PCNHJDKKPBA": "SingleAxisRotation",
    "BFCGKBHLCEJ": [],
    "KGFFFCFCAOP": [0.0, 1.0, 0.0],
    "KKLLAGOPOEH": [-90.0, 90.0],
    "HGCIIDFINOL": 20.0,
    "CIPMOKHPPAN": [[], []],
    "AFDGEDGIDBB": [
      {
        "prefabPath": "ART/Others/Gadget/Static/Prop/Property_Prop_ProjectionParts_01_07_Vo",
        "JJCBMDBAPFJ": "ART/Others/Gadget/Static/Prop/Property_Prop_ProjectionParts_01_33_Vo",
        "EMBBDLMLDFD": 1,
        "CHEFMMLBIDF": [
          0.20999999344348907, -1.0, -0.11999999731779099, 0.0, 0.0, 0.0
        ],
        "ALFELHAGPFO": [
          0.20999999344348907, -1.0, -0.11999999731779099, 284.0, 166.0, 63.0
        ],
        "EBKEKCOKMAP": [35.0, 20.0],
        "EJJODMACJLD": [],
        "LMHPMFBGBML": []
      },
      {
        "prefabPath": "ART/Others/Gadget/Static/Prop/Property_Prop_ProjectionParts_01_08_Vo",
        "JJCBMDBAPFJ": "ART/Others/Gadget/Static/Prop/Property_Prop_ProjectionParts_01_32_Vo",
        "EMBBDLMLDFD": 2,
        "CHEFMMLBIDF": [
          -0.20999999344348907, 1.0, 0.11999999731779099, 0.0, 0.0, 0.0
        ],
        "ALFELHAGPFO": [
          -0.20999999344348907, 1.0, 0.11999999731779099, 326.0, 322.0, 220.0
        ],
        "EBKEKCOKMAP": [35.0, 20.0],
        "EJJODMACJLD": [],
        "LMHPMFBGBML": []
      },
      {
        "prefabPath": "",
        "JJCBMDBAPFJ": "",
        "CHEFMMLBIDF": [],
        "ALFELHAGPFO": [],
        "EBKEKCOKMAP": [],
        "EJJODMACJLD": [],
        "LMHPMFBGBML": []
      }
    ]
  },
  {
    "levelId": 9,
    "stageId": 3,
    "watcherId": 12010609,
    "levelNameTextMapHash": 4258426304,
    "FBICHKJAFND": "ART/UI/Atlas/LanternRiteV2/UI_LanternRiteV2_LampExplore_Projection_09",
    "NAPKMHENLAH": "ART/UI/Atlas/LanternRiteV2/UI_LanternRiteV2_LampExplore_Projection_09",
    "DLMNJFACPON": -0.09255599975585938,
    "INEOHJNIKPP": 0.05000000074505806,
    "KBCILPGIDAM": 0.6124439835548401,
    "OOHANDHMIOH": 3,
    "PCBIBKGCPEF": 11,
    "CIIPHEHGOMC": [0.0, 0.0, 0.0, 90.0, 180.0, 0.0],
    "NNIHLLCKLIN": [0.0, 0.0, 0.0, 90.0, 270.0, 0.0],
    "PCNHJDKKPBA": "SingleAxisRotation",
    "BFCGKBHLCEJ": [],
    "KGFFFCFCAOP": [0.0, 1.0, 0.0],
    "KKLLAGOPOEH": [-90.0, 90.0],
    "HGCIIDFINOL": 20.0,
    "CIPMOKHPPAN": [[], []],
    "AFDGEDGIDBB": [
      {
        "prefabPath": "ART/Others/Gadget/Static/Prop/Property_Prop_ProjectionParts_01_04_Vo",
        "JJCBMDBAPFJ": "ART/Others/Gadget/Static/Prop/Property_Prop_ProjectionParts_01_36_Vo",
        "EMBBDLMLDFD": 1,
        "CHEFMMLBIDF": [
          -0.1899999976158142, -1.1399999856948853, -0.6000000238418579, 0.0,
          0.0, 0.0
        ],
        "ALFELHAGPFO": [
          -0.1899999976158142, -1.1399999856948853, -0.6000000238418579, 28.0,
          315.0, 135.0
        ],
        "EBKEKCOKMAP": [40.0, 20.0],
        "EJJODMACJLD": [],
        "LMHPMFBGBML": []
      },
      {
        "prefabPath": "ART/Others/Gadget/Static/Prop/Property_Prop_ProjectionParts_01_05_Vo",
        "JJCBMDBAPFJ": "ART/Others/Gadget/Static/Prop/Property_Prop_ProjectionParts_01_37_Vo",
        "EMBBDLMLDFD": 2,
        "CHEFMMLBIDF": [0.0, 0.0, 0.0, 0.0, 0.0, 0.0],
        "ALFELHAGPFO": [0.0, 0.0, 0.0, 350.0, 310.0, 321.0],
        "EBKEKCOKMAP": [40.0, 20.0],
        "EJJODMACJLD": [],
        "LMHPMFBGBML": []
      },
      {
        "prefabPath": "ART/Others/Gadget/Static/Prop/Property_Prop_ProjectionParts_01_06_Vo",
        "JJCBMDBAPFJ": "ART/Others/Gadget/Static/Prop/Property_Prop_ProjectionParts_01_38_Vo",
        "EMBBDLMLDFD": 3,
        "CHEFMMLBIDF": [
          0.18000000715255737, 1.059999942779541, 0.5600000023841858, 0.0, 0.0,
          0.0
        ],
        "ALFELHAGPFO": [
          0.18000000715255737, 1.059999942779541, 0.5600000023841858, 9.0,
          338.0, 359.0
        ],
        "EBKEKCOKMAP": [20.0, 20.0],
        "EJJODMACJLD": [],
        "LMHPMFBGBML": []
      }
    ]
  }
]
