[
  {
    "scheduleId": 2010001,
    "HEEMMOFNPPP": 100,
    "GPFDFONCJEL": [
      {
        "OCNPCAHBHJP": [0, 80]
      },
      {
        "OCNPCAHBHJP": [80, 100],
        "AEHMHHICEMK": 30
      },
      {
        "OCNPCAHBHJP": [100, 999],
        "AEHMHHICEMK": 50
      }
    ],
    "BKHLHFLFFFL": 0.3449999988079071,
    "NKHMNGNNIJE": 96.0,
    "pushTipsId": 6040
  }
]
