[
  {
    "Id": 1,
    "activityId": 2007,
    "NMALKJILPNN": 102510,
    "PNBDCHICLHB": 1100519,
    "unlockPlayerLevel": 27,
    "rewardId": 32400,
    "MJCIPIAOAMJ": 4001419,
    "guideQuestId": 7266401,
    "MOPPPOOFKNL": 6031,
    "BEDOIBGBBBB": 6033,
    "OJNLGIMDOHL": 7150010,
    "JLEENFFIFDN": 1000
  }
]
