[
  {
    "specialNameID": 10001,
    "specialNameLabID": 10001,
    "specialNameTextMapHash": 1089537347
  },
  {
    "specialNameID": 10002,
    "specialNameLabID": 10001,
    "specialNameTextMapHash": 564266259
  },
  {
    "specialNameID": 10003,
    "specialNameLabID": 10001,
    "specialNameTextMapHash": 3288416043
  },
  {
    "specialNameID": 10004,
    "specialNameLabID": 10001,
    "specialNameTextMapHash": 2844128259
  },
  {
    "specialNameID": 10005,
    "specialNameLabID": 10001,
    "specialNameTextMapHash": 378458627
  },
  {
    "specialNameID": 10006,
    "specialNameLabID": 10001,
    "specialNameTextMapHash": 2712771371
  },
  {
    "specialNameID": 10007,
    "specialNameLabID": 10001,
    "specialNameTextMapHash": 1178312411
  },
  {
    "specialNameID": 10008,
    "specialNameLabID": 10001,
    "specialNameTextMapHash": 2722106131
  },
  {
    "specialNameID": 10009,
    "specialNameLabID": 10001,
    "specialNameTextMapHash": 2772614379
  },
  {
    "specialNameID": 10010,
    "specialNameLabID": 10001,
    "specialNameTextMapHash": 1993321435
  },
  {
    "specialNameID": 10011,
    "specialNameLabID": 10001,
    "specialNameTextMapHash": 1344584211
  },
  {
    "specialNameID": 10012,
    "specialNameLabID": 10001,
    "specialNameTextMapHash": 1943766435
  },
  {
    "specialNameID": 10013,
    "specialNameLabID": 10001,
    "specialNameTextMapHash": 678158875
  },
  {
    "specialNameID": 10014,
    "specialNameLabID": 10001,
    "specialNameTextMapHash": 1502307283
  },
  {
    "specialNameID": 10015,
    "specialNameLabID": 10001,
    "specialNameTextMapHash": 376010587
  },
  {
    "specialNameID": 10016,
    "specialNameLabID": 10001,
    "specialNameTextMapHash": 1330142867
  },
  {
    "specialNameID": 10017,
    "specialNameLabID": 10001,
    "specialNameTextMapHash": 3988498339
  },
  {
    "specialNameID": 10018,
    "specialNameLabID": 10001,
    "specialNameTextMapHash": 1542594507
  },
  {
    "specialNameID": 10019,
    "specialNameLabID": 10001,
    "specialNameTextMapHash": 2488336707
  },
  {
    "specialNameID": 10020,
    "specialNameLabID": 10001,
    "specialNameTextMapHash": 3649437291
  },
  {
    "specialNameID": 10021,
    "specialNameLabID": 10001,
    "specialNameTextMapHash": 4145390987
  },
  {
    "specialNameID": 10022,
    "specialNameLabID": 10001,
    "specialNameTextMapHash": 344554635
  },
  {
    "specialNameID": 10023,
    "specialNameLabID": 10001,
    "specialNameTextMapHash": 2173764595
  },
  {
    "specialNameID": 10024,
    "specialNameLabID": 10001,
    "specialNameTextMapHash": 3787480115
  },
  {
    "specialNameID": 10025,
    "specialNameLabID": 10001,
    "specialNameTextMapHash": 412487099
  },
  {
    "specialNameID": 10026,
    "specialNameLabID": 10001,
    "specialNameTextMapHash": 4040417187
  },
  {
    "specialNameID": 10027,
    "specialNameLabID": 10001,
    "specialNameTextMapHash": 1369855235
  },
  {
    "specialNameID": 10028,
    "specialNameLabID": 10001,
    "specialNameTextMapHash": 2082326819
  },
  {
    "specialNameID": 10029,
    "specialNameLabID": 10001,
    "specialNameTextMapHash": 3582473139
  },
  {
    "specialNameID": 10030,
    "specialNameLabID": 10001,
    "specialNameTextMapHash": 62214299
  },
  {
    "specialNameID": 10031,
    "specialNameLabID": 10001,
    "specialNameTextMapHash": 2715740203
  },
  {
    "specialNameID": 10032,
    "specialNameLabID": 10001,
    "specialNameTextMapHash": 3610314571
  },
  {
    "specialNameID": 10033,
    "specialNameLabID": 10001,
    "specialNameTextMapHash": 3699213787
  },
  {
    "specialNameID": 10034,
    "specialNameLabID": 10001,
    "specialNameTextMapHash": 1218732451
  },
  {
    "specialNameID": 10035,
    "specialNameLabID": 10001,
    "specialNameTextMapHash": 365408443
  },
  {
    "specialNameID": 10036,
    "specialNameLabID": 10001,
    "specialNameTextMapHash": 1966167563
  },
  {
    "specialNameID": 10037,
    "specialNameLabID": 10001,
    "specialNameTextMapHash": 3167704747
  },
  {
    "specialNameID": 10038,
    "specialNameLabID": 10001,
    "specialNameTextMapHash": 3626548515
  },
  {
    "specialNameID": 10039,
    "specialNameLabID": 10001,
    "specialNameTextMapHash": 3417753515
  },
  {
    "specialNameID": 10040,
    "specialNameLabID": 10001,
    "specialNameTextMapHash": 1321918891
  },
  {
    "specialNameID": 10041,
    "specialNameLabID": 10001,
    "specialNameTextMapHash": 3042090563
  },
  {
    "specialNameID": 10042,
    "specialNameLabID": 10001,
    "specialNameTextMapHash": 1990702027
  },
  {
    "specialNameID": 10043,
    "specialNameLabID": 10001,
    "specialNameTextMapHash": 3357726155
  },
  {
    "specialNameID": 10044,
    "specialNameLabID": 10001,
    "specialNameTextMapHash": 2696228187
  },
  {
    "specialNameID": 10045,
    "specialNameLabID": 10001,
    "specialNameTextMapHash": 1227267
  },
  {
    "specialNameID": 10046,
    "specialNameLabID": 10001,
    "specialNameTextMapHash": 232664195
  },
  {
    "specialNameID": 10047,
    "specialNameLabID": 10001,
    "specialNameTextMapHash": 1400892675
  },
  {
    "specialNameID": 10048,
    "specialNameLabID": 10001,
    "specialNameTextMapHash": 191559891
  },
  {
    "specialNameID": 10049,
    "specialNameLabID": 10001,
    "specialNameTextMapHash": 423092243
  },
  {
    "specialNameID": 10050,
    "specialNameLabID": 10001,
    "specialNameTextMapHash": 3739020187
  },
  {
    "specialNameID": 10051,
    "specialNameLabID": 10001,
    "specialNameTextMapHash": 475627579
  },
  {
    "specialNameID": 10052,
    "specialNameLabID": 10001,
    "specialNameTextMapHash": 3887823235
  },
  {
    "specialNameID": 10053,
    "specialNameLabID": 10001,
    "specialNameTextMapHash": 2110995467
  },
  {
    "specialNameID": 10054,
    "specialNameLabID": 10001,
    "specialNameTextMapHash": 4265189163
  },
  {
    "specialNameID": 10055,
    "specialNameLabID": 10001,
    "specialNameTextMapHash": 2105723123
  },
  {
    "specialNameID": 10056,
    "specialNameLabID": 10001,
    "specialNameTextMapHash": 255256123
  },
  {
    "specialNameID": 10057,
    "specialNameLabID": 10001,
    "specialNameTextMapHash": 2209645795
  },
  {
    "specialNameID": 10058,
    "specialNameLabID": 10001,
    "specialNameTextMapHash": 238362899
  },
  {
    "specialNameID": 10059,
    "specialNameLabID": 10001,
    "specialNameTextMapHash": 3137654299
  },
  {
    "specialNameID": 10060,
    "specialNameLabID": 10001,
    "specialNameTextMapHash": 2241610747
  },
  {
    "specialNameID": 10061,
    "specialNameLabID": 10001,
    "specialNameTextMapHash": 1560476715
  },
  {
    "specialNameID": 10062,
    "specialNameLabID": 10001,
    "specialNameTextMapHash": 1835483875
  },
  {
    "specialNameID": 10063,
    "specialNameLabID": 10001,
    "specialNameTextMapHash": 4247311131
  },
  {
    "specialNameID": 10064,
    "specialNameLabID": 10001,
    "specialNameTextMapHash": 965991443
  },
  {
    "specialNameID": 10065,
    "specialNameLabID": 10001,
    "specialNameTextMapHash": 312308339
  },
  {
    "specialNameID": 10066,
    "specialNameLabID": 10001,
    "specialNameTextMapHash": 134771339
  },
  {
    "specialNameID": 10067,
    "specialNameLabID": 10001,
    "specialNameTextMapHash": 1195931955
  },
  {
    "specialNameID": 10068,
    "specialNameLabID": 10001,
    "specialNameTextMapHash": 3678918043
  },
  {
    "specialNameID": 10069,
    "specialNameLabID": 10001,
    "specialNameTextMapHash": 2559904419
  },
  {
    "specialNameID": 10070,
    "specialNameLabID": 10001,
    "specialNameTextMapHash": 3295243923
  },
  {
    "specialNameID": 10071,
    "specialNameLabID": 10001,
    "specialNameTextMapHash": 2004354387
  },
  {
    "specialNameID": 10072,
    "specialNameLabID": 10001,
    "specialNameTextMapHash": 2290953091
  },
  {
    "specialNameID": 10073,
    "specialNameLabID": 10001,
    "specialNameTextMapHash": 703787643
  },
  {
    "specialNameID": 10074,
    "specialNameLabID": 10001,
    "specialNameTextMapHash": 2559621547
  },
  {
    "specialNameID": 10075,
    "specialNameLabID": 10001,
    "specialNameTextMapHash": 4172900011
  },
  {
    "specialNameID": 10076,
    "specialNameLabID": 10001,
    "specialNameTextMapHash": 164639435
  },
  {
    "specialNameID": 10077,
    "specialNameLabID": 10001,
    "specialNameTextMapHash": 2941257843
  },
  {
    "specialNameID": 10078,
    "specialNameLabID": 10001,
    "specialNameTextMapHash": 2478532403
  },
  {
    "specialNameID": 10079,
    "specialNameLabID": 10001,
    "specialNameTextMapHash": 670519019
  },
  {
    "specialNameID": 10080,
    "specialNameLabID": 10001,
    "specialNameTextMapHash": 3137504323
  },
  {
    "specialNameID": 10081,
    "specialNameLabID": 10001,
    "specialNameTextMapHash": 3880677019
  },
  {
    "specialNameID": 10082,
    "specialNameLabID": 10001,
    "specialNameTextMapHash": 3680031339
  },
  {
    "specialNameID": 10083,
    "specialNameLabID": 10001,
    "specialNameTextMapHash": 4158339379
  },
  {
    "specialNameID": 10084,
    "specialNameLabID": 10001,
    "specialNameTextMapHash": 1770492899
  },
  {
    "specialNameID": 10085,
    "specialNameLabID": 10001,
    "specialNameTextMapHash": 137420875
  },
  {
    "specialNameID": 10086,
    "specialNameLabID": 10001,
    "specialNameTextMapHash": 1558193891
  },
  {
    "specialNameID": 10087,
    "specialNameLabID": 10001,
    "specialNameTextMapHash": 2321683459
  },
  {
    "specialNameID": 10088,
    "specialNameLabID": 10001,
    "specialNameTextMapHash": 812563563
  },
  {
    "specialNameID": 10089,
    "specialNameLabID": 10001,
    "specialNameTextMapHash": 722018027
  },
  {
    "specialNameID": 10090,
    "specialNameLabID": 10001,
    "specialNameTextMapHash": 1471106139
  },
  {
    "specialNameID": 10091,
    "specialNameLabID": 10001,
    "specialNameTextMapHash": 852068339
  },
  {
    "specialNameID": 10092,
    "specialNameLabID": 10001,
    "specialNameTextMapHash": 1278254483
  },
  {
    "specialNameID": 10093,
    "specialNameLabID": 10001,
    "specialNameTextMapHash": 3756245659
  },
  {
    "specialNameID": 10094,
    "specialNameLabID": 10001,
    "specialNameTextMapHash": 951591459
  },
  {
    "specialNameID": 10095,
    "specialNameLabID": 10001,
    "specialNameTextMapHash": 742992171
  },
  {
    "specialNameID": 10096,
    "specialNameLabID": 10001,
    "specialNameTextMapHash": 2786695603
  },
  {
    "specialNameID": 10097,
    "specialNameLabID": 10001,
    "specialNameTextMapHash": 2406004195
  },
  {
    "specialNameID": 10099,
    "specialNameLabID": 10001,
    "specialNameTextMapHash": 3184527411
  },
  {
    "specialNameID": 10100,
    "specialNameLabID": 10001,
    "specialNameTextMapHash": 2546782283
  },
  {
    "specialNameID": 10101,
    "specialNameLabID": 10001,
    "specialNameTextMapHash": 1722136235
  },
  {
    "specialNameID": 10102,
    "specialNameLabID": 10001,
    "specialNameTextMapHash": 2293887643
  },
  {
    "specialNameID": 10103,
    "specialNameLabID": 10001,
    "specialNameTextMapHash": 2048780363
  },
  {
    "specialNameID": 10104,
    "specialNameLabID": 10001,
    "specialNameTextMapHash": 1090381291
  },
  {
    "specialNameID": 10105,
    "specialNameLabID": 10001,
    "specialNameTextMapHash": 1012627563
  },
  {
    "specialNameID": 10106,
    "specialNameLabID": 10001,
    "specialNameTextMapHash": 3076698467
  },
  {
    "specialNameID": 10107,
    "specialNameLabID": 10001,
    "specialNameTextMapHash": 206476707
  },
  {
    "specialNameID": 10108,
    "specialNameLabID": 10001,
    "specialNameTextMapHash": 1130406947
  },
  {
    "specialNameID": 10109,
    "specialNameLabID": 10001,
    "specialNameTextMapHash": 1934956291
  },
  {
    "specialNameID": 10110,
    "specialNameLabID": 10001,
    "specialNameTextMapHash": 3880965179
  },
  {
    "specialNameID": 10111,
    "specialNameLabID": 10001,
    "specialNameTextMapHash": 2122830547
  },
  {
    "specialNameID": 10112,
    "specialNameLabID": 10001,
    "specialNameTextMapHash": 2736286547
  },
  {
    "specialNameID": 10113,
    "specialNameLabID": 10001,
    "specialNameTextMapHash": 639538587
  },
  {
    "specialNameID": 10114,
    "specialNameLabID": 10001,
    "specialNameTextMapHash": 4126865459
  },
  {
    "specialNameID": 10115,
    "specialNameLabID": 10001,
    "specialNameTextMapHash": 3401247331
  },
  {
    "specialNameID": 10116,
    "specialNameLabID": 10001,
    "specialNameTextMapHash": 2215408603
  },
  {
    "specialNameID": 10117,
    "specialNameLabID": 10001,
    "specialNameTextMapHash": 1399986803
  },
  {
    "specialNameID": 10118,
    "specialNameLabID": 10001,
    "specialNameTextMapHash": 1407096523
  },
  {
    "specialNameID": 10119,
    "specialNameLabID": 10001,
    "specialNameTextMapHash": 3962021475
  },
  {
    "specialNameID": 10120,
    "specialNameLabID": 10001,
    "specialNameTextMapHash": 2844651403
  },
  {
    "specialNameID": 10121,
    "specialNameLabID": 10001,
    "specialNameTextMapHash": 1060571979
  },
  {
    "specialNameID": 10122,
    "specialNameLabID": 10001,
    "specialNameTextMapHash": 3323926091
  },
  {
    "specialNameID": 10123,
    "specialNameLabID": 10001,
    "specialNameTextMapHash": 457344475
  },
  {
    "specialNameID": 10124,
    "specialNameLabID": 10001,
    "specialNameTextMapHash": 517474843
  },
  {
    "specialNameID": 10125,
    "specialNameLabID": 10001,
    "specialNameTextMapHash": 2659749635
  },
  {
    "specialNameID": 10126,
    "specialNameLabID": 10001,
    "specialNameTextMapHash": 3912643531
  },
  {
    "specialNameID": 10127,
    "specialNameLabID": 10001,
    "specialNameTextMapHash": 758866843
  },
  {
    "specialNameID": 10128,
    "specialNameLabID": 10001,
    "specialNameTextMapHash": 2829033171
  },
  {
    "specialNameID": 10129,
    "specialNameLabID": 10001,
    "specialNameTextMapHash": 1180822019
  },
  {
    "specialNameID": 10130,
    "specialNameLabID": 10001,
    "specialNameTextMapHash": 1877823219
  },
  {
    "specialNameID": 10131,
    "specialNameLabID": 10001,
    "specialNameTextMapHash": 495795203
  },
  {
    "specialNameID": 10132,
    "specialNameLabID": 10001,
    "specialNameTextMapHash": 2563950595
  },
  {
    "specialNameID": 10133,
    "specialNameLabID": 10001,
    "specialNameTextMapHash": 3064691171
  },
  {
    "specialNameID": 10134,
    "specialNameLabID": 10001,
    "specialNameTextMapHash": 3733796835
  },
  {
    "specialNameID": 10135,
    "specialNameLabID": 10001,
    "specialNameTextMapHash": 106694739
  },
  {
    "specialNameID": 10136,
    "specialNameLabID": 10001,
    "specialNameTextMapHash": 2402229347
  },
  {
    "specialNameID": 10137,
    "specialNameLabID": 10001,
    "specialNameTextMapHash": 3839688603
  },
  {
    "specialNameID": 10138,
    "specialNameLabID": 10001,
    "specialNameTextMapHash": 3311864275
  },
  {
    "specialNameID": 10139,
    "specialNameLabID": 10001,
    "specialNameTextMapHash": 3493663803
  },
  {
    "specialNameID": 10140,
    "specialNameLabID": 10001,
    "specialNameTextMapHash": 76632563
  },
  {
    "specialNameID": 10141,
    "specialNameLabID": 10001,
    "specialNameTextMapHash": 4109466051
  },
  {
    "specialNameID": 10142,
    "specialNameLabID": 10001,
    "specialNameTextMapHash": 2092514235
  },
  {
    "specialNameID": 10143,
    "specialNameLabID": 10001,
    "specialNameTextMapHash": 1547718203
  },
  {
    "specialNameID": 10144,
    "specialNameLabID": 10001,
    "specialNameTextMapHash": 1519569035
  },
  {
    "specialNameID": 10145,
    "specialNameLabID": 10001,
    "specialNameTextMapHash": 1596213307
  },
  {
    "specialNameID": 10146,
    "specialNameLabID": 10001,
    "specialNameTextMapHash": 3909806915
  },
  {
    "specialNameID": 10147,
    "specialNameLabID": 10001,
    "specialNameTextMapHash": 1402556627
  },
  {
    "specialNameID": 10148,
    "specialNameLabID": 10001,
    "specialNameTextMapHash": 2095304659
  },
  {
    "specialNameID": 10149,
    "specialNameLabID": 10001,
    "specialNameTextMapHash": 2497972875
  },
  {
    "specialNameID": 10150,
    "specialNameLabID": 10001,
    "specialNameTextMapHash": 2778249051
  },
  {
    "specialNameID": 10151,
    "specialNameLabID": 10001,
    "specialNameTextMapHash": 3626750387
  },
  {
    "specialNameID": 10152,
    "specialNameLabID": 10001,
    "specialNameTextMapHash": 4289240107
  },
  {
    "specialNameID": 10153,
    "specialNameLabID": 10001,
    "specialNameTextMapHash": 3160609787
  },
  {
    "specialNameID": 10154,
    "specialNameLabID": 10001,
    "specialNameTextMapHash": 1658931091
  },
  {
    "specialNameID": 10155,
    "specialNameLabID": 10001,
    "specialNameTextMapHash": 2462027667
  },
  {
    "specialNameID": 10156,
    "specialNameLabID": 10001,
    "specialNameTextMapHash": 2644186963
  },
  {
    "specialNameID": 10157,
    "specialNameLabID": 10001,
    "specialNameTextMapHash": 981962251
  },
  {
    "specialNameID": 10158,
    "specialNameLabID": 10001,
    "specialNameTextMapHash": 1786961531
  },
  {
    "specialNameID": 10159,
    "specialNameLabID": 10001,
    "specialNameTextMapHash": 3405488659
  },
  {
    "specialNameID": 10160,
    "specialNameLabID": 10001,
    "specialNameTextMapHash": 1534265731
  },
  {
    "specialNameID": 10161,
    "specialNameLabID": 10001,
    "specialNameTextMapHash": 1193290091
  },
  {
    "specialNameID": 10162,
    "specialNameLabID": 10001,
    "specialNameTextMapHash": 1211873763
  },
  {
    "specialNameID": 10163,
    "specialNameLabID": 10001,
    "specialNameTextMapHash": 4053082875
  },
  {
    "specialNameID": 10164,
    "specialNameLabID": 10001,
    "specialNameTextMapHash": 663311411
  },
  {
    "specialNameID": 10165,
    "specialNameLabID": 10001,
    "specialNameTextMapHash": 770522763
  },
  {
    "specialNameID": 10166,
    "specialNameLabID": 10001,
    "specialNameTextMapHash": 949337211
  },
  {
    "specialNameID": 10167,
    "specialNameLabID": 10001,
    "specialNameTextMapHash": 2159720971
  },
  {
    "specialNameID": 10168,
    "specialNameLabID": 10001,
    "specialNameTextMapHash": 2963928555
  },
  {
    "specialNameID": 10169,
    "specialNameLabID": 10001,
    "specialNameTextMapHash": 997300995
  },
  {
    "specialNameID": 10170,
    "specialNameLabID": 10001,
    "specialNameTextMapHash": 3501244915
  },
  {
    "specialNameID": 10171,
    "specialNameLabID": 10001,
    "specialNameTextMapHash": 1572269947
  },
  {
    "specialNameID": 10172,
    "specialNameLabID": 10001,
    "specialNameTextMapHash": 601538835
  },
  {
    "specialNameID": 10173,
    "specialNameLabID": 10001,
    "specialNameTextMapHash": 1966114131
  },
  {
    "specialNameID": 10174,
    "specialNameLabID": 10001,
    "specialNameTextMapHash": 1561842715
  },
  {
    "specialNameID": 10175,
    "specialNameLabID": 10001,
    "specialNameTextMapHash": 2626122171
  },
  {
    "specialNameID": 10176,
    "specialNameLabID": 10001,
    "specialNameTextMapHash": 3279467715
  },
  {
    "specialNameID": 10177,
    "specialNameLabID": 10001,
    "specialNameTextMapHash": 3301728019
  },
  {
    "specialNameID": 10178,
    "specialNameLabID": 10001,
    "specialNameTextMapHash": 4273341547
  },
  {
    "specialNameID": 10179,
    "specialNameLabID": 10128,
    "specialNameTextMapHash": 4076043059
  },
  {
    "specialNameID": 10180,
    "specialNameLabID": 10001,
    "specialNameTextMapHash": 2142990859
  },
  {
    "specialNameID": 10181,
    "specialNameLabID": 10001,
    "specialNameTextMapHash": 3531510675
  },
  {
    "specialNameID": 10182,
    "specialNameLabID": 10001,
    "specialNameTextMapHash": 4267714715
  },
  {
    "specialNameID": 10183,
    "specialNameLabID": 10001,
    "specialNameTextMapHash": 2499324443
  },
  {
    "specialNameID": 10184,
    "specialNameLabID": 10001,
    "specialNameTextMapHash": 2556655163
  },
  {
    "specialNameID": 10185,
    "specialNameLabID": 10001,
    "specialNameTextMapHash": 1013548155
  },
  {
    "specialNameID": 10186,
    "specialNameLabID": 10001,
    "specialNameTextMapHash": 959450787
  },
  {
    "specialNameID": 10187,
    "specialNameLabID": 10132,
    "specialNameTextMapHash": 287248947
  },
  {
    "specialNameID": 10188,
    "specialNameLabID": 10133,
    "specialNameTextMapHash": 1737148539
  },
  {
    "specialNameID": 10189,
    "specialNameLabID": 10134,
    "specialNameTextMapHash": 753770507
  },
  {
    "specialNameID": 10190,
    "specialNameLabID": 10001,
    "specialNameTextMapHash": 3277760475
  },
  {
    "specialNameID": 10191,
    "specialNameLabID": 10001,
    "specialNameTextMapHash": 833919963
  },
  {
    "specialNameID": 10192,
    "specialNameLabID": 10001,
    "specialNameTextMapHash": 3633822083
  },
  {
    "specialNameID": 10193,
    "specialNameLabID": 10001,
    "specialNameTextMapHash": 2858221923
  },
  {
    "specialNameID": 10194,
    "specialNameLabID": 10001,
    "specialNameTextMapHash": 1125562619
  },
  {
    "specialNameID": 10195,
    "specialNameLabID": 10001,
    "specialNameTextMapHash": 3865239611
  },
  {
    "specialNameID": 10196,
    "specialNameLabID": 10001,
    "specialNameTextMapHash": 2264234155
  },
  {
    "specialNameID": 10197,
    "specialNameLabID": 10001,
    "specialNameTextMapHash": 61599267
  },
  {
    "specialNameID": 10198,
    "specialNameLabID": 163,
    "specialNameTextMapHash": 4248887059
  },
  {
    "specialNameID": 10199,
    "specialNameLabID": 10001,
    "specialNameTextMapHash": 3654367547
  },
  {
    "specialNameID": 10200,
    "specialNameLabID": 10001,
    "specialNameTextMapHash": 758907251
  },
  {
    "specialNameID": 10201,
    "specialNameLabID": 10001,
    "specialNameTextMapHash": 633198875
  },
  {
    "specialNameID": 10202,
    "specialNameLabID": 10001,
    "specialNameTextMapHash": 3519699899
  },
  {
    "specialNameID": 10203,
    "specialNameLabID": 10001,
    "specialNameTextMapHash": 1312634803
  },
  {
    "specialNameID": 10204,
    "specialNameLabID": 10001,
    "specialNameTextMapHash": 2659622771
  },
  {
    "specialNameID": 10205,
    "specialNameLabID": 10001,
    "specialNameTextMapHash": 2683280219
  },
  {
    "specialNameID": 10206,
    "specialNameLabID": 10001,
    "specialNameTextMapHash": 3680515051
  },
  {
    "specialNameID": 10207,
    "specialNameLabID": 10001,
    "specialNameTextMapHash": 4290423027
  },
  {
    "specialNameID": 10208,
    "specialNameLabID": 10001,
    "specialNameTextMapHash": 13863499
  },
  {
    "specialNameID": 10209,
    "specialNameLabID": 10001,
    "specialNameTextMapHash": 775643043
  },
  {
    "specialNameID": 10210,
    "specialNameLabID": 10001,
    "specialNameTextMapHash": 3124656763
  },
  {
    "specialNameID": 10211,
    "specialNameLabID": 10001,
    "specialNameTextMapHash": 1170795291
  },
  {
    "specialNameID": 10212,
    "specialNameLabID": 10001,
    "specialNameTextMapHash": 1232354139
  },
  {
    "specialNameID": 10213,
    "specialNameLabID": 10001,
    "specialNameTextMapHash": 3163991923
  },
  {
    "specialNameID": 10214,
    "specialNameLabID": 10001,
    "specialNameTextMapHash": 3005067747
  },
  {
    "specialNameID": 10215,
    "specialNameLabID": 10001,
    "specialNameTextMapHash": 3343946723
  },
  {
    "specialNameID": 10216,
    "specialNameLabID": 10001,
    "specialNameTextMapHash": 3465522331
  },
  {
    "specialNameID": 10217,
    "specialNameLabID": 10001,
    "specialNameTextMapHash": 3912733763
  },
  {
    "specialNameID": 10218,
    "specialNameLabID": 10001,
    "specialNameTextMapHash": 3905559171
  },
  {
    "specialNameID": 10219,
    "specialNameLabID": 10001,
    "specialNameTextMapHash": 2348633275
  },
  {
    "specialNameID": 10220,
    "specialNameLabID": 10001,
    "specialNameTextMapHash": 647021707
  },
  {
    "specialNameID": 10221,
    "specialNameLabID": 10001,
    "specialNameTextMapHash": 1583662571
  },
  {
    "specialNameID": 10222,
    "specialNameLabID": 10001,
    "specialNameTextMapHash": 2754788195
  },
  {
    "specialNameID": 10223,
    "specialNameLabID": 10001,
    "specialNameTextMapHash": 1936482827
  },
  {
    "specialNameID": 10224,
    "specialNameLabID": 10001,
    "specialNameTextMapHash": 3000709163
  },
  {
    "specialNameID": 10225,
    "specialNameLabID": 10001,
    "specialNameTextMapHash": 2459490115
  },
  {
    "specialNameID": 10226,
    "specialNameLabID": 10001,
    "specialNameTextMapHash": 1120186299
  },
  {
    "specialNameID": 1,
    "specialNameLabID": 101,
    "specialNameTextMapHash": 4062975699
  },
  {
    "specialNameID": 2,
    "specialNameLabID": 101,
    "specialNameTextMapHash": 1724044331
  },
  {
    "specialNameID": 3,
    "specialNameLabID": 111,
    "specialNameTextMapHash": 1000258419
  },
  {
    "specialNameID": 4,
    "specialNameLabID": 111,
    "specialNameTextMapHash": 1612568107
  },
  {
    "specialNameID": 5,
    "specialNameLabID": 121,
    "specialNameTextMapHash": 2940212811
  },
  {
    "specialNameID": 6,
    "specialNameLabID": 131,
    "specialNameTextMapHash": 572765283
  },
  {
    "specialNameID": 7,
    "specialNameLabID": 141,
    "specialNameTextMapHash": 617213355
  },
  {
    "specialNameID": 8,
    "specialNameLabID": 151,
    "specialNameTextMapHash": 2855142123
  },
  {
    "specialNameID": 9,
    "specialNameLabID": 152,
    "specialNameTextMapHash": 1626085219
  },
  {
    "specialNameID": 10,
    "specialNameLabID": 142,
    "specialNameTextMapHash": 3874109091
  },
  {
    "specialNameID": 11,
    "specialNameLabID": 153,
    "specialNameTextMapHash": 1946785603
  },
  {
    "specialNameID": 12,
    "specialNameLabID": 161,
    "specialNameTextMapHash": 467777371
  },
  {
    "specialNameID": 13,
    "specialNameLabID": 171,
    "specialNameTextMapHash": 3135328947
  },
  {
    "specialNameID": 14,
    "specialNameLabID": 173,
    "specialNameTextMapHash": 2592237859
  },
  {
    "specialNameID": 15,
    "specialNameLabID": 1001,
    "specialNameTextMapHash": 3046711699
  },
  {
    "specialNameID": 16,
    "specialNameLabID": 1101,
    "specialNameTextMapHash": 67498395
  },
  {
    "specialNameID": 17,
    "specialNameLabID": 1102,
    "specialNameTextMapHash": 65510987
  },
  {
    "specialNameID": 18,
    "specialNameLabID": 1103,
    "specialNameTextMapHash": 2151617227
  },
  {
    "specialNameID": 19,
    "specialNameLabID": 1111,
    "specialNameTextMapHash": 3209547771
  },
  {
    "specialNameID": 20,
    "specialNameLabID": 1201,
    "specialNameTextMapHash": 2231214643
  },
  {
    "specialNameID": 21,
    "specialNameLabID": 2101,
    "specialNameTextMapHash": 1906251195
  },
  {
    "specialNameID": 22,
    "specialNameLabID": 2111,
    "specialNameTextMapHash": 2151247163,
    "isInRandomList": true
  },
  {
    "specialNameID": 23,
    "specialNameLabID": 2111,
    "specialNameTextMapHash": 2627958291,
    "isInRandomList": true
  },
  {
    "specialNameID": 24,
    "specialNameLabID": 2111,
    "specialNameTextMapHash": 2106705019,
    "isInRandomList": true
  },
  {
    "specialNameID": 25,
    "specialNameLabID": 2112,
    "specialNameTextMapHash": 3864507107,
    "isInRandomList": true
  },
  {
    "specialNameID": 26,
    "specialNameLabID": 2112,
    "specialNameTextMapHash": 2542694323,
    "isInRandomList": true
  },
  {
    "specialNameID": 27,
    "specialNameLabID": 2112,
    "specialNameTextMapHash": 539246515,
    "isInRandomList": true
  },
  {
    "specialNameID": 28,
    "specialNameLabID": 2113,
    "specialNameTextMapHash": 2729491683,
    "isInRandomList": true
  },
  {
    "specialNameID": 29,
    "specialNameLabID": 2113,
    "specialNameTextMapHash": 3771175267,
    "isInRandomList": true
  },
  {
    "specialNameID": 30,
    "specialNameLabID": 2113,
    "specialNameTextMapHash": 3855397763,
    "isInRandomList": true
  },
  {
    "specialNameID": 31,
    "specialNameLabID": 2201,
    "specialNameTextMapHash": 1080741507,
    "isInRandomList": true
  },
  {
    "specialNameID": 32,
    "specialNameLabID": 2201,
    "specialNameTextMapHash": 2492542283,
    "isInRandomList": true
  },
  {
    "specialNameID": 33,
    "specialNameLabID": 2201,
    "specialNameTextMapHash": 256404035,
    "isInRandomList": true
  },
  {
    "specialNameID": 34,
    "specialNameLabID": 2201,
    "specialNameTextMapHash": 2406381883,
    "isInRandomList": true
  },
  {
    "specialNameID": 35,
    "specialNameLabID": 2201,
    "specialNameTextMapHash": 247715563,
    "isInRandomList": true
  },
  {
    "specialNameID": 36,
    "specialNameLabID": 2201,
    "specialNameTextMapHash": 3768187379,
    "isInRandomList": true
  },
  {
    "specialNameID": 37,
    "specialNameLabID": 2201,
    "specialNameTextMapHash": 4127688579,
    "isInRandomList": true
  },
  {
    "specialNameID": 38,
    "specialNameLabID": 2201,
    "specialNameTextMapHash": 794025939,
    "isInRandomList": true
  },
  {
    "specialNameID": 39,
    "specialNameLabID": 2202,
    "specialNameTextMapHash": 3238104987,
    "isInRandomList": true
  },
  {
    "specialNameID": 40,
    "specialNameLabID": 2221,
    "specialNameTextMapHash": 316402003
  },
  {
    "specialNameID": 41,
    "specialNameLabID": 2001,
    "specialNameTextMapHash": 137678283
  },
  {
    "specialNameID": 42,
    "specialNameLabID": 2002,
    "specialNameTextMapHash": 3549430267
  },
  {
    "specialNameID": 43,
    "specialNameLabID": 2003,
    "specialNameTextMapHash": 108061147
  },
  {
    "specialNameID": 44,
    "specialNameLabID": 2004,
    "specialNameTextMapHash": 1236351611
  },
  {
    "specialNameID": 45,
    "specialNameLabID": 2005,
    "specialNameTextMapHash": 3397055699
  },
  {
    "specialNameID": 46,
    "specialNameLabID": 2006,
    "specialNameTextMapHash": 3649794555
  },
  {
    "specialNameID": 47,
    "specialNameLabID": 2007,
    "specialNameTextMapHash": 8628931
  },
  {
    "specialNameID": 48,
    "specialNameLabID": 3001,
    "specialNameTextMapHash": 188568019
  },
  {
    "specialNameID": 49,
    "specialNameLabID": 3090,
    "specialNameTextMapHash": 3295376195
  },
  {
    "specialNameID": 50,
    "specialNameLabID": 3101,
    "specialNameTextMapHash": 4274473139,
    "isInRandomList": true
  },
  {
    "specialNameID": 51,
    "specialNameLabID": 3101,
    "specialNameTextMapHash": 3130515939,
    "isInRandomList": true
  },
  {
    "specialNameID": 52,
    "specialNameLabID": 3101,
    "specialNameTextMapHash": 3573080843,
    "isInRandomList": true
  },
  {
    "specialNameID": 53,
    "specialNameLabID": 3101,
    "specialNameTextMapHash": 897064099,
    "isInRandomList": true
  },
  {
    "specialNameID": 54,
    "specialNameLabID": 3101,
    "specialNameTextMapHash": 1929815635,
    "isInRandomList": true
  },
  {
    "specialNameID": 55,
    "specialNameLabID": 3101,
    "specialNameTextMapHash": 1952302779,
    "isInRandomList": true
  },
  {
    "specialNameID": 56,
    "specialNameLabID": 3101,
    "specialNameTextMapHash": 1719411107,
    "isInRandomList": true
  },
  {
    "specialNameID": 57,
    "specialNameLabID": 3101,
    "specialNameTextMapHash": 20812355,
    "isInRandomList": true
  },
  {
    "specialNameID": 58,
    "specialNameLabID": 3101,
    "specialNameTextMapHash": 2366661875,
    "isInRandomList": true
  },
  {
    "specialNameID": 59,
    "specialNameLabID": 3101,
    "specialNameTextMapHash": 4285104027,
    "isInRandomList": true
  },
  {
    "specialNameID": 60,
    "specialNameLabID": 3101,
    "specialNameTextMapHash": 3048241795,
    "isInRandomList": true
  },
  {
    "specialNameID": 61,
    "specialNameLabID": 3101,
    "specialNameTextMapHash": 2277355107,
    "isInRandomList": true
  },
  {
    "specialNameID": 62,
    "specialNameLabID": 3101,
    "specialNameTextMapHash": 1282058739,
    "isInRandomList": true
  },
  {
    "specialNameID": 63,
    "specialNameLabID": 3101,
    "specialNameTextMapHash": 922157627,
    "isInRandomList": true
  },
  {
    "specialNameID": 64,
    "specialNameLabID": 3101,
    "specialNameTextMapHash": 3955984403,
    "isInRandomList": true
  },
  {
    "specialNameID": 65,
    "specialNameLabID": 3101,
    "specialNameTextMapHash": 101816611,
    "isInRandomList": true
  },
  {
    "specialNameID": 66,
    "specialNameLabID": 3101,
    "specialNameTextMapHash": 4151279003,
    "isInRandomList": true
  },
  {
    "specialNameID": 67,
    "specialNameLabID": 3101,
    "specialNameTextMapHash": 4293271667,
    "isInRandomList": true
  },
  {
    "specialNameID": 68,
    "specialNameLabID": 3101,
    "specialNameTextMapHash": 3021847539,
    "isInRandomList": true
  },
  {
    "specialNameID": 69,
    "specialNameLabID": 3101,
    "specialNameTextMapHash": 2586054603,
    "isInRandomList": true
  },
  {
    "specialNameID": 70,
    "specialNameLabID": 3101,
    "specialNameTextMapHash": 2296461899,
    "isInRandomList": true
  },
  {
    "specialNameID": 71,
    "specialNameLabID": 3101,
    "specialNameTextMapHash": 4269896651,
    "isInRandomList": true
  },
  {
    "specialNameID": 72,
    "specialNameLabID": 3101,
    "specialNameTextMapHash": 3623240715,
    "isInRandomList": true
  },
  {
    "specialNameID": 73,
    "specialNameLabID": 3101,
    "specialNameTextMapHash": 2586650579,
    "isInRandomList": true
  },
  {
    "specialNameID": 74,
    "specialNameLabID": 3101,
    "specialNameTextMapHash": 1582329691,
    "isInRandomList": true
  },
  {
    "specialNameID": 75,
    "specialNameLabID": 3101,
    "specialNameTextMapHash": 307162011,
    "isInRandomList": true
  },
  {
    "specialNameID": 76,
    "specialNameLabID": 3101,
    "specialNameTextMapHash": 4082492323,
    "isInRandomList": true
  },
  {
    "specialNameID": 77,
    "specialNameLabID": 3101,
    "specialNameTextMapHash": 572719043,
    "isInRandomList": true
  },
  {
    "specialNameID": 78,
    "specialNameLabID": 3101,
    "specialNameTextMapHash": 227155203,
    "isInRandomList": true
  },
  {
    "specialNameID": 79,
    "specialNameLabID": 3101,
    "specialNameTextMapHash": 31969859,
    "isInRandomList": true
  },
  {
    "specialNameID": 80,
    "specialNameLabID": 3101,
    "specialNameTextMapHash": 2917219843,
    "isInRandomList": true
  },
  {
    "specialNameID": 81,
    "specialNameLabID": 3111,
    "specialNameTextMapHash": 838796595,
    "isInRandomList": true
  },
  {
    "specialNameID": 82,
    "specialNameLabID": 3112,
    "specialNameTextMapHash": 3712966635,
    "isInRandomList": true
  },
  {
    "specialNameID": 83,
    "specialNameLabID": 3113,
    "specialNameTextMapHash": 1750753243,
    "isInRandomList": true
  },
  {
    "specialNameID": 84,
    "specialNameLabID": 3201,
    "specialNameTextMapHash": 4121124547,
    "isInRandomList": true
  },
  {
    "specialNameID": 85,
    "specialNameLabID": 3201,
    "specialNameTextMapHash": 2915191667,
    "isInRandomList": true
  },
  {
    "specialNameID": 86,
    "specialNameLabID": 3201,
    "specialNameTextMapHash": 2079635475,
    "isInRandomList": true
  },
  {
    "specialNameID": 87,
    "specialNameLabID": 3201,
    "specialNameTextMapHash": 875232723,
    "isInRandomList": true
  },
  {
    "specialNameID": 88,
    "specialNameLabID": 3201,
    "specialNameTextMapHash": 3315467603,
    "isInRandomList": true
  },
  {
    "specialNameID": 89,
    "specialNameLabID": 3201,
    "specialNameTextMapHash": 1940944331,
    "isInRandomList": true
  },
  {
    "specialNameID": 90,
    "specialNameLabID": 3202,
    "specialNameTextMapHash": 61870163,
    "isInRandomList": true
  },
  {
    "specialNameID": 91,
    "specialNameLabID": 3202,
    "specialNameTextMapHash": 1105665275,
    "isInRandomList": true
  },
  {
    "specialNameID": 92,
    "specialNameLabID": 3202,
    "specialNameTextMapHash": 2653739147,
    "isInRandomList": true
  },
  {
    "specialNameID": 93,
    "specialNameLabID": 3202,
    "specialNameTextMapHash": 62341331,
    "isInRandomList": true
  },
  {
    "specialNameID": 94,
    "specialNameLabID": 3202,
    "specialNameTextMapHash": 134542315,
    "isInRandomList": true
  },
  {
    "specialNameID": 95,
    "specialNameLabID": 3202,
    "specialNameTextMapHash": 481715523,
    "isInRandomList": true
  },
  {
    "specialNameID": 96,
    "specialNameLabID": 3202,
    "specialNameTextMapHash": 449555291,
    "isInRandomList": true
  },
  {
    "specialNameID": 97,
    "specialNameLabID": 3203,
    "specialNameTextMapHash": 3439740467,
    "isInRandomList": true
  },
  {
    "specialNameID": 98,
    "specialNameLabID": 3203,
    "specialNameTextMapHash": 222897059,
    "isInRandomList": true
  },
  {
    "specialNameID": 99,
    "specialNameLabID": 3203,
    "specialNameTextMapHash": 3111537851,
    "isInRandomList": true
  },
  {
    "specialNameID": 100,
    "specialNameLabID": 3203,
    "specialNameTextMapHash": 2586737091,
    "isInRandomList": true
  },
  {
    "specialNameID": 101,
    "specialNameLabID": 3203,
    "specialNameTextMapHash": 1444497723,
    "isInRandomList": true
  },
  {
    "specialNameID": 102,
    "specialNameLabID": 3203,
    "specialNameTextMapHash": 1737144947,
    "isInRandomList": true
  },
  {
    "specialNameID": 103,
    "specialNameLabID": 3203,
    "specialNameTextMapHash": 1803544411,
    "isInRandomList": true
  },
  {
    "specialNameID": 104,
    "specialNameLabID": 3204,
    "specialNameTextMapHash": 2783691491,
    "isInRandomList": true
  },
  {
    "specialNameID": 105,
    "specialNameLabID": 3204,
    "specialNameTextMapHash": 2961856843,
    "isInRandomList": true
  },
  {
    "specialNameID": 106,
    "specialNameLabID": 3204,
    "specialNameTextMapHash": 1448072715,
    "isInRandomList": true
  },
  {
    "specialNameID": 107,
    "specialNameLabID": 3204,
    "specialNameTextMapHash": 411807211,
    "isInRandomList": true
  },
  {
    "specialNameID": 108,
    "specialNameLabID": 3204,
    "specialNameTextMapHash": 2049434883,
    "isInRandomList": true
  },
  {
    "specialNameID": 109,
    "specialNameLabID": 3204,
    "specialNameTextMapHash": 2723704427,
    "isInRandomList": true
  },
  {
    "specialNameID": 110,
    "specialNameLabID": 3204,
    "specialNameTextMapHash": 602811035,
    "isInRandomList": true
  },
  {
    "specialNameID": 111,
    "specialNameLabID": 3205,
    "specialNameTextMapHash": 296917443,
    "isInRandomList": true
  },
  {
    "specialNameID": 112,
    "specialNameLabID": 3205,
    "specialNameTextMapHash": 225429483,
    "isInRandomList": true
  },
  {
    "specialNameID": 113,
    "specialNameLabID": 3205,
    "specialNameTextMapHash": 136438971,
    "isInRandomList": true
  },
  {
    "specialNameID": 114,
    "specialNameLabID": 3205,
    "specialNameTextMapHash": 1923733187,
    "isInRandomList": true
  },
  {
    "specialNameID": 115,
    "specialNameLabID": 3205,
    "specialNameTextMapHash": 3872302931,
    "isInRandomList": true
  },
  {
    "specialNameID": 116,
    "specialNameLabID": 3205,
    "specialNameTextMapHash": 2433539451,
    "isInRandomList": true
  },
  {
    "specialNameID": 117,
    "specialNameLabID": 3205,
    "specialNameTextMapHash": 3835453851,
    "isInRandomList": true
  },
  {
    "specialNameID": 118,
    "specialNameLabID": 3205,
    "specialNameTextMapHash": 2922938171,
    "isInRandomList": true
  },
  {
    "specialNameID": 119,
    "specialNameLabID": 3206,
    "specialNameTextMapHash": 797903003,
    "isInRandomList": true
  },
  {
    "specialNameID": 120,
    "specialNameLabID": 3206,
    "specialNameTextMapHash": 3520932811,
    "isInRandomList": true
  },
  {
    "specialNameID": 121,
    "specialNameLabID": 3206,
    "specialNameTextMapHash": 2771917979,
    "isInRandomList": true
  },
  {
    "specialNameID": 122,
    "specialNameLabID": 3206,
    "specialNameTextMapHash": 2332558739,
    "isInRandomList": true
  },
  {
    "specialNameID": 123,
    "specialNameLabID": 3206,
    "specialNameTextMapHash": 1538861923,
    "isInRandomList": true
  },
  {
    "specialNameID": 124,
    "specialNameLabID": 3206,
    "specialNameTextMapHash": 3852144443,
    "isInRandomList": true
  },
  {
    "specialNameID": 125,
    "specialNameLabID": 3301,
    "specialNameTextMapHash": 1173365963,
    "isInRandomList": true
  },
  {
    "specialNameID": 126,
    "specialNameLabID": 4001,
    "specialNameTextMapHash": 3400969691,
    "isInRandomList": true
  },
  {
    "specialNameID": 127,
    "specialNameLabID": 4001,
    "specialNameTextMapHash": 2057000043,
    "isInRandomList": true
  },
  {
    "specialNameID": 128,
    "specialNameLabID": 4001,
    "specialNameTextMapHash": 324608587,
    "isInRandomList": true
  },
  {
    "specialNameID": 129,
    "specialNameLabID": 4001,
    "specialNameTextMapHash": 2265494331,
    "isInRandomList": true
  },
  {
    "specialNameID": 130,
    "specialNameLabID": 4001,
    "specialNameTextMapHash": 2206711811,
    "isInRandomList": true
  },
  {
    "specialNameID": 131,
    "specialNameLabID": 4001,
    "specialNameTextMapHash": 3355638099,
    "isInRandomList": true
  },
  {
    "specialNameID": 132,
    "specialNameLabID": 4001,
    "specialNameTextMapHash": 1950942419,
    "isInRandomList": true
  },
  {
    "specialNameID": 133,
    "specialNameLabID": 4001,
    "specialNameTextMapHash": 1588536467,
    "isInRandomList": true
  },
  {
    "specialNameID": 134,
    "specialNameLabID": 4001,
    "specialNameTextMapHash": 3658756411,
    "isInRandomList": true
  },
  {
    "specialNameID": 135,
    "specialNameLabID": 4001,
    "specialNameTextMapHash": 1578288027,
    "isInRandomList": true
  },
  {
    "specialNameID": 136,
    "specialNameLabID": 4001,
    "specialNameTextMapHash": 1351184555,
    "isInRandomList": true
  },
  {
    "specialNameID": 137,
    "specialNameLabID": 4001,
    "specialNameTextMapHash": 3145444651,
    "isInRandomList": true
  },
  {
    "specialNameID": 138,
    "specialNameLabID": 4001,
    "specialNameTextMapHash": 2087314251,
    "isInRandomList": true
  },
  {
    "specialNameID": 139,
    "specialNameLabID": 4001,
    "specialNameTextMapHash": 3262654147,
    "isInRandomList": true
  },
  {
    "specialNameID": 140,
    "specialNameLabID": 4001,
    "specialNameTextMapHash": 1653884011,
    "isInRandomList": true
  },
  {
    "specialNameID": 141,
    "specialNameLabID": 4001,
    "specialNameTextMapHash": 3566410387,
    "isInRandomList": true
  },
  {
    "specialNameID": 142,
    "specialNameLabID": 4001,
    "specialNameTextMapHash": 1481463283,
    "isInRandomList": true
  },
  {
    "specialNameID": 143,
    "specialNameLabID": 4001,
    "specialNameTextMapHash": 3524228283,
    "isInRandomList": true
  },
  {
    "specialNameID": 144,
    "specialNameLabID": 4001,
    "specialNameTextMapHash": 3025623787,
    "isInRandomList": true
  },
  {
    "specialNameID": 145,
    "specialNameLabID": 4001,
    "specialNameTextMapHash": 3724754891,
    "isInRandomList": true
  },
  {
    "specialNameID": 146,
    "specialNameLabID": 4001,
    "specialNameTextMapHash": 3074447363,
    "isInRandomList": true
  },
  {
    "specialNameID": 147,
    "specialNameLabID": 4001,
    "specialNameTextMapHash": 928900971,
    "isInRandomList": true
  },
  {
    "specialNameID": 148,
    "specialNameLabID": 4001,
    "specialNameTextMapHash": 1415962595,
    "isInRandomList": true
  },
  {
    "specialNameID": 149,
    "specialNameLabID": 4001,
    "specialNameTextMapHash": 1221347243,
    "isInRandomList": true
  },
  {
    "specialNameID": 150,
    "specialNameLabID": 4001,
    "specialNameTextMapHash": 1162855955,
    "isInRandomList": true
  },
  {
    "specialNameID": 151,
    "specialNameLabID": 4001,
    "specialNameTextMapHash": 3291137051,
    "isInRandomList": true
  },
  {
    "specialNameID": 152,
    "specialNameLabID": 4001,
    "specialNameTextMapHash": 1197006875,
    "isInRandomList": true
  },
  {
    "specialNameID": 153,
    "specialNameLabID": 4001,
    "specialNameTextMapHash": 1379042899,
    "isInRandomList": true
  },
  {
    "specialNameID": 154,
    "specialNameLabID": 4001,
    "specialNameTextMapHash": 1961362435,
    "isInRandomList": true
  },
  {
    "specialNameID": 155,
    "specialNameLabID": 4001,
    "specialNameTextMapHash": 2556454651,
    "isInRandomList": true
  },
  {
    "specialNameID": 156,
    "specialNameLabID": 4011,
    "specialNameTextMapHash": 3461363571,
    "isInRandomList": true
  },
  {
    "specialNameID": 157,
    "specialNameLabID": 4011,
    "specialNameTextMapHash": 2800498259,
    "isInRandomList": true
  },
  {
    "specialNameID": 158,
    "specialNameLabID": 4011,
    "specialNameTextMapHash": 3080135339,
    "isInRandomList": true
  },
  {
    "specialNameID": 159,
    "specialNameLabID": 4011,
    "specialNameTextMapHash": 3573524467,
    "isInRandomList": true
  },
  {
    "specialNameID": 160,
    "specialNameLabID": 4011,
    "specialNameTextMapHash": 3316531795,
    "isInRandomList": true
  },
  {
    "specialNameID": 161,
    "specialNameLabID": 4011,
    "specialNameTextMapHash": 1674037587,
    "isInRandomList": true
  },
  {
    "specialNameID": 162,
    "specialNameLabID": 4011,
    "specialNameTextMapHash": 2170229243,
    "isInRandomList": true
  },
  {
    "specialNameID": 163,
    "specialNameLabID": 4011,
    "specialNameTextMapHash": 2405663203,
    "isInRandomList": true
  },
  {
    "specialNameID": 164,
    "specialNameLabID": 4011,
    "specialNameTextMapHash": 770600819,
    "isInRandomList": true
  },
  {
    "specialNameID": 165,
    "specialNameLabID": 4011,
    "specialNameTextMapHash": 3534491691,
    "isInRandomList": true
  },
  {
    "specialNameID": 166,
    "specialNameLabID": 4021,
    "specialNameTextMapHash": 680894755,
    "isInRandomList": true
  },
  {
    "specialNameID": 167,
    "specialNameLabID": 4021,
    "specialNameTextMapHash": 1687718259,
    "isInRandomList": true
  },
  {
    "specialNameID": 168,
    "specialNameLabID": 4021,
    "specialNameTextMapHash": 4276578603,
    "isInRandomList": true
  },
  {
    "specialNameID": 169,
    "specialNameLabID": 4021,
    "specialNameTextMapHash": 1007831283,
    "isInRandomList": true
  },
  {
    "specialNameID": 170,
    "specialNameLabID": 4021,
    "specialNameTextMapHash": 1794640187,
    "isInRandomList": true
  },
  {
    "specialNameID": 171,
    "specialNameLabID": 4021,
    "specialNameTextMapHash": 1232224363,
    "isInRandomList": true
  },
  {
    "specialNameID": 172,
    "specialNameLabID": 4021,
    "specialNameTextMapHash": 1765425227,
    "isInRandomList": true
  },
  {
    "specialNameID": 173,
    "specialNameLabID": 4021,
    "specialNameTextMapHash": 1572680803,
    "isInRandomList": true
  },
  {
    "specialNameID": 174,
    "specialNameLabID": 4021,
    "specialNameTextMapHash": 3728828691,
    "isInRandomList": true
  },
  {
    "specialNameID": 175,
    "specialNameLabID": 4021,
    "specialNameTextMapHash": 2911625091,
    "isInRandomList": true
  },
  {
    "specialNameID": 176,
    "specialNameLabID": 4022,
    "specialNameTextMapHash": 2549588523
  },
  {
    "specialNameID": 177,
    "specialNameLabID": 4031,
    "specialNameTextMapHash": 2552691043,
    "isInRandomList": true
  },
  {
    "specialNameID": 178,
    "specialNameLabID": 4041,
    "specialNameTextMapHash": 1877797955,
    "isInRandomList": true
  },
  {
    "specialNameID": 179,
    "specialNameLabID": 4051,
    "specialNameTextMapHash": 2302369579,
    "isInRandomList": true
  },
  {
    "specialNameID": 180,
    "specialNameLabID": 4052,
    "specialNameTextMapHash": 1382022883,
    "isInRandomList": true
  },
  {
    "specialNameID": 181,
    "specialNameLabID": 4053,
    "specialNameTextMapHash": 106260659,
    "isInRandomList": true
  },
  {
    "specialNameID": 182,
    "specialNameLabID": 4061,
    "specialNameTextMapHash": 3481116843,
    "isInRandomList": true
  },
  {
    "specialNameID": 183,
    "specialNameLabID": 4061,
    "specialNameTextMapHash": 2568556115,
    "isInRandomList": true
  },
  {
    "specialNameID": 184,
    "specialNameLabID": 4061,
    "specialNameTextMapHash": 432740203,
    "isInRandomList": true
  },
  {
    "specialNameID": 185,
    "specialNameLabID": 4061,
    "specialNameTextMapHash": 109668411,
    "isInRandomList": true
  },
  {
    "specialNameID": 186,
    "specialNameLabID": 4061,
    "specialNameTextMapHash": 3701375843,
    "isInRandomList": true
  },
  {
    "specialNameID": 187,
    "specialNameLabID": 4061,
    "specialNameTextMapHash": 3588647627,
    "isInRandomList": true
  },
  {
    "specialNameID": 188,
    "specialNameLabID": 4061,
    "specialNameTextMapHash": 1924745819,
    "isInRandomList": true
  },
  {
    "specialNameID": 189,
    "specialNameLabID": 4061,
    "specialNameTextMapHash": 4188648667,
    "isInRandomList": true
  },
  {
    "specialNameID": 190,
    "specialNameLabID": 4061,
    "specialNameTextMapHash": 431687147,
    "isInRandomList": true
  },
  {
    "specialNameID": 191,
    "specialNameLabID": 4061,
    "specialNameTextMapHash": 1189641435,
    "isInRandomList": true
  },
  {
    "specialNameID": 192,
    "specialNameLabID": 4071,
    "specialNameTextMapHash": 3870107875,
    "isInRandomList": true
  },
  {
    "specialNameID": 193,
    "specialNameLabID": 5001,
    "specialNameTextMapHash": 4123022795,
    "isInRandomList": true
  },
  {
    "specialNameID": 194,
    "specialNameLabID": 5001,
    "specialNameTextMapHash": 3970222683,
    "isInRandomList": true
  },
  {
    "specialNameID": 195,
    "specialNameLabID": 5001,
    "specialNameTextMapHash": 2167754555,
    "isInRandomList": true
  },
  {
    "specialNameID": 196,
    "specialNameLabID": 5001,
    "specialNameTextMapHash": 1951000547,
    "isInRandomList": true
  },
  {
    "specialNameID": 197,
    "specialNameLabID": 5001,
    "specialNameTextMapHash": 3841999875,
    "isInRandomList": true
  },
  {
    "specialNameID": 198,
    "specialNameLabID": 5001,
    "specialNameTextMapHash": 3253956347,
    "isInRandomList": true
  },
  {
    "specialNameID": 199,
    "specialNameLabID": 5001,
    "specialNameTextMapHash": 3442531251,
    "isInRandomList": true
  },
  {
    "specialNameID": 200,
    "specialNameLabID": 5001,
    "specialNameTextMapHash": 1825978451,
    "isInRandomList": true
  },
  {
    "specialNameID": 201,
    "specialNameLabID": 5001,
    "specialNameTextMapHash": 312695115,
    "isInRandomList": true
  },
  {
    "specialNameID": 202,
    "specialNameLabID": 5001,
    "specialNameTextMapHash": 2404620467,
    "isInRandomList": true
  },
  {
    "specialNameID": 203,
    "specialNameLabID": 5001,
    "specialNameTextMapHash": 4214526155,
    "isInRandomList": true
  },
  {
    "specialNameID": 204,
    "specialNameLabID": 5001,
    "specialNameTextMapHash": 3499327523,
    "isInRandomList": true
  },
  {
    "specialNameID": 205,
    "specialNameLabID": 5001,
    "specialNameTextMapHash": 4029220363,
    "isInRandomList": true
  },
  {
    "specialNameID": 206,
    "specialNameLabID": 5001,
    "specialNameTextMapHash": 562003547,
    "isInRandomList": true
  },
  {
    "specialNameID": 207,
    "specialNameLabID": 5001,
    "specialNameTextMapHash": 3059210563,
    "isInRandomList": true
  },
  {
    "specialNameID": 208,
    "specialNameLabID": 5001,
    "specialNameTextMapHash": 3384490539,
    "isInRandomList": true
  },
  {
    "specialNameID": 209,
    "specialNameLabID": 5001,
    "specialNameTextMapHash": 493971835,
    "isInRandomList": true
  },
  {
    "specialNameID": 210,
    "specialNameLabID": 5001,
    "specialNameTextMapHash": 883584835,
    "isInRandomList": true
  },
  {
    "specialNameID": 211,
    "specialNameLabID": 5001,
    "specialNameTextMapHash": 71562875,
    "isInRandomList": true
  },
  {
    "specialNameID": 212,
    "specialNameLabID": 5001,
    "specialNameTextMapHash": 86547307,
    "isInRandomList": true
  },
  {
    "specialNameID": 213,
    "specialNameLabID": 5001,
    "specialNameTextMapHash": 2555608451,
    "isInRandomList": true
  },
  {
    "specialNameID": 214,
    "specialNameLabID": 5001,
    "specialNameTextMapHash": 4188804211,
    "isInRandomList": true
  },
  {
    "specialNameID": 215,
    "specialNameLabID": 5001,
    "specialNameTextMapHash": 2180951787,
    "isInRandomList": true
  },
  {
    "specialNameID": 216,
    "specialNameLabID": 5001,
    "specialNameTextMapHash": 313727011,
    "isInRandomList": true
  },
  {
    "specialNameID": 217,
    "specialNameLabID": 5001,
    "specialNameTextMapHash": 3819482835,
    "isInRandomList": true
  },
  {
    "specialNameID": 218,
    "specialNameLabID": 5001,
    "specialNameTextMapHash": 76518611,
    "isInRandomList": true
  },
  {
    "specialNameID": 219,
    "specialNameLabID": 5001,
    "specialNameTextMapHash": 2607251395,
    "isInRandomList": true
  },
  {
    "specialNameID": 220,
    "specialNameLabID": 5001,
    "specialNameTextMapHash": 3009839731,
    "isInRandomList": true
  },
  {
    "specialNameID": 221,
    "specialNameLabID": 5001,
    "specialNameTextMapHash": 2749731915,
    "isInRandomList": true
  },
  {
    "specialNameID": 222,
    "specialNameLabID": 5001,
    "specialNameTextMapHash": 1264859347,
    "isInRandomList": true
  },
  {
    "specialNameID": 223,
    "specialNameLabID": 5001,
    "specialNameTextMapHash": 1678342227,
    "isInRandomList": true
  },
  {
    "specialNameID": 224,
    "specialNameLabID": 5001,
    "specialNameTextMapHash": 1470100683,
    "isInRandomList": true
  },
  {
    "specialNameID": 225,
    "specialNameLabID": 5002,
    "specialNameTextMapHash": 1180176859,
    "isInRandomList": true
  },
  {
    "specialNameID": 226,
    "specialNameLabID": 5002,
    "specialNameTextMapHash": 3605039691,
    "isInRandomList": true
  },
  {
    "specialNameID": 227,
    "specialNameLabID": 5002,
    "specialNameTextMapHash": 148414523,
    "isInRandomList": true
  },
  {
    "specialNameID": 228,
    "specialNameLabID": 5002,
    "specialNameTextMapHash": 1467755491,
    "isInRandomList": true
  },
  {
    "specialNameID": 229,
    "specialNameLabID": 5002,
    "specialNameTextMapHash": 1015007427,
    "isInRandomList": true
  },
  {
    "specialNameID": 230,
    "specialNameLabID": 5002,
    "specialNameTextMapHash": 3402447715,
    "isInRandomList": true
  },
  {
    "specialNameID": 231,
    "specialNameLabID": 5002,
    "specialNameTextMapHash": 185096603,
    "isInRandomList": true
  },
  {
    "specialNameID": 232,
    "specialNameLabID": 5002,
    "specialNameTextMapHash": 3096311859,
    "isInRandomList": true
  },
  {
    "specialNameID": 233,
    "specialNameLabID": 5002,
    "specialNameTextMapHash": 2954955003,
    "isInRandomList": true
  },
  {
    "specialNameID": 234,
    "specialNameLabID": 5002,
    "specialNameTextMapHash": 2268112115,
    "isInRandomList": true
  },
  {
    "specialNameID": 235,
    "specialNameLabID": 5002,
    "specialNameTextMapHash": 2095172131,
    "isInRandomList": true
  },
  {
    "specialNameID": 236,
    "specialNameLabID": 5002,
    "specialNameTextMapHash": 3309980459,
    "isInRandomList": true
  },
  {
    "specialNameID": 237,
    "specialNameLabID": 5002,
    "specialNameTextMapHash": 1724135691,
    "isInRandomList": true
  },
  {
    "specialNameID": 238,
    "specialNameLabID": 5002,
    "specialNameTextMapHash": 604549939,
    "isInRandomList": true
  },
  {
    "specialNameID": 239,
    "specialNameLabID": 5002,
    "specialNameTextMapHash": 4070165179,
    "isInRandomList": true
  },
  {
    "specialNameID": 240,
    "specialNameLabID": 5002,
    "specialNameTextMapHash": 3689614011,
    "isInRandomList": true
  },
  {
    "specialNameID": 241,
    "specialNameLabID": 5002,
    "specialNameTextMapHash": 2740063379,
    "isInRandomList": true
  },
  {
    "specialNameID": 242,
    "specialNameLabID": 5002,
    "specialNameTextMapHash": 654882915,
    "isInRandomList": true
  },
  {
    "specialNameID": 243,
    "specialNameLabID": 5002,
    "specialNameTextMapHash": 753831883,
    "isInRandomList": true
  },
  {
    "specialNameID": 244,
    "specialNameLabID": 5002,
    "specialNameTextMapHash": 1930121099,
    "isInRandomList": true
  },
  {
    "specialNameID": 245,
    "specialNameLabID": 5002,
    "specialNameTextMapHash": 3992115979,
    "isInRandomList": true
  },
  {
    "specialNameID": 246,
    "specialNameLabID": 5002,
    "specialNameTextMapHash": 1223913667,
    "isInRandomList": true
  },
  {
    "specialNameID": 247,
    "specialNameLabID": 5002,
    "specialNameTextMapHash": 3687223859,
    "isInRandomList": true
  },
  {
    "specialNameID": 248,
    "specialNameLabID": 5002,
    "specialNameTextMapHash": 2555400115,
    "isInRandomList": true
  },
  {
    "specialNameID": 249,
    "specialNameLabID": 5002,
    "specialNameTextMapHash": 2558350779,
    "isInRandomList": true
  },
  {
    "specialNameID": 250,
    "specialNameLabID": 5002,
    "specialNameTextMapHash": 2245770987,
    "isInRandomList": true
  },
  {
    "specialNameID": 251,
    "specialNameLabID": 5002,
    "specialNameTextMapHash": 1313893571,
    "isInRandomList": true
  },
  {
    "specialNameID": 252,
    "specialNameLabID": 5002,
    "specialNameTextMapHash": 2824927595,
    "isInRandomList": true
  },
  {
    "specialNameID": 253,
    "specialNameLabID": 5002,
    "specialNameTextMapHash": 1691793747,
    "isInRandomList": true
  },
  {
    "specialNameID": 254,
    "specialNameLabID": 5002,
    "specialNameTextMapHash": 2073317595,
    "isInRandomList": true
  },
  {
    "specialNameID": 255,
    "specialNameLabID": 5002,
    "specialNameTextMapHash": 308763307,
    "isInRandomList": true
  },
  {
    "specialNameID": 256,
    "specialNameLabID": 5002,
    "specialNameTextMapHash": 1192290739,
    "isInRandomList": true
  },
  {
    "specialNameID": 257,
    "specialNameLabID": 5002,
    "specialNameTextMapHash": 857392643,
    "isInRandomList": true
  },
  {
    "specialNameID": 258,
    "specialNameLabID": 5002,
    "specialNameTextMapHash": 2307655507,
    "isInRandomList": true
  },
  {
    "specialNameID": 259,
    "specialNameLabID": 5002,
    "specialNameTextMapHash": 2252038099,
    "isInRandomList": true
  },
  {
    "specialNameID": 260,
    "specialNameLabID": 5002,
    "specialNameTextMapHash": 1754713459,
    "isInRandomList": true
  },
  {
    "specialNameID": 261,
    "specialNameLabID": 5002,
    "specialNameTextMapHash": 359157891,
    "isInRandomList": true
  },
  {
    "specialNameID": 262,
    "specialNameLabID": 5002,
    "specialNameTextMapHash": 1808686323,
    "isInRandomList": true
  },
  {
    "specialNameID": 263,
    "specialNameLabID": 5002,
    "specialNameTextMapHash": 1040987883,
    "isInRandomList": true
  },
  {
    "specialNameID": 264,
    "specialNameLabID": 5002,
    "specialNameTextMapHash": 3727601363,
    "isInRandomList": true
  },
  {
    "specialNameID": 265,
    "specialNameLabID": 6001,
    "specialNameTextMapHash": 3059569091,
    "isInRandomList": true
  },
  {
    "specialNameID": 266,
    "specialNameLabID": 6001,
    "specialNameTextMapHash": 376472019,
    "isInRandomList": true
  },
  {
    "specialNameID": 267,
    "specialNameLabID": 6001,
    "specialNameTextMapHash": 2875451531,
    "isInRandomList": true
  },
  {
    "specialNameID": 268,
    "specialNameLabID": 6001,
    "specialNameTextMapHash": 399230579,
    "isInRandomList": true
  },
  {
    "specialNameID": 269,
    "specialNameLabID": 6001,
    "specialNameTextMapHash": 2313228707,
    "isInRandomList": true
  },
  {
    "specialNameID": 270,
    "specialNameLabID": 6001,
    "specialNameTextMapHash": 3428322963,
    "isInRandomList": true
  },
  {
    "specialNameID": 271,
    "specialNameLabID": 6001,
    "specialNameTextMapHash": 770399099,
    "isInRandomList": true
  },
  {
    "specialNameID": 272,
    "specialNameLabID": 6001,
    "specialNameTextMapHash": 3411095147,
    "isInRandomList": true
  },
  {
    "specialNameID": 273,
    "specialNameLabID": 6001,
    "specialNameTextMapHash": 2117145163,
    "isInRandomList": true
  },
  {
    "specialNameID": 274,
    "specialNameLabID": 6001,
    "specialNameTextMapHash": 2747212307,
    "isInRandomList": true
  },
  {
    "specialNameID": 275,
    "specialNameLabID": 6001,
    "specialNameTextMapHash": 3288128395,
    "isInRandomList": true
  },
  {
    "specialNameID": 276,
    "specialNameLabID": 6001,
    "specialNameTextMapHash": 1961233315,
    "isInRandomList": true
  },
  {
    "specialNameID": 277,
    "specialNameLabID": 6001,
    "specialNameTextMapHash": 3291550459,
    "isInRandomList": true
  },
  {
    "specialNameID": 278,
    "specialNameLabID": 6001,
    "specialNameTextMapHash": 4127427195,
    "isInRandomList": true
  },
  {
    "specialNameID": 279,
    "specialNameLabID": 6001,
    "specialNameTextMapHash": 1487462051,
    "isInRandomList": true
  },
  {
    "specialNameID": 280,
    "specialNameLabID": 6001,
    "specialNameTextMapHash": 4148092019,
    "isInRandomList": true
  },
  {
    "specialNameID": 281,
    "specialNameLabID": 6001,
    "specialNameTextMapHash": 410089931,
    "isInRandomList": true
  },
  {
    "specialNameID": 282,
    "specialNameLabID": 6001,
    "specialNameTextMapHash": 4165629051,
    "isInRandomList": true
  },
  {
    "specialNameID": 283,
    "specialNameLabID": 6001,
    "specialNameTextMapHash": 554854899,
    "isInRandomList": true
  },
  {
    "specialNameID": 284,
    "specialNameLabID": 6001,
    "specialNameTextMapHash": 1376300571,
    "isInRandomList": true
  },
  {
    "specialNameID": 285,
    "specialNameLabID": 6001,
    "specialNameTextMapHash": 3721152035,
    "isInRandomList": true
  },
  {
    "specialNameID": 286,
    "specialNameLabID": 6001,
    "specialNameTextMapHash": 1532527019,
    "isInRandomList": true
  },
  {
    "specialNameID": 287,
    "specialNameLabID": 6001,
    "specialNameTextMapHash": 3986211331,
    "isInRandomList": true
  },
  {
    "specialNameID": 288,
    "specialNameLabID": 6001,
    "specialNameTextMapHash": 125191323,
    "isInRandomList": true
  },
  {
    "specialNameID": 289,
    "specialNameLabID": 6001,
    "specialNameTextMapHash": 805016547,
    "isInRandomList": true
  },
  {
    "specialNameID": 290,
    "specialNameLabID": 6001,
    "specialNameTextMapHash": 2442998083,
    "isInRandomList": true
  },
  {
    "specialNameID": 291,
    "specialNameLabID": 6001,
    "specialNameTextMapHash": 3778961331,
    "isInRandomList": true
  },
  {
    "specialNameID": 292,
    "specialNameLabID": 6001,
    "specialNameTextMapHash": 3645009099,
    "isInRandomList": true
  },
  {
    "specialNameID": 293,
    "specialNameLabID": 6001,
    "specialNameTextMapHash": 503060195,
    "isInRandomList": true
  },
  {
    "specialNameID": 294,
    "specialNameLabID": 6001,
    "specialNameTextMapHash": 3744272915,
    "isInRandomList": true
  },
  {
    "specialNameID": 295,
    "specialNameLabID": 6001,
    "specialNameTextMapHash": 2541324075,
    "isInRandomList": true
  },
  {
    "specialNameID": 296,
    "specialNameLabID": 6001,
    "specialNameTextMapHash": 23259771,
    "isInRandomList": true
  },
  {
    "specialNameID": 297,
    "specialNameLabID": 6001,
    "specialNameTextMapHash": 2612876643,
    "isInRandomList": true
  },
  {
    "specialNameID": 298,
    "specialNameLabID": 6002,
    "specialNameTextMapHash": 4057516987,
    "isInRandomList": true
  },
  {
    "specialNameID": 299,
    "specialNameLabID": 6002,
    "specialNameTextMapHash": 3890994787,
    "isInRandomList": true
  },
  {
    "specialNameID": 300,
    "specialNameLabID": 6002,
    "specialNameTextMapHash": 540162571,
    "isInRandomList": true
  },
  {
    "specialNameID": 301,
    "specialNameLabID": 6002,
    "specialNameTextMapHash": 2907690283,
    "isInRandomList": true
  },
  {
    "specialNameID": 302,
    "specialNameLabID": 6002,
    "specialNameTextMapHash": 2587955875,
    "isInRandomList": true
  },
  {
    "specialNameID": 303,
    "specialNameLabID": 6002,
    "specialNameTextMapHash": 2357508067,
    "isInRandomList": true
  },
  {
    "specialNameID": 304,
    "specialNameLabID": 6002,
    "specialNameTextMapHash": 4240770739,
    "isInRandomList": true
  },
  {
    "specialNameID": 305,
    "specialNameLabID": 6002,
    "specialNameTextMapHash": 1980753299,
    "isInRandomList": true
  },
  {
    "specialNameID": 306,
    "specialNameLabID": 6002,
    "specialNameTextMapHash": 2502185643,
    "isInRandomList": true
  },
  {
    "specialNameID": 307,
    "specialNameLabID": 6002,
    "specialNameTextMapHash": 1414786611,
    "isInRandomList": true
  },
  {
    "specialNameID": 308,
    "specialNameLabID": 6002,
    "specialNameTextMapHash": 2789145691,
    "isInRandomList": true
  },
  {
    "specialNameID": 309,
    "specialNameLabID": 6002,
    "specialNameTextMapHash": 3261121739,
    "isInRandomList": true
  },
  {
    "specialNameID": 310,
    "specialNameLabID": 6002,
    "specialNameTextMapHash": 2447034539,
    "isInRandomList": true
  },
  {
    "specialNameID": 311,
    "specialNameLabID": 6002,
    "specialNameTextMapHash": 2998342739,
    "isInRandomList": true
  },
  {
    "specialNameID": 312,
    "specialNameLabID": 6002,
    "specialNameTextMapHash": 2545737291,
    "isInRandomList": true
  },
  {
    "specialNameID": 313,
    "specialNameLabID": 6002,
    "specialNameTextMapHash": 573695683,
    "isInRandomList": true
  },
  {
    "specialNameID": 314,
    "specialNameLabID": 6002,
    "specialNameTextMapHash": 2622737931,
    "isInRandomList": true
  },
  {
    "specialNameID": 315,
    "specialNameLabID": 6002,
    "specialNameTextMapHash": 2453434515,
    "isInRandomList": true
  },
  {
    "specialNameID": 316,
    "specialNameLabID": 6002,
    "specialNameTextMapHash": 665886851,
    "isInRandomList": true
  },
  {
    "specialNameID": 317,
    "specialNameLabID": 6002,
    "specialNameTextMapHash": 427196811,
    "isInRandomList": true
  },
  {
    "specialNameID": 318,
    "specialNameLabID": 6002,
    "specialNameTextMapHash": 1703006803,
    "isInRandomList": true
  },
  {
    "specialNameID": 319,
    "specialNameLabID": 6002,
    "specialNameTextMapHash": 2061357035,
    "isInRandomList": true
  },
  {
    "specialNameID": 320,
    "specialNameLabID": 6002,
    "specialNameTextMapHash": 1942831483,
    "isInRandomList": true
  },
  {
    "specialNameID": 321,
    "specialNameLabID": 6002,
    "specialNameTextMapHash": 2302893771,
    "isInRandomList": true
  },
  {
    "specialNameID": 322,
    "specialNameLabID": 6002,
    "specialNameTextMapHash": 3421650875,
    "isInRandomList": true
  },
  {
    "specialNameID": 323,
    "specialNameLabID": 6002,
    "specialNameTextMapHash": 761696851,
    "isInRandomList": true
  },
  {
    "specialNameID": 324,
    "specialNameLabID": 6002,
    "specialNameTextMapHash": 3474346475,
    "isInRandomList": true
  },
  {
    "specialNameID": 325,
    "specialNameLabID": 6002,
    "specialNameTextMapHash": 1692640179,
    "isInRandomList": true
  },
  {
    "specialNameID": 326,
    "specialNameLabID": 6002,
    "specialNameTextMapHash": 2667505539,
    "isInRandomList": true
  },
  {
    "specialNameID": 327,
    "specialNameLabID": 6002,
    "specialNameTextMapHash": 1159126171,
    "isInRandomList": true
  },
  {
    "specialNameID": 328,
    "specialNameLabID": 6003,
    "specialNameTextMapHash": 4016462099,
    "isInRandomList": true
  },
  {
    "specialNameID": 329,
    "specialNameLabID": 6003,
    "specialNameTextMapHash": 3134861963,
    "isInRandomList": true
  },
  {
    "specialNameID": 330,
    "specialNameLabID": 6003,
    "specialNameTextMapHash": 61572243,
    "isInRandomList": true
  },
  {
    "specialNameID": 331,
    "specialNameLabID": 6003,
    "specialNameTextMapHash": 3915212979,
    "isInRandomList": true
  },
  {
    "specialNameID": 332,
    "specialNameLabID": 6003,
    "specialNameTextMapHash": 1247909659,
    "isInRandomList": true
  },
  {
    "specialNameID": 333,
    "specialNameLabID": 6003,
    "specialNameTextMapHash": 993760283,
    "isInRandomList": true
  },
  {
    "specialNameID": 334,
    "specialNameLabID": 6003,
    "specialNameTextMapHash": 3463882659,
    "isInRandomList": true
  },
  {
    "specialNameID": 335,
    "specialNameLabID": 6003,
    "specialNameTextMapHash": 4176729347,
    "isInRandomList": true
  },
  {
    "specialNameID": 336,
    "specialNameLabID": 6003,
    "specialNameTextMapHash": 3481198779,
    "isInRandomList": true
  },
  {
    "specialNameID": 337,
    "specialNameLabID": 6003,
    "specialNameTextMapHash": 1675691275,
    "isInRandomList": true
  },
  {
    "specialNameID": 338,
    "specialNameLabID": 6003,
    "specialNameTextMapHash": 2509684483,
    "isInRandomList": true
  },
  {
    "specialNameID": 339,
    "specialNameLabID": 6003,
    "specialNameTextMapHash": 2988861499,
    "isInRandomList": true
  },
  {
    "specialNameID": 340,
    "specialNameLabID": 6003,
    "specialNameTextMapHash": 3359650459,
    "isInRandomList": true
  },
  {
    "specialNameID": 341,
    "specialNameLabID": 6003,
    "specialNameTextMapHash": 1419458283,
    "isInRandomList": true
  },
  {
    "specialNameID": 342,
    "specialNameLabID": 6004,
    "specialNameTextMapHash": 3063358491,
    "isInRandomList": true
  },
  {
    "specialNameID": 343,
    "specialNameLabID": 6005,
    "specialNameTextMapHash": 4272777067,
    "isInRandomList": true
  },
  {
    "specialNameID": 344,
    "specialNameLabID": 6005,
    "specialNameTextMapHash": 1433627099,
    "isInRandomList": true
  },
  {
    "specialNameID": 345,
    "specialNameLabID": 6005,
    "specialNameTextMapHash": 4103905419,
    "isInRandomList": true
  },
  {
    "specialNameID": 346,
    "specialNameLabID": 6005,
    "specialNameTextMapHash": 21725675,
    "isInRandomList": true
  },
  {
    "specialNameID": 347,
    "specialNameLabID": 6005,
    "specialNameTextMapHash": 968051931,
    "isInRandomList": true
  },
  {
    "specialNameID": 348,
    "specialNameLabID": 6005,
    "specialNameTextMapHash": 1758255779,
    "isInRandomList": true
  },
  {
    "specialNameID": 349,
    "specialNameLabID": 6005,
    "specialNameTextMapHash": 2726687363,
    "isInRandomList": true
  },
  {
    "specialNameID": 350,
    "specialNameLabID": 6005,
    "specialNameTextMapHash": 716888907,
    "isInRandomList": true
  },
  {
    "specialNameID": 351,
    "specialNameLabID": 6005,
    "specialNameTextMapHash": 3726803235,
    "isInRandomList": true
  },
  {
    "specialNameID": 352,
    "specialNameLabID": 6005,
    "specialNameTextMapHash": 2856497171,
    "isInRandomList": true
  },
  {
    "specialNameID": 353,
    "specialNameLabID": 6005,
    "specialNameTextMapHash": 467050395,
    "isInRandomList": true
  },
  {
    "specialNameID": 354,
    "specialNameLabID": 6005,
    "specialNameTextMapHash": 2852306723,
    "isInRandomList": true
  },
  {
    "specialNameID": 355,
    "specialNameLabID": 6005,
    "specialNameTextMapHash": 2243755691,
    "isInRandomList": true
  },
  {
    "specialNameID": 356,
    "specialNameLabID": 6005,
    "specialNameTextMapHash": 347528219,
    "isInRandomList": true
  },
  {
    "specialNameID": 357,
    "specialNameLabID": 6005,
    "specialNameTextMapHash": 2160872195,
    "isInRandomList": true
  },
  {
    "specialNameID": 358,
    "specialNameLabID": 6005,
    "specialNameTextMapHash": 3935437843,
    "isInRandomList": true
  },
  {
    "specialNameID": 359,
    "specialNameLabID": 6005,
    "specialNameTextMapHash": 956706275,
    "isInRandomList": true
  },
  {
    "specialNameID": 360,
    "specialNameLabID": 6005,
    "specialNameTextMapHash": 2457197699,
    "isInRandomList": true
  },
  {
    "specialNameID": 361,
    "specialNameLabID": 6005,
    "specialNameTextMapHash": 3735645259,
    "isInRandomList": true
  },
  {
    "specialNameID": 362,
    "specialNameLabID": 6005,
    "specialNameTextMapHash": 2581735091,
    "isInRandomList": true
  },
  {
    "specialNameID": 363,
    "specialNameLabID": 6007,
    "specialNameTextMapHash": 1285663779,
    "isInRandomList": true
  },
  {
    "specialNameID": 364,
    "specialNameLabID": 6011,
    "specialNameTextMapHash": 2245268835,
    "isInRandomList": true
  },
  {
    "specialNameID": 365,
    "specialNameLabID": 6011,
    "specialNameTextMapHash": 1127580139,
    "isInRandomList": true
  },
  {
    "specialNameID": 366,
    "specialNameLabID": 6011,
    "specialNameTextMapHash": 41279771,
    "isInRandomList": true
  },
  {
    "specialNameID": 367,
    "specialNameLabID": 6011,
    "specialNameTextMapHash": 1619014475,
    "isInRandomList": true
  },
  {
    "specialNameID": 368,
    "specialNameLabID": 6011,
    "specialNameTextMapHash": 3404357619,
    "isInRandomList": true
  },
  {
    "specialNameID": 369,
    "specialNameLabID": 6011,
    "specialNameTextMapHash": 249978795,
    "isInRandomList": true
  },
  {
    "specialNameID": 370,
    "specialNameLabID": 6011,
    "specialNameTextMapHash": 4234770851,
    "isInRandomList": true
  },
  {
    "specialNameID": 371,
    "specialNameLabID": 6011,
    "specialNameTextMapHash": 2475959419,
    "isInRandomList": true
  },
  {
    "specialNameID": 372,
    "specialNameLabID": 6011,
    "specialNameTextMapHash": 3458029379,
    "isInRandomList": true
  },
  {
    "specialNameID": 373,
    "specialNameLabID": 6011,
    "specialNameTextMapHash": 3124024851,
    "isInRandomList": true
  },
  {
    "specialNameID": 374,
    "specialNameLabID": 6011,
    "specialNameTextMapHash": 1151707651,
    "isInRandomList": true
  },
  {
    "specialNameID": 375,
    "specialNameLabID": 6011,
    "specialNameTextMapHash": 3125934219,
    "isInRandomList": true
  },
  {
    "specialNameID": 376,
    "specialNameLabID": 6011,
    "specialNameTextMapHash": 3843197819,
    "isInRandomList": true
  },
  {
    "specialNameID": 377,
    "specialNameLabID": 6011,
    "specialNameTextMapHash": 1836507515,
    "isInRandomList": true
  },
  {
    "specialNameID": 378,
    "specialNameLabID": 6011,
    "specialNameTextMapHash": 1461387747,
    "isInRandomList": true
  },
  {
    "specialNameID": 379,
    "specialNameLabID": 6011,
    "specialNameTextMapHash": 603042675,
    "isInRandomList": true
  },
  {
    "specialNameID": 380,
    "specialNameLabID": 6101,
    "specialNameTextMapHash": 811898427,
    "isInRandomList": true
  },
  {
    "specialNameID": 381,
    "specialNameLabID": 6111,
    "specialNameTextMapHash": 3632184131,
    "isInRandomList": true
  },
  {
    "specialNameID": 382,
    "specialNameLabID": 6121,
    "specialNameTextMapHash": 2253882875,
    "isInRandomList": true
  },
  {
    "specialNameID": 383,
    "specialNameLabID": 7001,
    "specialNameTextMapHash": 892491235,
    "isInRandomList": true
  },
  {
    "specialNameID": 384,
    "specialNameLabID": 7001,
    "specialNameTextMapHash": 1664907859,
    "isInRandomList": true
  },
  {
    "specialNameID": 385,
    "specialNameLabID": 7001,
    "specialNameTextMapHash": 3957639563,
    "isInRandomList": true
  },
  {
    "specialNameID": 386,
    "specialNameLabID": 7001,
    "specialNameTextMapHash": 468013747,
    "isInRandomList": true
  },
  {
    "specialNameID": 387,
    "specialNameLabID": 7001,
    "specialNameTextMapHash": 428565547,
    "isInRandomList": true
  },
  {
    "specialNameID": 388,
    "specialNameLabID": 7001,
    "specialNameTextMapHash": 1780898859,
    "isInRandomList": true
  },
  {
    "specialNameID": 389,
    "specialNameLabID": 7001,
    "specialNameTextMapHash": 2761875035,
    "isInRandomList": true
  },
  {
    "specialNameID": 390,
    "specialNameLabID": 7001,
    "specialNameTextMapHash": 4037315459,
    "isInRandomList": true
  },
  {
    "specialNameID": 391,
    "specialNameLabID": 7001,
    "specialNameTextMapHash": 1000033491,
    "isInRandomList": true
  },
  {
    "specialNameID": 392,
    "specialNameLabID": 7001,
    "specialNameTextMapHash": 609666683,
    "isInRandomList": true
  },
  {
    "specialNameID": 393,
    "specialNameLabID": 7001,
    "specialNameTextMapHash": 3432305139,
    "isInRandomList": true
  },
  {
    "specialNameID": 394,
    "specialNameLabID": 7001,
    "specialNameTextMapHash": 3910455483,
    "isInRandomList": true
  },
  {
    "specialNameID": 395,
    "specialNameLabID": 7001,
    "specialNameTextMapHash": 3438728723,
    "isInRandomList": true
  },
  {
    "specialNameID": 396,
    "specialNameLabID": 7001,
    "specialNameTextMapHash": 1509018347,
    "isInRandomList": true
  },
  {
    "specialNameID": 397,
    "specialNameLabID": 7001,
    "specialNameTextMapHash": 1518991747,
    "isInRandomList": true
  },
  {
    "specialNameID": 398,
    "specialNameLabID": 7001,
    "specialNameTextMapHash": 1943884067,
    "isInRandomList": true
  },
  {
    "specialNameID": 399,
    "specialNameLabID": 7001,
    "specialNameTextMapHash": 4166237403,
    "isInRandomList": true
  },
  {
    "specialNameID": 400,
    "specialNameLabID": 7001,
    "specialNameTextMapHash": 3336824971,
    "isInRandomList": true
  },
  {
    "specialNameID": 401,
    "specialNameLabID": 7001,
    "specialNameTextMapHash": 1843127851,
    "isInRandomList": true
  },
  {
    "specialNameID": 402,
    "specialNameLabID": 7001,
    "specialNameTextMapHash": 819348083,
    "isInRandomList": true
  },
  {
    "specialNameID": 403,
    "specialNameLabID": 7001,
    "specialNameTextMapHash": 3389442219,
    "isInRandomList": true
  },
  {
    "specialNameID": 404,
    "specialNameLabID": 7001,
    "specialNameTextMapHash": 3111998915,
    "isInRandomList": true
  },
  {
    "specialNameID": 405,
    "specialNameLabID": 7001,
    "specialNameTextMapHash": 3148347555,
    "isInRandomList": true
  },
  {
    "specialNameID": 406,
    "specialNameLabID": 7001,
    "specialNameTextMapHash": 1476257155,
    "isInRandomList": true
  },
  {
    "specialNameID": 407,
    "specialNameLabID": 7001,
    "specialNameTextMapHash": 3413236163,
    "isInRandomList": true
  },
  {
    "specialNameID": 408,
    "specialNameLabID": 7001,
    "specialNameTextMapHash": 1371669219,
    "isInRandomList": true
  },
  {
    "specialNameID": 409,
    "specialNameLabID": 7001,
    "specialNameTextMapHash": 764724763,
    "isInRandomList": true
  },
  {
    "specialNameID": 410,
    "specialNameLabID": 7001,
    "specialNameTextMapHash": 3681492787,
    "isInRandomList": true
  },
  {
    "specialNameID": 411,
    "specialNameLabID": 7001,
    "specialNameTextMapHash": 840598131,
    "isInRandomList": true
  },
  {
    "specialNameID": 412,
    "specialNameLabID": 7002,
    "specialNameTextMapHash": 908576867,
    "isInRandomList": true
  },
  {
    "specialNameID": 413,
    "specialNameLabID": 7002,
    "specialNameTextMapHash": 503296547,
    "isInRandomList": true
  },
  {
    "specialNameID": 414,
    "specialNameLabID": 7002,
    "specialNameTextMapHash": 2572907531,
    "isInRandomList": true
  },
  {
    "specialNameID": 415,
    "specialNameLabID": 7002,
    "specialNameTextMapHash": 1239815179,
    "isInRandomList": true
  },
  {
    "specialNameID": 416,
    "specialNameLabID": 7002,
    "specialNameTextMapHash": 1577809891,
    "isInRandomList": true
  },
  {
    "specialNameID": 417,
    "specialNameLabID": 7002,
    "specialNameTextMapHash": 1365898043,
    "isInRandomList": true
  },
  {
    "specialNameID": 418,
    "specialNameLabID": 7002,
    "specialNameTextMapHash": 1897642779,
    "isInRandomList": true
  },
  {
    "specialNameID": 419,
    "specialNameLabID": 7002,
    "specialNameTextMapHash": 2331632587,
    "isInRandomList": true
  },
  {
    "specialNameID": 420,
    "specialNameLabID": 7002,
    "specialNameTextMapHash": 1517071739,
    "isInRandomList": true
  },
  {
    "specialNameID": 421,
    "specialNameLabID": 7002,
    "specialNameTextMapHash": 2478294979,
    "isInRandomList": true
  },
  {
    "specialNameID": 422,
    "specialNameLabID": 7002,
    "specialNameTextMapHash": 1564845091,
    "isInRandomList": true
  },
  {
    "specialNameID": 423,
    "specialNameLabID": 7002,
    "specialNameTextMapHash": 2533647867,
    "isInRandomList": true
  },
  {
    "specialNameID": 424,
    "specialNameLabID": 7005,
    "specialNameTextMapHash": 1465924635
  },
  {
    "specialNameID": 425,
    "specialNameLabID": 7006,
    "specialNameTextMapHash": 2439762587
  },
  {
    "specialNameID": 426,
    "specialNameLabID": 7007,
    "specialNameTextMapHash": 976323051
  },
  {
    "specialNameID": 427,
    "specialNameLabID": 7008,
    "specialNameTextMapHash": 4126639763
  },
  {
    "specialNameID": 428,
    "specialNameLabID": 7011,
    "specialNameTextMapHash": 2584570499,
    "isInRandomList": true
  },
  {
    "specialNameID": 429,
    "specialNameLabID": 7011,
    "specialNameTextMapHash": 3235473899,
    "isInRandomList": true
  },
  {
    "specialNameID": 430,
    "specialNameLabID": 7011,
    "specialNameTextMapHash": 361846803,
    "isInRandomList": true
  },
  {
    "specialNameID": 431,
    "specialNameLabID": 7011,
    "specialNameTextMapHash": 3381372587,
    "isInRandomList": true
  },
  {
    "specialNameID": 432,
    "specialNameLabID": 7011,
    "specialNameTextMapHash": 305510123,
    "isInRandomList": true
  },
  {
    "specialNameID": 433,
    "specialNameLabID": 7011,
    "specialNameTextMapHash": 3147486611,
    "isInRandomList": true
  },
  {
    "specialNameID": 434,
    "specialNameLabID": 7011,
    "specialNameTextMapHash": 2879690403,
    "isInRandomList": true
  },
  {
    "specialNameID": 435,
    "specialNameLabID": 7011,
    "specialNameTextMapHash": 813912155,
    "isInRandomList": true
  },
  {
    "specialNameID": 436,
    "specialNameLabID": 7011,
    "specialNameTextMapHash": 1333440987,
    "isInRandomList": true
  },
  {
    "specialNameID": 437,
    "specialNameLabID": 7011,
    "specialNameTextMapHash": 3041224987,
    "isInRandomList": true
  },
  {
    "specialNameID": 438,
    "specialNameLabID": 7011,
    "specialNameTextMapHash": 2803730627,
    "isInRandomList": true
  },
  {
    "specialNameID": 439,
    "specialNameLabID": 7011,
    "specialNameTextMapHash": 524567267,
    "isInRandomList": true
  },
  {
    "specialNameID": 440,
    "specialNameLabID": 7011,
    "specialNameTextMapHash": 2041147931,
    "isInRandomList": true
  },
  {
    "specialNameID": 441,
    "specialNameLabID": 7011,
    "specialNameTextMapHash": 1500195299,
    "isInRandomList": true
  },
  {
    "specialNameID": 442,
    "specialNameLabID": 7011,
    "specialNameTextMapHash": 3129032675,
    "isInRandomList": true
  },
  {
    "specialNameID": 443,
    "specialNameLabID": 7011,
    "specialNameTextMapHash": 4029210075,
    "isInRandomList": true
  },
  {
    "specialNameID": 444,
    "specialNameLabID": 7011,
    "specialNameTextMapHash": 1627848923,
    "isInRandomList": true
  },
  {
    "specialNameID": 445,
    "specialNameLabID": 7011,
    "specialNameTextMapHash": 2313092019,
    "isInRandomList": true
  },
  {
    "specialNameID": 446,
    "specialNameLabID": 7100,
    "specialNameTextMapHash": 1197154699
  },
  {
    "specialNameID": 447,
    "specialNameLabID": 7141,
    "specialNameTextMapHash": 792148995,
    "isInRandomList": true
  },
  {
    "specialNameID": 448,
    "specialNameLabID": 7141,
    "specialNameTextMapHash": 4291228387,
    "isInRandomList": true
  },
  {
    "specialNameID": 449,
    "specialNameLabID": 7141,
    "specialNameTextMapHash": 3509617667,
    "isInRandomList": true
  },
  {
    "specialNameID": 450,
    "specialNameLabID": 7141,
    "specialNameTextMapHash": 1580140771,
    "isInRandomList": true
  },
  {
    "specialNameID": 451,
    "specialNameLabID": 7141,
    "specialNameTextMapHash": 638757451,
    "isInRandomList": true
  },
  {
    "specialNameID": 452,
    "specialNameLabID": 7141,
    "specialNameTextMapHash": 1266344395,
    "isInRandomList": true
  },
  {
    "specialNameID": 453,
    "specialNameLabID": 7141,
    "specialNameTextMapHash": 911946187,
    "isInRandomList": true
  },
  {
    "specialNameID": 454,
    "specialNameLabID": 7141,
    "specialNameTextMapHash": 1411025939,
    "isInRandomList": true
  },
  {
    "specialNameID": 455,
    "specialNameLabID": 7141,
    "specialNameTextMapHash": 1320158515,
    "isInRandomList": true
  },
  {
    "specialNameID": 456,
    "specialNameLabID": 7141,
    "specialNameTextMapHash": 3105811587,
    "isInRandomList": true
  },
  {
    "specialNameID": 457,
    "specialNameLabID": 7141,
    "specialNameTextMapHash": 4117912835,
    "isInRandomList": true
  },
  {
    "specialNameID": 458,
    "specialNameLabID": 7141,
    "specialNameTextMapHash": 2438029251,
    "isInRandomList": true
  },
  {
    "specialNameID": 459,
    "specialNameLabID": 7141,
    "specialNameTextMapHash": 3431017315,
    "isInRandomList": true
  },
  {
    "specialNameID": 460,
    "specialNameLabID": 7141,
    "specialNameTextMapHash": 912676475,
    "isInRandomList": true
  },
  {
    "specialNameID": 461,
    "specialNameLabID": 7141,
    "specialNameTextMapHash": 4273995763,
    "isInRandomList": true
  },
  {
    "specialNameID": 462,
    "specialNameLabID": 7141,
    "specialNameTextMapHash": 2600501155,
    "isInRandomList": true
  },
  {
    "specialNameID": 463,
    "specialNameLabID": 7141,
    "specialNameTextMapHash": 909151931,
    "isInRandomList": true
  },
  {
    "specialNameID": 464,
    "specialNameLabID": 7141,
    "specialNameTextMapHash": 2408588139,
    "isInRandomList": true
  },
  {
    "specialNameID": 465,
    "specialNameLabID": 7141,
    "specialNameTextMapHash": 3111447019,
    "isInRandomList": true
  },
  {
    "specialNameID": 466,
    "specialNameLabID": 7141,
    "specialNameTextMapHash": 512117619,
    "isInRandomList": true
  },
  {
    "specialNameID": 467,
    "specialNameLabID": 7141,
    "specialNameTextMapHash": 242438723,
    "isInRandomList": true
  },
  {
    "specialNameID": 468,
    "specialNameLabID": 7141,
    "specialNameTextMapHash": 1215602379,
    "isInRandomList": true
  },
  {
    "specialNameID": 469,
    "specialNameLabID": 7141,
    "specialNameTextMapHash": 2469517075,
    "isInRandomList": true
  },
  {
    "specialNameID": 470,
    "specialNameLabID": 7147,
    "specialNameTextMapHash": 1888488243,
    "isInRandomList": true
  },
  {
    "specialNameID": 471,
    "specialNameLabID": 7148,
    "specialNameTextMapHash": 2757034499,
    "isInRandomList": true
  },
  {
    "specialNameID": 472,
    "specialNameLabID": 7151,
    "specialNameTextMapHash": 3142298819,
    "isInRandomList": true
  },
  {
    "specialNameID": 473,
    "specialNameLabID": 7151,
    "specialNameTextMapHash": 1337567955,
    "isInRandomList": true
  },
  {
    "specialNameID": 474,
    "specialNameLabID": 7151,
    "specialNameTextMapHash": 4206211411,
    "isInRandomList": true
  },
  {
    "specialNameID": 475,
    "specialNameLabID": 7151,
    "specialNameTextMapHash": 790442451,
    "isInRandomList": true
  },
  {
    "specialNameID": 476,
    "specialNameLabID": 7151,
    "specialNameTextMapHash": 3374170315,
    "isInRandomList": true
  },
  {
    "specialNameID": 477,
    "specialNameLabID": 7151,
    "specialNameTextMapHash": 1566823403,
    "isInRandomList": true
  },
  {
    "specialNameID": 478,
    "specialNameLabID": 7151,
    "specialNameTextMapHash": 1110614427,
    "isInRandomList": true
  },
  {
    "specialNameID": 479,
    "specialNameLabID": 7151,
    "specialNameTextMapHash": 738528475,
    "isInRandomList": true
  },
  {
    "specialNameID": 480,
    "specialNameLabID": 7151,
    "specialNameTextMapHash": 3976849803,
    "isInRandomList": true
  },
  {
    "specialNameID": 481,
    "specialNameLabID": 7151,
    "specialNameTextMapHash": 2787351403,
    "isInRandomList": true
  },
  {
    "specialNameID": 482,
    "specialNameLabID": 7151,
    "specialNameTextMapHash": 1671410235,
    "isInRandomList": true
  },
  {
    "specialNameID": 483,
    "specialNameLabID": 7151,
    "specialNameTextMapHash": 322883771,
    "isInRandomList": true
  },
  {
    "specialNameID": 484,
    "specialNameLabID": 7151,
    "specialNameTextMapHash": 3358118219,
    "isInRandomList": true
  },
  {
    "specialNameID": 485,
    "specialNameLabID": 7151,
    "specialNameTextMapHash": 4057062611,
    "isInRandomList": true
  },
  {
    "specialNameID": 486,
    "specialNameLabID": 7151,
    "specialNameTextMapHash": 3465821619,
    "isInRandomList": true
  },
  {
    "specialNameID": 487,
    "specialNameLabID": 7151,
    "specialNameTextMapHash": 80511515,
    "isInRandomList": true
  },
  {
    "specialNameID": 488,
    "specialNameLabID": 7151,
    "specialNameTextMapHash": 1532068739,
    "isInRandomList": true
  },
  {
    "specialNameID": 489,
    "specialNameLabID": 7151,
    "specialNameTextMapHash": 2847207643,
    "isInRandomList": true
  },
  {
    "specialNameID": 490,
    "specialNameLabID": 7151,
    "specialNameTextMapHash": 4266810843,
    "isInRandomList": true
  },
  {
    "specialNameID": 491,
    "specialNameLabID": 7151,
    "specialNameTextMapHash": 2857822211,
    "isInRandomList": true
  },
  {
    "specialNameID": 492,
    "specialNameLabID": 7151,
    "specialNameTextMapHash": 2929286915,
    "isInRandomList": true
  },
  {
    "specialNameID": 493,
    "specialNameLabID": 7151,
    "specialNameTextMapHash": 2047317123,
    "isInRandomList": true
  },
  {
    "specialNameID": 494,
    "specialNameLabID": 7151,
    "specialNameTextMapHash": 341670979,
    "isInRandomList": true
  },
  {
    "specialNameID": 495,
    "specialNameLabID": 7151,
    "specialNameTextMapHash": 1719457651,
    "isInRandomList": true
  },
  {
    "specialNameID": 496,
    "specialNameLabID": 7151,
    "specialNameTextMapHash": 2753763203,
    "isInRandomList": true
  },
  {
    "specialNameID": 497,
    "specialNameLabID": 7151,
    "specialNameTextMapHash": 804889107,
    "isInRandomList": true
  },
  {
    "specialNameID": 498,
    "specialNameLabID": 7151,
    "specialNameTextMapHash": 4261663043,
    "isInRandomList": true
  },
  {
    "specialNameID": 499,
    "specialNameLabID": 7151,
    "specialNameTextMapHash": 4153516419,
    "isInRandomList": true
  },
  {
    "specialNameID": 500,
    "specialNameLabID": 7151,
    "specialNameTextMapHash": 2340062291,
    "isInRandomList": true
  },
  {
    "specialNameID": 501,
    "specialNameLabID": 7151,
    "specialNameTextMapHash": 506712651,
    "isInRandomList": true
  },
  {
    "specialNameID": 502,
    "specialNameLabID": 7151,
    "specialNameTextMapHash": 291160891,
    "isInRandomList": true
  },
  {
    "specialNameID": 503,
    "specialNameLabID": 7151,
    "specialNameTextMapHash": 3117724739,
    "isInRandomList": true
  },
  {
    "specialNameID": 504,
    "specialNameLabID": 7151,
    "specialNameTextMapHash": 2225986531,
    "isInRandomList": true
  },
  {
    "specialNameID": 505,
    "specialNameLabID": 7151,
    "specialNameTextMapHash": 1586016787,
    "isInRandomList": true
  },
  {
    "specialNameID": 506,
    "specialNameLabID": 7151,
    "specialNameTextMapHash": 2408767643,
    "isInRandomList": true
  },
  {
    "specialNameID": 507,
    "specialNameLabID": 7151,
    "specialNameTextMapHash": 2223857683,
    "isInRandomList": true
  },
  {
    "specialNameID": 508,
    "specialNameLabID": 7151,
    "specialNameTextMapHash": 3907381323,
    "isInRandomList": true
  },
  {
    "specialNameID": 509,
    "specialNameLabID": 7151,
    "specialNameTextMapHash": 1788280467,
    "isInRandomList": true
  },
  {
    "specialNameID": 510,
    "specialNameLabID": 7151,
    "specialNameTextMapHash": 44305059,
    "isInRandomList": true
  },
  {
    "specialNameID": 511,
    "specialNameLabID": 7151,
    "specialNameTextMapHash": 116098211,
    "isInRandomList": true
  },
  {
    "specialNameID": 512,
    "specialNameLabID": 7151,
    "specialNameTextMapHash": 3367265043,
    "isInRandomList": true
  },
  {
    "specialNameID": 513,
    "specialNameLabID": 7151,
    "specialNameTextMapHash": 1566090683,
    "isInRandomList": true
  },
  {
    "specialNameID": 514,
    "specialNameLabID": 7151,
    "specialNameTextMapHash": 1190847187,
    "isInRandomList": true
  },
  {
    "specialNameID": 515,
    "specialNameLabID": 7151,
    "specialNameTextMapHash": 849458099,
    "isInRandomList": true
  },
  {
    "specialNameID": 516,
    "specialNameLabID": 7151,
    "specialNameTextMapHash": 1250559603,
    "isInRandomList": true
  },
  {
    "specialNameID": 517,
    "specialNameLabID": 7301,
    "specialNameTextMapHash": 725546371,
    "isInRandomList": true
  },
  {
    "specialNameID": 518,
    "specialNameLabID": 7311,
    "specialNameTextMapHash": 2152788043,
    "isInRandomList": true
  },
  {
    "specialNameID": 519,
    "specialNameLabID": 7321,
    "specialNameTextMapHash": 2016028179,
    "isInRandomList": true
  },
  {
    "specialNameID": 520,
    "specialNameLabID": 7331,
    "specialNameTextMapHash": 3749813803,
    "isInRandomList": true
  },
  {
    "specialNameID": 521,
    "specialNameLabID": 7332,
    "specialNameTextMapHash": 1311525299,
    "isInRandomList": true
  },
  {
    "specialNameID": 522,
    "specialNameLabID": 7333,
    "specialNameTextMapHash": 575564499,
    "isInRandomList": true
  },
  {
    "specialNameID": 523,
    "specialNameLabID": 7334,
    "specialNameTextMapHash": 2034391051,
    "isInRandomList": true
  },
  {
    "specialNameID": 524,
    "specialNameLabID": 7335,
    "specialNameTextMapHash": 3946440987,
    "isInRandomList": true
  },
  {
    "specialNameID": 525,
    "specialNameLabID": 7336,
    "specialNameTextMapHash": 2625060747,
    "isInRandomList": true
  },
  {
    "specialNameID": 526,
    "specialNameLabID": 7337,
    "specialNameTextMapHash": 2744686979,
    "isInRandomList": true
  },
  {
    "specialNameID": 527,
    "specialNameLabID": 7338,
    "specialNameTextMapHash": 1827274907,
    "isInRandomList": true
  },
  {
    "specialNameID": 528,
    "specialNameLabID": 7339,
    "specialNameTextMapHash": 2988148611,
    "isInRandomList": true
  },
  {
    "specialNameID": 529,
    "specialNameLabID": 7201,
    "specialNameTextMapHash": 1816627491
  },
  {
    "specialNameID": 530,
    "specialNameLabID": 8001,
    "specialNameTextMapHash": 2188861227
  },
  {
    "specialNameID": 531,
    "specialNameLabID": 8002,
    "specialNameTextMapHash": 2400840923
  },
  {
    "specialNameID": 532,
    "specialNameLabID": 8003,
    "specialNameTextMapHash": 2754690835
  },
  {
    "specialNameID": 533,
    "specialNameLabID": 8003,
    "specialNameTextMapHash": 3224311643
  },
  {
    "specialNameID": 534,
    "specialNameLabID": 8004,
    "specialNameTextMapHash": 502628291,
    "isInRandomList": true
  },
  {
    "specialNameID": 535,
    "specialNameLabID": 8021,
    "specialNameTextMapHash": 2683484155,
    "isInRandomList": true
  },
  {
    "specialNameID": 536,
    "specialNameLabID": 8022,
    "specialNameTextMapHash": 2058885299,
    "isInRandomList": true
  },
  {
    "specialNameID": 537,
    "specialNameLabID": 8023,
    "specialNameTextMapHash": 740507659,
    "isInRandomList": true
  },
  {
    "specialNameID": 538,
    "specialNameLabID": 8031,
    "specialNameTextMapHash": 2428552835,
    "isInRandomList": true
  },
  {
    "specialNameID": 539,
    "specialNameLabID": 8031,
    "specialNameTextMapHash": 659266395,
    "isInRandomList": true
  },
  {
    "specialNameID": 540,
    "specialNameLabID": 8031,
    "specialNameTextMapHash": 92668443,
    "isInRandomList": true
  },
  {
    "specialNameID": 541,
    "specialNameLabID": 8041,
    "specialNameTextMapHash": 1698535779,
    "isInRandomList": true
  },
  {
    "specialNameID": 542,
    "specialNameLabID": 8041,
    "specialNameTextMapHash": 2782300347,
    "isInRandomList": true
  },
  {
    "specialNameID": 543,
    "specialNameLabID": 8045,
    "specialNameTextMapHash": 425693051,
    "isInRandomList": true
  },
  {
    "specialNameID": 544,
    "specialNameLabID": 8051,
    "specialNameTextMapHash": 3022294027,
    "isInRandomList": true
  },
  {
    "specialNameID": 545,
    "specialNameLabID": 8052,
    "specialNameTextMapHash": 2475503547,
    "isInRandomList": true
  },
  {
    "specialNameID": 546,
    "specialNameLabID": 8053,
    "specialNameTextMapHash": 284883979,
    "isInRandomList": true
  },
  {
    "specialNameID": 547,
    "specialNameLabID": 8054,
    "specialNameTextMapHash": 1282822515,
    "isInRandomList": true
  },
  {
    "specialNameID": 548,
    "specialNameLabID": 8055,
    "specialNameTextMapHash": 492961363,
    "isInRandomList": true
  }
]
