[
  {
    "musicID": 1,
    "musicTime": 97,
    "levelId": [1, 2, 3],
    "musicNameTextMapHash": 2252948913,
    "musicDescTextMapHash": 3791680705,
    "DFNDKPOKHPF": 1505622105,
    "HMLLBAOHJIG": 3660162380,
    "condID": 5072001,
    "watcherList": [15072001, 15072002, 15072003],
    "pointID": 30076,
    "JEMMPINJBCP": 3
  },
  {
    "musicID": 2,
    "musicTime": 89,
    "levelId": [4, 5, 6],
    "musicNameTextMapHash": 405969929,
    "musicDescTextMapHash": 648893881,
    "DFNDKPOKHPF": 1501924937,
    "HMLLBAOHJIG": 2139440820,
    "condID": 5072002,
    "watcherList": [15072004, 15072005, 15072006],
    "pointID": 30076,
    "JEMMPINJBCP": 3
  },
  {
    "musicID": 3,
    "musicTime": 88,
    "levelId": [7, 8, 9],
    "musicNameTextMapHash": 417687081,
    "musicDescTextMapHash": 3810548329,
    "DFNDKPOKHPF": 3467694881,
    "HMLLBAOHJIG": 1713615188,
    "condID": 5072003,
    "watcherList": [15072007, 15072008, 15072009],
    "pointID": 30076,
    "JEMMPINJBCP": 3
  },
  {
    "musicID": 4,
    "musicTime": 63,
    "levelId": [10, 11, 12],
    "musicNameTextMapHash": 3326281001,
    "musicDescTextMapHash": 3083282617,
    "DFNDKPOKHPF": 2291195729,
    "HMLLBAOHJIG": 3908364,
    "condID": 5072004,
    "watcherList": [15072010, 15072011, 15072012],
    "pointID": 30076,
    "JEMMPINJBCP": 3
  },
  {
    "musicID": 5,
    "musicTime": 88,
    "levelId": [13, 14, 15],
    "musicNameTextMapHash": 2671706833,
    "musicDescTextMapHash": 3900283305,
    "DFNDKPOKHPF": 1009410849,
    "HMLLBAOHJIG": 1476137020,
    "condID": 5072005,
    "watcherList": [15072013, 15072014, 15072015],
    "pointID": 30076,
    "JEMMPINJBCP": 3
  },
  {
    "musicID": 6,
    "musicTime": 91,
    "levelId": [16, 17, 18],
    "musicNameTextMapHash": 914578409,
    "musicDescTextMapHash": 3376406801,
    "DFNDKPOKHPF": 1820481761,
    "HMLLBAOHJIG": 3044237172,
    "condID": 5072006,
    "watcherList": [15072016, 15072017, 15072018],
    "pointID": 30076,
    "JEMMPINJBCP": 3
  },
  {
    "musicID": 7,
    "musicTime": 83,
    "levelId": [19, 20, 21],
    "musicNameTextMapHash": 1863780225,
    "musicDescTextMapHash": 3403246553,
    "DFNDKPOKHPF": 1614871457,
    "HMLLBAOHJIG": 3453372556,
    "condID": 5072007,
    "watcherList": [15072019, 15072020, 15072021],
    "pointID": 30076,
    "JEMMPINJBCP": 3
  },
  {
    "musicID": 8,
    "musicTime": 85,
    "levelId": [22, 23, 24],
    "musicNameTextMapHash": 3585110825,
    "musicDescTextMapHash": 2930329953,
    "DFNDKPOKHPF": 3557350041,
    "HMLLBAOHJIG": 1601178196,
    "condID": 2020201,
    "watcherList": [12020101, 12020102, 12020103],
    "pointID": 30046,
    "JEMMPINJBCP": 3
  },
  {
    "musicID": 9,
    "musicTime": 107,
    "levelId": [25, 26, 27],
    "musicNameTextMapHash": 1811354729,
    "musicDescTextMapHash": 4027147561,
    "DFNDKPOKHPF": 246403209,
    "HMLLBAOHJIG": 2388245092,
    "condID": 2020202,
    "watcherList": [12020104, 12020105, 12020106],
    "pointID": 30046,
    "JEMMPINJBCP": 3
  },
  {
    "musicID": 10,
    "musicTime": 108,
    "levelId": [28, 29, 30],
    "musicNameTextMapHash": 1257206521,
    "musicDescTextMapHash": 3885514769,
    "DFNDKPOKHPF": 828547705,
    "HMLLBAOHJIG": 1203555620,
    "condID": 2020203,
    "watcherList": [12020107, 12020108, 12020109],
    "pointID": 30046,
    "JEMMPINJBCP": 3
  },
  {
    "musicID": 11,
    "musicTime": 124,
    "levelId": [31, 32, 33],
    "musicNameTextMapHash": 3146053401,
    "musicDescTextMapHash": 4292682873,
    "DFNDKPOKHPF": 216182961,
    "HMLLBAOHJIG": 2900580084,
    "condID": 2020204,
    "watcherList": [12020110, 12020111, 12020112],
    "pointID": 30046,
    "JEMMPINJBCP": 3
  },
  {
    "musicID": 12,
    "musicTime": 71,
    "levelId": [34, 35, 36],
    "musicNameTextMapHash": 1006001761,
    "musicDescTextMapHash": 3935005865,
    "DFNDKPOKHPF": 3593516969,
    "HMLLBAOHJIG": 1956175396,
    "condID": 2020205,
    "watcherList": [12020113, 12020114, 12020115],
    "pointID": 30046,
    "JEMMPINJBCP": 3
  },
  {
    "musicID": 13,
    "musicTime": 120,
    "levelId": [37, 38, 39],
    "musicNameTextMapHash": 4179711729,
    "musicDescTextMapHash": 115275161,
    "DFNDKPOKHPF": 1517613825,
    "HMLLBAOHJIG": 2017411820,
    "condID": 2020206,
    "watcherList": [12020116, 12020117, 12020118],
    "pointID": 30046,
    "JEMMPINJBCP": 3
  },
  {
    "musicID": 14,
    "musicTime": 105,
    "levelId": [40, 41, 42],
    "musicNameTextMapHash": 3350643041,
    "musicDescTextMapHash": 2029111641,
    "DFNDKPOKHPF": 4017174481,
    "HMLLBAOHJIG": 150621420,
    "condID": 2020207,
    "watcherList": [12020119, 12020120, 12020121],
    "pointID": 30046,
    "JEMMPINJBCP": 3
  }
]
