[
  {
    "id": 1,
    "saleType": "NEW_ACTIVITY_SALE_TYPE_WEAPON_UPGRADE",
    "saleParam": ["11413", "1.5"],
    "bufftipsTextMapHash": 1009858160
  },
  {
    "id": 2,
    "saleType": "NEW_ACTIVITY_SALE_TYPE_WEAPON_UPGRADE",
    "saleParam": ["15413", "1.5"],
    "bufftipsTextMapHash": 126576328
  },
  {
    "id": 3,
    "saleType": "NEW_ACTIVITY_SALE_TYPE_WEAPON_UPGRADE",
    "saleParam": ["14413", "1.5"],
    "bufftipsTextMapHash": 2199438672
  },
  {
    "id": 4,
    "saleType": "NEW_ACTIVITY_SALE_TYPE_WEAPON_UPGRADE",
    "saleParam": ["12412", "1.5"],
    "bufftipsTextMapHash": 56460992
  },
  {
    "id": 5,
    "saleType": "NEW_ACTIVITY_SALE_TYPE_WEAPON_UPGRADE",
    "saleParam": ["11415", "1.5"],
    "bufftipsTextMapHash": 3147016560
  },
  {
    "id": 6,
    "saleType": "NEW_ACTIVITY_SALE_TYPE_WEAPON_UPGRADE",
    "saleParam": ["14415", "1.5"],
    "bufftipsTextMapHash": 3599158864
  },
  {
    "id": 7,
    "saleType": "NEW_ACTIVITY_SALE_TYPE_WEAPON_UPGRADE",
    "saleParam": ["15411", "1.5"],
    "bufftipsTextMapHash": 1846378600
  },
  {
    "id": 8,
    "saleType": "NEW_ACTIVITY_SALE_TYPE_WEAPON_UPGRADE",
    "saleParam": ["13419", "1.5"],
    "bufftipsTextMapHash": 3614502976
  },
  {
    "id": 9,
    "saleType": "NEW_ACTIVITY_SALE_TYPE_WEAPON_UPGRADE",
    "saleParam": ["11422", "1.5"],
    "bufftipsTextMapHash": 1916570600
  },
  {
    "id": 10,
    "saleType": "NEW_ACTIVITY_SALE_TYPE_WEAPON_UPGRADE",
    "saleParam": ["12418", "1.5"],
    "bufftipsTextMapHash": 1567122504
  }
]
