[
  {
    "id": 1,
    "GOJOIKBMGHL": 2020,
    "questId": 40097,
    "questIdList": [40097],
    "HCCFBCMAFAF": 1,
    "chapterTitleTextMapHash": 2427105978,
    "ALBNIEMNIID": 4284279698,
    "BJDGNKMKHGD": 4125559918
  },
  {
    "id": 2,
    "GOJOIKBMGHL": 2020,
    "questId": 40098,
    "questIdList": [40098],
    "preQuestId": 40097,
    "HCCFBCMAFAF": 3,
    "chapterTitleTextMapHash": 1946161546,
    "ALBNIEMNIID": 3783216586,
    "BJDGNKMKHGD": 2841571654
  },
  {
    "id": 3,
    "GOJOIKBMGHL": 2020,
    "questId": 40099,
    "questIdList": [40099],
    "preQuestId": 40098,
    "HCCFBCMAFAF": 5,
    "chapterTitleTextMapHash": 4036128322,
    "ALBNIEMNIID": 3687400594,
    "BJDGNKMKHGD": 3285093142
  },
  {
    "id": 4,
    "GOJOIKBMGHL": 2021,
    "questId": 40100,
    "questIdList": [40100],
    "HCCFBCMAFAF": 1,
    "chapterTitleTextMapHash": 779109810,
    "ALBNIEMNIID": 3447597442,
    "BJDGNKMKHGD": 3408162526,
    "LNIBOKGEIKN": 33396
  },
  {
    "id": 5,
    "GOJOIKBMGHL": 2021,
    "questId": 40102,
    "questIdList": [40101, 40102],
    "preQuestId": 40100,
    "HCCFBCMAFAF": 3,
    "chapterTitleTextMapHash": 923731730,
    "ALBNIEMNIID": 2288703898,
    "BJDGNKMKHGD": 1876157062,
    "LNIBOKGEIKN": 33397
  },
  {
    "id": 6,
    "GOJOIKBMGHL": 2021,
    "questId": 40104,
    "questIdList": [40103, 40104],
    "preQuestId": 40102,
    "HCCFBCMAFAF": 5,
    "chapterTitleTextMapHash": 1740171154,
    "ALBNIEMNIID": 2746536058,
    "BJDGNKMKHGD": 1858075382,
    "LNIBOKGEIKN": 33398
  }
]
