[
  {
    "pushTipsId": 2014001,
    "titleTextMapHash": 549678852,
    "subtitleTextMapHash": 2936744252,
    "showIcon": "UI_MessageIcon_Important",
    "tabIcon": "UI_MessageIcon_Important",
    "tutorialId": 1167,
    "showImmediately": true,
    "activityId": 2014
  },
  {
    "pushTipsId": 2014002,
    "titleTextMapHash": 160765388,
    "subtitleTextMapHash": 2401620372,
    "showIcon": "UI_MessageIcon_Important",
    "tabIcon": "UI_MessageIcon_Important",
    "tutorialId": 1178,
    "showImmediately": true,
    "activityId": 2014
  },
  {
    "pushTipsId": 2014003,
    "titleTextMapHash": 491922276,
    "subtitleTextMapHash": 2287558260,
    "showIcon": "UI_MessageIcon_Important",
    "tabIcon": "UI_MessageIcon_Important",
    "tutorialId": 1169,
    "showImmediately": true,
    "activityId": 2014
  },
  {
    "pushTipsId": 2014004,
    "titleTextMapHash": 907677268,
    "subtitleTextMapHash": 4225754764,
    "showIcon": "UI_MessageIcon_Important",
    "tabIcon": "UI_MessageIcon_Important",
    "tutorialId": 1170,
    "showImmediately": true,
    "activityId": 2014
  },
  {
    "pushTipsId": 2014007,
    "titleTextMapHash": 911029564,
    "subtitleTextMapHash": 2265542684,
    "showIcon": "UI_MessageIcon_Important",
    "tabIcon": "UI_MessageIcon_Important",
    "tutorialId": 1176,
    "showImmediately": true,
    "activityId": 2014
  },
  {
    "pushTipsId": 2014008,
    "titleTextMapHash": 436157412,
    "subtitleTextMapHash": 173994916,
    "showIcon": "UI_MessageIcon_Important",
    "tabIcon": "UI_MessageIcon_Important",
    "tutorialId": 1177,
    "showImmediately": true,
    "activityId": 2014
  },
  {
    "pushTipsId": 2014009,
    "titleTextMapHash": 3913350820,
    "subtitleTextMapHash": 4156562588,
    "showIcon": "UI_MessageIcon_Important",
    "tabIcon": "UI_MessageIcon_Important",
    "tutorialId": 1179,
    "showImmediately": true,
    "activityId": 2014
  },
  {
    "pushTipsId": 2014010,
    "titleTextMapHash": 2881467396,
    "subtitleTextMapHash": 1834775532,
    "showIcon": "UI_MessageIcon_Important",
    "tabIcon": "UI_MessageIcon_Important",
    "tutorialId": 1181,
    "showImmediately": true,
    "activityId": 2014
  },
  {
    "pushTipsId": 2014011,
    "titleTextMapHash": 4040716412,
    "subtitleTextMapHash": 383435612,
    "showIcon": "UI_MessageIcon_Important",
    "tabIcon": "UI_MessageIcon_Important",
    "tutorialId": 1182,
    "showImmediately": true,
    "activityId": 2014
  },
  {
    "pushTipsId": 2014012,
    "titleTextMapHash": 866043276,
    "subtitleTextMapHash": 1033594860,
    "showIcon": "UI_MessageIcon_Important",
    "tabIcon": "UI_MessageIcon_Important",
    "tutorialId": 1185,
    "showImmediately": true,
    "activityId": 2014
  },
  {
    "pushTipsId": 2014013,
    "titleTextMapHash": 3881133852,
    "subtitleTextMapHash": 185106084,
    "showIcon": "UI_MessageIcon_Important",
    "tabIcon": "UI_MessageIcon_Important",
    "tutorialId": 1188,
    "showImmediately": true,
    "activityId": 2014
  },
  {
    "pushTipsId": 2014014,
    "titleTextMapHash": 3969283100,
    "subtitleTextMapHash": 1577469132,
    "showIcon": "UI_MessageIcon_Important",
    "tabIcon": "UI_MessageIcon_Important",
    "tutorialId": 1189,
    "showImmediately": true,
    "activityId": 2014
  },
  {
    "pushTipsId": 2014015,
    "titleTextMapHash": 421993956,
    "subtitleTextMapHash": 1522161924,
    "showIcon": "UI_MessageIcon_Important",
    "tabIcon": "UI_MessageIcon_Important",
    "tutorialId": 1190,
    "showImmediately": true,
    "activityId": 2014
  },
  {
    "pushTipsId": 2014016,
    "titleTextMapHash": 1615981844,
    "subtitleTextMapHash": 3431454876,
    "showIcon": "UI_MessageIcon_Important",
    "tabIcon": "UI_MessageIcon_Important",
    "tutorialId": 1186,
    "showImmediately": true,
    "activityId": 2014
  },
  {
    "pushTipsId": 2014017,
    "titleTextMapHash": 3789738492,
    "subtitleTextMapHash": 3784523444,
    "showIcon": "UI_MessageIcon_Important",
    "tabIcon": "UI_MessageIcon_Important",
    "tutorialId": 1187,
    "showImmediately": true,
    "activityId": 2014
  },
  {
    "pushTipsId": 2018001,
    "titleTextMapHash": 4124165372,
    "subtitleTextMapHash": 3403919780,
    "showIcon": "UI_MessageIcon_Important",
    "tabIcon": "UI_MessageIcon_Important",
    "tutorialId": 932,
    "activityId": 2018
  },
  {
    "pushTipsId": 2018005,
    "titleTextMapHash": 3344673964,
    "subtitleTextMapHash": 3675856652,
    "showIcon": "UI_MessageIcon_Important",
    "tabIcon": "UI_MessageIcon_Important",
    "tutorialId": 917,
    "activityId": 2018
  },
  {
    "pushTipsId": 2018006,
    "titleTextMapHash": 1268250076,
    "subtitleTextMapHash": 1873793940,
    "showIcon": "UI_MessageIcon_Important",
    "tabIcon": "UI_MessageIcon_Important",
    "tutorialId": 919,
    "showImmediately": true,
    "activityId": 2018
  },
  {
    "pushTipsId": 2018007,
    "titleTextMapHash": 3887761924,
    "subtitleTextMapHash": 456765708,
    "showIcon": "UI_MessageIcon_Important",
    "tabIcon": "UI_MessageIcon_Important",
    "tutorialId": 920,
    "showImmediately": true,
    "activityId": 2018
  },
  {
    "pushTipsId": 2018008,
    "titleTextMapHash": 2807317076,
    "subtitleTextMapHash": 1994672996,
    "showIcon": "UI_MessageIcon_Important",
    "tabIcon": "UI_MessageIcon_Important",
    "tutorialId": 921,
    "showImmediately": true,
    "activityId": 2018
  },
  {
    "pushTipsId": 2018009,
    "titleTextMapHash": 2765432620,
    "subtitleTextMapHash": 2384051268,
    "showIcon": "UI_MessageIcon_Important",
    "tabIcon": "UI_MessageIcon_Important",
    "tutorialId": 922,
    "showImmediately": true,
    "activityId": 2018
  },
  {
    "pushTipsId": 2018010,
    "titleTextMapHash": 1775477036,
    "subtitleTextMapHash": 2583068772,
    "showIcon": "UI_MessageIcon_Important",
    "tabIcon": "UI_MessageIcon_Important",
    "tutorialId": 923,
    "showImmediately": true,
    "activityId": 2018
  },
  {
    "pushTipsId": 2018011,
    "titleTextMapHash": 4045466060,
    "subtitleTextMapHash": 107484940,
    "showIcon": "UI_MessageIcon_Important",
    "tabIcon": "UI_MessageIcon_Important",
    "tutorialId": 924,
    "showImmediately": true,
    "activityId": 2018
  },
  {
    "pushTipsId": 2018012,
    "titleTextMapHash": 1382614196,
    "subtitleTextMapHash": 4162264244,
    "showIcon": "UI_MessageIcon_Important",
    "tabIcon": "UI_MessageIcon_Important",
    "tutorialId": 925,
    "showImmediately": true,
    "activityId": 2018
  },
  {
    "pushTipsId": 2018013,
    "titleTextMapHash": 3216431388,
    "subtitleTextMapHash": 1450571884,
    "showIcon": "UI_MessageIcon_Important",
    "tabIcon": "UI_MessageIcon_Important",
    "tutorialId": 926,
    "showImmediately": true,
    "activityId": 2018
  },
  {
    "pushTipsId": 2018014,
    "titleTextMapHash": 35062180,
    "subtitleTextMapHash": 954235540,
    "showIcon": "UI_MessageIcon_Important",
    "tabIcon": "UI_MessageIcon_Important",
    "tutorialId": 927,
    "showImmediately": true,
    "activityId": 2018
  },
  {
    "pushTipsId": 2018015,
    "titleTextMapHash": 1853703852,
    "subtitleTextMapHash": 20529444,
    "showIcon": "UI_MessageIcon_Important",
    "tabIcon": "UI_MessageIcon_Important",
    "tutorialId": 928,
    "showImmediately": true,
    "activityId": 2018
  },
  {
    "pushTipsId": 2018016,
    "titleTextMapHash": 3295794292,
    "subtitleTextMapHash": 3439668092,
    "showIcon": "UI_MessageIcon_Important",
    "tabIcon": "UI_MessageIcon_Important",
    "tutorialId": 918,
    "showImmediately": true,
    "activityId": 2018
  },
  {
    "pushTipsId": 2018017,
    "titleTextMapHash": 3646568380,
    "subtitleTextMapHash": 4057089932,
    "showIcon": "UI_MessageIcon_Important",
    "tabIcon": "UI_MessageIcon_Important",
    "tutorialId": 929,
    "showImmediately": true,
    "activityId": 2018
  },
  {
    "pushTipsId": 2018018,
    "titleTextMapHash": 3992206084,
    "subtitleTextMapHash": 3213281836,
    "showIcon": "UI_MessageIcon_Important",
    "tabIcon": "UI_MessageIcon_Important",
    "tutorialId": 930,
    "showImmediately": true,
    "activityId": 2018
  },
  {
    "pushTipsId": 2018019,
    "titleTextMapHash": 3959703980,
    "subtitleTextMapHash": 680718644,
    "showIcon": "UI_MessageIcon_Important",
    "tabIcon": "UI_MessageIcon_Important",
    "tutorialId": 931,
    "showImmediately": true,
    "activityId": 2018
  },
  {
    "pushTipsId": 2020001,
    "titleTextMapHash": 2251978412,
    "subtitleTextMapHash": 2844416636,
    "showIcon": "UI_MessageIcon_Important",
    "tabIcon": "UI_MessageIcon_Important",
    "tutorialId": 965,
    "showImmediately": true,
    "activityId": 2020
  },
  {
    "pushTipsId": 2020002,
    "titleTextMapHash": 1926428924,
    "subtitleTextMapHash": 1987600036,
    "showIcon": "UI_MessageIcon_Important",
    "tabIcon": "UI_MessageIcon_Important",
    "tutorialId": 966,
    "showImmediately": true,
    "activityId": 2020
  },
  {
    "pushTipsId": 2020003,
    "titleTextMapHash": 215270948,
    "subtitleTextMapHash": 2269861676,
    "showIcon": "UI_MessageIcon_Important",
    "tabIcon": "UI_MessageIcon_Important",
    "tutorialId": 967,
    "showImmediately": true,
    "activityId": 2020
  }
]
