[
  {
    "contentVec": [
      {
        "materialId": 202,
        "materialNum": 1
      },
      {},
      {},
      {},
      {}
    ],
    "mailConfigId": 46,
    "EDCMPNAMJJM": 10,
    "configId": 311,
    "priceTier": "None"
  },
  {
    "contentVec": [
      {
        "materialId": 104003,
        "materialNum": 20
      },
      {
        "materialId": 104013,
        "materialNum": 15
      },
      {
        "materialId": 202,
        "materialNum": 50000
      },
      {
        "materialId": 107009,
        "materialNum": 2
      },
      {}
    ],
    "mailConfigId": 47,
    "EDCMPNAMJJM": 10,
    "configId": 312,
    "priceTier": "None"
  }
]
