[
  {
    "Id": 71555001,
    "DescTextMapHash": 2572849437
  },
  {
    "Id": 71555002,
    "DescTextMapHash": 2234229277
  },
  {
    "Id": 71555003,
    "DescTextMapHash": 2691635837
  },
  {
    "Id": 45101,
    "DescTextMapHash": 801010893
  },
  {
    "Id": 45103,
    "DescTextMapHash": 3729894093
  },
  {
    "Id": 45104,
    "DescTextMapHash": 3685781669
  },
  {
    "Id": 45301,
    "DescTextMapHash": 1675439261
  },
  {
    "Id": 45302,
    "DescTextMapHash": 4041277821
  },
  {
    "Id": 45303,
    "DescTextMapHash": 4176713781
  },
  {
    "Id": 45401,
    "DescTextMapHash": 213215421
  },
  {
    "Id": 45403,
    "DescTextMapHash": 1452691893
  },
  {
    "Id": 45405,
    "DescTextMapHash": 771561637
  },
  {
    "Id": 45413,
    "DescTextMapHash": 911960845
  },
  {
    "Id": 45414,
    "DescTextMapHash": 3330945237
  },
  {
    "Id": 48101,
    "DescTextMapHash": 1196244853
  },
  {
    "Id": 48102,
    "DescTextMapHash": 634577957
  },
  {
    "Id": 48001,
    "DescTextMapHash": 2514150925
  },
  {
    "Id": 42701,
    "DescTextMapHash": 2410141661
  },
  {
    "Id": 42702,
    "DescTextMapHash": 1868451837
  },
  {
    "Id": 48401,
    "DescTextMapHash": 2730530933
  },
  {
    "Id": 48501,
    "DescTextMapHash": 644453149
  },
  {
    "Id": 48502,
    "DescTextMapHash": 2061988141
  },
  {
    "Id": 48503,
    "DescTextMapHash": 2622333469
  },
  {
    "Id": 48504,
    "DescTextMapHash": 3167337485
  },
  {
    "Id": 48505,
    "DescTextMapHash": 1468299085
  },
  {
    "Id": 48506,
    "DescTextMapHash": 1713782629
  },
  {
    "Id": 100002,
    "DescTextMapHash": 2880187605
  },
  {
    "Id": 100003,
    "DescTextMapHash": 1074535661
  },
  {
    "Id": 100004,
    "DescTextMapHash": 4144682661
  },
  {
    "Id": 100008,
    "DescTextMapHash": 3609304277
  },
  {
    "Id": 100015,
    "DescTextMapHash": 284686941
  },
  {
    "Id": 100201,
    "DescTextMapHash": 2336745445
  },
  {
    "Id": 100202,
    "DescTextMapHash": 1206233285
  },
  {
    "Id": 100204,
    "DescTextMapHash": 2891328749
  },
  {
    "Id": 100205,
    "DescTextMapHash": 1758638405
  },
  {
    "Id": 10020502,
    "DescTextMapHash": 3482877149
  },
  {
    "Id": 100301,
    "DescTextMapHash": 2904921445
  },
  {
    "Id": 100303,
    "DescTextMapHash": 2357559397
  },
  {
    "Id": 100307,
    "DescTextMapHash": 911581765
  },
  {
    "Id": 100802,
    "DescTextMapHash": 1003545613
  },
  {
    "Id": 100807,
    "DescTextMapHash": 2628816277
  },
  {
    "Id": 100914,
    "DescTextMapHash": 2997586461
  },
  {
    "Id": 101302,
    "DescTextMapHash": 1186621269
  },
  {
    "Id": 101317,
    "DescTextMapHash": 2956005357
  },
  {
    "Id": 101320,
    "DescTextMapHash": 692908853
  },
  {
    "Id": 37001,
    "DescTextMapHash": 497960525
  },
  {
    "Id": 37201,
    "DescTextMapHash": 842863605
  },
  {
    "Id": 37202,
    "DescTextMapHash": 1589215749
  },
  {
    "Id": 37203,
    "DescTextMapHash": 1577715645
  },
  {
    "Id": 37301,
    "DescTextMapHash": 3204412741
  },
  {
    "Id": 37401,
    "DescTextMapHash": 3830035333
  },
  {
    "Id": 37402,
    "DescTextMapHash": 3206191381
  },
  {
    "Id": 37601,
    "DescTextMapHash": 3010916973
  },
  {
    "Id": 37602,
    "DescTextMapHash": 187860197
  },
  {
    "Id": 37603,
    "DescTextMapHash": 1090281645
  },
  {
    "Id": 37701,
    "DescTextMapHash": 2470563325
  },
  {
    "Id": 2010101,
    "DescTextMapHash": 4105219749
  },
  {
    "Id": 2010102,
    "DescTextMapHash": 3071911277
  },
  {
    "Id": 38301,
    "DescTextMapHash": 3715460933
  },
  {
    "Id": 38401,
    "DescTextMapHash": 567770749
  },
  {
    "Id": 38402,
    "DescTextMapHash": 1124743453
  },
  {
    "Id": 1050001,
    "DescTextMapHash": 3000315477
  },
  {
    "Id": 1050002,
    "DescTextMapHash": 3195259317
  },
  {
    "Id": 1050101,
    "DescTextMapHash": 1833761701
  },
  {
    "Id": 1050102,
    "DescTextMapHash": 3373997493
  },
  {
    "Id": 46101,
    "DescTextMapHash": 1300974021
  },
  {
    "Id": 46102,
    "DescTextMapHash": 2548769701
  },
  {
    "Id": 46103,
    "DescTextMapHash": 2065598341
  },
  {
    "Id": 46104,
    "DescTextMapHash": 729286613
  },
  {
    "Id": 46201,
    "DescTextMapHash": 144847109
  },
  {
    "Id": 46202,
    "DescTextMapHash": 3689345453
  },
  {
    "Id": 46203,
    "DescTextMapHash": 1446486525
  },
  {
    "Id": 46204,
    "DescTextMapHash": 4143860749
  },
  {
    "Id": 46301,
    "DescTextMapHash": 2396550909
  },
  {
    "Id": 46302,
    "DescTextMapHash": 220622021
  },
  {
    "Id": 48601,
    "DescTextMapHash": 1596902469
  },
  {
    "Id": 48701,
    "DescTextMapHash": 1865172413
  },
  {
    "Id": 48702,
    "DescTextMapHash": 1419232557
  },
  {
    "Id": 48703,
    "DescTextMapHash": 1622260013
  },
  {
    "Id": 48704,
    "DescTextMapHash": 1393575253
  },
  {
    "Id": 48705,
    "DescTextMapHash": 132158589
  },
  {
    "Id": 48706,
    "DescTextMapHash": 3318086069
  },
  {
    "Id": 48901,
    "DescTextMapHash": 1577395333
  },
  {
    "Id": 48902,
    "DescTextMapHash": 1320787453
  },
  {
    "Id": 48903,
    "DescTextMapHash": 3797563693
  },
  {
    "Id": 48904,
    "DescTextMapHash": 155367613
  },
  {
    "Id": 49001,
    "DescTextMapHash": 2429317445
  },
  {
    "Id": 49002,
    "DescTextMapHash": 1167442053
  },
  {
    "Id": 49003,
    "DescTextMapHash": 982564045
  },
  {
    "Id": 49004,
    "DescTextMapHash": 3172874813
  },
  {
    "Id": 49005,
    "DescTextMapHash": 2224127517
  },
  {
    "Id": 49006,
    "DescTextMapHash": 248283093
  },
  {
    "Id": 49007,
    "DescTextMapHash": 3474704349
  },
  {
    "Id": 49008,
    "DescTextMapHash": 3130631781
  },
  {
    "Id": 49009,
    "DescTextMapHash": 2387084077
  },
  {
    "Id": 49010,
    "DescTextMapHash": 1517128893
  },
  {
    "Id": 49011,
    "DescTextMapHash": 2278670429
  },
  {
    "Id": 49012,
    "DescTextMapHash": 3638511277
  },
  {
    "Id": 1101101,
    "DescTextMapHash": 1969440829
  },
  {
    "Id": 1101102,
    "DescTextMapHash": 220515069
  },
  {
    "Id": 1101103,
    "DescTextMapHash": 1396355397
  },
  {
    "Id": 1101104,
    "DescTextMapHash": 1211783501
  },
  {
    "Id": 1101105,
    "DescTextMapHash": 2319363157
  },
  {
    "Id": 1101201,
    "DescTextMapHash": 2301257173
  },
  {
    "Id": 1101202,
    "DescTextMapHash": 3304734357
  },
  {
    "Id": 30601,
    "DescTextMapHash": 615569445
  },
  {
    "Id": 30701,
    "DescTextMapHash": 2084539205
  },
  {
    "Id": 30702,
    "DescTextMapHash": 688460285
  },
  {
    "Id": 30801,
    "DescTextMapHash": 3940825229
  },
  {
    "Id": 30802,
    "DescTextMapHash": 2535862901
  },
  {
    "Id": 39001,
    "DescTextMapHash": 3273940957
  },
  {
    "Id": 39002,
    "DescTextMapHash": 1811137253
  },
  {
    "Id": 39003,
    "DescTextMapHash": 1071027349
  },
  {
    "Id": 101101,
    "DescTextMapHash": 850553629
  },
  {
    "Id": 101102,
    "DescTextMapHash": 1756301765
  },
  {
    "Id": 101103,
    "DescTextMapHash": 3580451989
  },
  {
    "Id": 101104,
    "DescTextMapHash": 2303501469
  },
  {
    "Id": 1010101,
    "DescTextMapHash": 3630734333
  },
  {
    "Id": 1010102,
    "DescTextMapHash": 2254936197
  },
  {
    "Id": 1100002,
    "DescTextMapHash": 285023613
  },
  {
    "Id": 35701,
    "DescTextMapHash": 1133213629
  },
  {
    "Id": 39601,
    "DescTextMapHash": 1439317621
  },
  {
    "Id": 39602,
    "DescTextMapHash": 523232445
  },
  {
    "Id": 38901,
    "DescTextMapHash": 2564572997
  },
  {
    "Id": 35501,
    "DescTextMapHash": 3179710165
  },
  {
    "Id": 101201,
    "DescTextMapHash": 3128867053
  },
  {
    "Id": 101202,
    "DescTextMapHash": 3298520301
  },
  {
    "Id": 101601,
    "DescTextMapHash": 3104482317
  },
  {
    "Id": 1020001,
    "DescTextMapHash": 3562687221
  },
  {
    "Id": 1020002,
    "DescTextMapHash": 1925645925
  },
  {
    "Id": 1020003,
    "DescTextMapHash": 4119827029
  },
  {
    "Id": 46401,
    "DescTextMapHash": 2784861045
  },
  {
    "Id": 46501,
    "DescTextMapHash": 3362109725
  },
  {
    "Id": 46502,
    "DescTextMapHash": 4244854877
  },
  {
    "Id": 46503,
    "DescTextMapHash": 2140836013
  },
  {
    "Id": 46601,
    "DescTextMapHash": 3992206973
  },
  {
    "Id": 46602,
    "DescTextMapHash": 3677648381
  },
  {
    "Id": 46603,
    "DescTextMapHash": 4228384741
  },
  {
    "Id": 46604,
    "DescTextMapHash": 3549226461
  },
  {
    "Id": 46605,
    "DescTextMapHash": 817319053
  },
  {
    "Id": 46606,
    "DescTextMapHash": 1574152285
  },
  {
    "Id": 1011001,
    "DescTextMapHash": 3628277501
  },
  {
    "Id": 1011002,
    "DescTextMapHash": 202828525
  },
  {
    "Id": 1011101,
    "DescTextMapHash": 3292357213
  },
  {
    "Id": 1011102,
    "DescTextMapHash": 2473206925
  },
  {
    "Id": 1011103,
    "DescTextMapHash": 1574469909
  },
  {
    "Id": 1011104,
    "DescTextMapHash": 3195447413
  },
  {
    "Id": 1011105,
    "DescTextMapHash": 2860196037
  },
  {
    "Id": 1011301,
    "DescTextMapHash": 674072237
  },
  {
    "Id": 1011302,
    "DescTextMapHash": 2958043085
  },
  {
    "Id": 1011303,
    "DescTextMapHash": 954416165
  },
  {
    "Id": 1200001,
    "DescTextMapHash": 675117733
  },
  {
    "Id": 1200002,
    "DescTextMapHash": 1965801997
  },
  {
    "Id": 1200003,
    "DescTextMapHash": 3401393013
  },
  {
    "Id": 1200004,
    "DescTextMapHash": 733525125
  },
  {
    "Id": 1200005,
    "DescTextMapHash": 4092473429
  },
  {
    "Id": 1200006,
    "DescTextMapHash": 1658044597
  },
  {
    "Id": 1200007,
    "DescTextMapHash": 2145708933
  },
  {
    "Id": 1200008,
    "DescTextMapHash": 1437812589
  },
  {
    "Id": 101501,
    "DescTextMapHash": 1958026157
  },
  {
    "Id": 101502,
    "DescTextMapHash": 3309819069
  },
  {
    "Id": 101503,
    "DescTextMapHash": 3638427981
  },
  {
    "Id": 101504,
    "DescTextMapHash": 2841732469
  },
  {
    "Id": 102001,
    "DescTextMapHash": 624984549
  },
  {
    "Id": 102002,
    "DescTextMapHash": 2793987533
  },
  {
    "Id": 1104101,
    "DescTextMapHash": 827516565
  },
  {
    "Id": 1104501,
    "DescTextMapHash": 2718323117
  },
  {
    "Id": 1104502,
    "DescTextMapHash": 671470941
  },
  {
    "Id": 1104503,
    "DescTextMapHash": 232744125
  },
  {
    "Id": 1102301,
    "DescTextMapHash": 1164056005
  },
  {
    "Id": 1102302,
    "DescTextMapHash": 499497349
  },
  {
    "Id": 1102303,
    "DescTextMapHash": 2596857285
  },
  {
    "Id": 1102304,
    "DescTextMapHash": 1722281253
  },
  {
    "Id": 1102305,
    "DescTextMapHash": 2504455573
  },
  {
    "Id": 1102306,
    "DescTextMapHash": 2781301781
  },
  {
    "Id": 1102401,
    "DescTextMapHash": 2142142597
  },
  {
    "Id": 1103003,
    "DescTextMapHash": 2484166917
  },
  {
    "Id": 1103114,
    "DescTextMapHash": 2205710309
  },
  {
    "Id": 1111101,
    "DescTextMapHash": 4024856501
  },
  {
    "Id": 1111201,
    "DescTextMapHash": 112916741
  },
  {
    "Id": 1110001,
    "DescTextMapHash": 2358374173
  },
  {
    "Id": 1110002,
    "DescTextMapHash": 1633250997
  },
  {
    "Id": 1110003,
    "DescTextMapHash": 2088372869
  },
  {
    "Id": 1110004,
    "DescTextMapHash": 3371694045
  },
  {
    "Id": 1110005,
    "DescTextMapHash": 622840237
  },
  {
    "Id": 1110006,
    "DescTextMapHash": 2211159861
  },
  {
    "Id": 1110007,
    "DescTextMapHash": 1828928413
  },
  {
    "Id": 800001,
    "DescTextMapHash": 1425361677
  },
  {
    "Id": 800002,
    "DescTextMapHash": 4009633597
  },
  {
    "Id": 800003,
    "DescTextMapHash": 1534128989
  },
  {
    "Id": 800004,
    "DescTextMapHash": 101447429
  },
  {
    "Id": 800101,
    "DescTextMapHash": 3088383685
  },
  {
    "Id": 800102,
    "DescTextMapHash": 2063829741
  },
  {
    "Id": 800301,
    "DescTextMapHash": 634150501
  },
  {
    "Id": 800302,
    "DescTextMapHash": 3922113061
  },
  {
    "Id": 1112301,
    "DescTextMapHash": 3444923853
  },
  {
    "Id": 1112302,
    "DescTextMapHash": 3674125197
  },
  {
    "Id": 1112303,
    "DescTextMapHash": 2976442301
  },
  {
    "Id": 1112304,
    "DescTextMapHash": 2205392125
  },
  {
    "Id": 1012008,
    "DescTextMapHash": 2232170501
  },
  {
    "Id": 1012112,
    "DescTextMapHash": 1451898149
  },
  {
    "Id": 1012113,
    "DescTextMapHash": 3058707173
  },
  {
    "Id": 1012206,
    "DescTextMapHash": 1360833365
  },
  {
    "Id": 1012211,
    "DescTextMapHash": 636834381
  },
  {
    "Id": 200005,
    "DescTextMapHash": 2991559813
  },
  {
    "Id": 200102,
    "DescTextMapHash": 2084650221
  },
  {
    "Id": 200103,
    "DescTextMapHash": 3420254653
  },
  {
    "Id": 200106,
    "DescTextMapHash": 3121770317
  },
  {
    "Id": 200211,
    "DescTextMapHash": 501960693
  },
  {
    "Id": 1200505,
    "DescTextMapHash": 1009982221
  },
  {
    "Id": 1200510,
    "DescTextMapHash": 3084099653
  },
  {
    "Id": 1200601,
    "DescTextMapHash": 1342989693
  },
  {
    "Id": 1200801,
    "DescTextMapHash": 2106269813
  },
  {
    "Id": 1200808,
    "DescTextMapHash": 250836205
  },
  {
    "Id": 1200803,
    "DescTextMapHash": 2891079061
  },
  {
    "Id": 1200804,
    "DescTextMapHash": 741668829
  },
  {
    "Id": 1201101,
    "DescTextMapHash": 1131756013
  },
  {
    "Id": 1201102,
    "DescTextMapHash": 386203173
  },
  {
    "Id": 1201201,
    "DescTextMapHash": 2250540709
  },
  {
    "Id": 1201301,
    "DescTextMapHash": 10848949
  },
  {
    "Id": 1201302,
    "DescTextMapHash": 2405329277
  },
  {
    "Id": 1201303,
    "DescTextMapHash": 1746242005
  },
  {
    "Id": 1201304,
    "DescTextMapHash": 758755373
  },
  {
    "Id": 1201305,
    "DescTextMapHash": 475860173
  },
  {
    "Id": 1201306,
    "DescTextMapHash": 316937853
  },
  {
    "Id": 1201307,
    "DescTextMapHash": 828059805
  },
  {
    "Id": 1200401,
    "DescTextMapHash": 1709506221
  },
  {
    "Id": 1200402,
    "DescTextMapHash": 1980679645
  },
  {
    "Id": 1200403,
    "DescTextMapHash": 2054878413
  },
  {
    "Id": 1200404,
    "DescTextMapHash": 85594621
  },
  {
    "Id": 1200405,
    "DescTextMapHash": 1742683741
  },
  {
    "Id": 1200406,
    "DescTextMapHash": 1487733357
  },
  {
    "Id": 1200407,
    "DescTextMapHash": 2460309837
  },
  {
    "Id": 1200408,
    "DescTextMapHash": 3946033869
  },
  {
    "Id": 1200409,
    "DescTextMapHash": 1068013485
  },
  {
    "Id": 1200410,
    "DescTextMapHash": 3176398405
  },
  {
    "Id": 1200411,
    "DescTextMapHash": 1049719837
  },
  {
    "Id": 1200412,
    "DescTextMapHash": 4030092861
  },
  {
    "Id": 1200413,
    "DescTextMapHash": 773615365
  },
  {
    "Id": 1200414,
    "DescTextMapHash": 3510565541
  },
  {
    "Id": 1200415,
    "DescTextMapHash": 210260429
  },
  {
    "Id": 1200416,
    "DescTextMapHash": 2753070933
  },
  {
    "Id": 1200417,
    "DescTextMapHash": 2649942125
  },
  {
    "Id": 1200418,
    "DescTextMapHash": 2129102941
  },
  {
    "Id": 1200419,
    "DescTextMapHash": 690480413
  },
  {
    "Id": 1200420,
    "DescTextMapHash": 3539014053
  },
  {
    "Id": 1200421,
    "DescTextMapHash": 3805090581
  },
  {
    "Id": 1200422,
    "DescTextMapHash": 748819421
  },
  {
    "Id": 201101,
    "DescTextMapHash": 3587873725
  },
  {
    "Id": 201102,
    "DescTextMapHash": 1934543021
  },
  {
    "Id": 201103,
    "DescTextMapHash": 899651805
  },
  {
    "Id": 201104,
    "DescTextMapHash": 2524584429
  },
  {
    "Id": 201201,
    "DescTextMapHash": 749234901
  },
  {
    "Id": 201202,
    "DescTextMapHash": 4178052301
  },
  {
    "Id": 201203,
    "DescTextMapHash": 1774306181
  },
  {
    "Id": 201204,
    "DescTextMapHash": 1423303277
  },
  {
    "Id": 201301,
    "DescTextMapHash": 3682622165
  },
  {
    "Id": 201302,
    "DescTextMapHash": 507843829
  },
  {
    "Id": 201303,
    "DescTextMapHash": 2001965909
  },
  {
    "Id": 1201501,
    "DescTextMapHash": 1558976237
  },
  {
    "Id": 1201502,
    "DescTextMapHash": 4211238053
  },
  {
    "Id": 1201701,
    "DescTextMapHash": 532286909
  },
  {
    "Id": 1201801,
    "DescTextMapHash": 3389934997
  },
  {
    "Id": 1201802,
    "DescTextMapHash": 1428048501
  },
  {
    "Id": 1201803,
    "DescTextMapHash": 2997541853
  },
  {
    "Id": 1201804,
    "DescTextMapHash": 2765897381
  },
  {
    "Id": 1202001,
    "DescTextMapHash": 3425324301
  },
  {
    "Id": 1202101,
    "DescTextMapHash": 1315103997
  },
  {
    "Id": 1202201,
    "DescTextMapHash": 1400664269
  },
  {
    "Id": 1202202,
    "DescTextMapHash": 2983798453
  },
  {
    "Id": 1202203,
    "DescTextMapHash": 512880957
  },
  {
    "Id": 1202301,
    "DescTextMapHash": 3718570813
  },
  {
    "Id": 1202302,
    "DescTextMapHash": 3612252677
  },
  {
    "Id": 1202303,
    "DescTextMapHash": 522067381
  },
  {
    "Id": 1202401,
    "DescTextMapHash": 4017406285
  },
  {
    "Id": 1202402,
    "DescTextMapHash": 1474504565
  },
  {
    "Id": 201001,
    "DescTextMapHash": 1317774533
  },
  {
    "Id": 201501,
    "DescTextMapHash": 3031839093
  },
  {
    "Id": 201601,
    "DescTextMapHash": 2127815173
  },
  {
    "Id": 201602,
    "DescTextMapHash": 151387861
  },
  {
    "Id": 201701,
    "DescTextMapHash": 788141173
  },
  {
    "Id": 201702,
    "DescTextMapHash": 3693509405
  },
  {
    "Id": 201801,
    "DescTextMapHash": 3580796197
  },
  {
    "Id": 201901,
    "DescTextMapHash": 377712845
  },
  {
    "Id": 202001,
    "DescTextMapHash": 4035322901
  },
  {
    "Id": 202002,
    "DescTextMapHash": 3785214693
  },
  {
    "Id": 1200901,
    "DescTextMapHash": 3418415933
  },
  {
    "Id": 1202501,
    "DescTextMapHash": 963097429
  },
  {
    "Id": 1202502,
    "DescTextMapHash": 3952291085
  },
  {
    "Id": 1202601,
    "DescTextMapHash": 3655835645
  },
  {
    "Id": 1202602,
    "DescTextMapHash": 824996389
  },
  {
    "Id": 1202603,
    "DescTextMapHash": 383432005
  },
  {
    "Id": 1202604,
    "DescTextMapHash": 683424029
  },
  {
    "Id": 1202605,
    "DescTextMapHash": 1244973949
  },
  {
    "Id": 1202606,
    "DescTextMapHash": 1213245261
  },
  {
    "Id": 1202607,
    "DescTextMapHash": 1074364069
  },
  {
    "Id": 1100901,
    "DescTextMapHash": 4180696661
  },
  {
    "Id": 1100902,
    "DescTextMapHash": 2624877149
  },
  {
    "Id": 1100903,
    "DescTextMapHash": 3872892485
  },
  {
    "Id": 1100904,
    "DescTextMapHash": 3808880749
  },
  {
    "Id": 1100905,
    "DescTextMapHash": 3814460757
  },
  {
    "Id": 1101301,
    "DescTextMapHash": 617363437
  },
  {
    "Id": 1101302,
    "DescTextMapHash": 2115981461
  },
  {
    "Id": 1101401,
    "DescTextMapHash": 479501301
  },
  {
    "Id": 1101402,
    "DescTextMapHash": 256323445
  },
  {
    "Id": 1101403,
    "DescTextMapHash": 1682234885
  },
  {
    "Id": 1101404,
    "DescTextMapHash": 1622361773
  },
  {
    "Id": 1101501,
    "DescTextMapHash": 1060742917
  },
  {
    "Id": 1101502,
    "DescTextMapHash": 271140253
  },
  {
    "Id": 1101503,
    "DescTextMapHash": 90126637
  },
  {
    "Id": 1101504,
    "DescTextMapHash": 1365010045
  },
  {
    "Id": 1101505,
    "DescTextMapHash": 1033646621
  },
  {
    "Id": 1101506,
    "DescTextMapHash": 1248930317
  },
  {
    "Id": 1202801,
    "DescTextMapHash": 1173796189
  },
  {
    "Id": 1202802,
    "DescTextMapHash": 3062478221
  },
  {
    "Id": 1202803,
    "DescTextMapHash": 2817517133
  },
  {
    "Id": 1202804,
    "DescTextMapHash": 182522421
  },
  {
    "Id": 1202805,
    "DescTextMapHash": 2053336477
  },
  {
    "Id": 1202806,
    "DescTextMapHash": 3657081541
  },
  {
    "Id": 1202807,
    "DescTextMapHash": 332866285
  },
  {
    "Id": 1202808,
    "DescTextMapHash": 1344435477
  },
  {
    "Id": 1204001,
    "DescTextMapHash": 1950740357
  },
  {
    "Id": 1204002,
    "DescTextMapHash": 82609189
  },
  {
    "Id": 1204101,
    "DescTextMapHash": 4147614893
  },
  {
    "Id": 1204102,
    "DescTextMapHash": 3282513277
  },
  {
    "Id": 1204103,
    "DescTextMapHash": 2549911933
  },
  {
    "Id": 1204201,
    "DescTextMapHash": 3600280885
  },
  {
    "Id": 1204202,
    "DescTextMapHash": 347384805
  },
  {
    "Id": 1204303,
    "DescTextMapHash": 316228669
  },
  {
    "Id": 1203301,
    "DescTextMapHash": 2263516181
  },
  {
    "Id": 1203302,
    "DescTextMapHash": 2153949925
  },
  {
    "Id": 1203303,
    "DescTextMapHash": 4241514077
  },
  {
    "Id": 1203304,
    "DescTextMapHash": 1229786581
  },
  {
    "Id": 1203305,
    "DescTextMapHash": 915885421
  },
  {
    "Id": 1203501,
    "DescTextMapHash": 3374118317
  },
  {
    "Id": 800401,
    "DescTextMapHash": 1587850157
  },
  {
    "Id": 800501,
    "DescTextMapHash": 1701920309
  },
  {
    "Id": 800502,
    "DescTextMapHash": 2672450917
  },
  {
    "Id": 800503,
    "DescTextMapHash": 1089751173
  },
  {
    "Id": 800601,
    "DescTextMapHash": 1889887037
  },
  {
    "Id": 800602,
    "DescTextMapHash": 272315685
  },
  {
    "Id": 800603,
    "DescTextMapHash": 2808271133
  },
  {
    "Id": 800604,
    "DescTextMapHash": 1685478477
  },
  {
    "Id": 800605,
    "DescTextMapHash": 2525103629
  },
  {
    "Id": 800701,
    "DescTextMapHash": 4158107437
  },
  {
    "Id": 800702,
    "DescTextMapHash": 985897789
  },
  {
    "Id": 1101801,
    "DescTextMapHash": 678719749
  },
  {
    "Id": 1101802,
    "DescTextMapHash": 1274600085
  },
  {
    "Id": 1101803,
    "DescTextMapHash": 3562889469
  },
  {
    "Id": 1101804,
    "DescTextMapHash": 2736465845
  },
  {
    "Id": 1101805,
    "DescTextMapHash": 3225123853
  },
  {
    "Id": 1101806,
    "DescTextMapHash": 2202528533
  },
  {
    "Id": 1101807,
    "DescTextMapHash": 2594559365
  },
  {
    "Id": 1101808,
    "DescTextMapHash": 2852825989
  },
  {
    "Id": 1101901,
    "DescTextMapHash": 468753509
  },
  {
    "Id": 1101902,
    "DescTextMapHash": 2909849789
  },
  {
    "Id": 1101903,
    "DescTextMapHash": 4164714381
  },
  {
    "Id": 1101904,
    "DescTextMapHash": 1469111581
  },
  {
    "Id": 1102601,
    "DescTextMapHash": 3892695061
  },
  {
    "Id": 1102602,
    "DescTextMapHash": 2550748389
  },
  {
    "Id": 1102603,
    "DescTextMapHash": 1230545557
  },
  {
    "Id": 1102604,
    "DescTextMapHash": 1967111429
  },
  {
    "Id": 1102605,
    "DescTextMapHash": 3291629189
  },
  {
    "Id": 1102606,
    "DescTextMapHash": 1256688133
  },
  {
    "Id": 101901,
    "DescTextMapHash": 2257031693
  },
  {
    "Id": 101902,
    "DescTextMapHash": 2435955005
  },
  {
    "Id": 101903,
    "DescTextMapHash": 3137889621
  },
  {
    "Id": 102801,
    "DescTextMapHash": 4257595957
  },
  {
    "Id": 102901,
    "DescTextMapHash": 2661891205
  },
  {
    "Id": 102902,
    "DescTextMapHash": 1999366901
  },
  {
    "Id": 102903,
    "DescTextMapHash": 1204490813
  },
  {
    "Id": 102904,
    "DescTextMapHash": 4084860893
  },
  {
    "Id": 102905,
    "DescTextMapHash": 3641045325
  },
  {
    "Id": 102906,
    "DescTextMapHash": 1296019093
  },
  {
    "Id": 103001,
    "DescTextMapHash": 62741565
  },
  {
    "Id": 103002,
    "DescTextMapHash": 3555416261
  },
  {
    "Id": 103003,
    "DescTextMapHash": 3924364213
  },
  {
    "Id": 103101,
    "DescTextMapHash": 1643273533
  },
  {
    "Id": 103102,
    "DescTextMapHash": 2556632909
  },
  {
    "Id": 103103,
    "DescTextMapHash": 1045652205
  },
  {
    "Id": 1203701,
    "DescTextMapHash": 2356604645
  },
  {
    "Id": 1203702,
    "DescTextMapHash": 3078600853
  },
  {
    "Id": 1203703,
    "DescTextMapHash": 2956812309
  },
  {
    "Id": 1203901,
    "DescTextMapHash": 2106334757
  },
  {
    "Id": 1203902,
    "DescTextMapHash": 2305072477
  },
  {
    "Id": 1203903,
    "DescTextMapHash": 66098981
  },
  {
    "Id": 1203904,
    "DescTextMapHash": 1509640413
  },
  {
    "Id": 1203905,
    "DescTextMapHash": 4290678949
  },
  {
    "Id": 1203906,
    "DescTextMapHash": 1790988317
  },
  {
    "Id": 1300201,
    "DescTextMapHash": 1980128341
  },
  {
    "Id": 1300202,
    "DescTextMapHash": 3271892877
  },
  {
    "Id": 1300203,
    "DescTextMapHash": 2699841669
  },
  {
    "Id": 1300204,
    "DescTextMapHash": 2602251037
  },
  {
    "Id": 1300205,
    "DescTextMapHash": 3235030157
  },
  {
    "Id": 1300206,
    "DescTextMapHash": 2576681933
  },
  {
    "Id": 1300207,
    "DescTextMapHash": 1180937221
  },
  {
    "Id": 1300208,
    "DescTextMapHash": 1405538717
  },
  {
    "Id": 300001,
    "DescTextMapHash": 1954609581
  },
  {
    "Id": 300002,
    "DescTextMapHash": 537949957
  },
  {
    "Id": 300003,
    "DescTextMapHash": 3655608645
  },
  {
    "Id": 300004,
    "DescTextMapHash": 805784133
  },
  {
    "Id": 300005,
    "DescTextMapHash": 4066634597
  },
  {
    "Id": 300101,
    "DescTextMapHash": 4213435109
  },
  {
    "Id": 300102,
    "DescTextMapHash": 4073557629
  },
  {
    "Id": 300201,
    "DescTextMapHash": 1472703501
  },
  {
    "Id": 300301,
    "DescTextMapHash": 338309949
  },
  {
    "Id": 300302,
    "DescTextMapHash": 3465675797
  },
  {
    "Id": 300303,
    "DescTextMapHash": 2927024181
  },
  {
    "Id": 300304,
    "DescTextMapHash": 2201467501
  },
  {
    "Id": 300401,
    "DescTextMapHash": 3018164173
  },
  {
    "Id": 300402,
    "DescTextMapHash": 3645808709
  },
  {
    "Id": 300403,
    "DescTextMapHash": 1033391141
  },
  {
    "Id": 300404,
    "DescTextMapHash": 3944026493
  },
  {
    "Id": 300501,
    "DescTextMapHash": 4206536373
  },
  {
    "Id": 300502,
    "DescTextMapHash": 295495389
  },
  {
    "Id": 300503,
    "DescTextMapHash": 2373946325
  },
  {
    "Id": 300504,
    "DescTextMapHash": 3738073469
  },
  {
    "Id": 300505,
    "DescTextMapHash": 3948562853
  },
  {
    "Id": 300701,
    "DescTextMapHash": 390225309
  },
  {
    "Id": 300702,
    "DescTextMapHash": 3212676661
  },
  {
    "Id": 300703,
    "DescTextMapHash": 3627711621
  },
  {
    "Id": 300801,
    "DescTextMapHash": 3422341125
  },
  {
    "Id": 300802,
    "DescTextMapHash": 1394008549
  },
  {
    "Id": 300803,
    "DescTextMapHash": 624367117
  },
  {
    "Id": 300804,
    "DescTextMapHash": 993343253
  },
  {
    "Id": 300805,
    "DescTextMapHash": 900745821
  },
  {
    "Id": 300806,
    "DescTextMapHash": 2397868965
  },
  {
    "Id": 300901,
    "DescTextMapHash": 2302353301
  },
  {
    "Id": 300902,
    "DescTextMapHash": 606411789
  },
  {
    "Id": 300903,
    "DescTextMapHash": 2005874581
  },
  {
    "Id": 300904,
    "DescTextMapHash": 2890706109
  },
  {
    "Id": 300905,
    "DescTextMapHash": 2444313037
  },
  {
    "Id": 300906,
    "DescTextMapHash": 3481711893
  },
  {
    "Id": 300907,
    "DescTextMapHash": 1795312093
  },
  {
    "Id": 300908,
    "DescTextMapHash": 3967134157
  },
  {
    "Id": 300909,
    "DescTextMapHash": 3000967709
  },
  {
    "Id": 300910,
    "DescTextMapHash": 1985277901
  },
  {
    "Id": 301101,
    "DescTextMapHash": 2980579621
  },
  {
    "Id": 301401,
    "DescTextMapHash": 1629958829
  },
  {
    "Id": 301402,
    "DescTextMapHash": 3038327693
  },
  {
    "Id": 301403,
    "DescTextMapHash": 2437349365
  },
  {
    "Id": 301404,
    "DescTextMapHash": 1531306621
  },
  {
    "Id": 301405,
    "DescTextMapHash": 2167183141
  },
  {
    "Id": 301406,
    "DescTextMapHash": 1780709573
  },
  {
    "Id": 301407,
    "DescTextMapHash": 1983277085
  },
  {
    "Id": 301201,
    "DescTextMapHash": 2731371037
  },
  {
    "Id": 301202,
    "DescTextMapHash": 3678069173
  },
  {
    "Id": 301203,
    "DescTextMapHash": 655377805
  },
  {
    "Id": 301204,
    "DescTextMapHash": 3081179941
  },
  {
    "Id": 301205,
    "DescTextMapHash": 4163694253
  },
  {
    "Id": 301206,
    "DescTextMapHash": 3241378725
  },
  {
    "Id": 301207,
    "DescTextMapHash": 1623903621
  },
  {
    "Id": 301208,
    "DescTextMapHash": 1967967245
  },
  {
    "Id": 301209,
    "DescTextMapHash": 45612165
  },
  {
    "Id": 301210,
    "DescTextMapHash": 3235065333
  },
  {
    "Id": 1300901,
    "DescTextMapHash": 3260798061
  },
  {
    "Id": 1300902,
    "DescTextMapHash": 4039028397
  },
  {
    "Id": 1300903,
    "DescTextMapHash": 1354736733
  },
  {
    "Id": 1300904,
    "DescTextMapHash": 4089150661
  },
  {
    "Id": 1300905,
    "DescTextMapHash": 2113741917
  },
  {
    "Id": 1300906,
    "DescTextMapHash": 3676171533
  },
  {
    "Id": 1300907,
    "DescTextMapHash": 2523513093
  },
  {
    "Id": 1300908,
    "DescTextMapHash": 1117982149
  },
  {
    "Id": 1300909,
    "DescTextMapHash": 1095017165
  },
  {
    "Id": 1300910,
    "DescTextMapHash": 1476322205
  },
  {
    "Id": 1300911,
    "DescTextMapHash": 3794559597
  },
  {
    "Id": 1300912,
    "DescTextMapHash": 3041448213
  },
  {
    "Id": 1300913,
    "DescTextMapHash": 2325173981
  },
  {
    "Id": 1300914,
    "DescTextMapHash": 1947070421
  },
  {
    "Id": 301601,
    "DescTextMapHash": 3406652109
  },
  {
    "Id": 301602,
    "DescTextMapHash": 818393869
  },
  {
    "Id": 301603,
    "DescTextMapHash": 1136349477
  },
  {
    "Id": 301604,
    "DescTextMapHash": 3362625221
  },
  {
    "Id": 301701,
    "DescTextMapHash": 1618001357
  },
  {
    "Id": 301702,
    "DescTextMapHash": 2726806157
  },
  {
    "Id": 301703,
    "DescTextMapHash": 3183297909
  },
  {
    "Id": 301801,
    "DescTextMapHash": 406173509
  },
  {
    "Id": 301802,
    "DescTextMapHash": 720362725
  },
  {
    "Id": 301803,
    "DescTextMapHash": 3837022501
  },
  {
    "Id": 1300601,
    "DescTextMapHash": 3263738989
  },
  {
    "Id": 1300602,
    "DescTextMapHash": 3771906061
  },
  {
    "Id": 1300603,
    "DescTextMapHash": 3773816053
  },
  {
    "Id": 1300701,
    "DescTextMapHash": 2089581893
  },
  {
    "Id": 1300702,
    "DescTextMapHash": 2597007469
  },
  {
    "Id": 1300703,
    "DescTextMapHash": 1166862413
  },
  {
    "Id": 1300704,
    "DescTextMapHash": 1226346885
  },
  {
    "Id": 1300801,
    "DescTextMapHash": 2416015941
  },
  {
    "Id": 1300802,
    "DescTextMapHash": 264065949
  },
  {
    "Id": 1300803,
    "DescTextMapHash": 3477463509
  },
  {
    "Id": 1300804,
    "DescTextMapHash": 1430894021
  },
  {
    "Id": 1300805,
    "DescTextMapHash": 4215587693
  },
  {
    "Id": 1300806,
    "DescTextMapHash": 4047872237
  },
  {
    "Id": 1300807,
    "DescTextMapHash": 658388045
  },
  {
    "Id": 30190101,
    "DescTextMapHash": 1231682373
  },
  {
    "Id": 30190102,
    "DescTextMapHash": 3620699661
  },
  {
    "Id": 30200101,
    "DescTextMapHash": 3412903413
  },
  {
    "Id": 30200102,
    "DescTextMapHash": 2195724125
  },
  {
    "Id": 30200103,
    "DescTextMapHash": 3193563965
  },
  {
    "Id": 30200104,
    "DescTextMapHash": 3322531381
  },
  {
    "Id": 30200105,
    "DescTextMapHash": 2963590221
  },
  {
    "Id": 30210101,
    "DescTextMapHash": 1524717797
  },
  {
    "Id": 30210102,
    "DescTextMapHash": 1710982293
  },
  {
    "Id": 302201,
    "DescTextMapHash": 1925979429
  },
  {
    "Id": 302202,
    "DescTextMapHash": 3880982261
  },
  {
    "Id": 302203,
    "DescTextMapHash": 407621085
  },
  {
    "Id": 302204,
    "DescTextMapHash": 2091561245
  },
  {
    "Id": 302205,
    "DescTextMapHash": 4225259445
  },
  {
    "Id": 302206,
    "DescTextMapHash": 3701944309
  },
  {
    "Id": 302207,
    "DescTextMapHash": 1475548197
  },
  {
    "Id": 302208,
    "DescTextMapHash": 4162234493
  },
  {
    "Id": 302209,
    "DescTextMapHash": 664195357
  },
  {
    "Id": 302210,
    "DescTextMapHash": 2876926493
  },
  {
    "Id": 302211,
    "DescTextMapHash": 2179582757
  },
  {
    "Id": 302212,
    "DescTextMapHash": 2454553037
  },
  {
    "Id": 302213,
    "DescTextMapHash": 3278028461
  },
  {
    "Id": 302214,
    "DescTextMapHash": 3094457333
  },
  {
    "Id": 302215,
    "DescTextMapHash": 2009990157
  },
  {
    "Id": 302216,
    "DescTextMapHash": 3302843317
  },
  {
    "Id": 302217,
    "DescTextMapHash": 1703989709
  },
  {
    "Id": 302218,
    "DescTextMapHash": 968122429
  },
  {
    "Id": 302219,
    "DescTextMapHash": 4123993453
  },
  {
    "Id": 302220,
    "DescTextMapHash": 4075975853
  },
  {
    "Id": 302221,
    "DescTextMapHash": 1873629205
  },
  {
    "Id": 302222,
    "DescTextMapHash": 1495073981
  },
  {
    "Id": 302223,
    "DescTextMapHash": 2416603893
  },
  {
    "Id": 302224,
    "DescTextMapHash": 1255666189
  },
  {
    "Id": 302801,
    "DescTextMapHash": 1453130845
  },
  {
    "Id": 302802,
    "DescTextMapHash": 653353109
  },
  {
    "Id": 302803,
    "DescTextMapHash": 1507200309
  },
  {
    "Id": 302804,
    "DescTextMapHash": 3766765661
  },
  {
    "Id": 302805,
    "DescTextMapHash": 613745853
  },
  {
    "Id": 302806,
    "DescTextMapHash": 2969032133
  },
  {
    "Id": 302807,
    "DescTextMapHash": 3535587693
  },
  {
    "Id": 302808,
    "DescTextMapHash": 1145591869
  },
  {
    "Id": 302411,
    "DescTextMapHash": 2923911381
  },
  {
    "Id": 302402,
    "DescTextMapHash": 377929333
  },
  {
    "Id": 30240501,
    "DescTextMapHash": 1754349
  },
  {
    "Id": 30240502,
    "DescTextMapHash": 653706021
  },
  {
    "Id": 30240503,
    "DescTextMapHash": 518503693
  },
  {
    "Id": 30240701,
    "DescTextMapHash": 3158730725
  },
  {
    "Id": 30240702,
    "DescTextMapHash": 4064999893
  },
  {
    "Id": 30250201,
    "DescTextMapHash": 268721829
  },
  {
    "Id": 30250202,
    "DescTextMapHash": 3960949229
  },
  {
    "Id": 30250203,
    "DescTextMapHash": 1282218837
  },
  {
    "Id": 30250204,
    "DescTextMapHash": 2987032557
  },
  {
    "Id": 30250205,
    "DescTextMapHash": 3334890397
  },
  {
    "Id": 30250206,
    "DescTextMapHash": 2921929221
  },
  {
    "Id": 302505,
    "DescTextMapHash": 2322165045
  },
  {
    "Id": 30250801,
    "DescTextMapHash": 2554585501
  },
  {
    "Id": 30250802,
    "DescTextMapHash": 2514588597
  },
  {
    "Id": 30250803,
    "DescTextMapHash": 971599197
  },
  {
    "Id": 302618,
    "DescTextMapHash": 3577955309
  },
  {
    "Id": 30261501,
    "DescTextMapHash": 1044195189
  },
  {
    "Id": 30261502,
    "DescTextMapHash": 2575695645
  },
  {
    "Id": 1301301,
    "DescTextMapHash": 3181833805
  },
  {
    "Id": 1301302,
    "DescTextMapHash": 2587985589
  },
  {
    "Id": 1301303,
    "DescTextMapHash": 489960893
  },
  {
    "Id": 1301304,
    "DescTextMapHash": 1188545965
  },
  {
    "Id": 1301305,
    "DescTextMapHash": 2188546245
  },
  {
    "Id": 1301401,
    "DescTextMapHash": 1747246389
  },
  {
    "Id": 1301402,
    "DescTextMapHash": 4114297413
  },
  {
    "Id": 1301403,
    "DescTextMapHash": 1880207821
  },
  {
    "Id": 1301501,
    "DescTextMapHash": 1976040093
  },
  {
    "Id": 1301599,
    "DescTextMapHash": 749061677
  },
  {
    "Id": 302901,
    "DescTextMapHash": 1045651773
  },
  {
    "Id": 302902,
    "DescTextMapHash": 4113730085
  },
  {
    "Id": 302903,
    "DescTextMapHash": 3414852781
  },
  {
    "Id": 302904,
    "DescTextMapHash": 1867966973
  },
  {
    "Id": 302905,
    "DescTextMapHash": 2230819253
  },
  {
    "Id": 302906,
    "DescTextMapHash": 1885652677
  },
  {
    "Id": 302907,
    "DescTextMapHash": 1869968333
  },
  {
    "Id": 302908,
    "DescTextMapHash": 1697568661
  },
  {
    "Id": 302909,
    "DescTextMapHash": 879219485
  },
  {
    "Id": 302910,
    "DescTextMapHash": 990730877
  },
  {
    "Id": 302911,
    "DescTextMapHash": 1867250669
  },
  {
    "Id": 302912,
    "DescTextMapHash": 3887207573
  },
  {
    "Id": 302913,
    "DescTextMapHash": 3502734869
  },
  {
    "Id": 302914,
    "DescTextMapHash": 96254973
  },
  {
    "Id": 303001,
    "DescTextMapHash": 1592635205
  },
  {
    "Id": 303101,
    "DescTextMapHash": 987899661
  },
  {
    "Id": 303102,
    "DescTextMapHash": 3237149813
  },
  {
    "Id": 303103,
    "DescTextMapHash": 2716987765
  },
  {
    "Id": 303104,
    "DescTextMapHash": 4093574261
  },
  {
    "Id": 303105,
    "DescTextMapHash": 3660892413
  },
  {
    "Id": 303106,
    "DescTextMapHash": 423136797
  },
  {
    "Id": 303107,
    "DescTextMapHash": 3536373069
  },
  {
    "Id": 303108,
    "DescTextMapHash": 3331716693
  },
  {
    "Id": 303109,
    "DescTextMapHash": 2222147317
  },
  {
    "Id": 303110,
    "DescTextMapHash": 659263157
  },
  {
    "Id": 303201,
    "DescTextMapHash": 2094301013
  },
  {
    "Id": 303202,
    "DescTextMapHash": 3700006525
  },
  {
    "Id": 1302001,
    "DescTextMapHash": 2925371261
  },
  {
    "Id": 1302002,
    "DescTextMapHash": 2465554421
  },
  {
    "Id": 1302003,
    "DescTextMapHash": 3373896949
  },
  {
    "Id": 1302201,
    "DescTextMapHash": 2760950533
  },
  {
    "Id": 1302202,
    "DescTextMapHash": 1708738685
  },
  {
    "Id": 800901,
    "DescTextMapHash": 584963821
  },
  {
    "Id": 800902,
    "DescTextMapHash": 4155999045
  },
  {
    "Id": 800903,
    "DescTextMapHash": 2989955493
  },
  {
    "Id": 801101,
    "DescTextMapHash": 3436555221
  },
  {
    "Id": 801102,
    "DescTextMapHash": 1902486885
  },
  {
    "Id": 1302401,
    "DescTextMapHash": 2164750141
  },
  {
    "Id": 1302501,
    "DescTextMapHash": 922511149
  },
  {
    "Id": 1302601,
    "DescTextMapHash": 3746296821
  },
  {
    "Id": 1302602,
    "DescTextMapHash": 340719125
  },
  {
    "Id": 1302603,
    "DescTextMapHash": 3113287413
  }
]
