[
  {
    "id": 1001
  },
  {
    "id": 1002,
    "defaultValue": -3
  },
  {
    "id": 1003
  },
  {
    "id": 10001
  },
  {
    "id": 10002
  },
  {
    "id": 10003
  },
  {
    "id": 10004
  },
  {
    "id": 10005
  },
  {
    "id": 10006
  },
  {
    "id": 10007
  },
  {
    "id": 10008
  },
  {
    "id": 10009
  },
  {
    "id": 10010
  },
  {
    "id": 10011
  },
  {
    "id": 10012
  },
  {
    "id": 10013
  },
  {
    "id": 10014
  },
  {
    "id": 301409
  },
  {
    "id": 20000
  },
  {
    "id": 20001
  },
  {
    "id": 20002
  },
  {
    "id": 20009
  },
  {
    "id": 20013
  },
  {
    "id": 20014
  },
  {
    "id": 20015
  },
  {
    "id": 20016
  },
  {
    "id": 40001
  },
  {
    "id": 40002
  },
  {
    "id": 40003
  },
  {
    "id": 40004
  },
  {
    "id": 40005
  },
  {
    "id": 50001
  },
  {
    "id": 50002
  },
  {
    "id": 50003
  },
  {
    "id": 50004
  },
  {
    "id": 50005
  },
  {
    "id": 50006
  },
  {
    "id": 50007
  },
  {
    "id": 40023
  },
  {
    "id": 41410
  },
  {
    "id": 41210
  },
  {
    "id": 41213
  },
  {
    "id": 41610
  },
  {
    "id": 11110
  },
  {
    "id": 72000
  },
  {
    "id": 10120
  },
  {
    "id": 7002404
  },
  {
    "id": 72100
  },
  {
    "id": 11123
  },
  {
    "id": 7211401,
    "defaultValue": 1
  },
  {
    "id": 72123
  },
  {
    "id": 72168
  },
  {
    "id": 72169
  },
  {
    "id": 72170
  },
  {
    "id": 72124
  },
  {
    "id": 1200601
  },
  {
    "id": 1200602
  },
  {
    "id": 12008
  },
  {
    "id": 72122
  },
  {
    "id": 12013
  },
  {
    "id": 72802
  },
  {
    "id": 1202101
  },
  {
    "id": 1202301
  },
  {
    "id": 1202401
  },
  {
    "id": 1202601
  },
  {
    "id": 3002801
  },
  {
    "id": 3002802
  },
  {
    "id": 3002803
  },
  {
    "id": 1202201
  },
  {
    "id": 1201501
  },
  {
    "id": 1201801
  },
  {
    "id": 30026
  },
  {
    "id": 72149
  },
  {
    "id": 72151
  },
  {
    "id": 72165
  },
  {
    "id": 7219901
  },
  {
    "id": 7219902
  },
  {
    "id": 7219903
  },
  {
    "id": 72164
  },
  {
    "id": 202201
  },
  {
    "id": 201701
  },
  {
    "id": 202001
  },
  {
    "id": 72651
  },
  {
    "id": 70661
  },
  {
    "id": 72174
  },
  {
    "id": 22013
  },
  {
    "id": 22017
  },
  {
    "id": 7219801,
    "defaultValue": 1
  },
  {
    "id": 7219802
  },
  {
    "id": 7219803
  },
  {
    "id": 7219804
  },
  {
    "id": 7219805
  },
  {
    "id": 7219806
  },
  {
    "id": 7219807
  },
  {
    "id": 7219808
  },
  {
    "id": 7219809
  },
  {
    "id": 7219810
  },
  {
    "id": 7219811
  },
  {
    "id": 7219812
  },
  {
    "id": 7219813
  },
  {
    "id": 7219814
  },
  {
    "id": 7219815
  },
  {
    "id": 7219816
  },
  {
    "id": 40015
  },
  {
    "id": 72167
  },
  {
    "id": 72658
  },
  {
    "id": 72812
  },
  {
    "id": 7267204
  },
  {
    "id": 72173
  },
  {
    "id": 40026
  },
  {
    "id": 40028
  },
  {
    "id": 40029
  },
  {
    "id": 1905105
  },
  {
    "id": 40035
  },
  {
    "id": 40036
  },
  {
    "id": 40038
  },
  {
    "id": 40039
  },
  {
    "id": 40040
  },
  {
    "id": 71658
  },
  {
    "id": 105301
  },
  {
    "id": 72204
  },
  {
    "id": 72205
  },
  {
    "id": 72206
  },
  {
    "id": 72208
  },
  {
    "id": 72201
  },
  {
    "id": 72202
  },
  {
    "id": 72207
  },
  {
    "id": 72203
  },
  {
    "id": 20003
  },
  {
    "id": 5055
  },
  {
    "id": 72264
  },
  {
    "id": 72675
  },
  {
    "id": 4005116
  },
  {
    "id": 1901901
  },
  {
    "id": 1901902
  },
  {
    "id": 1901903
  },
  {
    "id": 1901904
  },
  {
    "id": 1901905
  },
  {
    "id": 71044
  },
  {
    "id": 7104405
  },
  {
    "id": 4004701
  },
  {
    "id": 71037
  },
  {
    "id": 71054
  },
  {
    "id": 12042
  },
  {
    "id": 72233
  },
  {
    "id": 2002901
  },
  {
    "id": 71831
  },
  {
    "id": 11015
  },
  {
    "id": 72266
  },
  {
    "id": 2100001
  },
  {
    "id": 2001401
  },
  {
    "id": 71071
  },
  {
    "id": 1913101
  },
  {
    "id": 12043
  },
  {
    "id": 11008
  },
  {
    "id": 71055
  },
  {
    "id": 710542169
  },
  {
    "id": 710452617
  },
  {
    "id": 710372616
  },
  {
    "id": 800401
  },
  {
    "id": 800402
  },
  {
    "id": 12035
  },
  {
    "id": 2202501
  },
  {
    "id": 7103901
  },
  {
    "id": 7103902
  },
  {
    "id": 11026
  },
  {
    "id": 7107801
  },
  {
    "id": 7107802
  },
  {
    "id": 4005513
  },
  {
    "id": 4005610
  },
  {
    "id": 4005714
  },
  {
    "id": 4005914
  },
  {
    "id": 71082
  },
  {
    "id": 1914601
  },
  {
    "id": 40064
  },
  {
    "id": 40067
  },
  {
    "id": 40070
  },
  {
    "id": 40073
  },
  {
    "id": 40076
  },
  {
    "id": 40077
  },
  {
    "id": 13003
  },
  {
    "id": 7227801
  },
  {
    "id": 7227901
  },
  {
    "id": 7228001
  },
  {
    "id": 7228101
  },
  {
    "id": 7150601
  },
  {
    "id": 7150201
  },
  {
    "id": 7150701
  },
  {
    "id": 7150301
  },
  {
    "id": 7150801
  },
  {
    "id": 7150401
  },
  {
    "id": 7150901
  },
  {
    "id": 7150501
  },
  {
    "id": 7151001
  },
  {
    "id": 7902312
  },
  {
    "id": 7902212
  },
  {
    "id": 7902205
  },
  {
    "id": 7902303
  },
  {
    "id": 7903305
  },
  {
    "id": 7903306
  },
  {
    "id": 7903307
  },
  {
    "id": 7903304
  },
  {
    "id": 19057
  },
  {
    "id": 1906001
  },
  {
    "id": 1906002
  },
  {
    "id": 1906003
  },
  {
    "id": 1906004
  },
  {
    "id": 1906005
  },
  {
    "id": 1906006
  },
  {
    "id": 1906007
  },
  {
    "id": 1906008
  },
  {
    "id": 1906009
  },
  {
    "id": 70516
  },
  {
    "id": 7051301
  },
  {
    "id": 7051302
  },
  {
    "id": 7051303
  },
  {
    "id": 7051304
  },
  {
    "id": 7051305
  },
  {
    "id": 7051306
  },
  {
    "id": 103106
  },
  {
    "id": 300010
  },
  {
    "id": 300107
  },
  {
    "id": 300209
  },
  {
    "id": 300306
  },
  {
    "id": 300612
  },
  {
    "id": 23002
  },
  {
    "id": 23025
  },
  {
    "id": 2303201
  },
  {
    "id": 7228724
  },
  {
    "id": 3022
  },
  {
    "id": 73018
  },
  {
    "id": 73027
  },
  {
    "id": 73062
  },
  {
    "id": 73026
  },
  {
    "id": 7300007
  },
  {
    "id": 73100
  },
  {
    "id": 73101
  },
  {
    "id": 73102
  },
  {
    "id": 73103
  },
  {
    "id": 1203901
  },
  {
    "id": 73083
  },
  {
    "id": 73110
  },
  {
    "id": 2303202
  },
  {
    "id": 2303203
  },
  {
    "id": 23032
  },
  {
    "id": 7380101
  },
  {
    "id": 73066
  },
  {
    "id": 73674
  },
  {
    "id": 73104
  },
  {
    "id": 73502
  },
  {
    "id": 7318801
  },
  {
    "id": 7318802
  },
  {
    "id": 7318803
  },
  {
    "id": 4007802
  },
  {
    "id": 4008001
  },
  {
    "id": 7052102
  },
  {
    "id": 3028
  },
  {
    "id": 302821
  },
  {
    "id": 1300807
  },
  {
    "id": 73500
  },
  {
    "id": 2302801
  },
  {
    "id": 300011
  },
  {
    "id": 300012
  },
  {
    "id": 300013
  },
  {
    "id": 300014
  },
  {
    "id": 73206
  },
  {
    "id": 2302605
  },
  {
    "id": 2302606
  },
  {
    "id": 2302607
  },
  {
    "id": 2302608
  },
  {
    "id": 2302609
  },
  {
    "id": 2302610
  },
  {
    "id": 2302611
  },
  {
    "id": 302410
  },
  {
    "id": 302617
  },
  {
    "id": 7300907
  },
  {
    "id": 7300908
  },
  {
    "id": 73081
  },
  {
    "id": 73263
  },
  {
    "id": 30032
  },
  {
    "id": 30033
  },
  {
    "id": 73800
  },
  {
    "id": 23011
  },
  {
    "id": 73803
  },
  {
    "id": 23014
  },
  {
    "id": 302110
  },
  {
    "id": 73270
  },
  {
    "id": 23041
  },
  {
    "id": 2304101
  },
  {
    "id": 2304102
  },
  {
    "id": 2304103
  },
  {
    "id": 23042
  },
  {
    "id": 73503
  },
  {
    "id": 73056
  },
  {
    "id": 7321901
  },
  {
    "id": 7321902
  },
  {
    "id": 7321903
  },
  {
    "id": 7321904
  },
  {
    "id": 7321905
  },
  {
    "id": 7321906
  },
  {
    "id": 7321907
  },
  {
    "id": 73193
  },
  {
    "id": 73275
  },
  {
    "id": 73223
  },
  {
    "id": 7327501
  },
  {
    "id": 2303501
  },
  {
    "id": 4008110
  },
  {
    "id": 4008512
  },
  {
    "id": 4008603
  },
  {
    "id": 4008508
  },
  {
    "id": 1301501
  },
  {
    "id": 7321908
  },
  {
    "id": 7321909
  },
  {
    "id": 7321910
  },
  {
    "id": 7321911
  },
  {
    "id": 7321912
  },
  {
    "id": 7321913
  },
  {
    "id": 7321914
  },
  {
    "id": 7321915
  },
  {
    "id": 7321916
  },
  {
    "id": 73337
  },
  {
    "id": 7321917
  },
  {
    "id": 7321918
  },
  {
    "id": 7321919
  },
  {
    "id": 7321920
  },
  {
    "id": 4009907
  },
  {
    "id": 4009802
  },
  {
    "id": 4009902
  },
  {
    "id": 4010406
  },
  {
    "id": 4010006
  },
  {
    "id": 4010027
  },
  {
    "id": 301801
  },
  {
    "id": 302901
  },
  {
    "id": 303001
  },
  {
    "id": 303201
  },
  {
    "id": 801101
  },
  {
    "id": 1102901
  },
  {
    "id": 1301101
  },
  {
    "id": 1302201
  },
  {
    "id": 1302601
  },
  {
    "id": 1302701
  },
  {
    "id": 1915001
  },
  {
    "id": 1916101
  },
  {
    "id": 2103401
  },
  {
    "id": 2103501
  },
  {
    "id": 2103601
  },
  {
    "id": 2103602
  },
  {
    "id": 2103801
  },
  {
    "id": 4009201
  },
  {
    "id": 4009301
  },
  {
    "id": 7066501
  },
  {
    "id": 7066502
  },
  {
    "id": 7273101
  },
  {
    "id": 7303201
  },
  {
    "id": 7323101
  },
  {
    "id": 7323201
  },
  {
    "id": 7323202
  },
  {
    "id": 7323203
  },
  {
    "id": 7323204
  },
  {
    "id": 7323501
  },
  {
    "id": 7323801
  },
  {
    "id": 7323802
  },
  {
    "id": 7323803
  },
  {
    "id": 7323804
  },
  {
    "id": 7323805
  },
  {
    "id": 7325101
  },
  {
    "id": 7325102
  },
  {
    "id": 7325103
  },
  {
    "id": 7325104
  },
  {
    "id": 7325105
  },
  {
    "id": 7325106
  },
  {
    "id": 7325601
  },
  {
    "id": 7328501
  },
  {
    "id": 7328502
  },
  {
    "id": 7330701
  },
  {
    "id": 7330702
  },
  {
    "id": 7331901
  },
  {
    "id": 7332201
  },
  {
    "id": 7332202
  },
  {
    "id": 7332203
  },
  {
    "id": 7333501
  },
  {
    "id": 7334101
  },
  {
    "id": 7334501
  },
  {
    "id": 7352101
  }
]
