[
  {
    "level": 1,
    "groupId": 1,
    "CAHEDLKHHNM": 1035603933,
    "descTextMapHash": 260384740,
    "MNNIJGMKMCJ": {
      "OAMBHJKOBJL": "ROGUELIKE_EFFECT_DISABLE_SPRING_CELL",
      "MLCIANKPEHC": "",
      "EJDCOFMELMJ": ""
    },
    "HJJAILDCHCK": true,
    "descParamList": [0.0, 0.0, 0.0],
    "ANDJHHEDMKA": [false, false, false]
  },
  {
    "level": 1,
    "groupId": 2,
    "CAHEDLKHHNM": 54219069,
    "descTextMapHash": 3121034548,
    "MNNIJGMKMCJ": {
      "OAMBHJKOBJL": "ROGUELIKE_EFFECT_ADD_LEVEL_TRAP",
      "MLCIANKPEHC": "",
      "EJDCOFMELMJ": ""
    },
    "HJJAILDCHCK": true,
    "descParamList": [0.0, 0.0, 0.0],
    "ANDJHHEDMKA": [false, false, false]
  },
  {
    "level": 5,
    "groupId": 3,
    "CAHEDLKHHNM": 2034801749,
    "descTextMapHash": 3736884652,
    "MNNIJGMKMCJ": {
      "OAMBHJKOBJL": "ROGUELIKE_EFFECT_STATIC_COMBAT",
      "MLCIANKPEHC": "SGV_ROGUECURSE_MONSTERBUFF",
      "EJDCOFMELMJ": "1"
    },
    "HJJAILDCHCK": true,
    "descParamList": [20.0, 0.0, 0.0],
    "ANDJHHEDMKA": [true, false, false]
  },
  {
    "level": 4,
    "groupId": 4,
    "CAHEDLKHHNM": 2241608685,
    "descTextMapHash": 2210724516,
    "MNNIJGMKMCJ": {
      "OAMBHJKOBJL": "ROGUELIKE_EFFECT_RANDOM_AVATAR_NOHEAL",
      "MLCIANKPEHC": "SGV_ROGUE_CURSE_NOHEAL",
      "EJDCOFMELMJ": "1"
    },
    "HJJAILDCHCK": true,
    "descParamList": [0.0, 0.0, 0.0],
    "ANDJHHEDMKA": [false, false, false]
  },
  {
    "level": 1,
    "groupId": 5,
    "CAHEDLKHHNM": 3838913645,
    "descTextMapHash": 3885911452,
    "MNNIJGMKMCJ": {
      "OAMBHJKOBJL": "ROGUELIKE_EFFECT_STATIC_COMBAT",
      "MLCIANKPEHC": "SGV_ROGUECURSE_BOMBDAMAGE",
      "EJDCOFMELMJ": "1"
    },
    "descParamList": [0.0, 0.0, 0.0],
    "ANDJHHEDMKA": [false, false, false]
  },
  {
    "level": 5,
    "groupId": 6,
    "CAHEDLKHHNM": 3068832069,
    "descTextMapHash": 2612695412,
    "MNNIJGMKMCJ": {
      "OAMBHJKOBJL": "ROGUELIKE_EFFECT_STATIC_COMBAT",
      "MLCIANKPEHC": "SGV_ROGUECURSE_EXTRAHURT",
      "EJDCOFMELMJ": "1"
    },
    "descParamList": [20.0, 0.0, 0.0],
    "ANDJHHEDMKA": [true, false, false]
  }
]
