[
  {
    "id": 1,
    "nameTextMapHash": 2748010657,
    "descTextMapHash": 3849323385,
    "descParam": ["30", "5", "3", "", ""],
    "PNPHOGFGBLM": 4,
    "icon": "UI_Activity_Common_Buff_021",
    "type": "ROGUE_DIARY_BUFF_SR",
    "OAMBHJKOBJL": "ROGUE_DIARY_BUFF_EFFECT_ABILITY"
  },
  {
    "id": 2,
    "nameTextMapHash": 3240359409,
    "descTextMapHash": 3405326297,
    "descParam": ["40", "", "", "", ""],
    "PNPHOGFGBLM": 4,
    "icon": "UI_Activity_Common_Buff_022",
    "type": "ROGUE_DIARY_BUFF_SR",
    "OAMBHJKOBJL": "ROGUE_DIARY_BUFF_EFFECT_ABILITY"
  },
  {
    "id": 3,
    "nameTextMapHash": 3249047049,
    "descTextMapHash": 2303784345,
    "descParam": ["3", "", "", "", ""],
    "PNPHOGFGBLM": 4,
    "icon": "UI_Activity_Common_Buff_023",
    "type": "ROGUE_DIARY_BUFF_SR",
    "OAMBHJKOBJL": "ROGUE_DIARY_BUFF_EFFECT_ABILITY"
  },
  {
    "id": 4,
    "nameTextMapHash": 2222261553,
    "descTextMapHash": 3955971361,
    "descParam": ["2", "", "", "", ""],
    "PNPHOGFGBLM": 4,
    "icon": "UI_Activity_Common_Buff_024",
    "type": "ROGUE_DIARY_BUFF_SR",
    "OAMBHJKOBJL": "ROGUE_DIARY_BUFF_EFFECT_ABILITY"
  },
  {
    "id": 5,
    "nameTextMapHash": 2585402745,
    "descTextMapHash": 3644860177,
    "descParam": ["3", "", "", "", ""],
    "PNPHOGFGBLM": 4,
    "icon": "UI_Activity_Common_Buff_025",
    "type": "ROGUE_DIARY_BUFF_SR",
    "OAMBHJKOBJL": "ROGUE_DIARY_BUFF_EFFECT_ABILITY"
  },
  {
    "id": 6,
    "nameTextMapHash": 1259985105,
    "descTextMapHash": 2318028593,
    "descParam": ["30", "", "", "", ""],
    "PNPHOGFGBLM": 4,
    "icon": "UI_Activity_Common_Buff_027",
    "type": "ROGUE_DIARY_BUFF_SR",
    "OAMBHJKOBJL": "ROGUE_DIARY_BUFF_EFFECT_ABILITY"
  },
  {
    "id": 24,
    "nameTextMapHash": 1363958785,
    "descTextMapHash": 2705631377,
    "descParam": ["6", "15", "15", "", ""],
    "PNPHOGFGBLM": 4,
    "icon": "UI_Activity_Common_Buff_028",
    "type": "ROGUE_DIARY_BUFF_SR",
    "OAMBHJKOBJL": "ROGUE_DIARY_BUFF_EFFECT_ABILITY"
  },
  {
    "id": 25,
    "nameTextMapHash": 3124185849,
    "descTextMapHash": 2276669209,
    "descParam": ["4", "60", "80000", "4", ""],
    "PNPHOGFGBLM": 4,
    "icon": "UI_Activity_Common_Buff_026",
    "type": "ROGUE_DIARY_BUFF_SR",
    "OAMBHJKOBJL": "ROGUE_DIARY_BUFF_EFFECT_ABILITY"
  },
  {
    "id": 7,
    "nameTextMapHash": 3651690497,
    "descTextMapHash": 383569129,
    "descParam": ["15", "5", "4", "0.1", ""],
    "PNPHOGFGBLM": 3,
    "icon": "UI_Activity_Common_Buff_001",
    "type": "ROGUE_DIARY_BUFF_R",
    "OAMBHJKOBJL": "ROGUE_DIARY_BUFF_EFFECT_ABILITY"
  },
  {
    "id": 8,
    "nameTextMapHash": 3998875697,
    "descTextMapHash": 2428996601,
    "descParam": ["20", "8", "3", "0.1", ""],
    "PNPHOGFGBLM": 3,
    "icon": "UI_Activity_Common_Buff_003",
    "type": "ROGUE_DIARY_BUFF_R",
    "OAMBHJKOBJL": "ROGUE_DIARY_BUFF_EFFECT_ABILITY"
  },
  {
    "id": 9,
    "nameTextMapHash": 819570409,
    "descTextMapHash": 2210764289,
    "descParam": ["2", "1", "", "", ""],
    "PNPHOGFGBLM": 3,
    "icon": "UI_Activity_Common_Buff_004",
    "type": "ROGUE_DIARY_BUFF_R",
    "OAMBHJKOBJL": "ROGUE_DIARY_BUFF_EFFECT_ABILITY"
  },
  {
    "id": 10,
    "nameTextMapHash": 2644016801,
    "descTextMapHash": 3801515521,
    "descParam": ["20", "8", "3", "0.1", ""],
    "PNPHOGFGBLM": 3,
    "icon": "UI_Activity_Common_Buff_005",
    "type": "ROGUE_DIARY_BUFF_R",
    "OAMBHJKOBJL": "ROGUE_DIARY_BUFF_EFFECT_ABILITY"
  },
  {
    "id": 11,
    "nameTextMapHash": 3041051553,
    "descTextMapHash": 1991962081,
    "descParam": ["3", "3", "1.5", "", ""],
    "PNPHOGFGBLM": 3,
    "icon": "UI_Activity_Common_Buff_006",
    "type": "ROGUE_DIARY_BUFF_R",
    "OAMBHJKOBJL": "ROGUE_DIARY_BUFF_EFFECT_ABILITY"
  },
  {
    "id": 12,
    "nameTextMapHash": 4279189665,
    "descTextMapHash": 3893394897,
    "descParam": ["50", "6", "", "", ""],
    "PNPHOGFGBLM": 3,
    "icon": "UI_Activity_Common_Buff_007",
    "type": "ROGUE_DIARY_BUFF_R",
    "OAMBHJKOBJL": "ROGUE_DIARY_BUFF_EFFECT_ABILITY"
  },
  {
    "id": 13,
    "nameTextMapHash": 4171738185,
    "descTextMapHash": 822599137,
    "descParam": ["40", "5", "", "", ""],
    "PNPHOGFGBLM": 3,
    "icon": "UI_Activity_Common_Buff_009",
    "type": "ROGUE_DIARY_BUFF_R",
    "OAMBHJKOBJL": "ROGUE_DIARY_BUFF_EFFECT_ABILITY"
  },
  {
    "id": 14,
    "nameTextMapHash": 1101169217,
    "descTextMapHash": 2993317417,
    "descParam": ["20", "", "", "", ""],
    "PNPHOGFGBLM": 3,
    "icon": "UI_Activity_Common_Buff_020",
    "type": "ROGUE_DIARY_BUFF_R",
    "OAMBHJKOBJL": "ROGUE_DIARY_BUFF_EFFECT_ABILITY"
  },
  {
    "id": 15,
    "nameTextMapHash": 2611092609,
    "descTextMapHash": 3352502705,
    "descParam": ["50", "6", "", "", ""],
    "PNPHOGFGBLM": 3,
    "icon": "UI_Activity_Common_Buff_010",
    "type": "ROGUE_DIARY_BUFF_R",
    "OAMBHJKOBJL": "ROGUE_DIARY_BUFF_EFFECT_ABILITY"
  },
  {
    "id": 16,
    "nameTextMapHash": 142504249,
    "descTextMapHash": 3923921281,
    "descParam": ["40", "5", "", "", ""],
    "PNPHOGFGBLM": 3,
    "icon": "UI_Activity_Common_Buff_013",
    "type": "ROGUE_DIARY_BUFF_R",
    "OAMBHJKOBJL": "ROGUE_DIARY_BUFF_EFFECT_ABILITY"
  },
  {
    "id": 17,
    "nameTextMapHash": 3622387633,
    "descTextMapHash": 1606660337,
    "descParam": ["50", "6", "", "", ""],
    "PNPHOGFGBLM": 3,
    "icon": "UI_Activity_Common_Buff_012",
    "type": "ROGUE_DIARY_BUFF_R",
    "OAMBHJKOBJL": "ROGUE_DIARY_BUFF_EFFECT_ABILITY"
  },
  {
    "id": 18,
    "nameTextMapHash": 232084041,
    "descTextMapHash": 124821793,
    "descParam": ["60", "6", "", "", ""],
    "PNPHOGFGBLM": 3,
    "icon": "UI_Activity_Common_Buff_011",
    "type": "ROGUE_DIARY_BUFF_R",
    "OAMBHJKOBJL": "ROGUE_DIARY_BUFF_EFFECT_ABILITY"
  },
  {
    "id": 19,
    "nameTextMapHash": 753270161,
    "descTextMapHash": 2415897081,
    "descParam": ["70", "80", "5", "", ""],
    "PNPHOGFGBLM": 3,
    "icon": "UI_Activity_Common_Buff_014",
    "type": "ROGUE_DIARY_BUFF_R",
    "OAMBHJKOBJL": "ROGUE_DIARY_BUFF_EFFECT_ABILITY"
  },
  {
    "id": 20,
    "nameTextMapHash": 2405175305,
    "descTextMapHash": 2729753937,
    "descParam": ["80", "3", "", "", ""],
    "PNPHOGFGBLM": 3,
    "icon": "UI_Activity_Common_Buff_015",
    "type": "ROGUE_DIARY_BUFF_R",
    "OAMBHJKOBJL": "ROGUE_DIARY_BUFF_EFFECT_ABILITY"
  },
  {
    "id": 21,
    "nameTextMapHash": 3221646457,
    "descTextMapHash": 2643515537,
    "descParam": ["50", "", "", "", ""],
    "PNPHOGFGBLM": 3,
    "icon": "UI_Activity_Common_Buff_017",
    "type": "ROGUE_DIARY_BUFF_R",
    "OAMBHJKOBJL": "ROGUE_DIARY_BUFF_EFFECT_ABILITY"
  },
  {
    "id": 22,
    "nameTextMapHash": 4056788825,
    "descTextMapHash": 3265041537,
    "descParam": ["80", "8", "", "", ""],
    "PNPHOGFGBLM": 3,
    "icon": "UI_Activity_Common_Buff_018",
    "type": "ROGUE_DIARY_BUFF_R",
    "OAMBHJKOBJL": "ROGUE_DIARY_BUFF_EFFECT_ABILITY"
  },
  {
    "id": 23,
    "nameTextMapHash": 486333745,
    "descTextMapHash": 1053667769,
    "descParam": ["60", "", "", "", ""],
    "PNPHOGFGBLM": 3,
    "icon": "UI_Activity_Common_Buff_016",
    "type": "ROGUE_DIARY_BUFF_R",
    "OAMBHJKOBJL": "ROGUE_DIARY_BUFF_EFFECT_ABILITY"
  },
  {
    "id": 26,
    "nameTextMapHash": 2800108633,
    "descTextMapHash": 2597427369,
    "descParam": ["1", "", "", "", ""],
    "PNPHOGFGBLM": 3,
    "icon": "UI_Activity_Common_Buff_008",
    "type": "ROGUE_DIARY_BUFF_R",
    "OAMBHJKOBJL": "ROGUE_DIARY_BUFF_EFFECT_ABILITY"
  },
  {
    "id": 27,
    "nameTextMapHash": 3179220313,
    "descTextMapHash": 1554644617,
    "descParam": ["3", "25", "3", "", ""],
    "PNPHOGFGBLM": 3,
    "icon": "UI_Activity_Common_Buff_019",
    "type": "ROGUE_DIARY_BUFF_R",
    "OAMBHJKOBJL": "ROGUE_DIARY_BUFF_EFFECT_ABILITY"
  },
  {
    "id": 28,
    "nameTextMapHash": 2307220241,
    "descTextMapHash": 456713353,
    "descParam": ["3", "2", "", "", ""],
    "PNPHOGFGBLM": 3,
    "icon": "UI_Activity_Common_Buff_002",
    "type": "ROGUE_DIARY_BUFF_R",
    "OAMBHJKOBJL": "ROGUE_DIARY_BUFF_EFFECT_ABILITY"
  }
]
