[
  {
    "id": 1,
    "KDCBIIFPCHE": "ROGUE_GADGET_TYPE_DOOR",
    "gadgetId": 70310125,
    "GCGKJOLLPGL": [
      {
        "LBJDHPLCFCC": "ROGUE_GADGET_STATE_DOOR_OPEN",
        "IKFAHDPIOJI": 201
      },
      {
        "LBJDHPLCFCC": "ROGUE_GADGET_STATE_DOOR_CLOSE"
      },
      {},
      {}
    ]
  },
  {
    "id": 2,
    "KDCBIIFPCHE": "ROGUE_GADGET_TYPE_NORMAL_OPERATOR",
    "gadgetId": 70310118,
    "GCGKJOLLPGL": [
      {
        "LBJDHPLCFCC": "ROGUE_GADGET_STATE_OPERATOR_DEFAULT"
      },
      {
        "LBJDHPLCFCC": "ROGUE_GADGET_STATE_OPERATOR_IN_CHALLENGE",
        "IKFAHDPIOJI": 201
      },
      {
        "LBJDHPLCFCC": "ROGUE_GADGET_STATE_OPERATOR_FINISH_CHALLENGE",
        "IKFAHDPIOJI": 203
      },
      {
        "LBJDHPLCFCC": "ROGUE_GADGET_STATE_OPERATOR_AFTER_USE",
        "IKFAHDPIOJI": 204
      }
    ]
  },
  {
    "id": 3,
    "KDCBIIFPCHE": "ROGUE_GADGET_TYPE_ELITE_OPERATOR",
    "gadgetId": 70310119,
    "GCGKJOLLPGL": [
      {
        "LBJDHPLCFCC": "ROGUE_GADGET_STATE_OPERATOR_DEFAULT"
      },
      {
        "LBJDHPLCFCC": "ROGUE_GADGET_STATE_OPERATOR_IN_CHALLENGE",
        "IKFAHDPIOJI": 201
      },
      {
        "LBJDHPLCFCC": "ROGUE_GADGET_STATE_OPERATOR_FINISH_CHALLENGE",
        "IKFAHDPIOJI": 203
      },
      {
        "LBJDHPLCFCC": "ROGUE_GADGET_STATE_OPERATOR_AFTER_USE",
        "IKFAHDPIOJI": 204
      }
    ]
  },
  {
    "id": 4,
    "KDCBIIFPCHE": "ROGUE_GADGET_TYPE_SPRING_OPERATOR_REVEAL",
    "gadgetId": 70310120,
    "GCGKJOLLPGL": [
      {
        "LBJDHPLCFCC": "ROGUE_GADGET_STATE_OPERATOR_DEFAULT"
      },
      {
        "LBJDHPLCFCC": "ROGUE_GADGET_STATE_OPERATOR_FINISH_CHALLENGE",
        "IKFAHDPIOJI": 203
      },
      {
        "LBJDHPLCFCC": "ROGUE_GADGET_STATE_OPERATOR_AFTER_USE",
        "IKFAHDPIOJI": 204
      },
      {
        "LBJDHPLCFCC": "ROGUE_GADGET_STATE_OPERATOR_FORBID",
        "IKFAHDPIOJI": 202
      }
    ]
  },
  {
    "id": 5,
    "KDCBIIFPCHE": "ROGUE_GADGET_TYPE_SPRING_OPERATOR_SWITCH",
    "gadgetId": 70310124,
    "GCGKJOLLPGL": [{}, {}, {}, {}]
  },
  {
    "id": 6,
    "KDCBIIFPCHE": "ROGUE_GADGET_TYPE_SPRING_STORE",
    "gadgetId": 70310121,
    "GCGKJOLLPGL": [
      {
        "LBJDHPLCFCC": "ROGUE_GADGET_STATE_OPERATOR_DEFAULT"
      },
      {
        "LBJDHPLCFCC": "ROGUE_GADGET_STATE_OPERATOR_FINISH_CHALLENGE",
        "IKFAHDPIOJI": 203
      },
      {
        "LBJDHPLCFCC": "ROGUE_GADGET_STATE_OPERATOR_AFTER_USE",
        "IKFAHDPIOJI": 204
      },
      {}
    ]
  },
  {
    "id": 7,
    "KDCBIIFPCHE": "ROGUE_GADGET_TYPE_BLAST",
    "gadgetId": 70310100,
    "GCGKJOLLPGL": [{}, {}, {}, {}]
  },
  {
    "id": 8,
    "KDCBIIFPCHE": "ROGUE_GADGET_TYPE_TRAP",
    "gadgetId": 70310101,
    "GCGKJOLLPGL": [{}, {}, {}, {}]
  },
  {
    "id": 9,
    "KDCBIIFPCHE": "ROGUE_GADGET_TYPE_BREAKAGES",
    "gadgetId": 70310099,
    "GCGKJOLLPGL": [{}, {}, {}, {}]
  },
  {
    "id": 10,
    "KDCBIIFPCHE": "ROGUE_GADGET_TYPE_GUARD",
    "gadgetId": 70310123,
    "GCGKJOLLPGL": [
      {
        "LBJDHPLCFCC": "ROGUE_GADGET_STATE_OPERATOR_DEFAULT"
      },
      {
        "LBJDHPLCFCC": "ROGUE_GADGET_STATE_OPERATOR_IN_CHALLENGE",
        "IKFAHDPIOJI": 201
      },
      {
        "LBJDHPLCFCC": "ROGUE_GADGET_STATE_OPERATOR_FINISH_CHALLENGE"
      },
      {
        "LBJDHPLCFCC": "ROGUE_GADGET_STATE_OPERATOR_FORBID",
        "IKFAHDPIOJI": 204
      }
    ]
  }
]
