[
  {
    "id": 33001,
    "NDHCKNBHLGG": 33001,
    "challengeId": 111198,
    "DHPGDGJNHIC": 50,
    "FBGAMKAANEG": 200,
    "EKIMKHPABEE": 1923474749
  },
  {
    "id": 33002,
    "NDHCKNBHLGG": 33002,
    "DHPGDGJNHIC": 50,
    "FBGAMKAANEG": 200,
    "EKIMKHPABEE": 2374610709
  },
  {
    "id": 33003,
    "NDHCKNBHLGG": 33003,
    "DHPGDGJNHIC": 50,
    "FBGAMKAANEG": 200,
    "EKIMKHPABEE": 2034241141
  },
  {
    "id": 33004,
    "NDHCKNBHLGG": 33004,
    "DHPGDGJNHIC": 50,
    "FBGAMKAANEG": 200,
    "EKIMKHPABEE": 955699909
  },
  {
    "id": 33005,
    "NDHCKNBHLGG": 33005,
    "DHPGDGJNHIC": 50,
    "FBGAMKAANEG": 200,
    "EKIMKHPABEE": 2816761173
  },
  {
    "id": 33006,
    "NDHCKNBHLGG": 33006,
    "challengeId": 111198,
    "DHPGDGJNHIC": 50,
    "FBGAMKAANEG": 200,
    "EKIMKHPABEE": 164188309
  },
  {
    "id": 33007,
    "NDHCKNBHLGG": 33007,
    "DHPGDGJNHIC": 50,
    "FBGAMKAANEG": 200,
    "EKIMKHPABEE": 4092533637
  },
  {
    "id": 33008,
    "NDHCKNBHLGG": 33008,
    "DHPGDGJNHIC": 50,
    "FBGAMKAANEG": 200,
    "EKIMKHPABEE": 2329379925
  },
  {
    "id": 33009,
    "NDHCKNBHLGG": 33009,
    "DHPGDGJNHIC": 50,
    "FBGAMKAANEG": 200,
    "EKIMKHPABEE": 2815212733
  },
  {
    "id": 33010,
    "NDHCKNBHLGG": 33010,
    "DHPGDGJNHIC": 50,
    "FBGAMKAANEG": 200,
    "EKIMKHPABEE": 3701280277
  },
  {
    "id": 33011,
    "NDHCKNBHLGG": 33011,
    "DHPGDGJNHIC": 50,
    "FBGAMKAANEG": 200,
    "EKIMKHPABEE": 293646245
  },
  {
    "id": 33012,
    "NDHCKNBHLGG": 33012,
    "DHPGDGJNHIC": 50,
    "FBGAMKAANEG": 200,
    "EKIMKHPABEE": 690196893
  },
  {
    "id": 33013,
    "NDHCKNBHLGG": 33013,
    "DHPGDGJNHIC": 50,
    "FBGAMKAANEG": 200,
    "EKIMKHPABEE": 1279627717
  },
  {
    "id": 33014,
    "NDHCKNBHLGG": 33014,
    "DHPGDGJNHIC": 50,
    "FBGAMKAANEG": 200,
    "EKIMKHPABEE": 14524149
  },
  {
    "id": 33015,
    "NDHCKNBHLGG": 33015,
    "DHPGDGJNHIC": 50,
    "FBGAMKAANEG": 200,
    "EKIMKHPABEE": 3525762837
  },
  {
    "id": 33016,
    "NDHCKNBHLGG": 33016,
    "DHPGDGJNHIC": 50,
    "FBGAMKAANEG": 200,
    "EKIMKHPABEE": 2015732565
  },
  {
    "id": 33017,
    "NDHCKNBHLGG": 33017,
    "DHPGDGJNHIC": 50,
    "FBGAMKAANEG": 200,
    "EKIMKHPABEE": 1847252525
  },
  {
    "id": 33020,
    "NDHCKNBHLGG": 33020,
    "DHPGDGJNHIC": 50,
    "FBGAMKAANEG": 200,
    "EKIMKHPABEE": 1657179573
  },
  {
    "id": 33021,
    "NDHCKNBHLGG": 33021,
    "challengeId": 111198,
    "DHPGDGJNHIC": 50,
    "FBGAMKAANEG": 200,
    "EKIMKHPABEE": 2878424229
  },
  {
    "id": 33022,
    "NDHCKNBHLGG": 33022,
    "DHPGDGJNHIC": 50,
    "FBGAMKAANEG": 200,
    "EKIMKHPABEE": 2383272613
  },
  {
    "id": 33023,
    "NDHCKNBHLGG": 33023,
    "DHPGDGJNHIC": 50,
    "FBGAMKAANEG": 200,
    "EKIMKHPABEE": 461321029
  },
  {
    "id": 33024,
    "NDHCKNBHLGG": 33024,
    "challengeId": 111198,
    "DHPGDGJNHIC": 50,
    "FBGAMKAANEG": 200,
    "EKIMKHPABEE": 1663493429
  },
  {
    "id": 33029,
    "NDHCKNBHLGG": 33029,
    "challengeId": 111198,
    "DHPGDGJNHIC": 50,
    "FBGAMKAANEG": 200,
    "EKIMKHPABEE": 2034048869
  },
  {
    "id": 33030,
    "NDHCKNBHLGG": 33030,
    "ENCJNHECBFD": 33036,
    "DHPGDGJNHIC": 50,
    "FBGAMKAANEG": 200,
    "EKIMKHPABEE": 2927184853
  },
  {
    "id": 33031,
    "NDHCKNBHLGG": 33031,
    "challengeId": 111198,
    "DHPGDGJNHIC": 50,
    "FBGAMKAANEG": 200,
    "EKIMKHPABEE": 2806842653
  },
  {
    "id": 33036,
    "NDHCKNBHLGG": 33036,
    "DHPGDGJNHIC": 50,
    "FBGAMKAANEG": 200,
    "EKIMKHPABEE": 4161337413
  },
  {
    "id": 33037,
    "NDHCKNBHLGG": 33037,
    "ENCJNHECBFD": 33039,
    "DHPGDGJNHIC": 50,
    "FBGAMKAANEG": 200,
    "EKIMKHPABEE": 1267357349
  },
  {
    "id": 33038,
    "NDHCKNBHLGG": 33038,
    "ENCJNHECBFD": 33040,
    "DHPGDGJNHIC": 50,
    "FBGAMKAANEG": 200,
    "EKIMKHPABEE": 2190864285
  },
  {
    "id": 33039,
    "NDHCKNBHLGG": 33039,
    "DHPGDGJNHIC": 50,
    "FBGAMKAANEG": 200,
    "EKIMKHPABEE": 1403246005
  },
  {
    "id": 33040,
    "NDHCKNBHLGG": 33040,
    "DHPGDGJNHIC": 50,
    "FBGAMKAANEG": 200,
    "EKIMKHPABEE": 1849696989
  },
  {
    "id": 33041,
    "NDHCKNBHLGG": 33041,
    "challengeId": 111198,
    "DHPGDGJNHIC": 50,
    "FBGAMKAANEG": 200,
    "EKIMKHPABEE": 1585740245
  },
  {
    "id": 33042,
    "NDHCKNBHLGG": 33042,
    "challengeId": 111198,
    "DHPGDGJNHIC": 50,
    "FBGAMKAANEG": 200,
    "EKIMKHPABEE": 385207789
  },
  {
    "id": 33043,
    "NDHCKNBHLGG": 33043,
    "challengeId": 111197,
    "DHPGDGJNHIC": 50,
    "FBGAMKAANEG": 200,
    "EKIMKHPABEE": 1435056053
  },
  {
    "id": 33044,
    "NDHCKNBHLGG": 33044,
    "challengeId": 111197,
    "DHPGDGJNHIC": 50,
    "FBGAMKAANEG": 200,
    "EKIMKHPABEE": 159047685
  },
  {
    "id": 33045,
    "NDHCKNBHLGG": 33045,
    "DHPGDGJNHIC": 50,
    "FBGAMKAANEG": 200,
    "EKIMKHPABEE": 635821877
  },
  {
    "id": 33046,
    "NDHCKNBHLGG": 33046,
    "DHPGDGJNHIC": 50,
    "FBGAMKAANEG": 200,
    "EKIMKHPABEE": 240923893
  },
  {
    "id": 33047,
    "NDHCKNBHLGG": 33047,
    "DHPGDGJNHIC": 50,
    "FBGAMKAANEG": 200,
    "EKIMKHPABEE": 148495517
  },
  {
    "id": 33048,
    "NDHCKNBHLGG": 33048,
    "ENCJNHECBFD": 33051,
    "DHPGDGJNHIC": 50,
    "FBGAMKAANEG": 200,
    "EKIMKHPABEE": 3906691933
  },
  {
    "id": 33049,
    "NDHCKNBHLGG": 33049,
    "ENCJNHECBFD": 33052,
    "DHPGDGJNHIC": 50,
    "FBGAMKAANEG": 200,
    "EKIMKHPABEE": 140240573
  },
  {
    "id": 33050,
    "NDHCKNBHLGG": 33050,
    "ENCJNHECBFD": 33053,
    "DHPGDGJNHIC": 50,
    "FBGAMKAANEG": 200,
    "EKIMKHPABEE": 1257433373
  },
  {
    "id": 33051,
    "NDHCKNBHLGG": 33051,
    "DHPGDGJNHIC": 50,
    "FBGAMKAANEG": 200,
    "EKIMKHPABEE": 896370221
  },
  {
    "id": 33052,
    "NDHCKNBHLGG": 33052,
    "DHPGDGJNHIC": 50,
    "FBGAMKAANEG": 200,
    "EKIMKHPABEE": 3272494477
  },
  {
    "id": 33053,
    "NDHCKNBHLGG": 33053,
    "DHPGDGJNHIC": 50,
    "FBGAMKAANEG": 200,
    "EKIMKHPABEE": 1370828701
  },
  {
    "id": 33019,
    "NDHCKNBHLGG": 33019,
    "DHPGDGJNHIC": 50,
    "FBGAMKAANEG": 200,
    "EKIMKHPABEE": 68079213
  },
  {
    "id": 33025,
    "NDHCKNBHLGG": 33025,
    "DHPGDGJNHIC": 50,
    "FBGAMKAANEG": 200,
    "EKIMKHPABEE": 2273516397
  },
  {
    "id": 33027,
    "NDHCKNBHLGG": 33027,
    "DHPGDGJNHIC": 50,
    "FBGAMKAANEG": 200,
    "EKIMKHPABEE": 271369669
  },
  {
    "id": 33028,
    "NDHCKNBHLGG": 33028,
    "DHPGDGJNHIC": 50,
    "FBGAMKAANEG": 200,
    "EKIMKHPABEE": 4089644525
  },
  {
    "id": 33032,
    "NDHCKNBHLGG": 33032,
    "DHPGDGJNHIC": 50,
    "FBGAMKAANEG": 200,
    "EKIMKHPABEE": 3894593197
  },
  {
    "id": 33033,
    "NDHCKNBHLGG": 33033,
    "DHPGDGJNHIC": 50,
    "FBGAMKAANEG": 200,
    "EKIMKHPABEE": 2053450357
  },
  {
    "id": 33034,
    "NDHCKNBHLGG": 33034,
    "DHPGDGJNHIC": 50,
    "FBGAMKAANEG": 200,
    "EKIMKHPABEE": 200914477
  },
  {
    "id": 33018,
    "NDHCKNBHLGG": 33018,
    "DHPGDGJNHIC": 50,
    "FBGAMKAANEG": 200,
    "EKIMKHPABEE": 771898885
  },
  {
    "id": 33035,
    "NDHCKNBHLGG": 33035,
    "challengeId": 111197,
    "DHPGDGJNHIC": 50,
    "FBGAMKAANEG": 200,
    "EKIMKHPABEE": 3134616693
  },
  {
    "id": 33054,
    "NDHCKNBHLGG": 33054,
    "challengeId": 111197,
    "DHPGDGJNHIC": 50,
    "FBGAMKAANEG": 200,
    "EKIMKHPABEE": 3585522029
  },
  {
    "id": 33055,
    "NDHCKNBHLGG": 33055,
    "challengeId": 111198,
    "DHPGDGJNHIC": 50,
    "FBGAMKAANEG": 200,
    "EKIMKHPABEE": 480147181
  },
  {
    "id": 33056,
    "NDHCKNBHLGG": 33056,
    "challengeId": 111198,
    "DHPGDGJNHIC": 50,
    "FBGAMKAANEG": 200,
    "EKIMKHPABEE": 2672735669
  },
  {
    "id": 33057,
    "NDHCKNBHLGG": 33057,
    "challengeId": 111198,
    "DHPGDGJNHIC": 50,
    "FBGAMKAANEG": 200,
    "EKIMKHPABEE": 3200900005
  },
  {
    "id": 33058,
    "NDHCKNBHLGG": 33058,
    "challengeId": 111198,
    "DHPGDGJNHIC": 50,
    "FBGAMKAANEG": 200,
    "EKIMKHPABEE": 3986252693
  },
  {
    "id": 33059,
    "NDHCKNBHLGG": 33059,
    "DHPGDGJNHIC": 50,
    "FBGAMKAANEG": 200,
    "EKIMKHPABEE": 1908693829
  },
  {
    "id": 33060,
    "NDHCKNBHLGG": 33060,
    "DHPGDGJNHIC": 50,
    "FBGAMKAANEG": 200,
    "EKIMKHPABEE": 3486161237
  },
  {
    "id": 33061,
    "NDHCKNBHLGG": 33061,
    "EKIMKHPABEE": 404100317,
    "AACNHJKHLLI": true
  },
  {
    "id": 33062,
    "NDHCKNBHLGG": 33062,
    "challengeId": 111198,
    "DHPGDGJNHIC": 50,
    "FBGAMKAANEG": 200,
    "EKIMKHPABEE": 437857005
  },
  {
    "id": 33063,
    "NDHCKNBHLGG": 33063,
    "challengeId": 111198,
    "DHPGDGJNHIC": 50,
    "FBGAMKAANEG": 200,
    "EKIMKHPABEE": 1560219229
  },
  {
    "id": 33064,
    "NDHCKNBHLGG": 33064,
    "challengeId": 111198,
    "DHPGDGJNHIC": 50,
    "FBGAMKAANEG": 200,
    "EKIMKHPABEE": 725972109
  },
  {
    "id": 33065,
    "NDHCKNBHLGG": 33065,
    "challengeId": 111198,
    "DHPGDGJNHIC": 50,
    "FBGAMKAANEG": 200,
    "EKIMKHPABEE": 1471190173
  },
  {
    "id": 33066,
    "NDHCKNBHLGG": 33066,
    "EKIMKHPABEE": 2922412317,
    "AACNHJKHLLI": true
  },
  {
    "id": 33067,
    "NDHCKNBHLGG": 33067,
    "EKIMKHPABEE": 1966003085,
    "AACNHJKHLLI": true
  },
  {
    "id": 33068,
    "NDHCKNBHLGG": 33068,
    "EKIMKHPABEE": 794583493,
    "AACNHJKHLLI": true
  },
  {
    "id": 33069,
    "NDHCKNBHLGG": 33069,
    "EKIMKHPABEE": 2740637405,
    "AACNHJKHLLI": true
  },
  {
    "id": 33070,
    "NDHCKNBHLGG": 33070,
    "challengeId": 111198,
    "DHPGDGJNHIC": 50,
    "FBGAMKAANEG": 200,
    "EKIMKHPABEE": 3918150925
  },
  {
    "id": 33071,
    "NDHCKNBHLGG": 33071,
    "challengeId": 111198,
    "DHPGDGJNHIC": 50,
    "FBGAMKAANEG": 200,
    "EKIMKHPABEE": 512660365
  },
  {
    "id": 33072,
    "NDHCKNBHLGG": 33072,
    "EKIMKHPABEE": 3855828157,
    "AACNHJKHLLI": true
  },
  {
    "id": 33073,
    "NDHCKNBHLGG": 33073,
    "EKIMKHPABEE": 2018003941,
    "AACNHJKHLLI": true
  },
  {
    "id": 33074,
    "NDHCKNBHLGG": 33074,
    "challengeId": 111198,
    "DHPGDGJNHIC": 50,
    "FBGAMKAANEG": 200,
    "EKIMKHPABEE": 4221309021
  },
  {
    "id": 33075,
    "NDHCKNBHLGG": 33075,
    "challengeId": 111198,
    "DHPGDGJNHIC": 50,
    "FBGAMKAANEG": 200,
    "EKIMKHPABEE": 1734406005
  },
  {
    "id": 33076,
    "NDHCKNBHLGG": 33076,
    "challengeId": 111198,
    "DHPGDGJNHIC": 50,
    "FBGAMKAANEG": 200,
    "EKIMKHPABEE": 1736064037
  },
  {
    "id": 33077,
    "NDHCKNBHLGG": 33077,
    "DHPGDGJNHIC": 50,
    "FBGAMKAANEG": 200,
    "EKIMKHPABEE": 989144733
  },
  {
    "id": 33078,
    "NDHCKNBHLGG": 33078,
    "challengeId": 111198,
    "DHPGDGJNHIC": 50,
    "FBGAMKAANEG": 200,
    "EKIMKHPABEE": 2465326101
  },
  {
    "id": 33079,
    "NDHCKNBHLGG": 33079,
    "challengeId": 111198,
    "DHPGDGJNHIC": 50,
    "FBGAMKAANEG": 200,
    "EKIMKHPABEE": 3313876557
  },
  {
    "id": 33080,
    "NDHCKNBHLGG": 33080,
    "challengeId": 111198,
    "DHPGDGJNHIC": 50,
    "FBGAMKAANEG": 200,
    "EKIMKHPABEE": 210030549
  },
  {
    "id": 33081,
    "NDHCKNBHLGG": 33081,
    "challengeId": 111198,
    "DHPGDGJNHIC": 50,
    "FBGAMKAANEG": 200,
    "EKIMKHPABEE": 2942210605
  },
  {
    "id": 33082,
    "NDHCKNBHLGG": 33082,
    "DHPGDGJNHIC": 50,
    "FBGAMKAANEG": 200,
    "EKIMKHPABEE": 1099881125
  },
  {
    "id": 33083,
    "NDHCKNBHLGG": 33083,
    "DHPGDGJNHIC": 50,
    "FBGAMKAANEG": 200,
    "EKIMKHPABEE": 1291994253
  },
  {
    "id": 33084,
    "NDHCKNBHLGG": 33084,
    "challengeId": 111197,
    "DHPGDGJNHIC": 50,
    "FBGAMKAANEG": 200,
    "EKIMKHPABEE": 2303817141
  },
  {
    "id": 33085,
    "NDHCKNBHLGG": 33085,
    "challengeId": 111197,
    "DHPGDGJNHIC": 50,
    "FBGAMKAANEG": 200,
    "EKIMKHPABEE": 1677338381
  },
  {
    "id": 33086,
    "NDHCKNBHLGG": 33086,
    "DHPGDGJNHIC": 50,
    "FBGAMKAANEG": 100,
    "EKIMKHPABEE": 424041877,
    "AACNHJKHLLI": true
  },
  {
    "id": 33087,
    "NDHCKNBHLGG": 33087,
    "DHPGDGJNHIC": 50,
    "FBGAMKAANEG": 100,
    "EKIMKHPABEE": 1840580109,
    "AACNHJKHLLI": true
  },
  {
    "id": 33088,
    "NDHCKNBHLGG": 33088,
    "EKIMKHPABEE": 3643506253,
    "AACNHJKHLLI": true
  },
  {
    "id": 33089,
    "NDHCKNBHLGG": 33089,
    "EKIMKHPABEE": 1947918925,
    "AACNHJKHLLI": true
  },
  {
    "id": 33090,
    "NDHCKNBHLGG": 33090,
    "EKIMKHPABEE": 3454687685
  },
  {
    "id": 33091,
    "NDHCKNBHLGG": 33091,
    "EKIMKHPABEE": 177996965
  },
  {
    "id": 33092,
    "NDHCKNBHLGG": 33092,
    "EKIMKHPABEE": 962275925
  },
  {
    "id": 33093,
    "NDHCKNBHLGG": 33093,
    "EKIMKHPABEE": 2910654949
  },
  {
    "id": 33094,
    "NDHCKNBHLGG": 33094,
    "EKIMKHPABEE": 287483141
  },
  {
    "id": 33095,
    "NDHCKNBHLGG": 33095,
    "EKIMKHPABEE": 1333246221
  },
  {
    "id": 33096,
    "NDHCKNBHLGG": 33096,
    "EKIMKHPABEE": 883455381
  },
  {
    "id": 33097,
    "NDHCKNBHLGG": 33097,
    "EKIMKHPABEE": 941802917
  },
  {
    "id": 33098,
    "NDHCKNBHLGG": 33098,
    "EKIMKHPABEE": 249752349
  },
  {
    "id": 33099,
    "NDHCKNBHLGG": 33099,
    "EKIMKHPABEE": 4294881893
  },
  {
    "id": 33100,
    "NDHCKNBHLGG": 33100,
    "EKIMKHPABEE": 3945586781
  },
  {
    "id": 33101,
    "NDHCKNBHLGG": 33101,
    "EKIMKHPABEE": 554677917
  },
  {
    "id": 33102,
    "NDHCKNBHLGG": 33102,
    "EKIMKHPABEE": 1599775669
  },
  {
    "id": 33103,
    "NDHCKNBHLGG": 33103,
    "EKIMKHPABEE": 2212698125
  },
  {
    "id": 33104,
    "NDHCKNBHLGG": 33104,
    "EKIMKHPABEE": 1581501949
  },
  {
    "id": 33105,
    "NDHCKNBHLGG": 33105,
    "EKIMKHPABEE": 2464598125
  },
  {
    "id": 33106,
    "NDHCKNBHLGG": 33106,
    "EKIMKHPABEE": 2067227213
  },
  {
    "id": 33107,
    "NDHCKNBHLGG": 33107,
    "EKIMKHPABEE": 204064677
  },
  {
    "id": 33108,
    "NDHCKNBHLGG": 33108,
    "EKIMKHPABEE": 2475466853
  },
  {
    "id": 33109,
    "NDHCKNBHLGG": 33109,
    "EKIMKHPABEE": 1202924293
  },
  {
    "id": 33110,
    "NDHCKNBHLGG": 33110,
    "EKIMKHPABEE": 1810135845
  },
  {
    "id": 33111,
    "NDHCKNBHLGG": 33111,
    "EKIMKHPABEE": 2634017477
  },
  {
    "id": 33112,
    "NDHCKNBHLGG": 33112,
    "EKIMKHPABEE": 1532781349
  },
  {
    "id": 33113,
    "NDHCKNBHLGG": 33113,
    "EKIMKHPABEE": 3479989485
  },
  {
    "id": 33114,
    "NDHCKNBHLGG": 33114,
    "EKIMKHPABEE": 2628694205
  },
  {
    "id": 33115,
    "NDHCKNBHLGG": 33115,
    "EKIMKHPABEE": 2802585885
  },
  {
    "id": 33116,
    "NDHCKNBHLGG": 33116,
    "EKIMKHPABEE": 2089880173
  },
  {
    "id": 33117,
    "NDHCKNBHLGG": 33117,
    "EKIMKHPABEE": 3672636933
  },
  {
    "id": 33118,
    "NDHCKNBHLGG": 33118,
    "EKIMKHPABEE": 3401775253
  },
  {
    "id": 33119,
    "NDHCKNBHLGG": 33119,
    "EKIMKHPABEE": 2756219645
  },
  {
    "id": 33120,
    "NDHCKNBHLGG": 33120,
    "EKIMKHPABEE": 522846685
  },
  {
    "id": 33121,
    "NDHCKNBHLGG": 33121,
    "EKIMKHPABEE": 2917243285
  },
  {
    "id": 33122,
    "NDHCKNBHLGG": 33122,
    "EKIMKHPABEE": 3333024045
  },
  {
    "id": 33123,
    "NDHCKNBHLGG": 33123,
    "EKIMKHPABEE": 3992939461
  },
  {
    "id": 33124,
    "NDHCKNBHLGG": 33124,
    "EKIMKHPABEE": 3700519813
  },
  {
    "id": 33125,
    "NDHCKNBHLGG": 33125,
    "EKIMKHPABEE": 3780147229
  },
  {
    "id": 33126,
    "NDHCKNBHLGG": 33126,
    "EKIMKHPABEE": 2544667101
  },
  {
    "id": 33127,
    "NDHCKNBHLGG": 33127,
    "EKIMKHPABEE": 4212593261
  },
  {
    "id": 33128,
    "NDHCKNBHLGG": 33128,
    "EKIMKHPABEE": 1187022541
  },
  {
    "id": 33129,
    "NDHCKNBHLGG": 33129,
    "EKIMKHPABEE": 1812036133
  },
  {
    "id": 33130,
    "NDHCKNBHLGG": 33130,
    "EKIMKHPABEE": 2212583797
  },
  {
    "id": 33131,
    "NDHCKNBHLGG": 33131,
    "EKIMKHPABEE": 4007430709
  },
  {
    "id": 33132,
    "NDHCKNBHLGG": 33132,
    "EKIMKHPABEE": 2127422877
  },
  {
    "id": 33133,
    "NDHCKNBHLGG": 33133,
    "EKIMKHPABEE": 1092719725
  },
  {
    "id": 33134,
    "NDHCKNBHLGG": 33134,
    "EKIMKHPABEE": 1220124781
  },
  {
    "id": 33135,
    "NDHCKNBHLGG": 33135,
    "EKIMKHPABEE": 2933218021
  },
  {
    "id": 33136,
    "NDHCKNBHLGG": 33136,
    "EKIMKHPABEE": 1818255429
  },
  {
    "id": 33137,
    "NDHCKNBHLGG": 33137,
    "EKIMKHPABEE": 3035157557
  },
  {
    "id": 33138,
    "NDHCKNBHLGG": 33138,
    "EKIMKHPABEE": 3496039405
  },
  {
    "id": 33139,
    "NDHCKNBHLGG": 33139,
    "EKIMKHPABEE": 2871121093
  },
  {
    "id": 33140,
    "NDHCKNBHLGG": 33140,
    "EKIMKHPABEE": 335032749
  },
  {
    "id": 33141,
    "NDHCKNBHLGG": 33141,
    "EKIMKHPABEE": 2740941269
  },
  {
    "id": 33142,
    "NDHCKNBHLGG": 33142,
    "EKIMKHPABEE": 2645806013
  },
  {
    "id": 33143,
    "NDHCKNBHLGG": 33143,
    "EKIMKHPABEE": 1074435405
  },
  {
    "id": 33144,
    "NDHCKNBHLGG": 33144,
    "EKIMKHPABEE": 3282428277
  },
  {
    "id": 33145,
    "NDHCKNBHLGG": 33145,
    "EKIMKHPABEE": 2973222757
  },
  {
    "id": 33146,
    "NDHCKNBHLGG": 33146,
    "EKIMKHPABEE": 2942684581
  },
  {
    "id": 33147,
    "NDHCKNBHLGG": 33147,
    "EKIMKHPABEE": 2056862469
  },
  {
    "id": 33148,
    "NDHCKNBHLGG": 33148,
    "EKIMKHPABEE": 1663224893
  },
  {
    "id": 33149,
    "NDHCKNBHLGG": 33149,
    "EKIMKHPABEE": 4027268997
  },
  {
    "id": 33150,
    "NDHCKNBHLGG": 33150,
    "EKIMKHPABEE": 4028278997
  },
  {
    "id": 33151,
    "NDHCKNBHLGG": 33151,
    "EKIMKHPABEE": 1805715133
  },
  {
    "id": 33152,
    "NDHCKNBHLGG": 33152,
    "EKIMKHPABEE": 2564102709
  },
  {
    "id": 33153,
    "NDHCKNBHLGG": 33153,
    "EKIMKHPABEE": 2208926949
  },
  {
    "id": 33154,
    "NDHCKNBHLGG": 33154,
    "EKIMKHPABEE": 2183865549
  },
  {
    "id": 33155,
    "NDHCKNBHLGG": 33155,
    "EKIMKHPABEE": 1139664493
  },
  {
    "id": 33156,
    "NDHCKNBHLGG": 33156,
    "EKIMKHPABEE": 3743623221
  },
  {
    "id": 33157,
    "NDHCKNBHLGG": 33157,
    "EKIMKHPABEE": 1004893805
  },
  {
    "id": 33158,
    "NDHCKNBHLGG": 33158,
    "EKIMKHPABEE": 1207966349
  },
  {
    "id": 33159,
    "NDHCKNBHLGG": 33159,
    "EKIMKHPABEE": 3964277925
  },
  {
    "id": 33160,
    "NDHCKNBHLGG": 33160,
    "EKIMKHPABEE": 2531216453
  },
  {
    "id": 33161,
    "NDHCKNBHLGG": 33161,
    "EKIMKHPABEE": 1417430421
  },
  {
    "id": 33162,
    "NDHCKNBHLGG": 33162,
    "EKIMKHPABEE": 2603117197,
    "AACNHJKHLLI": true
  },
  {
    "id": 33163,
    "NDHCKNBHLGG": 33163,
    "EKIMKHPABEE": 2367412261,
    "AACNHJKHLLI": true
  },
  {
    "id": 33164,
    "NDHCKNBHLGG": 33164,
    "DHPGDGJNHIC": 100,
    "FBGAMKAANEG": 100,
    "EKIMKHPABEE": 999651069
  },
  {
    "id": 33165,
    "NDHCKNBHLGG": 33165,
    "DHPGDGJNHIC": 100,
    "FBGAMKAANEG": 100,
    "EKIMKHPABEE": 1648076269
  },
  {
    "id": 33166,
    "NDHCKNBHLGG": 33166,
    "DHPGDGJNHIC": 100,
    "FBGAMKAANEG": 100,
    "EKIMKHPABEE": 3698153525
  },
  {
    "id": 33167,
    "NDHCKNBHLGG": 33167,
    "DHPGDGJNHIC": 100,
    "FBGAMKAANEG": 100,
    "EKIMKHPABEE": 1261906317
  },
  {
    "id": 33168,
    "NDHCKNBHLGG": 33168,
    "DHPGDGJNHIC": 100,
    "FBGAMKAANEG": 100,
    "EKIMKHPABEE": 3571515629
  },
  {
    "id": 33169,
    "NDHCKNBHLGG": 33169,
    "DHPGDGJNHIC": 100,
    "FBGAMKAANEG": 100,
    "EKIMKHPABEE": 2696093261
  },
  {
    "id": 33170,
    "NDHCKNBHLGG": 33170,
    "DHPGDGJNHIC": 100,
    "FBGAMKAANEG": 100,
    "EKIMKHPABEE": 3049977397
  },
  {
    "id": 33171,
    "NDHCKNBHLGG": 33171,
    "EKIMKHPABEE": 1082841853
  },
  {
    "id": 33172,
    "NDHCKNBHLGG": 33172,
    "DHPGDGJNHIC": 50,
    "FBGAMKAANEG": 100,
    "EKIMKHPABEE": 2195853661,
    "AACNHJKHLLI": true
  },
  {
    "id": 33173,
    "NDHCKNBHLGG": 33173,
    "DHPGDGJNHIC": 50,
    "FBGAMKAANEG": 100,
    "EKIMKHPABEE": 3526644573,
    "AACNHJKHLLI": true
  },
  {
    "id": 33174,
    "NDHCKNBHLGG": 33174,
    "DHPGDGJNHIC": 50,
    "FBGAMKAANEG": 100,
    "EKIMKHPABEE": 1725123261,
    "AACNHJKHLLI": true
  },
  {
    "id": 33175,
    "NDHCKNBHLGG": 33175,
    "DHPGDGJNHIC": 50,
    "FBGAMKAANEG": 100,
    "EKIMKHPABEE": 1972683821,
    "AACNHJKHLLI": true
  },
  {
    "id": 33176,
    "NDHCKNBHLGG": 33176,
    "DHPGDGJNHIC": 50,
    "FBGAMKAANEG": 100,
    "EKIMKHPABEE": 1614570061,
    "AACNHJKHLLI": true
  },
  {
    "id": 33177,
    "NDHCKNBHLGG": 33177,
    "DHPGDGJNHIC": 50,
    "FBGAMKAANEG": 100,
    "EKIMKHPABEE": 2625587437,
    "AACNHJKHLLI": true
  },
  {
    "id": 33178,
    "NDHCKNBHLGG": 33178,
    "DHPGDGJNHIC": 50,
    "FBGAMKAANEG": 100,
    "EKIMKHPABEE": 1179367445,
    "AACNHJKHLLI": true
  }
]
