[
  {
    "id": 1,
    "galleryId": 44101,
    "BCAIBNFPAKO": 292004,
    "GOMGENNBLNL": 292109,
    "levelTitleTextMapHash": 2393469993,
    "levelDescTextMapHash": 107287531,
    "NNDAJIEDILA": 51320201,
    "groupID": 133316292,
    "watcherList": [15132201, 15132202]
  },
  {
    "id": 2,
    "galleryId": 44102,
    "BCAIBNFPAKO": 177002,
    "GOMGENNBLNL": 177113,
    "levelTitleTextMapHash": 3103008073,
    "levelDescTextMapHash": 3303197347,
    "NNDAJIEDILA": 51320202,
    "groupID": 133317177,
    "watcherList": [15132203, 15132204]
  },
  {
    "id": 3,
    "galleryId": 44103,
    "BCAIBNFPAKO": 30002,
    "GOMGENNBLNL": 30109,
    "levelTitleTextMapHash": 2436647697,
    "levelDescTextMapHash": 3490542331,
    "NNDAJIEDILA": 51320203,
    "groupID": 133316030,
    "watcherList": [15132205, 15132206]
  }
]
