[
  {
    "id": 1,
    "type": "SORUSH_TRIAL_HITMAN_SURVEY_TYPE_MONSTER",
    "iconName": "UI_MonsterIcon_Hili_None_01",
    "titleTextMapHash": 1019526741,
    "descTextMapHash": 2666456973
  },
  {
    "id": 2,
    "type": "SORUSH_TRIAL_HITMAN_SURVEY_TYPE_MONSTER",
    "iconName": "UI_MonsterIcon_Hili_None_01",
    "titleTextMapHash": 370657717,
    "descTextMapHash": 2161662037
  },
  {
    "id": 3,
    "type": "SORUSH_TRIAL_HITMAN_SURVEY_TYPE_MONSTER",
    "iconName": "UI_MonsterIcon_Hili_None_01",
    "titleTextMapHash": 1528015677,
    "descTextMapHash": 950645645
  },
  {
    "id": 101,
    "type": "SORUSH_TRIAL_HITMAN_SURVEY_TYPE_GADGET",
    "iconName": "UI_Icon_SlushaHitman_ShooterFlower_01",
    "titleTextMapHash": 126100901,
    "descTextMapHash": 1656604957
  },
  {
    "id": 102,
    "type": "SORUSH_TRIAL_HITMAN_SURVEY_TYPE_GADGET",
    "iconName": "UI_Icon_SlushaHitman_WoodenBox_01",
    "titleTextMapHash": 3075728677,
    "descTextMapHash": 737824453
  },
  {
    "id": 103,
    "type": "SORUSH_TRIAL_HITMAN_SURVEY_TYPE_GADGET",
    "iconName": "UI_Icon_SlushaHitman_WoodenBarrel_01",
    "titleTextMapHash": 3265780853,
    "descTextMapHash": 3610118709
  },
  {
    "id": 104,
    "type": "SORUSH_TRIAL_HITMAN_SURVEY_TYPE_GADGET",
    "iconName": "UI_Icon_SlushaHitman_Bonfire_01",
    "titleTextMapHash": 1686647101,
    "descTextMapHash": 1358612125
  },
  {
    "id": 105,
    "type": "SORUSH_TRIAL_HITMAN_SURVEY_TYPE_GADGET",
    "iconName": "UI_Icon_SlushaHitman_CookingPot_01",
    "titleTextMapHash": 2610520541,
    "descTextMapHash": 2482888509
  },
  {
    "id": 106,
    "type": "SORUSH_TRIAL_HITMAN_SURVEY_TYPE_GADGET",
    "iconName": "UI_Icon_SlushaHitman_AmberWater_01",
    "titleTextMapHash": 2773564085,
    "descTextMapHash": 2470348261
  },
  {
    "id": 107,
    "type": "SORUSH_TRIAL_HITMAN_SURVEY_TYPE_GADGET",
    "iconName": "UI_Icon_SlushaHitman_BrambleWall_01",
    "titleTextMapHash": 1958483901,
    "descTextMapHash": 1365894933
  },
  {
    "id": 108,
    "type": "SORUSH_TRIAL_HITMAN_SURVEY_TYPE_GADGET",
    "iconName": "UI_Icon_SlushaHitman_BombBarrel_01",
    "titleTextMapHash": 4003796093,
    "descTextMapHash": 2574320109
  },
  {
    "id": 109,
    "type": "SORUSH_TRIAL_HITMAN_SURVEY_TYPE_GADGET",
    "iconName": "UI_Icon_SlushaHitman_ThunerBarrel_01",
    "titleTextMapHash": 2914074437,
    "descTextMapHash": 1660083157
  },
  {
    "id": 110,
    "type": "SORUSH_TRIAL_HITMAN_SURVEY_TYPE_GADGET",
    "iconName": "UI_Icon_SlushaHitman_PumpkinBomb_01",
    "titleTextMapHash": 1417463853,
    "descTextMapHash": 900706085
  },
  {
    "id": 111,
    "type": "SORUSH_TRIAL_HITMAN_SURVEY_TYPE_GADGET",
    "iconName": "UI_Icon_SlushaHitman_OreElectricRock_01",
    "titleTextMapHash": 3376049117,
    "descTextMapHash": 1755570221
  }
]
