[
  {
    "id": 1,
    "icon": "UI_Tips_Item_ElemForce",
    "titleTextMapHash": 4238217154,
    "contentTextMapHash": 906357842,
    "param": ""
  },
  {
    "id": 2,
    "icon": "UI_Tips_Item_ElemForce",
    "titleTextMapHash": 2022810114,
    "contentTextMapHash": 2838851362,
    "param": ""
  },
  {
    "id": 3,
    "icon": "UI_Tips_Item_Monster",
    "titleTextMapHash": 2559041634,
    "contentTextMapHash": 4082461946,
    "param": ""
  },
  {
    "id": 4,
    "icon": "UI_Tips_Item_ElemForce",
    "titleTextMapHash": 3822187258,
    "contentTextMapHash": 475434570,
    "param": ""
  },
  {
    "id": 5,
    "icon": "UI_Tips_Item_ElemForce",
    "titleTextMapHash": 1148206906,
    "contentTextMapHash": 1455788946,
    "param": ""
  },
  {
    "id": 6,
    "icon": "UI_Tips_Item_ElemForce",
    "titleTextMapHash": 2130500634,
    "contentTextMapHash": 2148511050,
    "param": ""
  },
  {
    "id": 7,
    "icon": "UI_Tips_Item_ElemForce",
    "titleTextMapHash": 1396177098,
    "contentTextMapHash": 2430815490,
    "param": ""
  },
  {
    "id": 8,
    "icon": "UI_Tips_Item_ElemForce",
    "titleTextMapHash": 1180987266,
    "contentTextMapHash": 1325683922,
    "param": ""
  },
  {
    "id": 101,
    "icon": "UI_Tips_Item_Monster",
    "titleTextMapHash": 2739297410,
    "contentTextMapHash": 1901580370,
    "param": ""
  },
  {
    "id": 102,
    "icon": "UI_Tips_Item_Monster",
    "titleTextMapHash": 2933110882,
    "contentTextMapHash": 673915362,
    "param": ""
  },
  {
    "id": 103,
    "icon": "UI_Tips_Item_Monster",
    "titleTextMapHash": 2035487514,
    "contentTextMapHash": 1164178018,
    "param": ""
  },
  {
    "id": 104,
    "icon": "UI_Tips_Item_ElemForce",
    "titleTextMapHash": 3525755898,
    "contentTextMapHash": 4049234778,
    "param": ""
  },
  {
    "id": 105,
    "icon": "UI_Tips_Item_ElemForce",
    "titleTextMapHash": 2427609562,
    "contentTextMapHash": 712203506,
    "param": ""
  },
  {
    "id": 106,
    "icon": "UI_Tips_Item_ElemForce",
    "titleTextMapHash": 1497266882,
    "contentTextMapHash": 2960661714,
    "param": ""
  },
  {
    "id": 107,
    "icon": "UI_Tips_Item_ElemForce",
    "titleTextMapHash": 2426250546,
    "contentTextMapHash": 2488844770,
    "param": ""
  },
  {
    "id": 108,
    "icon": "UI_Tips_Item_ElemForce",
    "titleTextMapHash": 2821652514,
    "contentTextMapHash": 710400322,
    "param": ""
  },
  {
    "id": 109,
    "icon": "UI_Tips_Item_Monster",
    "titleTextMapHash": 4055537762,
    "contentTextMapHash": 1365095930,
    "param": ""
  },
  {
    "id": 110,
    "icon": "UI_Tips_Item_Monster",
    "titleTextMapHash": 2204578674,
    "contentTextMapHash": 3002681386,
    "param": ""
  },
  {
    "id": 111,
    "icon": "UI_Tips_Item_Monster",
    "titleTextMapHash": 935957450,
    "contentTextMapHash": 49278346,
    "param": ""
  },
  {
    "id": 112,
    "icon": "UI_Tips_Item_Monster",
    "titleTextMapHash": 1799711682,
    "contentTextMapHash": 3594634154,
    "param": ""
  },
  {
    "id": 113,
    "icon": "UI_Tips_Item_Monster",
    "titleTextMapHash": 2860629354,
    "contentTextMapHash": 3234726618,
    "param": ""
  },
  {
    "id": 114,
    "icon": "UI_Tips_Item_Monster",
    "titleTextMapHash": 316089690,
    "contentTextMapHash": 4268999954,
    "param": ""
  },
  {
    "id": 115,
    "icon": "UI_Tips_Item_Monster",
    "titleTextMapHash": 4248283754,
    "contentTextMapHash": 1848720938,
    "param": ""
  },
  {
    "id": 116,
    "icon": "UI_Tips_Item_Monster",
    "titleTextMapHash": 11245706,
    "contentTextMapHash": 3566286634,
    "param": ""
  },
  {
    "id": 117,
    "icon": "UI_Tips_Item_Monster",
    "titleTextMapHash": 2042974178,
    "contentTextMapHash": 1522913514,
    "param": ""
  },
  {
    "id": 118,
    "icon": "UI_Tips_Item_ElemForce",
    "titleTextMapHash": 2126971538,
    "contentTextMapHash": 3322786554,
    "param": ""
  },
  {
    "id": 119,
    "icon": "UI_Tips_Item_ElemForce",
    "titleTextMapHash": 2782690434,
    "contentTextMapHash": 2730551898,
    "param": ""
  },
  {
    "id": 120,
    "icon": "UI_Tips_Item_ElemForce",
    "titleTextMapHash": 1627558218,
    "contentTextMapHash": 2013269698,
    "param": ""
  },
  {
    "id": 121,
    "icon": "UI_Tips_Item_ElemForce",
    "titleTextMapHash": 3670120050,
    "contentTextMapHash": 22121090,
    "param": ""
  },
  {
    "id": 122,
    "icon": "UI_Tips_Item_ElemForce",
    "titleTextMapHash": 2454834586,
    "contentTextMapHash": 1081608234,
    "param": ""
  },
  {
    "id": 123,
    "icon": "UI_Tips_Item_ElemForce",
    "titleTextMapHash": 2715784618,
    "contentTextMapHash": 3663417194,
    "param": ""
  },
  {
    "id": 124,
    "icon": "UI_Tips_Item_ElemForce",
    "titleTextMapHash": 3121434226,
    "contentTextMapHash": 781873098,
    "showTime": 10.0,
    "param": ""
  },
  {
    "id": 125,
    "icon": "UI_Tips_Item_ElemForce",
    "titleTextMapHash": 395690482,
    "contentTextMapHash": 889593706,
    "showTime": 10.0,
    "param": ""
  },
  {
    "id": 126,
    "icon": "UI_Tips_Item_ElemForce",
    "titleTextMapHash": 2399233506,
    "contentTextMapHash": 2244411538,
    "showTime": 10.0,
    "param": ""
  },
  {
    "id": 127,
    "icon": "UI_Tips_Item_ElemForce",
    "titleTextMapHash": 2051833538,
    "contentTextMapHash": 2845296530,
    "param": ""
  },
  {
    "id": 128,
    "icon": "UI_Tips_Item_ElemForce",
    "titleTextMapHash": 754878282,
    "contentTextMapHash": 1322296650,
    "param": ""
  },
  {
    "id": 129,
    "icon": "UI_Tips_Item_ElemForce",
    "titleTextMapHash": 1684387578,
    "contentTextMapHash": 1565115554,
    "param": ""
  },
  {
    "id": 130,
    "icon": "UI_Tips_Item_ElemForce",
    "titleTextMapHash": 2607051410,
    "contentTextMapHash": 3918749882,
    "param": ""
  },
  {
    "id": 131,
    "icon": "UI_Tips_Item_ElemForce",
    "titleTextMapHash": 3114086506,
    "contentTextMapHash": 4164289570,
    "param": ""
  },
  {
    "id": 132,
    "icon": "UI_Tips_Item_ElemForce",
    "titleTextMapHash": 1573749546,
    "contentTextMapHash": 3496611146,
    "param": ""
  },
  {
    "id": 133,
    "icon": "UI_Tips_Item_ElemForce",
    "titleTextMapHash": 3148517954,
    "contentTextMapHash": 763167946,
    "param": ""
  },
  {
    "id": 134,
    "icon": "UI_Tips_Item_ElemForce",
    "titleTextMapHash": 73543314,
    "contentTextMapHash": 734877114,
    "param": ""
  },
  {
    "id": 135,
    "icon": "UI_Tips_Item_ElemForce",
    "titleTextMapHash": 3350873898,
    "contentTextMapHash": 2479931194,
    "param": ""
  },
  {
    "id": 136,
    "icon": "UI_Tips_Item_ElemForce",
    "titleTextMapHash": 861381074,
    "contentTextMapHash": 1369699714,
    "param": ""
  },
  {
    "id": 137,
    "style": "MessageDialog",
    "icon": "",
    "titleTextMapHash": 3617880290,
    "contentTextMapHash": 3930840402,
    "activityType": "NEW_ACTIVITY_CHANNELER_SLAB",
    "param": ""
  },
  {
    "id": 138,
    "style": "DialogBox",
    "icon": "",
    "titleTextMapHash": 1369474378,
    "contentTextMapHash": 882716274,
    "param": ""
  },
  {
    "id": 139,
    "style": "MessagePushPageFirstTime",
    "icon": "",
    "titleTextMapHash": 1810869410,
    "contentTextMapHash": 2445536106,
    "activityType": "NEW_ACTIVITY_BLITZ_RUSH",
    "param": "6021"
  },
  {
    "id": 140,
    "style": "MessagePushPageFirstTime",
    "icon": "",
    "titleTextMapHash": 1752414474,
    "contentTextMapHash": 559756642,
    "activityType": "NEW_ACTIVITY_BLITZ_RUSH",
    "param": "6022"
  },
  {
    "id": 141,
    "style": "MessagePushPageFirstTime",
    "icon": "",
    "titleTextMapHash": 2205623506,
    "contentTextMapHash": 1100609282,
    "activityType": "NEW_ACTIVITY_BLITZ_RUSH",
    "param": "6023"
  },
  {
    "id": 142,
    "style": "MessageDialog",
    "icon": "",
    "titleTextMapHash": 3340219570,
    "contentTextMapHash": 1088825434,
    "activityType": "NEW_ACTIVITY_BUOYANT_COMBAT",
    "param": ""
  },
  {
    "id": 143,
    "style": "MessagePushPageFirstTime",
    "icon": "",
    "titleTextMapHash": 2842919378,
    "contentTextMapHash": 2459194250,
    "activityType": "NEW_ACTIVITY_CHESS",
    "param": "10004"
  },
  {
    "id": 144,
    "icon": "UI_Tips_Item_Warning",
    "titleTextMapHash": 1948606698,
    "contentTextMapHash": 2501314074,
    "showTime": 180.0,
    "param": ""
  },
  {
    "id": 145,
    "style": "MessagePushPageFirstTime",
    "icon": "UI_Tips_Item_ElemForce",
    "titleTextMapHash": 2473583554,
    "contentTextMapHash": 1093263482,
    "activityType": "NEW_ACTIVITY_DIG",
    "param": "10006"
  },
  {
    "id": 146,
    "style": "MessagePushPageFirstTime",
    "icon": "UI_Tips_Item_ElemForce",
    "titleTextMapHash": 3939239834,
    "contentTextMapHash": 1092089138,
    "activityType": "NEW_ACTIVITY_DIG",
    "param": "10007"
  },
  {
    "id": 147,
    "style": "MessagePushPageFirstTime",
    "icon": "UI_Tips_Item_ElemForce",
    "titleTextMapHash": 1546262690,
    "contentTextMapHash": 882150074,
    "activityType": "NEW_ACTIVITY_DIG",
    "param": "10008"
  },
  {
    "id": 148,
    "style": "MessagePushPageFirstTime",
    "icon": "",
    "titleTextMapHash": 2624087930,
    "contentTextMapHash": 2820037906,
    "activityType": "NEW_ACTIVITY_WINTER_CAMP",
    "param": "6034"
  },
  {
    "id": 149,
    "style": "MessageDialog",
    "icon": "",
    "titleTextMapHash": 2867048098,
    "contentTextMapHash": 543902930,
    "activityType": "NEW_ACTIVITY_CHANNELER_SLAB",
    "param": ""
  },
  {
    "id": 150,
    "style": "MessagePushPageFirstTime",
    "icon": "",
    "titleTextMapHash": 1819991482,
    "contentTextMapHash": 2020943298,
    "activityType": "NEW_ACTIVITY_SEA_LAMP_2_4",
    "param": "11022"
  },
  {
    "id": 151,
    "style": "MessagePushPageFirstTime",
    "icon": "",
    "titleTextMapHash": 2339551778,
    "contentTextMapHash": 654588826,
    "activityType": "NEW_ACTIVITY_SEA_LAMP_2_4",
    "param": "11016"
  },
  {
    "id": 152,
    "style": "MessagePushPageFirstTime",
    "icon": "",
    "titleTextMapHash": 4115107210,
    "contentTextMapHash": 930153426,
    "activityType": "NEW_ACTIVITY_SEA_LAMP_2_4",
    "param": "11017"
  },
  {
    "id": 153,
    "style": "MessagePushPageFirstTime",
    "icon": "",
    "titleTextMapHash": 4054719634,
    "contentTextMapHash": 3925100146,
    "activityType": "NEW_ACTIVITY_SEA_LAMP_2_4",
    "param": "11018"
  },
  {
    "id": 154,
    "icon": "UI_Tips_Item_ElemForce",
    "titleTextMapHash": 3979855274,
    "contentTextMapHash": 1790257770,
    "showTime": 3.0,
    "param": ""
  },
  {
    "id": 155,
    "style": "MessagePushPageFirstTime",
    "icon": "",
    "titleTextMapHash": 3786759066,
    "contentTextMapHash": 1058495122,
    "activityType": "NEW_ACTIVITY_MICHIAE_MATSURI",
    "param": "6044"
  },
  {
    "id": 156,
    "style": "MessagePushPageFirstTime",
    "icon": "",
    "titleTextMapHash": 1776652770,
    "contentTextMapHash": 3818312706,
    "activityType": "NEW_ACTIVITY_MICHIAE_MATSURI",
    "param": "6045"
  },
  {
    "id": 157,
    "icon": "UI_Tips_Item_Warning",
    "titleTextMapHash": 3943474882,
    "contentTextMapHash": 4065481890,
    "activityType": "NEW_ACTIVITY_MICHIAE_MATSURI",
    "showTime": 300.0,
    "param": ""
  },
  {
    "id": 158,
    "icon": "UI_Tips_Item_ElemForce",
    "titleTextMapHash": 3225080578,
    "contentTextMapHash": 1593087458,
    "showTime": 3.0,
    "param": ""
  },
  {
    "id": 159,
    "icon": "UI_Tips_Item_ElemForce",
    "titleTextMapHash": 1007090106,
    "contentTextMapHash": 2966532650,
    "showTime": 3.0,
    "param": ""
  },
  {
    "id": 160,
    "icon": "UI_Tips_Item_ElemForce",
    "titleTextMapHash": 2071150402,
    "contentTextMapHash": 1783195018,
    "showTime": 3.0,
    "param": ""
  },
  {
    "id": 161,
    "style": "MessagePushPageFirstTime",
    "icon": "",
    "titleTextMapHash": 2431250186,
    "contentTextMapHash": 3116168642,
    "activityType": "NEW_ACTIVITY_MICHIAE_MATSURI",
    "param": "6048"
  },
  {
    "id": 162,
    "style": "MessagePushPageFirstTime",
    "icon": "",
    "titleTextMapHash": 1362441850,
    "contentTextMapHash": 2337200650,
    "activityType": "NEW_ACTIVITY_MICHIAE_MATSURI",
    "param": "6049"
  },
  {
    "id": 163,
    "style": "MessagePushPageFirstTime",
    "icon": "",
    "titleTextMapHash": 2198417986,
    "contentTextMapHash": 1536454970,
    "activityType": "NEW_ACTIVITY_MICHIAE_MATSURI",
    "param": "6050"
  },
  {
    "id": 164,
    "style": "MessagePushPageFirstTime",
    "icon": "",
    "titleTextMapHash": 2336986786,
    "contentTextMapHash": 3468842314,
    "activityType": "NEW_ACTIVITY_MICHIAE_MATSURI",
    "param": "6051"
  },
  {
    "id": 165,
    "icon": "UI_Tips_Item_Warning",
    "titleTextMapHash": 2136576026,
    "contentTextMapHash": 2510904234,
    "activityType": "NEW_ACTIVITY_MICHIAE_MATSURI",
    "showTime": 3.0,
    "param": ""
  },
  {
    "id": 166,
    "icon": "UI_Tips_Item_Warning",
    "titleTextMapHash": 439392842,
    "contentTextMapHash": 852185090,
    "showTime": 3600.0,
    "param": ""
  },
  {
    "id": 167,
    "icon": "UI_Tips_Item_Warning",
    "titleTextMapHash": 3498571666,
    "contentTextMapHash": 212471274,
    "showTime": 300.0,
    "param": ""
  },
  {
    "id": 168,
    "style": "MessageDialog",
    "icon": "",
    "titleTextMapHash": 2223929338,
    "contentTextMapHash": 2560641314,
    "activityType": "NEW_ACTIVITY_ROGUE_DIARY",
    "param": ""
  },
  {
    "id": 169,
    "style": "MessageDialog",
    "icon": "",
    "titleTextMapHash": 713371810,
    "contentTextMapHash": 943601346,
    "activityType": "NEW_ACTIVITY_ROGUE_DIARY",
    "param": ""
  },
  {
    "id": 170,
    "style": "MessageDialog",
    "icon": "",
    "titleTextMapHash": 232860210,
    "contentTextMapHash": 81211514,
    "activityType": "NEW_ACTIVITY_ROGUE_DIARY",
    "param": ""
  },
  {
    "id": 171,
    "style": "MessageDialog",
    "icon": "",
    "titleTextMapHash": 2160547386,
    "contentTextMapHash": 1521736402,
    "activityType": "NEW_ACTIVITY_ROGUE_DIARY",
    "param": ""
  },
  {
    "id": 172,
    "style": "MessageDialog",
    "icon": "",
    "titleTextMapHash": 3014014370,
    "contentTextMapHash": 1681669434,
    "activityType": "NEW_ACTIVITY_ROGUE_DIARY",
    "param": ""
  },
  {
    "id": 173,
    "style": "MessageDialog",
    "icon": "",
    "titleTextMapHash": 3012544954,
    "contentTextMapHash": 2476883458,
    "activityType": "NEW_ACTIVITY_ROGUE_DIARY",
    "param": ""
  },
  {
    "id": 177,
    "style": "MessagePushPageFirstTime",
    "icon": "",
    "titleTextMapHash": 3750042394,
    "contentTextMapHash": 3368462994,
    "param": "11059"
  },
  {
    "id": 178,
    "style": "MessagePushPageFirstTime",
    "icon": "",
    "titleTextMapHash": 2868836074,
    "contentTextMapHash": 2077848378,
    "param": "11060"
  },
  {
    "id": 179,
    "style": "MessagePushPageFirstTime",
    "icon": "",
    "titleTextMapHash": 1758975210,
    "contentTextMapHash": 782981818,
    "activityType": "NEW_ACTIVITY_LUMINANCE_STONE_CHALLENGE",
    "param": "11049"
  },
  {
    "id": 180,
    "style": "MessagePushPageFirstTime",
    "icon": "",
    "titleTextMapHash": 2657009242,
    "contentTextMapHash": 811900434,
    "activityType": "NEW_ACTIVITY_LUMINANCE_STONE_CHALLENGE",
    "param": "11050"
  },
  {
    "id": 181,
    "style": "MessagePushPageFirstTime",
    "icon": "",
    "titleTextMapHash": 2824403322,
    "contentTextMapHash": 3521799786,
    "activityType": "NEW_ACTIVITY_LUMINANCE_STONE_CHALLENGE",
    "param": "11051"
  },
  {
    "id": 182,
    "style": "MessagePushPageFirstTime",
    "icon": "",
    "titleTextMapHash": 421233978,
    "contentTextMapHash": 3323499626,
    "activityType": "NEW_ACTIVITY_LUMINANCE_STONE_CHALLENGE",
    "param": "11052"
  },
  {
    "id": 183,
    "style": "MessagePushPageFirstTime",
    "icon": "",
    "titleTextMapHash": 3091020586,
    "contentTextMapHash": 2656339842,
    "activityType": "NEW_ACTIVITY_LUMINANCE_STONE_CHALLENGE",
    "param": "11053"
  },
  {
    "id": 184,
    "style": "MessagePushPageFirstTime",
    "icon": "",
    "titleTextMapHash": 4252979466,
    "contentTextMapHash": 1116596762,
    "activityType": "NEW_ACTIVITY_ROGUE_DIARY",
    "param": "11061"
  },
  {
    "id": 185,
    "style": "MessagePushPageFirstTime",
    "icon": "",
    "titleTextMapHash": 1216997130,
    "contentTextMapHash": 3380130298,
    "activityType": "NEW_ACTIVITY_ROGUE_DIARY",
    "param": "11062"
  },
  {
    "id": 186,
    "style": "MessagePushPageFirstTime",
    "icon": "",
    "titleTextMapHash": 889668562,
    "contentTextMapHash": 1659360122,
    "activityType": "NEW_ACTIVITY_ROGUE_DIARY",
    "param": "11063"
  },
  {
    "id": 187,
    "style": "MessagePushPageFirstTime",
    "icon": "",
    "titleTextMapHash": 3918106202,
    "contentTextMapHash": 2714337914,
    "activityType": "NEW_ACTIVITY_ROGUE_DIARY",
    "param": "11064"
  },
  {
    "id": 188,
    "style": "MessagePushPageFirstTime",
    "icon": "",
    "titleTextMapHash": 703053490,
    "contentTextMapHash": 1756784466,
    "param": "11066"
  },
  {
    "id": 189,
    "icon": "UI_Tips_Item_Warning",
    "titleTextMapHash": 2480887154,
    "contentTextMapHash": 3385830482,
    "activityType": "NEW_ACTIVITY_ISLAND_PARTY",
    "showTime": 300.0,
    "param": ""
  },
  {
    "id": 190,
    "style": "MessagePushPageFirstTime",
    "icon": "",
    "titleTextMapHash": 1457638338,
    "contentTextMapHash": 1680494306,
    "activityType": "NEW_ACTIVITY_TREASURE_SEELIE",
    "param": "11084"
  },
  {
    "id": 191,
    "style": "MessagePushPageFirstTime",
    "icon": "",
    "titleTextMapHash": 2118380306,
    "contentTextMapHash": 1999656570,
    "activityType": "NEW_ACTIVITY_GRAVEN_INNOCENCE",
    "param": "6073"
  },
  {
    "id": 192,
    "style": "MessagePushPageFirstTime",
    "icon": "",
    "titleTextMapHash": 1122635498,
    "contentTextMapHash": 2808823706,
    "activityType": "NEW_ACTIVITY_GRAVEN_INNOCENCE",
    "param": "12016"
  },
  {
    "id": 193,
    "style": "MessagePushPageFirstTime",
    "icon": "",
    "titleTextMapHash": 139718530,
    "contentTextMapHash": 2303616922,
    "activityType": "NEW_ACTIVITY_GRAVEN_INNOCENCE",
    "param": "6072"
  },
  {
    "id": 194,
    "style": "MessagePushPageFirstTime",
    "icon": "",
    "titleTextMapHash": 1808161402,
    "contentTextMapHash": 423355810,
    "activityType": "NEW_ACTIVITY_VINTAGE",
    "param": "6078"
  },
  {
    "id": 195,
    "style": "MessagePushPageFirstTime",
    "icon": "",
    "titleTextMapHash": 3148881882,
    "contentTextMapHash": 1394562482,
    "activityType": "NEW_ACTIVITY_VINTAGE",
    "param": "6079"
  },
  {
    "id": 196,
    "style": "MessagePushPageFirstTime",
    "icon": "",
    "titleTextMapHash": 999267762,
    "contentTextMapHash": 1731870802,
    "activityType": "NEW_ACTIVITY_VINTAGE",
    "param": "6080"
  },
  {
    "id": 197,
    "icon": "UI_Tips_Item_ElemForce",
    "titleTextMapHash": 3747902810,
    "contentTextMapHash": 3507139378,
    "activityType": "NEW_ACTIVITY_FUNGUS_FIGHTER",
    "showTime": 3.0,
    "param": ""
  },
  {
    "id": 198,
    "icon": "UI_Tips_Item_ElemForce",
    "titleTextMapHash": 1059638554,
    "contentTextMapHash": 1886563258,
    "activityType": "NEW_ACTIVITY_FUNGUS_FIGHTER",
    "showTime": 3.0,
    "param": ""
  },
  {
    "id": 199,
    "icon": "UI_Tips_Item_Warning",
    "titleTextMapHash": 3828552162,
    "contentTextMapHash": 1620349530,
    "showTime": 3600.0,
    "param": ""
  },
  {
    "id": 200,
    "icon": "",
    "titleTextMapHash": 4037290282,
    "contentTextMapHash": 696263090,
    "activityType": "NEW_ACTIVITY_FUNGUS_FIGHTER",
    "showTime": 3.0,
    "param": ""
  },
  {
    "id": 201,
    "icon": "UI_Tips_Item_Warning",
    "titleTextMapHash": 3694679914,
    "contentTextMapHash": 207775458,
    "showTime": 2.0,
    "param": ""
  },
  {
    "id": 202,
    "style": "MessagePushPageFirstTime",
    "icon": "",
    "titleTextMapHash": 1469429290,
    "contentTextMapHash": 855998546,
    "param": "12023"
  },
  {
    "id": 203,
    "style": "MessagePushPageFirstTime",
    "icon": "",
    "titleTextMapHash": 4192899050,
    "contentTextMapHash": 1767435882,
    "param": "12024"
  },
  {
    "id": 204,
    "icon": "UI_Tips_Item_Warning",
    "titleTextMapHash": 3656999786,
    "contentTextMapHash": 4158617178,
    "activityType": "NEW_ACTIVITY_FUNGUS_FIGHTER",
    "showTime": 3600.0,
    "param": ""
  },
  {
    "id": 205,
    "style": "MessagePushPageFirstTime",
    "icon": "",
    "titleTextMapHash": 1715814538,
    "contentTextMapHash": 305919410,
    "activityType": "NEW_ACTIVITY_VINTAGE",
    "param": "6077",
    "MAEIIEGCHKM": true
  },
  {
    "id": 206,
    "style": "MessagePushPageFirstTime",
    "icon": "",
    "titleTextMapHash": 3086042282,
    "contentTextMapHash": 2119426314,
    "activityType": "NEW_ACTIVITY_WIND_FIELD",
    "param": "6087"
  },
  {
    "id": 207,
    "style": "MessagePushPageFirstTime",
    "icon": "",
    "titleTextMapHash": 2623054882,
    "contentTextMapHash": 3942012970,
    "activityType": "NEW_ACTIVITY_WIND_FIELD",
    "param": "6088"
  },
  {
    "id": 208,
    "style": "MessagePushPageFirstTime",
    "icon": "",
    "titleTextMapHash": 1825338978,
    "contentTextMapHash": 1872221066,
    "activityType": "NEW_ACTIVITY_WIND_FIELD",
    "param": "6089"
  },
  {
    "id": 209,
    "style": "MessagePushPageFirstTime",
    "icon": "",
    "titleTextMapHash": 2737702882,
    "contentTextMapHash": 4009152826,
    "activityType": "NEW_ACTIVITY_WIND_FIELD",
    "param": "6090"
  },
  {
    "id": 210,
    "style": "MessagePushPageFirstTime",
    "icon": "",
    "titleTextMapHash": 680203242,
    "contentTextMapHash": 3719685682,
    "activityType": "NEW_ACTIVITY_WIND_FIELD",
    "param": "6091"
  },
  {
    "id": 211,
    "style": "MessagePushPageFirstTime",
    "icon": "",
    "titleTextMapHash": 3807894786,
    "contentTextMapHash": 3960385666,
    "activityType": "NEW_ACTIVITY_PHOTO",
    "param": "6096",
    "MAEIIEGCHKM": true
  },
  {
    "id": 212,
    "icon": "UI_Tips_Item_ElemForce",
    "titleTextMapHash": 3075331962,
    "contentTextMapHash": 3395953410,
    "activityType": "NEW_ACTIVITY_FUNGUS_FIGHTER",
    "showTime": 3600.0,
    "param": ""
  },
  {
    "id": 213,
    "style": "MessagePushPageFirstTime",
    "icon": "",
    "titleTextMapHash": 4010809282,
    "contentTextMapHash": 1728805834,
    "activityType": "NEW_ACTIVITY_EFFIGY_CHALLENGE_V2",
    "param": "12082"
  },
  {
    "id": 214,
    "icon": "UI_Tips_Item_Warning",
    "titleTextMapHash": 3544478762,
    "contentTextMapHash": 2480739842,
    "showTime": 3600.0,
    "param": ""
  },
  {
    "id": 215,
    "style": "MessagePushPageFirstTime",
    "icon": "",
    "titleTextMapHash": 2294553914,
    "contentTextMapHash": 3811567514,
    "activityType": "NEW_ACTIVITY_SEA_LAMP_3_4",
    "param": "13001",
    "MAEIIEGCHKM": true
  },
  {
    "id": 216,
    "style": "MessagePushPageFirstTime",
    "icon": "",
    "titleTextMapHash": 1987732562,
    "contentTextMapHash": 671925642,
    "activityType": "NEW_ACTIVITY_FLEURFAIR_V2",
    "param": "6113",
    "MAEIIEGCHKM": true
  },
  {
    "id": 217,
    "style": "WhiteMessage",
    "icon": "",
    "titleTextMapHash": 1754354834,
    "contentTextMapHash": 3045855082,
    "activityType": "NEW_ACTIVITY_AKA_FES",
    "showTime": 3.0,
    "param": ""
  },
  {
    "id": 218,
    "style": "MessagePushPageFirstTime",
    "icon": "",
    "titleTextMapHash": 2037659346,
    "contentTextMapHash": 324873050,
    "activityType": "NEW_ACTIVITY_AKA_FES",
    "param": "6125",
    "MAEIIEGCHKM": true
  },
  {
    "id": 219,
    "style": "MessagePushPageFirstTime",
    "icon": "",
    "titleTextMapHash": 527912034,
    "contentTextMapHash": 1339103906,
    "activityType": "NEW_ACTIVITY_FLEURFAIR_V2",
    "param": "6129"
  },
  {
    "id": 220,
    "style": "MessagePushPageFirstTime",
    "icon": "",
    "titleTextMapHash": 2032064402,
    "contentTextMapHash": 387607274,
    "activityType": "NEW_ACTIVITY_FLEURFAIR_V2",
    "param": "6130"
  },
  {
    "id": 221,
    "style": "MessagePushPageFirstTime",
    "icon": "",
    "titleTextMapHash": 2050899674,
    "contentTextMapHash": 3886919946,
    "activityType": "NEW_ACTIVITY_FLEURFAIR_V2",
    "param": "6131"
  },
  {
    "id": 222,
    "icon": "UI_Tips_Item_Warning",
    "titleTextMapHash": 3146260698,
    "contentTextMapHash": 270033922,
    "activityType": "NEW_ACTIVITY_AKA_FES",
    "showTime": 3600.0,
    "param": ""
  },
  {
    "id": 223,
    "style": "MessagePushPageFirstTime",
    "icon": "",
    "titleTextMapHash": 161100090,
    "contentTextMapHash": 1995404474,
    "activityType": "NEW_ACTIVITY_SORUSH_TRIAL",
    "param": "13061",
    "MAEIIEGCHKM": true
  },
  {
    "id": 224,
    "style": "MessagePushPageFirstTime",
    "icon": "",
    "titleTextMapHash": 3379652154,
    "contentTextMapHash": 136774498,
    "activityType": "NEW_ACTIVITY_SORUSH_TRIAL",
    "param": "13062",
    "MAEIIEGCHKM": true
  },
  {
    "id": 225,
    "style": "MessagePushPageFirstTime",
    "icon": "",
    "titleTextMapHash": 3319710242,
    "contentTextMapHash": 2880266634,
    "activityType": "NEW_ACTIVITY_SORUSH_TRIAL",
    "param": "13063",
    "MAEIIEGCHKM": true
  }
]
