[
  {
    "trialAvatarIndexId": 1,
    "trialAvatarId": 1022,
    "dungeonId": 6000,
    "battleAvatarsList": "1022,1023,1004",
    "firstPassReward": 480001,
    "titleTextMapHash": 2521013650,
    "briefInfoTextMapHash": 340740889,
    "id": 51001,
    "triggerConfig": {
      "triggerType": "TRIGGER_FINISH_CHALLENGE",
      "paramList": ["6000,241000003,1", ""]
    },
    "progress": 1
  },
  {
    "trialAvatarIndexId": 2,
    "trialAvatarId": 1014,
    "dungeonId": 6001,
    "battleAvatarsList": "1014,1015",
    "firstPassReward": 480002,
    "titleTextMapHash": 4013144194,
    "briefInfoTextMapHash": 1714240721,
    "id": 51002,
    "triggerConfig": {
      "triggerType": "TRIGGER_FINISH_CHALLENGE",
      "paramList": ["6001,241001003,1", ""]
    },
    "progress": 1
  },
  {
    "trialAvatarIndexId": 3,
    "trialAvatarId": 1031,
    "dungeonId": 6002,
    "battleAvatarsList": "1031,1021,1015",
    "firstPassReward": 480003,
    "titleTextMapHash": 3643974250,
    "briefInfoTextMapHash": 1853368345,
    "id": 51003,
    "triggerConfig": {
      "triggerType": "TRIGGER_FINISH_CHALLENGE",
      "paramList": ["6002,241002003,1", ""]
    },
    "progress": 1
  },
  {
    "trialAvatarIndexId": 4,
    "trialAvatarId": 1029,
    "dungeonId": 6003,
    "battleAvatarsList": "1029,1034",
    "firstPassReward": 480001,
    "titleTextMapHash": 2624567234,
    "briefInfoTextMapHash": 1561503481,
    "id": 51004,
    "triggerConfig": {
      "triggerType": "TRIGGER_FINISH_CHALLENGE",
      "paramList": ["6003,241003003,1", ""]
    },
    "progress": 1
  },
  {
    "trialAvatarIndexId": 5,
    "trialAvatarId": 1025,
    "dungeonId": 6004,
    "battleAvatarsList": "1025,1023",
    "firstPassReward": 480002,
    "titleTextMapHash": 3765378458,
    "briefInfoTextMapHash": 82895905,
    "id": 51005,
    "triggerConfig": {
      "triggerType": "TRIGGER_FINISH_CHALLENGE",
      "paramList": ["6004,241004003,1", ""]
    },
    "progress": 1
  },
  {
    "trialAvatarIndexId": 6,
    "trialAvatarId": 1043,
    "dungeonId": 6005,
    "battleAvatarsList": "1043,1004",
    "firstPassReward": 480003,
    "titleTextMapHash": 2276630682,
    "briefInfoTextMapHash": 224332641,
    "id": 51006,
    "triggerConfig": {
      "triggerType": "TRIGGER_FINISH_CHALLENGE",
      "paramList": ["6005,241005003,1", ""]
    },
    "progress": 1
  },
  {
    "trialAvatarIndexId": 7,
    "trialAvatarId": 1033,
    "dungeonId": 6006,
    "battleAvatarsList": "1033,1015",
    "firstPassReward": 480001,
    "titleTextMapHash": 3231879954,
    "briefInfoTextMapHash": 4077139857,
    "id": 51007,
    "triggerConfig": {
      "triggerType": "TRIGGER_FINISH_CHALLENGE",
      "paramList": ["6006,241006003,1", ""]
    },
    "progress": 1
  },
  {
    "trialAvatarIndexId": 8,
    "trialAvatarId": 1044,
    "dungeonId": 6007,
    "battleAvatarsList": "1044,1015,1004",
    "firstPassReward": 480002,
    "titleTextMapHash": 3552703690,
    "briefInfoTextMapHash": 994045737,
    "id": 51008,
    "triggerConfig": {
      "triggerType": "TRIGGER_FINISH_CHALLENGE",
      "paramList": ["6007,241007003,1", ""]
    },
    "progress": 1
  },
  {
    "trialAvatarIndexId": 9,
    "trialAvatarId": 1024,
    "dungeonId": 6008,
    "battleAvatarsList": "1024,1015",
    "firstPassReward": 480003,
    "titleTextMapHash": 536183050,
    "briefInfoTextMapHash": 2248245657,
    "id": 51009,
    "triggerConfig": {
      "triggerType": "TRIGGER_FINISH_CHALLENGE",
      "paramList": ["6008,241008003,1", ""]
    },
    "progress": 1
  },
  {
    "trialAvatarIndexId": 10,
    "trialAvatarId": 1036,
    "dungeonId": 6009,
    "battleAvatarsList": "1036,1023",
    "firstPassReward": 480004,
    "titleTextMapHash": 3312488866,
    "briefInfoTextMapHash": 1891858537,
    "id": 51010,
    "triggerConfig": {
      "triggerType": "TRIGGER_FINISH_CHALLENGE",
      "paramList": ["6009,241009003,1", ""]
    },
    "progress": 1
  },
  {
    "trialAvatarIndexId": 11,
    "trialAvatarId": 1030,
    "dungeonId": 6010,
    "battleAvatarsList": "1030,1015,1004",
    "firstPassReward": 480001,
    "titleTextMapHash": 1039402914,
    "briefInfoTextMapHash": 3579462217,
    "id": 51011,
    "triggerConfig": {
      "triggerType": "TRIGGER_FINISH_CHALLENGE",
      "paramList": ["6010,241010003,1", ""]
    },
    "progress": 1
  },
  {
    "trialAvatarIndexId": 12,
    "trialAvatarId": 1039,
    "dungeonId": 6011,
    "battleAvatarsList": "1039,1015,1004",
    "firstPassReward": 480002,
    "titleTextMapHash": 1192683466,
    "briefInfoTextMapHash": 2933522025,
    "id": 51012,
    "triggerConfig": {
      "triggerType": "TRIGGER_FINISH_CHALLENGE",
      "paramList": ["6011,241011003,1", ""]
    },
    "progress": 1
  },
  {
    "trialAvatarIndexId": 13,
    "trialAvatarId": 1027,
    "dungeonId": 6012,
    "battleAvatarsList": "1027,1023,1004",
    "firstPassReward": 480004,
    "titleTextMapHash": 3026367642,
    "briefInfoTextMapHash": 1367129073,
    "id": 51013,
    "triggerConfig": {
      "triggerType": "TRIGGER_FINISH_CHALLENGE",
      "paramList": ["6012,241012003,1", ""]
    },
    "progress": 1
  },
  {
    "trialAvatarIndexId": 14,
    "trialAvatarId": 1020,
    "dungeonId": 6013,
    "battleAvatarsList": "1020,1023",
    "firstPassReward": 480003,
    "titleTextMapHash": 1326959626,
    "briefInfoTextMapHash": 389091225,
    "id": 51014,
    "triggerConfig": {
      "triggerType": "TRIGGER_FINISH_CHALLENGE",
      "paramList": ["6013,241013003,1", ""]
    },
    "progress": 1
  },
  {
    "trialAvatarIndexId": 15,
    "trialAvatarId": 1037,
    "dungeonId": 6014,
    "battleAvatarsList": "1037,1014,1015",
    "firstPassReward": 480001,
    "titleTextMapHash": 516790482,
    "briefInfoTextMapHash": 3893385193,
    "id": 51015,
    "triggerConfig": {
      "triggerType": "TRIGGER_FINISH_CHALLENGE",
      "paramList": ["6014,241014003,1", ""]
    },
    "progress": 1
  },
  {
    "trialAvatarIndexId": 16,
    "trialAvatarId": 1038,
    "dungeonId": 6015,
    "battleAvatarsList": "1038,1023",
    "firstPassReward": 480001,
    "titleTextMapHash": 1167655570,
    "briefInfoTextMapHash": 1425368993,
    "id": 51016,
    "triggerConfig": {
      "triggerType": "TRIGGER_FINISH_CHALLENGE",
      "paramList": ["6015,241015003,1", ""]
    },
    "progress": 1
  },
  {
    "trialAvatarIndexId": 17,
    "trialAvatarId": 1025,
    "dungeonId": 6016,
    "battleAvatarsList": "1025,1015",
    "firstPassReward": 480002,
    "titleTextMapHash": 823534794,
    "briefInfoTextMapHash": 3850041257,
    "id": 51017,
    "triggerConfig": {
      "triggerType": "TRIGGER_FINISH_CHALLENGE",
      "paramList": ["6016,241016004,1", ""]
    },
    "progress": 1
  },
  {
    "trialAvatarIndexId": 18,
    "trialAvatarId": 1031,
    "dungeonId": 6017,
    "battleAvatarsList": "1031,1021,1015",
    "firstPassReward": 480002,
    "titleTextMapHash": 1024271778,
    "briefInfoTextMapHash": 3869966209,
    "id": 51018,
    "triggerConfig": {
      "triggerType": "TRIGGER_FINISH_CHALLENGE",
      "paramList": ["6017,241017004,1", ""]
    },
    "progress": 1
  },
  {
    "trialAvatarIndexId": 19,
    "trialAvatarId": 1043,
    "dungeonId": 6018,
    "battleAvatarsList": "1043,1004,1015",
    "firstPassReward": 480003,
    "titleTextMapHash": 2576183690,
    "briefInfoTextMapHash": 1626813945,
    "id": 51019,
    "triggerConfig": {
      "triggerType": "TRIGGER_FINISH_CHALLENGE",
      "paramList": ["6018,241018003,1", ""]
    },
    "progress": 1
  },
  {
    "trialAvatarIndexId": 20,
    "trialAvatarId": 1032,
    "dungeonId": 6019,
    "battleAvatarsList": "1032,1023",
    "firstPassReward": 480004,
    "titleTextMapHash": 1036942770,
    "briefInfoTextMapHash": 886919193,
    "id": 51020,
    "triggerConfig": {
      "triggerType": "TRIGGER_FINISH_CHALLENGE",
      "paramList": ["6019,241019003,1", ""]
    },
    "progress": 1
  },
  {
    "trialAvatarIndexId": 21,
    "trialAvatarId": 1046,
    "dungeonId": 6020,
    "battleAvatarsList": "1046",
    "firstPassReward": 480001,
    "titleTextMapHash": 3945069698,
    "briefInfoTextMapHash": 3946969473,
    "id": 51021,
    "triggerConfig": {
      "triggerType": "TRIGGER_FINISH_CHALLENGE",
      "paramList": ["6020,241020003,1", ""]
    },
    "progress": 1
  },
  {
    "trialAvatarIndexId": 22,
    "trialAvatarId": 1026,
    "dungeonId": 6021,
    "battleAvatarsList": "1026,1014",
    "firstPassReward": 480001,
    "titleTextMapHash": 3830932970,
    "briefInfoTextMapHash": 3455073801,
    "id": 51022,
    "triggerConfig": {
      "triggerType": "TRIGGER_FINISH_CHALLENGE",
      "paramList": ["6021,241021006,1", ""]
    },
    "progress": 1
  },
  {
    "trialAvatarIndexId": 23,
    "trialAvatarId": 1027,
    "dungeonId": 6022,
    "battleAvatarsList": "1027,1023,1004",
    "firstPassReward": 480002,
    "titleTextMapHash": 4021489042,
    "briefInfoTextMapHash": 3820048785,
    "id": 51023,
    "triggerConfig": {
      "triggerType": "TRIGGER_FINISH_CHALLENGE",
      "paramList": ["6022,241022003,1", ""]
    },
    "progress": 1
  },
  {
    "trialAvatarIndexId": 24,
    "trialAvatarId": 1024,
    "dungeonId": 6023,
    "battleAvatarsList": "1024,1015",
    "firstPassReward": 480003,
    "titleTextMapHash": 1419105682,
    "briefInfoTextMapHash": 972022905,
    "id": 51024,
    "triggerConfig": {
      "triggerType": "TRIGGER_FINISH_CHALLENGE",
      "paramList": ["6023,241023003,1", ""]
    },
    "progress": 1
  },
  {
    "trialAvatarIndexId": 25,
    "trialAvatarId": 1044,
    "dungeonId": 6024,
    "battleAvatarsList": "1044,1015,1004",
    "firstPassReward": 480004,
    "titleTextMapHash": 2041500594,
    "briefInfoTextMapHash": 2665766073,
    "id": 51025,
    "triggerConfig": {
      "triggerType": "TRIGGER_FINISH_CHALLENGE",
      "paramList": ["6024,241024003,1", ""]
    },
    "progress": 1
  },
  {
    "trialAvatarIndexId": 26,
    "trialAvatarId": 1032,
    "dungeonId": 6025,
    "battleAvatarsList": "1032,1023",
    "firstPassReward": 480003,
    "titleTextMapHash": 3833979130,
    "briefInfoTextMapHash": 1218311185,
    "id": 51026,
    "triggerConfig": {
      "triggerType": "TRIGGER_FINISH_CHALLENGE",
      "paramList": ["6025,241025003,1", ""]
    },
    "progress": 1
  },
  {
    "trialAvatarIndexId": 27,
    "trialAvatarId": 1025,
    "dungeonId": 6026,
    "battleAvatarsList": "1025,1015",
    "firstPassReward": 480002,
    "titleTextMapHash": 1517786858,
    "briefInfoTextMapHash": 1520736201,
    "id": 51027,
    "triggerConfig": {
      "triggerType": "TRIGGER_FINISH_CHALLENGE",
      "paramList": ["6026,241026004,1", ""]
    },
    "progress": 1
  },
  {
    "trialAvatarIndexId": 28,
    "trialAvatarId": 1036,
    "dungeonId": 6027,
    "battleAvatarsList": "1036,1023",
    "firstPassReward": 480003,
    "titleTextMapHash": 953507290,
    "briefInfoTextMapHash": 1660279921,
    "id": 51028,
    "triggerConfig": {
      "triggerType": "TRIGGER_FINISH_CHALLENGE",
      "paramList": ["6027,241027003,1", ""]
    },
    "progress": 1
  },
  {
    "trialAvatarIndexId": 29,
    "trialAvatarId": 1045,
    "dungeonId": 6028,
    "battleAvatarsList": "1045",
    "firstPassReward": 480004,
    "titleTextMapHash": 360508642,
    "briefInfoTextMapHash": 1204205097,
    "id": 51029,
    "triggerConfig": {
      "triggerType": "TRIGGER_FINISH_CHALLENGE",
      "paramList": ["6028,241028003,1", ""]
    },
    "progress": 1
  },
  {
    "trialAvatarIndexId": 30,
    "trialAvatarId": 1042,
    "dungeonId": 6029,
    "battleAvatarsList": "1042,1014",
    "firstPassReward": 480001,
    "titleTextMapHash": 654313130,
    "briefInfoTextMapHash": 1563758417,
    "id": 51030,
    "triggerConfig": {
      "triggerType": "TRIGGER_FINISH_CHALLENGE",
      "paramList": ["6029,241029003,1", ""]
    },
    "progress": 1
  },
  {
    "trialAvatarIndexId": 31,
    "trialAvatarId": 1039,
    "dungeonId": 6030,
    "battleAvatarsList": "1039,1015,1004",
    "firstPassReward": 480002,
    "titleTextMapHash": 4129792554,
    "briefInfoTextMapHash": 2773714497,
    "id": 51031,
    "triggerConfig": {
      "triggerType": "TRIGGER_FINISH_CHALLENGE",
      "paramList": ["6030,241030003,1", ""]
    },
    "progress": 1
  },
  {
    "trialAvatarIndexId": 32,
    "trialAvatarId": 1048,
    "dungeonId": 6032,
    "battleAvatarsList": "1048",
    "firstPassReward": 480002,
    "titleTextMapHash": 3717340314,
    "briefInfoTextMapHash": 2479330369,
    "id": 51032,
    "triggerConfig": {
      "triggerType": "TRIGGER_FINISH_CHALLENGE",
      "paramList": ["6032,241032003,1", ""]
    },
    "progress": 1
  },
  {
    "trialAvatarIndexId": 33,
    "trialAvatarId": 1049,
    "dungeonId": 6033,
    "battleAvatarsList": "1049,1004",
    "firstPassReward": 480002,
    "titleTextMapHash": 2752014810,
    "briefInfoTextMapHash": 1754709625,
    "id": 51033,
    "triggerConfig": {
      "triggerType": "TRIGGER_FINISH_CHALLENGE",
      "paramList": ["6033,241033003,1", ""]
    },
    "progress": 1
  },
  {
    "trialAvatarIndexId": 34,
    "trialAvatarId": 1050,
    "dungeonId": 6034,
    "battleAvatarsList": "1050,1014",
    "firstPassReward": 480001,
    "titleTextMapHash": 621546050,
    "briefInfoTextMapHash": 3126023561,
    "id": 51034,
    "triggerConfig": {
      "triggerType": "TRIGGER_FINISH_CHALLENGE",
      "paramList": ["6034,241034003,1", ""]
    },
    "progress": 1
  },
  {
    "trialAvatarIndexId": 35,
    "trialAvatarId": 1002,
    "dungeonId": 6035,
    "battleAvatarsList": "1002,1014,1023",
    "firstPassReward": 480001,
    "titleTextMapHash": 3477658066,
    "briefInfoTextMapHash": 3498204729,
    "id": 51035,
    "triggerConfig": {
      "triggerType": "TRIGGER_FINISH_CHALLENGE",
      "paramList": ["6035,241035003,1", ""]
    },
    "progress": 1
  },
  {
    "trialAvatarIndexId": 36,
    "trialAvatarId": 1051,
    "dungeonId": 6036,
    "battleAvatarsList": "1051,1034,1023",
    "firstPassReward": 480001,
    "titleTextMapHash": 3220751290,
    "briefInfoTextMapHash": 2659817329,
    "id": 51036,
    "triggerConfig": {
      "triggerType": "TRIGGER_FINISH_CHALLENGE",
      "paramList": ["6036,241036003,1", ""]
    },
    "progress": 1
  },
  {
    "trialAvatarIndexId": 37,
    "trialAvatarId": 1053,
    "dungeonId": 6037,
    "battleAvatarsList": "1053,1015,1023",
    "firstPassReward": 480001,
    "titleTextMapHash": 2641577010,
    "briefInfoTextMapHash": 2970114953,
    "id": 51037,
    "triggerConfig": {
      "triggerType": "TRIGGER_FINISH_CHALLENGE",
      "paramList": ["6037,241037003,1", ""]
    },
    "progress": 1
  },
  {
    "trialAvatarIndexId": 38,
    "trialAvatarId": 1052,
    "dungeonId": 6038,
    "battleAvatarsList": "1052,1023,1015,1014",
    "firstPassReward": 480001,
    "titleTextMapHash": 3579935602,
    "briefInfoTextMapHash": 878030073,
    "id": 51038,
    "triggerConfig": {
      "triggerType": "TRIGGER_FINISH_CHALLENGE",
      "paramList": ["6038,241038003,1", ""]
    },
    "progress": 1
  },
  {
    "trialAvatarIndexId": 39,
    "trialAvatarId": 1054,
    "dungeonId": 6039,
    "battleAvatarsList": "1054,1015,1004,1023",
    "firstPassReward": 480001,
    "titleTextMapHash": 420343610,
    "briefInfoTextMapHash": 206062793,
    "id": 51039,
    "triggerConfig": {
      "triggerType": "TRIGGER_FINISH_CHALLENGE",
      "paramList": ["6039,241039003,1", ""]
    },
    "progress": 1
  },
  {
    "trialAvatarIndexId": 40,
    "trialAvatarId": 1056,
    "dungeonId": 6040,
    "battleAvatarsList": "1056,1004,1023,1014",
    "firstPassReward": 480001,
    "titleTextMapHash": 3372096306,
    "briefInfoTextMapHash": 2312715033,
    "id": 51040,
    "triggerConfig": {
      "triggerType": "TRIGGER_FINISH_CHALLENGE",
      "paramList": ["6040,241040003,1", ""]
    },
    "progress": 1
  },
  {
    "trialAvatarIndexId": 41,
    "trialAvatarId": 1047,
    "dungeonId": 6041,
    "battleAvatarsList": "1047,1023,1015",
    "firstPassReward": 480001,
    "titleTextMapHash": 708253170,
    "briefInfoTextMapHash": 2489226169,
    "id": 51041,
    "triggerConfig": {
      "triggerType": "TRIGGER_FINISH_CHALLENGE",
      "paramList": ["6041,241041003,1", ""]
    },
    "progress": 1
  },
  {
    "trialAvatarIndexId": 42,
    "trialAvatarId": 1057,
    "dungeonId": 6042,
    "battleAvatarsList": "1057,1014,1015,1034",
    "firstPassReward": 480001,
    "titleTextMapHash": 3010646674,
    "briefInfoTextMapHash": 1329087705,
    "id": 51042,
    "triggerConfig": {
      "triggerType": "TRIGGER_FINISH_CHALLENGE",
      "paramList": ["6042,241042003,1", ""]
    },
    "progress": 1
  },
  {
    "trialAvatarIndexId": 43,
    "trialAvatarId": 1055,
    "dungeonId": 6043,
    "battleAvatarsList": "1055,1027,1015,1034",
    "firstPassReward": 480001,
    "titleTextMapHash": 2219766386,
    "briefInfoTextMapHash": 3021391729,
    "id": 51043,
    "triggerConfig": {
      "triggerType": "TRIGGER_FINISH_CHALLENGE",
      "paramList": ["6043,241043003,1", ""]
    },
    "progress": 1
  },
  {
    "trialAvatarIndexId": 44,
    "trialAvatarId": 1063,
    "dungeonId": 6044,
    "battleAvatarsList": "1063,1015,1004,1023",
    "firstPassReward": 480001,
    "titleTextMapHash": 2988793634,
    "briefInfoTextMapHash": 2115084097,
    "id": 51044,
    "triggerConfig": {
      "triggerType": "TRIGGER_FINISH_CHALLENGE",
      "paramList": ["6044,241044003,1", ""]
    },
    "progress": 1
  },
  {
    "trialAvatarIndexId": 45,
    "trialAvatarId": 1064,
    "dungeonId": 6045,
    "battleAvatarsList": "1064,1034",
    "firstPassReward": 480001,
    "titleTextMapHash": 2179195914,
    "briefInfoTextMapHash": 3532960481,
    "id": 51045,
    "triggerConfig": {
      "triggerType": "TRIGGER_FINISH_CHALLENGE",
      "paramList": ["6045,241045003,1", ""]
    },
    "progress": 1
  },
  {
    "trialAvatarIndexId": 46,
    "trialAvatarId": 1065,
    "dungeonId": 6046,
    "battleAvatarsList": "1065,1014,1004,1015",
    "firstPassReward": 480001,
    "titleTextMapHash": 431626922,
    "briefInfoTextMapHash": 2690159537,
    "id": 51046,
    "triggerConfig": {
      "triggerType": "TRIGGER_FINISH_CHALLENGE",
      "paramList": ["6046,241046003,1", ""]
    },
    "progress": 1
  },
  {
    "trialAvatarIndexId": 47,
    "trialAvatarId": 1066,
    "dungeonId": 6047,
    "battleAvatarsList": "1066,1023,1015",
    "firstPassReward": 480001,
    "titleTextMapHash": 3151893194,
    "briefInfoTextMapHash": 2676410401,
    "id": 51047,
    "triggerConfig": {
      "triggerType": "TRIGGER_FINISH_CHALLENGE",
      "paramList": ["6047,241047003,1", ""]
    },
    "progress": 1
  },
  {
    "trialAvatarIndexId": 48,
    "trialAvatarId": 1058,
    "dungeonId": 6048,
    "battleAvatarsList": "1058,1023,1004,1015",
    "firstPassReward": 480001,
    "titleTextMapHash": 4290317554,
    "briefInfoTextMapHash": 2076294793,
    "id": 51048,
    "triggerConfig": {
      "triggerType": "TRIGGER_FINISH_CHALLENGE",
      "paramList": ["6046,241048003,1", ""]
    },
    "progress": 1
  },
  {
    "trialAvatarIndexId": 49,
    "trialAvatarId": 1059,
    "dungeonId": 6049,
    "battleAvatarsList": "1059,1023,1004,1015",
    "firstPassReward": 480001,
    "titleTextMapHash": 3682563322,
    "briefInfoTextMapHash": 792056113,
    "id": 51049,
    "triggerConfig": {
      "triggerType": "TRIGGER_FINISH_CHALLENGE",
      "paramList": ["6047,241049003,1", ""]
    },
    "progress": 1
  },
  {
    "trialAvatarIndexId": 50,
    "trialAvatarId": 1060,
    "dungeonId": 6050,
    "battleAvatarsList": "1060,1023,1014,1015",
    "firstPassReward": 480001,
    "titleTextMapHash": 3527910674,
    "briefInfoTextMapHash": 1054994177,
    "id": 51050,
    "triggerConfig": {
      "triggerType": "TRIGGER_FINISH_CHALLENGE",
      "paramList": ["6048,241050003,1", ""]
    },
    "progress": 1
  },
  {
    "trialAvatarIndexId": 51,
    "trialAvatarId": 1068,
    "dungeonId": 6051,
    "battleAvatarsList": "1068,1023,1004,1067",
    "firstPassReward": 480001,
    "titleTextMapHash": 2915012154,
    "briefInfoTextMapHash": 2198647713,
    "id": 51051,
    "triggerConfig": {
      "triggerType": "TRIGGER_FINISH_CHALLENGE",
      "paramList": ["6051,241051003,1", ""]
    },
    "progress": 1
  },
  {
    "trialAvatarIndexId": 52,
    "trialAvatarId": 1067,
    "dungeonId": 6052,
    "battleAvatarsList": "1067,1023,1004,1014",
    "firstPassReward": 480001,
    "titleTextMapHash": 380677522,
    "briefInfoTextMapHash": 3065224217,
    "id": 51052,
    "triggerConfig": {
      "triggerType": "TRIGGER_FINISH_CHALLENGE",
      "paramList": ["6052,241052003,1", ""]
    },
    "progress": 1
  },
  {
    "trialAvatarIndexId": 53,
    "trialAvatarId": 1069,
    "dungeonId": 6053,
    "battleAvatarsList": "1069,1067,1004,1034",
    "firstPassReward": 480001,
    "titleTextMapHash": 2198119434,
    "briefInfoTextMapHash": 1771467881,
    "id": 51053,
    "triggerConfig": {
      "triggerType": "TRIGGER_FINISH_CHALLENGE",
      "paramList": ["6053,241053003,1", ""]
    },
    "progress": 1
  },
  {
    "trialAvatarIndexId": 54,
    "trialAvatarId": 1070,
    "dungeonId": 6055,
    "battleAvatarsList": "1070,1067,1014",
    "firstPassReward": 480001,
    "titleTextMapHash": 2922844122,
    "briefInfoTextMapHash": 56625425,
    "id": 51055,
    "triggerConfig": {
      "triggerType": "TRIGGER_FINISH_CHALLENGE",
      "paramList": ["6055,241055003,1", ""]
    },
    "progress": 1
  },
  {
    "trialAvatarIndexId": 55,
    "trialAvatarId": 1071,
    "dungeonId": 6056,
    "battleAvatarsList": "1071,1067,1014,1034",
    "firstPassReward": 480001,
    "titleTextMapHash": 3984494290,
    "briefInfoTextMapHash": 1858027905,
    "id": 51056,
    "triggerConfig": {
      "triggerType": "TRIGGER_FINISH_CHALLENGE",
      "paramList": ["6056,241056003,1", ""]
    },
    "progress": 1
  },
  {
    "trialAvatarIndexId": 56,
    "trialAvatarId": 1072,
    "dungeonId": 6054,
    "battleAvatarsList": "1072,1067,1004,1015",
    "firstPassReward": 480001,
    "titleTextMapHash": 270209890,
    "briefInfoTextMapHash": 1792488161,
    "id": 51054,
    "triggerConfig": {
      "triggerType": "TRIGGER_FINISH_CHALLENGE",
      "paramList": ["6054,241054003,1", ""]
    },
    "progress": 1
  },
  {
    "trialAvatarIndexId": 57,
    "trialAvatarId": 1073,
    "dungeonId": 6057,
    "battleAvatarsList": "1073,1015,1023,1014",
    "firstPassReward": 480001,
    "titleTextMapHash": 271144978,
    "briefInfoTextMapHash": 1501707745,
    "id": 51057,
    "triggerConfig": {
      "triggerType": "TRIGGER_FINISH_CHALLENGE",
      "paramList": ["6057,241057003,1", ""]
    },
    "progress": 1
  },
  {
    "trialAvatarIndexId": 58,
    "trialAvatarId": 1074,
    "dungeonId": 6058,
    "battleAvatarsList": "1074,1023,1004,1014",
    "firstPassReward": 480001,
    "titleTextMapHash": 476546930,
    "briefInfoTextMapHash": 2229166777,
    "id": 51058,
    "triggerConfig": {
      "triggerType": "TRIGGER_FINISH_CHALLENGE",
      "paramList": ["6058,241058003,1", ""]
    },
    "progress": 1
  },
  {
    "trialAvatarIndexId": 59,
    "trialAvatarId": 1075,
    "dungeonId": 6059,
    "battleAvatarsList": "1075,1023,1014",
    "firstPassReward": 480001,
    "titleTextMapHash": 3328866562,
    "briefInfoTextMapHash": 1511194473,
    "id": 51059,
    "triggerConfig": {
      "triggerType": "TRIGGER_FINISH_CHALLENGE",
      "paramList": ["6059,241059003,1", ""]
    },
    "progress": 1
  },
  {
    "trialAvatarIndexId": 60,
    "trialAvatarId": 1076,
    "dungeonId": 6060,
    "battleAvatarsList": "1076,1060,1023,1034",
    "firstPassReward": 480001,
    "titleTextMapHash": 2779933746,
    "briefInfoTextMapHash": 4146856617,
    "id": 51060,
    "triggerConfig": {
      "triggerType": "TRIGGER_FINISH_CHALLENGE",
      "paramList": ["6060,241060003,1", ""]
    },
    "progress": 1
  },
  {
    "trialAvatarIndexId": 61,
    "trialAvatarId": 1077,
    "dungeonId": 6061,
    "battleAvatarsList": "1077,1023,1004",
    "firstPassReward": 480001,
    "titleTextMapHash": 1043804010,
    "briefInfoTextMapHash": 2567174065,
    "id": 51061,
    "triggerConfig": {
      "triggerType": "TRIGGER_FINISH_CHALLENGE",
      "paramList": ["6061,241061003,1", ""]
    },
    "progress": 1
  },
  {
    "trialAvatarIndexId": 62,
    "trialAvatarId": 1078,
    "dungeonId": 6062,
    "battleAvatarsList": "1078,1031,1014",
    "firstPassReward": 480001,
    "titleTextMapHash": 3184486546,
    "briefInfoTextMapHash": 3453237521,
    "id": 51062,
    "triggerConfig": {
      "triggerType": "TRIGGER_FINISH_CHALLENGE",
      "paramList": ["6062,241062003,1", ""]
    },
    "progress": 1
  },
  {
    "trialAvatarIndexId": 63,
    "trialAvatarId": 1080,
    "dungeonId": 6063,
    "battleAvatarsList": "1080,1039,1031,1020",
    "firstPassReward": 480001,
    "titleTextMapHash": 4123583218,
    "briefInfoTextMapHash": 2289842065,
    "id": 51063,
    "triggerConfig": {
      "triggerType": "TRIGGER_FINISH_CHALLENGE",
      "paramList": ["6063,241063003,1", ""]
    },
    "progress": 1
  },
  {
    "trialAvatarIndexId": 64,
    "trialAvatarId": 1079,
    "dungeonId": 6064,
    "battleAvatarsList": "1079,1014,1032,1015",
    "firstPassReward": 480001,
    "titleTextMapHash": 2853477458,
    "briefInfoTextMapHash": 1035887105,
    "id": 51064,
    "triggerConfig": {
      "triggerType": "TRIGGER_FINISH_CHALLENGE",
      "paramList": ["6064,241064003,1", ""]
    },
    "progress": 1
  },
  {
    "trialAvatarIndexId": 65,
    "trialAvatarId": 1082,
    "dungeonId": 6065,
    "battleAvatarsList": "1082,1004,1025",
    "firstPassReward": 480001,
    "titleTextMapHash": 1773889058,
    "briefInfoTextMapHash": 3756452025,
    "id": 51065,
    "triggerConfig": {
      "triggerType": "TRIGGER_FINISH_CHALLENGE",
      "paramList": ["6065,241065003,1", ""]
    },
    "progress": 1
  },
  {
    "trialAvatarIndexId": 66,
    "trialAvatarId": 1081,
    "dungeonId": 6066,
    "battleAvatarsList": "1081,1025",
    "firstPassReward": 480001,
    "titleTextMapHash": 2499671514,
    "briefInfoTextMapHash": 2525177577,
    "id": 51066,
    "triggerConfig": {
      "triggerType": "TRIGGER_FINISH_CHALLENGE",
      "paramList": ["6066,241066003,1", ""]
    },
    "progress": 1
  }
]
