[
  {
    "ID": 45001001,
    "HOIPJJKIEIM": [10011, 10012, 0, 0, 0]
  },
  {
    "ID": 45001002,
    "HOIPJJKIEIM": [10011, 10012, 0, 0, 0]
  },
  {
    "ID": 45001003,
    "HOIPJJKIEIM": [10011, 10012, 0, 0, 0]
  },
  {
    "ID": 99001001,
    "HOIPJJKIEIM": [10101, 10102, 0, 0, 0]
  },
  {
    "ID": 99001002,
    "HOIPJJKIEIM": [10011, 0, 0, 0, 0]
  },
  {
    "ID": 99001003,
    "HOIPJJKIEIM": [10011, 10104, 0, 0, 0]
  },
  {
    "ID": 99001004,
    "HOIPJJKIEIM": [10011, 10105, 0, 0, 0]
  },
  {
    "ID": 99001005,
    "HOIPJJKIEIM": [10011, 10106, 0, 0, 0]
  },
  {
    "ID": 99001006,
    "HOIPJJKIEIM": [10011, 10107, 0, 0, 0]
  },
  {
    "ID": 99001007,
    "HOIPJJKIEIM": [10011, 10108, 0, 0, 0]
  },
  {
    "ID": 99001008,
    "HOIPJJKIEIM": [10011, 10109, 0, 0, 0]
  },
  {
    "ID": 99001009,
    "HOIPJJKIEIM": [0, 0, 0, 0, 0]
  },
  {
    "ID": 45002001,
    "HOIPJJKIEIM": [0, 10201, 0, 0, 10202]
  },
  {
    "ID": 45002002,
    "HOIPJJKIEIM": [0, 10201, 0, 0, 10202]
  },
  {
    "ID": 45002003,
    "HOIPJJKIEIM": [0, 0, 0, 0, 10202]
  },
  {
    "ID": 99002001,
    "HOIPJJKIEIM": [0, 0, 0, 0, 10301]
  }
]
