[
  {
    "id": 2016,
    "AKGLECOHBCA": 210,
    "IKFJNFDBHDC": 2,
    "PLGHCIHCEBE": 1000,
    "NMPNCIFNANH": 10,
    "BOGGNKNJHEL": 30,
    "APGFBCHNOJA": 694,
    "MFOHEGOFANE": 0.10000000149011612,
    "pushTipsId": 6093,
    "GLKIAIBDIKI": 2016024,
    "ENGGLFELMPP": 3,
    "EIKDDMPALKE": [12016042, 12016043, 12016044, 12016046, 12016047, 12016048],
    "ABJLALHJIBE": 12016049,
    "MDHENLOLNNJ": 2016029,
    "COFACONLODE": 3
  }
]
