[
  {
    "id": 1,
    "ILHLPLCGKPH": 101,
    "EPDODKCPCPH": [10, 10, 5]
  },
  {
    "id": 2,
    "ILHLPLCGKPH": 102,
    "EPDODKCPCPH": [10, 5, 5]
  },
  {
    "id": 3,
    "ILHLPLCGKPH": 110,
    "EPDODKCPCPH": [10, 5, 35]
  },
  {
    "id": 4,
    "ILHLPLCGKPH": 110,
    "EPDODKCPCPH": [10, 35, 5]
  },
  {
    "id": 5,
    "ILHLPLCGKPH": 120,
    "EPDODKCPCPH": [10, 10, 10]
  },
  {
    "id": 6,
    "ILHLPLCGKPH": 103,
    "EPDODKCPCPH": [10, 30, 5]
  },
  {
    "id": 7,
    "ILHLPLCGKPH": 110,
    "EPDODKCPCPH": [35, 10, 5]
  },
  {
    "id": 8,
    "ILHLPLCGKPH": 130,
    "EPDODKCPCPH": [10, 10, 10]
  },
  {
    "id": 9,
    "ILHLPLCGKPH": 104,
    "EPDODKCPCPH": [25, 10, 10]
  },
  {
    "id": 10,
    "ILHLPLCGKPH": 105,
    "EPDODKCPCPH": [25, 15, 5]
  },
  {
    "id": 11,
    "ILHLPLCGKPH": 105,
    "EPDODKCPCPH": [25, 10, 10]
  },
  {
    "id": 12,
    "ILHLPLCGKPH": 105,
    "EPDODKCPCPH": [25, 15, 5]
  },
  {
    "id": 13,
    "ILHLPLCGKPH": 105,
    "EPDODKCPCPH": [25, 10, 10]
  },
  {
    "id": 14,
    "ILHLPLCGKPH": 105,
    "EPDODKCPCPH": [25, 15, 5]
  },
  {
    "id": 15,
    "ILHLPLCGKPH": 105,
    "EPDODKCPCPH": [25, 10, 10]
  },
  {
    "id": 16,
    "ILHLPLCGKPH": 105,
    "EPDODKCPCPH": [25, 15, 5]
  },
  {
    "id": 17,
    "ILHLPLCGKPH": 105,
    "EPDODKCPCPH": [25, 10, 10]
  },
  {
    "id": 18,
    "ILHLPLCGKPH": 140,
    "EPDODKCPCPH": [10, 10, 10]
  },
  {
    "id": 19,
    "ILHLPLCGKPH": 105,
    "EPDODKCPCPH": [25, 10, 10]
  },
  {
    "id": 20,
    "ILHLPLCGKPH": 105,
    "EPDODKCPCPH": [25, 15, 5]
  },
  {
    "id": 21,
    "ILHLPLCGKPH": 106,
    "EPDODKCPCPH": [15, 15, 5]
  },
  {
    "id": 22,
    "ILHLPLCGKPH": 106,
    "EPDODKCPCPH": [15, 5, 15]
  },
  {
    "id": 23,
    "ILHLPLCGKPH": 106,
    "EPDODKCPCPH": [15, 15, 5]
  },
  {
    "id": 24,
    "ILHLPLCGKPH": 106,
    "EPDODKCPCPH": [5, 15, 15]
  },
  {
    "id": 25,
    "ILHLPLCGKPH": 106,
    "EPDODKCPCPH": [5, 15, 15]
  },
  {
    "id": 26,
    "ILHLPLCGKPH": 201,
    "EPDODKCPCPH": [5, 5, 5]
  },
  {
    "id": 27,
    "ILHLPLCGKPH": 210,
    "EPDODKCPCPH": [40, 10, 5]
  },
  {
    "id": 28,
    "ILHLPLCGKPH": 205,
    "EPDODKCPCPH": [10, 25, 10]
  },
  {
    "id": 29,
    "ILHLPLCGKPH": 210,
    "EPDODKCPCPH": [5, 40, 10]
  },
  {
    "id": 30,
    "ILHLPLCGKPH": 220,
    "EPDODKCPCPH": [10, 10, 10]
  },
  {
    "id": 31,
    "ILHLPLCGKPH": 205,
    "EPDODKCPCPH": [5, 25, 15]
  },
  {
    "id": 32,
    "ILHLPLCGKPH": 210,
    "EPDODKCPCPH": [5, 10, 40]
  },
  {
    "id": 33,
    "ILHLPLCGKPH": 230,
    "EPDODKCPCPH": [10, 10, 10]
  },
  {
    "id": 34,
    "ILHLPLCGKPH": 205,
    "EPDODKCPCPH": [10, 25, 10]
  },
  {
    "id": 35,
    "ILHLPLCGKPH": 205,
    "EPDODKCPCPH": [5, 25, 15]
  },
  {
    "id": 36,
    "ILHLPLCGKPH": 206,
    "EPDODKCPCPH": [5, 15, 15]
  },
  {
    "id": 37,
    "ILHLPLCGKPH": 206,
    "EPDODKCPCPH": [5, 15, 15]
  },
  {
    "id": 38,
    "ILHLPLCGKPH": 206,
    "EPDODKCPCPH": [5, 15, 15]
  },
  {
    "id": 39,
    "ILHLPLCGKPH": 206,
    "EPDODKCPCPH": [15, 15, 5]
  },
  {
    "id": 40,
    "ILHLPLCGKPH": 206,
    "EPDODKCPCPH": [15, 15, 5]
  },
  {
    "id": 41,
    "ILHLPLCGKPH": 301,
    "EPDODKCPCPH": [5, 5, 5]
  },
  {
    "id": 42,
    "ILHLPLCGKPH": 305,
    "EPDODKCPCPH": [15, 5, 25]
  },
  {
    "id": 43,
    "ILHLPLCGKPH": 310,
    "EPDODKCPCPH": [10, 5, 40]
  },
  {
    "id": 44,
    "ILHLPLCGKPH": 305,
    "EPDODKCPCPH": [15, 5, 25]
  },
  {
    "id": 45,
    "ILHLPLCGKPH": 320,
    "EPDODKCPCPH": [10, 10, 10]
  },
  {
    "id": 46,
    "ILHLPLCGKPH": 310,
    "EPDODKCPCPH": [40, 5, 10]
  },
  {
    "id": 47,
    "ILHLPLCGKPH": 305,
    "EPDODKCPCPH": [10, 10, 25]
  },
  {
    "id": 48,
    "ILHLPLCGKPH": 330,
    "EPDODKCPCPH": [10, 10, 10]
  },
  {
    "id": 49,
    "ILHLPLCGKPH": 305,
    "EPDODKCPCPH": [10, 10, 25]
  },
  {
    "id": 50,
    "ILHLPLCGKPH": 305,
    "EPDODKCPCPH": [15, 5, 25]
  },
  {
    "id": 51,
    "ILHLPLCGKPH": 306,
    "EPDODKCPCPH": [15, 5, 15]
  },
  {
    "id": 52,
    "ILHLPLCGKPH": 306,
    "EPDODKCPCPH": [15, 5, 15]
  },
  {
    "id": 53,
    "ILHLPLCGKPH": 306,
    "EPDODKCPCPH": [15, 5, 15]
  },
  {
    "id": 54,
    "ILHLPLCGKPH": 306,
    "EPDODKCPCPH": [5, 15, 15]
  },
  {
    "id": 55,
    "ILHLPLCGKPH": 306,
    "EPDODKCPCPH": [15, 15, 5]
  },
  {
    "id": 56,
    "ILHLPLCGKPH": 999,
    "EPDODKCPCPH": [0, 0, 0]
  }
]
