[
  {
    "OEOGFELFNOD": 7,
    "questId": 70518,
    "HEIFLGOBHPF": 120049,
    "HMAMKCBOLJC": 3000
  },
  {
    "OEOGFELFNOD": 8,
    "questId": 70522,
    "HEIFLGOBHPF": 120050,
    "HMAMKCBOLJC": 7000
  },
  {
    "OEOGFELFNOD": 9,
    "questId": 70523,
    "HEIFLGOBHPF": 120051,
    "HMAMKCBOLJC": 6000
  }
]
