[
  {
    "id": 301,
    "talkId": 4008830,
    "npcId": 30234,
    "duration": 2,
    "AEEADIILKIB": [101, 102, 103, 104, 105, 106],
    "CGLHGBBAPEJ": [
      {
        "talkId": 4008830,
        "rewardId": 3057409
      },
      {}
    ],
    "ACIBMOIEIGE": 4174971456
  },
  {
    "id": 302,
    "talkId": 4008831,
    "npcId": 30234,
    "duration": 2,
    "AEEADIILKIB": [107, 108, 109, 110],
    "CGLHGBBAPEJ": [
      {
        "talkId": 4008831,
        "rewardId": 3057410
      },
      {}
    ],
    "ACIBMOIEIGE": 1218121000
  },
  {
    "id": 303,
    "talkId": 4008832,
    "npcId": 30234,
    "duration": 2,
    "AEEADIILKIB": [111, 112, 113, 114, 115, 116, 117],
    "CGLHGBBAPEJ": [
      {
        "talkId": 4008833,
        "rewardId": 3057412
      },
      {
        "talkId": 4008834,
        "rewardId": 3057411
      }
    ],
    "ACIBMOIEIGE": 2946638296
  },
  {
    "id": 304,
    "talkId": 4008835,
    "npcId": 30243,
    "duration": 2,
    "AEEADIILKIB": [118, 119, 120, 121, 122, 123],
    "CGLHGBBAPEJ": [
      {
        "talkId": 4008836,
        "rewardId": 3057413
      },
      {
        "talkId": 4008837,
        "rewardId": 3057414
      }
    ],
    "ACIBMOIEIGE": 4240628840
  },
  {
    "id": 305,
    "talkId": 4008838,
    "npcId": 30244,
    "duration": 2,
    "AEEADIILKIB": [124, 125],
    "CGLHGBBAPEJ": [
      {
        "talkId": 4008839,
        "rewardId": 3057416
      },
      {
        "talkId": 4008840,
        "rewardId": 3057415
      }
    ],
    "ACIBMOIEIGE": 4077715936
  },
  {
    "id": 306,
    "talkId": 4008841,
    "npcId": 30234,
    "duration": 2,
    "AEEADIILKIB": [126],
    "CGLHGBBAPEJ": [
      {
        "talkId": 4008842,
        "rewardId": 3057417
      },
      {
        "talkId": 4008843,
        "rewardId": 3057418
      }
    ],
    "ACIBMOIEIGE": 2899289344
  }
]
