[
  {
    "id": 1,
    "openDay": 1,
    "priority": 1,
    "groupID": 133001061,
    "NNDAJIEDILA": 20090102,
    "rewardID": 3029101,
    "FBPPPHONACG": [
      {
        "BLNHJAAEJFO": [21801001, 21801002, 21801003, 21801011, 21801012]
      },
      {
        "BLNHJAAEJFO": [21801001, 21801002, 21801003, 21801021, 21801022]
      },
      {
        "BLNHJAAEJFO": [21801001, 21801002, 21801003, 21801031, 21801032]
      },
      {
        "BLNHJAAEJFO": [21801001, 21801002, 21801003, 21801041, 21801042]
      },
      {
        "BLNHJAAEJFO": [21801001, 21801002, 21801003, 21801051, 21801052]
      }
    ]
  },
  {
    "id": 2,
    "openDay": 1,
    "priority": 2,
    "groupID": 133001058,
    "NNDAJIEDILA": 20090101,
    "rewardID": 3029102,
    "FBPPPHONACG": [
      {
        "BLNHJAAEJFO": [21801004, 21801005, 21801011, 21801012, 21801013]
      },
      {
        "BLNHJAAEJFO": [21801004, 21801005, 21801021, 21801022, 21801023]
      },
      {
        "BLNHJAAEJFO": [21801004, 21801005, 21801031, 21801032, 21801033]
      },
      {
        "BLNHJAAEJFO": [21801004, 21801005, 21801041, 21801042, 21801043]
      },
      {
        "BLNHJAAEJFO": [21801004, 21801005, 21801051, 21801052, 21801053]
      }
    ]
  },
  {
    "id": 3,
    "openDay": 4,
    "priority": 3,
    "groupID": 133001063,
    "NNDAJIEDILA": 20090104,
    "rewardID": 3029103,
    "FBPPPHONACG": [
      {
        "BLNHJAAEJFO": [21802001, 21802002, 21802003, 21802011, 21802012]
      },
      {
        "BLNHJAAEJFO": [21802001, 21802002, 21802003, 21802021, 21802022]
      },
      {
        "BLNHJAAEJFO": [21802001, 21802002, 21802003, 21802031, 21802032]
      },
      {
        "BLNHJAAEJFO": [21802001, 21802002, 21802003, 21802041, 21802042]
      },
      {
        "BLNHJAAEJFO": [21802001, 21802002, 21802003, 21802051, 21802052]
      }
    ]
  },
  {
    "id": 4,
    "openDay": 4,
    "priority": 4,
    "groupID": 133001064,
    "NNDAJIEDILA": 20090105,
    "rewardID": 3029104,
    "FBPPPHONACG": [
      {
        "BLNHJAAEJFO": [21802004, 21802005, 21802011, 21802012, 21802013]
      },
      {
        "BLNHJAAEJFO": [21802004, 21802005, 21802021, 21802022, 21802023]
      },
      {
        "BLNHJAAEJFO": [21802004, 21802005, 21802031, 21802032, 21802033]
      },
      {
        "BLNHJAAEJFO": [21802004, 21802005, 21802041, 21802042, 21802043]
      },
      {
        "BLNHJAAEJFO": [21802004, 21802005, 21802051, 21802052, 21802053]
      }
    ]
  },
  {
    "id": 5,
    "openDay": 7,
    "priority": 5,
    "groupID": 133008678,
    "NNDAJIEDILA": 20090108,
    "rewardID": 3029105,
    "FBPPPHONACG": [
      {
        "BLNHJAAEJFO": [21803001, 21803002, 21803003, 21803011, 21803012]
      },
      {
        "BLNHJAAEJFO": [21803001, 21803002, 21803003, 21803021, 21803022]
      },
      {
        "BLNHJAAEJFO": [21803001, 21803002, 21803003, 21803031, 21803032]
      },
      {
        "BLNHJAAEJFO": [21803001, 21803002, 21803003, 21803041, 21803042]
      },
      {
        "BLNHJAAEJFO": [21803001, 21803002, 21803003, 21803051, 21803052]
      }
    ]
  },
  {
    "id": 6,
    "openDay": 7,
    "priority": 6,
    "groupID": 133008679,
    "NNDAJIEDILA": 20090109,
    "rewardID": 3029106,
    "FBPPPHONACG": [
      {
        "BLNHJAAEJFO": [21803004, 21803005, 21803011, 21803012, 21803013]
      },
      {
        "BLNHJAAEJFO": [21803004, 21803005, 21803021, 21803022, 21803023]
      },
      {
        "BLNHJAAEJFO": [21803004, 21803005, 21803031, 21803032, 21803033]
      },
      {
        "BLNHJAAEJFO": [21803004, 21803005, 21803041, 21803042, 21803043]
      },
      {
        "BLNHJAAEJFO": [21803004, 21803005, 21803051, 21803052, 21803053]
      }
    ]
  },
  {
    "id": 7,
    "openDay": 10,
    "priority": 7,
    "groupID": 133008680,
    "NNDAJIEDILA": 20090110,
    "rewardID": 3029107,
    "FBPPPHONACG": [
      {
        "BLNHJAAEJFO": [21804001, 21804002, 21804003, 21804011, 21804012]
      },
      {
        "BLNHJAAEJFO": [21804001, 21804002, 21804003, 21804021, 21804022]
      },
      {
        "BLNHJAAEJFO": [21804001, 21804002, 21804003, 21804031, 21804032]
      },
      {
        "BLNHJAAEJFO": [21804001, 21804002, 21804003, 21804041, 21804042]
      },
      {
        "BLNHJAAEJFO": [21804001, 21804002, 21804003, 21804051, 21804052]
      }
    ]
  },
  {
    "id": 8,
    "openDay": 10,
    "priority": 8,
    "groupID": 133008681,
    "NNDAJIEDILA": 20090111,
    "rewardID": 3029108,
    "FBPPPHONACG": [
      {
        "BLNHJAAEJFO": [21804004, 21804005, 21804011, 21804012, 21804013]
      },
      {
        "BLNHJAAEJFO": [21804004, 21804005, 21804021, 21804022, 21804023]
      },
      {
        "BLNHJAAEJFO": [21804004, 21804005, 21804031, 21804032, 21804033]
      },
      {
        "BLNHJAAEJFO": [21804004, 21804005, 21804041, 21804042, 21804043]
      },
      {
        "BLNHJAAEJFO": [21804004, 21804005, 21804051, 21804052, 21804053]
      }
    ]
  }
]
