[
  ////////////////////////////////////////////////////////////////
  //
  // Steer
  //
  ////////////////////////////////////////////////////////////////
  {
    "Default": {
      "$type": "ConfigAbility",
      "abilityName": "Monster_Chrysopelea_Sacred_SteerAttack",
      "onAdded": [
        {
          "$type": "SetGlobalValue",
          "key": "Monster_Chrysopelea_Sacred",
          "value": 1,
          "target": "Self"
        }
      ],
      "abilityMixins": [
        // {
        //     "$type": "SteerAttackMixin",
        //     "steerStateIDs": ["NormalIdle"],
        //     "startNormalizedTime": 0.0,
        //     "endNormalizedTime": 99,
        //     "angularSpeed": 60,
        //     "attackTrigger" : "",
        // },
        {
          "$type": "SteerAttackMixin",
          "steerStateIDs": ["Attack_01"],
          "startNormalizedTime": 0.0,
          "endNormalizedTime": 0.55,
          "angularSpeed": 120,
          "attackTrigger": ""
        },
        {
          "$type": "SteerAttackMixin",
          "steerStateIDs": ["Turn"],
          "startNormalizedTime": 0.1,
          "endNormalizedTime": 0.8,
          "angularSpeed": 160,
          "attackTrigger": ""
        },
        {
          "$type": "SteerAttackMixin",
          "steerStateIDs": ["Blink"],
          "startNormalizedTime": 0.0,
          "endNormalizedTime": 0.1,
          "angularSpeed": 1600,
          "attackTrigger": ""
        },
        {
          "$type": "SteerAttackMixin",
          "steerStateIDs": ["Sacred_Attack01"],
          "startNormalizedTime": 0.03,
          "endNormalizedTime": 0.15,
          "angularSpeed": 120,
          "attackTrigger": ""
        },
        {
          "$type": "SteerAttackMixin",
          "steerStateIDs": ["Sacred_Attack02"],
          "startNormalizedTime": 0.08,
          "endNormalizedTime": 0.2,
          "angularSpeed": 120,
          "attackTrigger": ""
        },
        {
          "$type": "SteerAttackMixin",
          "steerStateIDs": ["Sacred_Attack02"],
          "startNormalizedTime": 0.2,
          "endNormalizedTime": 0.85,
          "angularSpeed": 180,
          "attackTrigger": ""
        },
        {
          "$type": "SteerAttackMixin",
          "steerStateIDs": ["Sacred_Attack02"],
          "startNormalizedTime": 0.85,
          "endNormalizedTime": 0.95,
          "angularSpeed": 120,
          "attackTrigger": ""
        },
        {
          "$type": "SteerAttackMixin",
          "steerStateIDs": ["Sacred_Attack03"],
          "startNormalizedTime": 0.06,
          "endNormalizedTime": 0.14,
          "angularSpeed": 120,
          "attackTrigger": ""
        },
        {
          "$type": "SteerAttackMixin",
          "steerStateIDs": ["Sacred_Attack03"],
          "startNormalizedTime": 0.36,
          "endNormalizedTime": 0.39,
          "angularSpeed": 180,
          "attackTrigger": ""
        },
        {
          "$type": "SteerAttackMixin",
          "steerStateIDs": ["Sacred_Attack03"],
          "startNormalizedTime": 0.75,
          "endNormalizedTime": 0.95,
          "angularSpeed": 120,
          "attackTrigger": ""
        },
        {
          "$type": "SteerAttackMixin",
          "steerStateIDs": ["Sacred_Attack04_BS"],
          "startNormalizedTime": 0.0,
          "endNormalizedTime": 1.0,
          "angularSpeed": 180,
          "attackTrigger": ""
        },
        {
          "$type": "SteerAttackMixin",
          "steerStateIDs": ["Sacred_Attack04_Loop"],
          "startNormalizedTime": 0.0,
          "endNormalizedTime": 10.0,
          "angularSpeed": 720,
          "attackTrigger": ""
        },
        {
          "$type": "SteerAttackMixin",
          "steerStateIDs": ["Sacred_Attack04_BS"],
          "startNormalizedTime": 0.0,
          "endNormalizedTime": 0.6,
          "angularSpeed": 120,
          "attackTrigger": ""
        },
        {
          "$type": "SteerAttackMixin",
          "steerStateIDs": ["Sacred_Attack05"],
          "startNormalizedTime": 0.78,
          "endNormalizedTime": 0.95,
          "angularSpeed": 120,
          "attackTrigger": ""
        },
        {
          "$type": "SteerAttackMixin",
          "steerStateIDs": ["Sacred_Attack06"],
          "startNormalizedTime": 0.68,
          "endNormalizedTime": 0.95,
          "angularSpeed": 120,
          "attackTrigger": ""
        }
      ]
    }
  },
  ////////////////////////////////////////////////////////////////
  //
  // AnimalAttack01
  //
  ////////////////////////////////////////////////////////////////
  {
    "Default": {
      "$type": "ConfigAbility",
      "abilityName": "Monster_Chrysopelea_Sacred_AnimalAttack01",
      "onAbilityStart": [
        {
          "$type": "TriggerBullet",
          "bulletID": 42406301,
          "target": "SelfAttackTarget",
          "born": {
            "$type": "ConfigBornByAttachPoint",
            "attachPointName": "BulletPoint",
            "attachPointTargetType": "Caster",
            "direction": {
              "$type": "ConfigDirectionByAttackTarget"
            }
          },
          "trackTarget": "SelfAttackTarget"
        }
      ]
    }
  },
  {
    "Default": {
      "$type": "ConfigAbility",
      "abilityName": "Monster_Chrysopelea_Sacred_AnimalAttack01_Bullet",
      "onAdded": [
        {
          "$type": "AttachEffect",
          "effectPattern": "Eff_Monster_Chrysopelea_Sacred_Attack01_Bullet" //临时，小雪球飞行特效
        }
      ],
      "onKill": [
        {
          "$type": "FireEffect",
          "effectPattern": "Eff_Monster_Chrysopelea_Sacred_Attack01_BulletExplode" //临时，小雪球爆炸特效
        }
      ],
      "onAbilityStart": [
        {
          "$type": "TriggerAttackEvent",
          "targetType": "Enemy",
          "attackEvent": {
            "attackPattern": {
              "$type": "ConfigAttackSphere",
              "triggerType": "TriggerNoRepeat",
              "radius": 0.5,
              "born": {
                "$type": "ConfigBornByCollisionPoint"
              }
            },
            "attackInfo": {
              "canBeModifiedBy": "OriginOwner",
              "attackProperty": {
                "damagePercentage": 0.5,
                "strikeType": "Blunt",
                "enBreak": 200.0,
                "elementDurability": 30,
                "elementType": "Wind"
              },
              "hitPattern": {
                "hitImpulseType": "LV4",
                "hitHaltTime": 0.0,
                "hitHaltTimeScale": 0.01,
                "muteHitText": false
              }
            }
          }
        },
        {
          "$type": "KillSelf"
        }
      ]
    }
  },
  ////////////////////////////////////////////////////////////////
  //
  // Sacred_Attack01
  //
  ////////////////////////////////////////////////////////////////
  {
    "Default": {
      "$type": "ConfigAbility",
      "abilityName": "Monster_Chrysopelea_Sacred_Attack01_WindZoneCreate",
      "onAbilityStart": [
        {
          "$type": "ApplyModifier",
          "modifierName": "Monster_Chrysopelea_Sacred_CreateWindZone"
        }
      ],
      "modifiers": {
        "Monster_Chrysopelea_Sacred_CreateWindZone": {
          "duration": 2,
          "onAdded": [
            {
              "$type": "CreateGadget",
              "target": "Self",
              "gadgetID": 42406302,
              "campID": 4001,
              "lifeByOwnerV2": true,
              "born": {
                "$type": "ConfigBornBySelf",
                "offset": {
                  "x": 1,
                  "y": 0,
                  "z": 0
                },
                "onGround": true,
                "alongGround": true
              }
            }
          ]
        }
      }
    }
  },
  {
    "Default": {
      "$type": "ConfigAbility",
      "abilityName": "Monster_Chrysopelea_Sacred_Attack01_WindZone",
      "onAdded": [
        {
          "$type": "AttachModifier",
          "modifierName": "Monster_Chrysopelea_Sacred_WindZone"
        }
      ],
      "modifiers": {
        "Monster_Chrysopelea_Sacred_WindZone": {
          "duration": 2.5,
          "thinkInterval": 0.5,
          "onThinkInterval": [
            {
              "$type": "TriggerAttackEvent",
              "targetType": "Enemy",
              "attackEvent": {
                "attackPattern": {
                  "$type": "ConfigAttackCircle",
                  "triggerType": "TriggerNoRepeat",
                  "fanAngle": 360.0,
                  "radius": 5.0,
                  "height": 0.1,
                  "born": {
                    "$type": "ConfigBornBySelf"
                  }
                },
                "attackInfo": {
                  "attackProperty": {
                    "damagePercentage": 0.1,
                    "strikeType": "Blunt",
                    "enBreak": 50.0,
                    "elementDurability": 30,
                    "elementType": "Wind"
                  },
                  "hitPattern": {
                    "hitImpulseType": "LV1",
                    "hitHaltTime": 0.2,
                    "hitHaltTimeScale": 0.01
                  }
                }
              }
            }
          ],
          "onAdded": [
            {
              "$type": "FireEffect",
              "effectPattern": "Eff_Monster_Chrysopelea_Sacred_SacredAttack01_WindZone"
            }
          ],
          "modifierMixins": [
            {
              "$type": "WindZoneMixin",
              "shapeName": "CircleR5",
              "strength": 3.5,
              "attenuation": 1,
              "innerRadius": 1,
              "targetType": "Enemy",
              "born": {
                "$type": "ConfigBornBySelf",
                "offset": {
                  "x": 0,
                  "y": 0,
                  "z": 0
                }
              }
            }
          ],
          "onRemoved": [
            {
              "$type": "KillSelf",
              "duration": 0.2
            }
          ]
        }
      }
    }
  },
  ////////////////////////////////////////////////////////////////
  //
  //  SacredAttack02
  //
  ////////////////////////////////////////////////////////////////
  {
    "Default": {
      "$type": "ConfigAbility",
      "abilityName": "Monster_Chrysopelea_Sacred_Attack02_BulletHit1",
      "onAbilityStart": [
        {
          "$type": "TriggerBullet",
          "bulletID": 42406305,
          "born": {
            "$type": "ConfigBornBySelf",
            "offset": {
              "x": 0,
              "y": 1.5,
              "z": 1
            },
            "direction": {
              "$type": "ConfigDirectionByDefault",
              "angleOffsetCorrect": {
                "x": 0,
                "y": 0,
                "z": 0
              }
            }
          }
        }
      ]
    }
  },
  {
    "Default": {
      "$type": "ConfigAbility",
      "abilityName": "Monster_Chrysopelea_Sacred_Attack02_BulletHit2",
      "onAbilityStart": [
        {
          "$type": "TriggerBullet",
          "bulletID": 42406305,
          "born": {
            "$type": "ConfigBornBySelf",
            "offset": {
              "x": 0,
              "y": 1.5,
              "z": 1
            },
            "direction": {
              "$type": "ConfigDirectionByDefault",
              "angleOffsetCorrect": {
                "x": 0,
                "y": 15,
                "z": 0
              }
            }
          }
        },
        {
          "$type": "TriggerBullet",
          "bulletID": 42406305,
          "born": {
            "$type": "ConfigBornBySelf",
            "offset": {
              "x": 0,
              "y": 1.5,
              "z": 1
            },
            "direction": {
              "$type": "ConfigDirectionByDefault",
              "angleOffsetCorrect": {
                "x": 0,
                "y": -15,
                "z": 0
              }
            }
          }
        }
      ]
    }
  },
  {
    "Default": {
      "$type": "ConfigAbility",
      "abilityName": "Monster_Chrysopelea_Sacred_Attack02_BulletHit3",
      "onAbilityStart": [
        {
          "$type": "TriggerBullet",
          "bulletID": 42406305,
          "born": {
            "$type": "ConfigBornBySelf",
            "offset": {
              "x": 0,
              "y": 1.5,
              "z": 1
            },
            "direction": {
              "$type": "ConfigDirectionByDefault",
              "angleOffsetCorrect": {
                "x": 0,
                "y": 0,
                "z": 0
              }
            }
          }
        },
        {
          "$type": "TriggerBullet",
          "bulletID": 42406305,
          "born": {
            "$type": "ConfigBornBySelf",
            "offset": {
              "x": 0,
              "y": 1.5,
              "z": 1
            },
            "direction": {
              "$type": "ConfigDirectionByDefault",
              "angleOffsetCorrect": {
                "x": 0,
                "y": 30,
                "z": 0
              }
            }
          }
        },
        {
          "$type": "TriggerBullet",
          "bulletID": 42406305,
          "born": {
            "$type": "ConfigBornBySelf",
            "offset": {
              "x": 0,
              "y": 1.5,
              "z": 1
            },
            "direction": {
              "$type": "ConfigDirectionByDefault",
              "angleOffsetCorrect": {
                "x": 0,
                "y": -30,
                "z": 0
              }
            }
          }
        }
      ]
    }
  },
  {
    "Default": {
      "$type": "ConfigAbility",
      "abilityName": "Monster_Chrysopelea_Sacred_Attack02_WindBlade",
      "onAdded": [
        {
          "$type": "ApplyModifier",
          "modifierName": "WindBlade"
        }
      ],
      "onAbilityStart": [
        {
          "$type": "Predicated",
          "target": "Target",
          "targetPredicates": [
            {
              "$type": "ByEntityTypes",
              "entityTypes": ["Avatar"]
            }
          ],
          "successActions": [
            {
              "$type": "TriggerAttackEvent",
              "targetType": "Enemy",
              "attackEvent": {
                "attackPattern": {
                  "$type": "ConfigAttackSphere",
                  "triggerType": "TriggerNoRepeat",
                  "radius": 1,
                  "born": {
                    "$type": "ConfigBornByCollisionPoint"
                  }
                },
                "attackInfo": {
                  "canBeModifiedBy": "OriginOwner",
                  "attackProperty": {
                    "damagePercentage": 0.6,
                    "strikeType": "Slash",
                    "elementType": "Wind",
                    "enBreak": 100,
                    "elementDurability": 30
                  },
                  "hitPattern": {
                    "onHitEffectName": "",
                    "hitImpulseType": "LV4"
                  }
                }
              }
            }
          ]
        }
      ],
      "modifiers": {
        "WindBlade": {
          "onAdded": [
            {
              "$type": "AttachEffect",
              "effectPattern": "Eff_Monster_Chrysopelea_Sacred_SacredAttack02_WindBlade"
            }
          ]
        }
      }
    }
  },
  ////////////////////////////////////////////////////////////////
  //
  //  Sacred_Attack04
  //
  ////////////////////////////////////////////////////////////////
  {
    "Default": {
      "$type": "ConfigAbility",
      "abilityName": "Monster_Chrysopelea_Sacred_Attack04_Collider",
      "onAbilityStart": [
        {
          "$type": "ApplyModifier",
          "modifierName": "StateControl"
        }
      ],
      "modifiers": {
        "StateControl": {
          "duration": 1.1,
          "modifierMixins": [
            {
              "$type": "AttachActionToModifierMixin",
              "onAdded": [
                {
                  "$type": "HideUIBillBoard",
                  "hide": true
                },
                {
                  "$type": "ApplyModifier",
                  "modifierName": "UnderGround_Invincible"
                },
                {
                  "$type": "ApplyModifier",
                  "modifierName": "UnderGround_DenyLockOn"
                },
                {
                  "$type": "EnablePushColliderName",
                  "pushColliderNames": ["PushCollider"],
                  "setEnable": false
                },
                {
                  "$type": "TriggerSetVisible",
                  "visible": false,
                  "target": "Self"
                }
              ],
              "onRemoved": [
                {
                  "$type": "HideUIBillBoard",
                  "hide": false
                },
                {
                  "$type": "RemoveModifier",
                  "modifierName": "UnderGround_Invincible"
                },
                {
                  "$type": "RemoveModifier",
                  "modifierName": "UnderGround_DenyLockOn"
                },
                {
                  "$type": "EnablePushColliderName",
                  "pushColliderNames": ["PushCollider"],
                  "setEnable": true
                },
                {
                  "$type": "TriggerSetVisible",
                  "visible": true,
                  "target": "Self"
                }
              ]
            }
          ]
        },
        "UnderGround_Invincible": {
          "state": "Invincible"
        },
        "UnderGround_DenyLockOn": {
          "state": "DenyLockOn"
        }
      }
    }
  },
  {
    "Default": {
      "$type": "ConfigAbility",
      "abilityName": "Monster_Chrysopelea_Sacred_Attack04_Find",
      "onAbilityStart": [
        {
          "$type": "TryFindBlinkPointByBorn",
          "target": "SelfAttackTarget",
          "hitSceneTest": true,
          "hitSceneType": "BlinkHitSceneTestByThreeSegments",
          "limitY": 6,
          "born": {
            "$type": "ConfigBornByTarget",
            "onGround": true,
            "alongGround": true
          }
        },
        {
          "$type": "CreateGadget",
          "target": "Self",
          "gadgetID": 42406306,
          "campID": 4001,
          "lifeByOwnerV2": true,
          "born": {
            "$type": "ConfigBornByTeleportToPoint",
            "onGround": true,
            "alongGround": true
          }
        }
      ]
    }
  },
  {
    "Default": {
      "$type": "ConfigAbility",
      "abilityName": "Monster_Chrysopelea_Sacred_Attack04_Blink",
      "onAbilityStart": [
        {
          "$type": "DoBlink"
        }
      ]
    }
  },
  {
    "Default": {
      "$type": "ConfigAbility",
      "abilityName": "Monster_Chrysopelea_Sacred_Attack04_WindZone",
      "onAdded": [
        {
          "$type": "AttachModifier",
          "modifierName": "Monster_Chrysopelea_Sacred_BlinkWindZone"
        }
      ],
      "modifiers": {
        "Monster_Chrysopelea_Sacred_BlinkWindZone": {
          "duration": 2.0,
          "thinkInterval": 0.5,
          "onThinkInterval": [
            {
              "$type": "TriggerAttackEvent",
              "targetType": "Enemy",
              "attackEvent": {
                "attackPattern": {
                  "$type": "ConfigAttackCircle",
                  "triggerType": "TriggerNoRepeat",
                  "fanAngle": 360.0,
                  "radius": 4.0,
                  "height": 0.1,
                  "born": {
                    "$type": "ConfigBornBySelf"
                  }
                },
                "attackInfo": {
                  "attackProperty": {
                    "damagePercentage": 0.1,
                    "strikeType": "Blunt",
                    "enBreak": 50.0,
                    "elementDurability": 30,
                    "elementType": "Wind"
                  },
                  "hitPattern": {
                    "hitImpulseType": "LV1",
                    "hitHaltTime": 0.2,
                    "hitHaltTimeScale": 0.01
                  }
                }
              }
            }
          ],
          "onAdded": [
            {
              "$type": "FireEffect",
              "effectPattern": "Eff_Monster_Chrysopelea_Sacred_SacredAttack04_WindZone"
            }
          ],
          "modifierMixins": [
            {
              "$type": "WindZoneMixin",
              "shapeName": "CircleR4",
              "strength": 3.5,
              "attenuation": 1,
              "innerRadius": 1,
              "targetType": "Enemy",
              "born": {
                "$type": "ConfigBornBySelf",
                "offset": {
                  "x": 0,
                  "y": 0,
                  "z": 0
                }
                // "onGround": true,
                // "alongGround": true,
              }
            }
          ],
          "onRemoved": [
            {
              "$type": "FireEffect",
              "effectPattern": "Eff_Monster_Chrysopelea_Sacred_SacredAttack04_Hit"
            },
            {
              "$type": "KillSelf",
              "duration": 0.2
            }
          ]
        }
      }
    }
  },
  ////////////////////////////////////////////////////////////////
  //
  //  SacredAttack05
  //
  ////////////////////////////////////////////////////////////////
  {
    "Default": {
      "$type": "ConfigAbility",
      "abilityName": "Monster_Chrysopelea_Sacred_Attack05_CreatBullet",
      "onAbilityStart": [
        {
          "$type": "TriggerBullet",
          "bulletID": 42406307, //有待改成冰专门的bullet
          "target": "SelfAttackTarget",
          "born": {
            "$type": "ConfigBornBySelf",
            "offset": {
              "x": -0.819,
              "y": 6.833,
              "z": 2.542
            },
            "direction": {
              "$type": "ConfigDirectionByDefault",
              "angleOffset": {
                "x": 0,
                "y": 0,
                "z": 0
              }
            }
          },
          "lifeByOwnerV2": true,
          "trackTarget": "SelfAttackTarget"
        }
      ]
    }
  },
  {
    "Default": {
      "$type": "ConfigAbility",
      "abilityName": "Monster_Chrysopelea_Sacred_Attack05_Bullet",
      "onAdded": [
        {
          "$type": "AttachEffect",
          "effectPattern": "Eff_Monster_Chrysopelea_Sacred_SacredAttack05_Bullet" //临时，小雪球飞行特效
        }
      ],
      "onKill": [
        {
          "$type": "FireEffect",
          "effectPattern": "Eff_Monster_Chrysopelea_Sacred_SacredAttack05_BulletExplode", //临时，小雪球爆炸特效
          "born": {
            "$type": "ConfigBornByCollisionPoint",
            "onGround": true,
            "alongGround": true
          }
        }
      ],
      "onAbilityStart": [
        {
          "$type": "TriggerAttackEvent",
          "targetType": "Enemy",
          "attackEvent": {
            "attackPattern": {
              "$type": "ConfigAttackSphere",
              "triggerType": "TriggerNoRepeat",
              "radius": 5.0,
              "born": {
                "$type": "ConfigBornByCollisionPoint",
                "onGround": true,
                "alongGround": true
              }
            },
            "attackInfo": {
              "canBeModifiedBy": "OriginOwner",
              "attackProperty": {
                "damagePercentage": 1.0,
                "strikeType": "Blunt",
                "enBreak": 200.0,
                "elementDurability": 30,
                "elementType": "Wind"
              },
              "hitPattern": {
                "hitImpulseType": "LV5",
                "hitHaltTime": 0.2,
                "hitHaltTimeScale": 0.01
              }
            }
          }
        },
        {
          "$type": "KillSelf"
        }
      ]
    }
  },
  {
    "Default": {
      "$type": "ConfigAbility",
      "abilityName": "Monster_Chrysopelea_Sacred_Attack05_WindBlade",
      "onAdded": [
        {
          "$type": "ApplyModifier",
          "modifierName": "ScaredWindBlade"
        }
      ],
      "onAbilityStart": [
        {
          "$type": "Predicated",
          "target": "Target",
          "targetPredicates": [
            {
              "$type": "ByEntityTypes",
              "entityTypes": ["Avatar"]
            }
          ],
          "successActions": [
            {
              "$type": "TriggerAttackEvent",
              "targetType": "Enemy",
              "attackEvent": {
                "attackPattern": {
                  "$type": "ConfigAttackSphere",
                  "triggerType": "TriggerNoRepeat",
                  "radius": 1,
                  "born": {
                    "$type": "ConfigBornByCollisionPoint"
                  }
                },
                "attackInfo": {
                  "canBeModifiedBy": "OriginOwner",
                  "attackProperty": {
                    "damagePercentage": 0.6,
                    "strikeType": "Slash",
                    "elementType": "Wind",
                    "enBreak": 100,
                    "elementDurability": 30
                  },
                  "hitPattern": {
                    "onHitEffectName": "",
                    "hitImpulseType": "LV4"
                  }
                }
              }
            }
          ]
        }
      ],
      "modifiers": {
        "ScaredWindBlade": {
          "onAdded": [
            {
              "$type": "AttachEffect",
              "effectPattern": "Eff_Monster_Chrysopelea_Sacred_SacredAttack05_Blade"
            }
          ]
        }
      }
    }
  },
  ////////////////////////////////////////////////////////////////
  //
  //  SacredEnergy
  //
  ////////////////////////////////////////////////////////////////
  {
    "Default": {
      "$type": "ConfigAbility",
      "abilityName": "Monster_Chrysopelea_Sacred_SacredEnergy_Accum"
    }
  },
  {
    "Default": {
      "$type": "ConfigAbility",
      "abilityName": "Monster_Chrysopelea_Sacred_SacredEnergy_Accum_Create",
      "onAbilityStart": [
        {
          "$type": "SetSelfAttackTarget",
          "otherTargets": {
            "$type": "SelectTargetsByShape",
            "shapeName": "CircleR50",
            "centerBasedOn": "Self",
            "campTargetType": "All",
            "campBasedOn": "Self",
            "sortType": "Nearest",
            "entityTypePriority": ["Gadget"]
          },
          "predicates": [
            {
              "$type": "ByTargetGlobalValue",
              "key": "Chrysopelea_SacredEnergy_Gadget",
              "value": 1,
              "compareType": "Equal"
            }
          ]
        },
        {
          "$type": "TriggerBullet",
          "bulletID": 42406309,
          "target": "SelfAttackTarget",
          "born": {
            "$type": "ConfigBornBySelf"
          }
        },
        {
          "$type": "ResetAIAttackTarget"
        }
      ]
    }
  },
  {
    "Default": {
      "$type": "ConfigAbility",
      "abilityName": "Monster_Chrysopelea_Sacred_SacredEnergy_Detect",
      "onAbilityStart": [
        {
          "$type": "TriggerBullet",
          "bulletID": 42406308,
          "lifeByOwnerIsAlive": true,
          "born": {
            "$type": "ConfigBornBySelf",
            "offset": {
              "x": 0,
              "y": 1.0,
              "z": 2.0
            },
            "direction": {
              "$type": "ConfigDirectionByDefault",
              "angleOffset": {
                "x": 0,
                "y": 0,
                "z": 0
              }
            }
          }
        }
      ]
    }
  },
  {
    "Default": {
      "$type": "ConfigAbility",
      "abilityName": "Monster_Chrysopelea_Sacred_SacredEnergy_Create",
      "onAbilityStart": [
        {
          "$type": "CreateGadget",
          "gadgetID": 42406303,
          "campID": 4001,
          "byServer": true,
          "born": {
            "$type": "ConfigBornByCollisionPoint",
            "onGround": true,
            "alongGround": true
          }
        },
        {
          "$type": "KillSelf"
        }
      ]
    }
  },
  {
    "Default": {
      "$type": "ConfigAbility",
      "abilityName": "Monster_Chrysopelea_Sacred_SacredEnergy_CreateO",
      "onAbilityStart": [
        {
          "$type": "CreateGadget",
          "gadgetID": 42406303,
          "campID": 4001,
          "byServer": true,
          "born": {
            "$type": "ConfigBornBySelf",
            "onGround": true,
            "alongGround": true
          }
        },
        {
          "$type": "KillSelf"
        }
      ]
    }
  },
  {
    "Default": {
      "$type": "ConfigAbility",
      "abilityName": "Monster_Chrysopelea_Sacred_SacredEnergy_Gadget",
      "onAdded": [
        {
          "$type": "ApplyModifier",
          "modifierName": "DarkHoundGadget_DelayHandler"
        },
        {
          "$type": "ApplyModifier",
          "modifierName": "DarkHoundGadget_DelayHandler_Effect"
        },
        {
          "$type": "SetGlobalValue",
          "key": "_CHARGEBAR_VALUE",
          "value": 0
        },
        {
          "$type": "SetGlobalValue",
          "key": "Chrysopelea_SacredEnergy_Gadget",
          "value": 1
        },
        {
          "$type": "EnablePushColliderName",
          "pushColliderNames": ["PushCollider_Occluder"],
          "setEnable": true
        },
        {
          "$type": "EnablePushColliderName",
          "pushColliderNames": ["PushCollider"],
          "setEnable": false
        }
      ],
      "modifiers": {
        "DarkHoundGadget_DelayHandler_Effect": {
          "duration": 1.35,
          "onRemoved": [
            {
              "$type": "FireEffect",
              "effectPattern": "Eff_Monster_Chrysopelea_Sacred_SacredAttack05_SacredEnergy_Hit"
            }
          ]
        },
        "DarkHoundGadget_DelayHandler": {
          "duration": 1.4,
          "onRemoved": [
            {
              "$type": "ApplyModifier",
              "modifierName": "DarkHoundGadget_ChargeState"
            },
            {
              "$type": "EnablePushColliderName",
              "pushColliderNames": ["PushCollider"],
              "setEnable": true
            }
          ]
        },
        "DarkHoundGadget_ChargeState": {
          "duration": 10,
          "modifierMixins": [
            {
              "$type": "ChargeBarMixin",
              "chargeBarElementType": "Wind",
              "chargeBarIconID": 1,
              "initialValue": 0,
              "maxValue": 10
            },
            {
              "$type": "AttachModifierToSelfGlobalValueMixin",
              "globalValueKey": "_CHARGEBAR_VALUE",
              "valueSteps": [9.5, 10.5],
              "removeAppliedModifier": true,
              "modifierNameSteps": ["DarkHoundGadget_ChargeEnd"]
            }
          ],
          "onAdded": [
            {
              "$type": "AttachEffect",
              "effectPattern": "Eff_Monster_Chrysopelea_Sacred_SacredEnergy"
            },
            {
              "$type": "AttachEffect",
              "effectPattern": "Eff_Monster_Chrysopelea_Sacred_SacredSmoke"
            }
          ],
          "onBeingHit": [
            {
              "$type": "SetSelfAttackTarget",
              "target": "Target"
            },
            {
              "$type": "FireEffect",
              "effectPattern": "Eff_Monster_Chrysopelea_Sacred_SacredEnergyBeHit",
              "born": {
                "$type": "ConfigBornByHitPoint",
                "offset": {
                  "x": 0.0,
                  "y": 0.0,
                  "z": 0.0
                }
              }
            },
            {
              "$type": "AddChargeBarValue",
              "value": 5,
              "predicates": [
                {
                  "$type": "ByAny",
                  "predicates": [
                    {
                      "$type": "ByHitElement",
                      "element": "Wind"
                    }
                  ]
                }
              ]
            },
            {
              "$type": "AddChargeBarValue",
              "value": 1.25,
              "predicates": [
                {
                  "$type": "ByAny",
                  "predicates": [
                    {
                      "$type": "ByHitElement",
                      "element": "Fire"
                    },
                    {
                      "$type": "ByHitElement",
                      "element": "Water"
                    },
                    {
                      "$type": "ByHitElement",
                      "element": "Ice"
                    },
                    {
                      "$type": "ByHitElement",
                      "element": "Electric"
                    },
                    {
                      "$type": "ByHitElement",
                      "element": "Grass"
                    },
                    {
                      "$type": "ByHitElement",
                      "element": "Rock"
                    }
                  ]
                }
              ]
            }
          ],
          "onRemoved": [
            {
              "$type": "EnableHitBoxByName",
              "hitBoxNames": ["HitBox"],
              "setEnable": false
            },
            {
              "$type": "FireEffect",
              "effectPattern": "Eff_Monster_Chrysopelea_Sacred_SacredEnergyDisappear",
              "predicates": [
                {
                  "$type": "ByTargetGlobalValue",
                  "compareType": "LessAndEqual",
                  "key": "_CHARGEBAR_VALUE",
                  "target": "Self",
                  "value": 9
                }
              ]
            },
            {
              "$type": "TriggerBullet",
              "target": "OriginOwner",
              "bulletID": 42406311,
              "trackTarget": "Target",
              "born": {
                "$type": "ConfigBornByAttachPoint",
                "attachPointName": "RootNode",
                "attachPointTargetType": "Self",
                "offset": {
                  "x": 0.0,
                  "y": 0.0,
                  "z": 0.0
                },
                "direction": {
                  "$type": "ConfigDirectionByAttachPoint",
                  "attachPointName": "RootNode",
                  "attachPointTargetType": "Self",
                  "angleOffset": {
                    "x": 0.0,
                    "y": 0.0,
                    "z": 0.0
                  }
                }
              },
              "predicates": [
                {
                  "$type": "ByTargetGlobalValue",
                  "compareType": "LessAndEqual",
                  "key": "_CHARGEBAR_VALUE",
                  "target": "Self",
                  "value": 9
                }
              ]
            },
            {
              "$type": "KillSelf",
              "duration": 0.2
            }
          ]
        },
        "DarkHoundGadget_ChargeEnd": {
          "onAdded": [
            {
              "$type": "ApplyModifier",
              "modifierName": "FireHolyHound_Timer"
            },
            {
              "$type": "ApplyModifier",
              "target": "OriginOwner",
              "modifierName": "SacredEnergy_Recover_CountDown"
            },
            {
              "$type": "EnableHitBoxByName",
              "hitBoxNames": ["HitBox"],
              "setEnable": false
            },
            {
              "$type": "RemoveModifier",
              "modifierName": "DarkHoundGadget_ChargeState"
            }
          ]
        },
        "SacredEnergy_Recover_CountDown": {
          "stacking": "Refresh",
          "duration": 13,
          "onRemoved": [
            {
              "$type": "SetGlobalValue",
              "target": "Self",
              "key": "SacredEnergy_Recover_Chrysopelea",
              "value": 1,
              "predicates": [
                {
                  "$type": "ByAnimatorBool",
                  "target": "Self",
                  "parameter": "EnhanceSkin",
                  "logic": "Equal",
                  "value": false
                }
              ]
            }
          ]
        },
        "FireHolyHound_Timer": {
          "duration": 0.65,
          "onAdded": [
            {
              "$type": "FireEffect",
              "effectPattern": "Eff_Monster_Chrysopelea_Sacred_SacredEnergyTransform"
            },
            {
              "$type": "Predicated",
              "target": "Other",
              "otherTargets": {
                "$type": "SelectTargetsByShape",
                "shapeName": "CircleR50",
                "centerBasedOn": "Self",
                "campTargetType": "Enemy",
                "campBasedOn": "Self",
                "topLimit": 1,
                "entityTypePriority": ["Avatar"],
                "sortType": "Nearest"
              },
              "successActions": [
                {
                  "$type": "ApplyModifier",
                  "target": "TargetTeam",
                  "modifierName": "Chrysopelea_SacredEnergy_TargetTeam"
                },
                {
                  "$type": "TriggerBullet",
                  "target": "Target",
                  "bulletID": 42406304,
                  "trackTarget": "Target",
                  "born": {
                    "$type": "ConfigBornByAttachPoint",
                    "attachPointName": "RootNode",
                    "attachPointTargetType": "Self",
                    "offset": {
                      "x": 0.0,
                      "y": 0.0,
                      "z": 0.0
                    },
                    "direction": {
                      "$type": "ConfigDirectionByAttachPoint",
                      "attachPointName": "RootNode",
                      "attachPointTargetType": "Self",
                      "angleOffset": {
                        "x": 0.0,
                        "y": 0.0,
                        "z": 0.0
                      }
                    }
                  }
                }
              ]
            }
          ]
        },
        //给team上标记
        "Chrysopelea_SacredEnergy_TargetTeam": {
          "duration": 10,
          "modifierMixins": [
            {
              "$type": "CurLocalAvatarMixinV2",
              "modifierName": "Chrysopelea_SacredEnergy_Target"
            }
          ]
        },
        "Chrysopelea_SacredEnergy_Target": {
          "onAdded": [
            {
              "$type": "SetGlobalValue",
              "target": "Self",
              "value": 1,
              "key": "SacredEnergy_Target_Chrysopelea"
            }
          ],
          "onRemoved": [
            {
              "$type": "SetGlobalValue",
              "target": "Self",
              "value": 0,
              "key": "SacredEnergy_Target_Chrysopelea"
            }
          ]
        }
      }
    }
  },
  {
    "Default": {
      "$type": "ConfigAbility",
      "abilityName": "Monster_Chrysopelea_Sacred_SacredEnergy_Bullet",
      "onAdded": [
        {
          "$type": "ApplyModifier",
          "modifierName": "HolyHoundBullet_Effect"
        }
      ],
      "onAbilityStart": [
        {
          "$type": "Predicated",
          "target": "Target",
          "targetPredicates": [
            {
              "$type": "ByTargetGlobalValue",
              "key": "SacredEnergy_Target_Chrysopelea",
              "value": 1,
              "compareType": "Equal"
            }
          ],
          "successActions": [
            {
              "$type": "ApplyModifier",
              "target": "TargetTeam",
              "modifierName": "Have_Chrysopelea_SacredEnergy_Team"
            },
            {
              "$type": "FireEffect",
              "target": "Target",
              "effectPattern": "Eff_Monster_Chrysopelea_Sacred_SacredEnergyHitPlayer",
              "born": {
                "$type": "ConfigBornByAttachPoint",
                "attachPointName": "RootNode"
              }
            },
            {
              "$type": "KillSelf",
              "target": "Self"
            }
          ]
        }
      ],
      "modifiers": {
        "HolyHoundBullet_Effect": {
          "onAdded": [
            {
              "$type": "AttachEffect",
              "effectPattern": "Eff_Monster_Chrysopelea_Sacred_SacredEnergyBullet"
            }
          ]
        },
        "Have_Chrysopelea_SacredEnergy_Team": {
          "duration": 10,
          "modifierMixins": [
            {
              "$type": "CurLocalAvatarMixinV2",
              "modifierName": "Have_Chrysopelea_SacredEnergy"
            }
          ]
        },
        "Have_Chrysopelea_SacredEnergy": {
          "onAdded": [
            {
              "$type": "SetGlobalValue",
              "target": "Self",
              "value": 1,
              "key": "SacredEnergy_Chrysopelea"
            },
            {
              "$type": "AttachEffect",
              "effectPattern": "Eff_Monster_Chrysopelea_Sacred_SacredEnergyOnPlayer"
            }
          ],
          "onRemoved": [
            {
              "$type": "SetGlobalValue",
              "target": "Self",
              "value": 0,
              "key": "SacredEnergy_Chrysopelea"
            }
          ],
          "onAttackLanded": [
            {
              "$type": "Predicated",
              "target": "Other",
              "targetPredicates": [
                {
                  "$type": "ByTargetGlobalValue",
                  "compareType": "Equal",
                  "key": "Monster_Chrysopelea_Sacred",
                  "value": 1
                },
                // {
                //     "$type": "ByTargetType",
                //     "targetType": "CasterOriginOwner",
                // },
                {
                  "$type": "ByEntityTypes",
                  "entityTypes": ["Monster"]
                },
                {
                  "$type": "ByAttackTags",
                  "attackTags": [
                    "NormalAttack_01",
                    "NormalAttack_02",
                    "NormalAttack_03",
                    "NormalAttack_04",
                    "NormalAttack_05",
                    "NormalAttack_06",
                    "ExtraAttack",
                    "FallingAttack",
                    "Elemental_Art",
                    "Elemental_Art_Hold",
                    "Elemental_Art_Extra",
                    "Elemental_Burst"
                  ]
                },
                {
                  "$type": "ByTargetGlobalValue",
                  "target": "Self",
                  "key": "SacredEnergy_Chrysopelea",
                  "value": 1,
                  "compareType": "Equal"
                }
              ],
              "successActions": [
                {
                  "$type": "SetAnimatorTrigger",
                  "target": "Other",
                  "triggerID": "WeakTrigger"
                },
                {
                  "$type": "FireEffect",
                  "effectPattern": "Eff_Monster_Chrysopelea_Sacred_ScaredBeHit",
                  "target": "Other"
                },
                {
                  "$type": "RemoveModifier",
                  "target": "Team",
                  "modifierName": "Have_Chrysopelea_SacredEnergy_Team"
                }
              ]
            }
          ]
        }
      }
    }
  },
  {
    "Default": {
      "$type": "ConfigAbility",
      "abilityName": "Monster_Chrysopelea_Sacred_SacredEnergy_Bullet_ToMonster",
      "onAdded": [
        {
          "$type": "ApplyModifier",
          "modifierName": "HolyHoundBullet_Effect"
        }
      ],
      "onAbilityStart": [
        {
          "$type": "Predicated",
          "target": "Target",
          "targetPredicates": [
            {
              "$type": "ByTargetGlobalValue",
              "key": "Monster_Chrysopelea_Sacred",
              "value": 1,
              "compareType": "Equal"
            },
            {
              "$type": "ByTargetGlobalValue",
              "key": "_SACRED_ENTITY_ALERTNESS_TAG_",
              "value": 1,
              "compareType": "Equal"
            }
          ],
          "successActions": [
            {
              "$type": "SetGlobalValue",
              "target": "Target",
              "key": "SacredEnergy_Recover_Chrysopelea",
              "value": 1
            },
            {
              "$type": "FireEffect",
              "target": "Target",
              "effectPattern": "Eff_Monster_Chrysopelea_Sacred_SacredEnergyHitMonster"
            },
            {
              "$type": "KillSelf",
              "target": "Self"
            }
          ]
        }
      ],
      "modifiers": {
        "HolyHoundBullet_Effect": {
          "onAdded": [
            {
              "$type": "AttachEffect",
              "effectPattern": "Eff_Monster_Chrysopelea_Sacred_SacredEnergyBullet"
            }
          ]
        }
      }
    }
  },
  ////////////////////////////////////////////////////////////////
  //
  //  EnhanceDefence
  //
  ////////////////////////////////////////////////////////////////
  {
    "Default": {
      "$type": "ConfigAbility",
      "abilityName": "Monster_Chrysopelea_Sacred_EnhanceDefence",
      "abilityMixins": [
        {
          "$type": "AttachToPoseIDMixin",
          "poseIDs": [1, 2, 3, 101, 102, 103, 201, 202],
          "modifierName": "Chrysopelea_Sacred_EnhanceDefence"
        }
      ],
      "modifiers": {
        "Chrysopelea_Sacred_EnhanceDefence": {
          "properties": {
            "Actor_PhysicalSubHurtDelta": 0.3,
            "Actor_FireSubHurtDelta": 0.3,
            "Actor_ElecSubHurtDelta": 0.3,
            "Actor_WaterSubHurtDelta": 0.3,
            "Actor_GrassSubHurtDelta": 0.3,
            "Actor_WindSubHurtDelta": 0.6,
            "Actor_IceSubHurtDelta": 0.3,
            "Actor_RockSubHurtDelta": 0.3
          }
        }
      }
    }
  }
]
