{
  "$type": "ConfigMonster",
  "headControl": {
    "$type": "ConfigHeadControl",
    "useHeadControl": true,
    "maxYawDegree": 20,
    "maxPitchDegree": 5,
    "animStates": [
      "NormalIdle/Standby",
      "NormalMove/WalkForward",
      "NormalMove/WalkBack",
      "NormalMove/WalkRight",
      "NormalMove/WalkLeft",
      "NormalMove/Run",
      "Turn/TurnLeft",
      "Turn/TurnRight"
    ]
  },
  "common": {
    "scale": 1.1,
    "viewSize": 1.5,
    "effectAttachShape": {
      "$type": "ConfigEffectAttachSkinnedMesh",
      "mesh": "EffectMesh"
    },
    "mass": 10000.0,
    "useGrassDisplacement": true,
    "affectedByWorld": true,
    "checkInSurface": true,
    "reconnectSupport": true,
    "clearAIOnSetLightDeactive": true,
    "height": 2,
    "modelHeight": 1.8,
    "hasAfterImage": true,
    "recoverByInitPose": true
  },
  "move": {
    "$type": "ConfigAnimatorMove",
    "facingMove": "FourDirection",
    "monsterSizeType": "StoopType",
    "moveOnWater": false
  },
  "model": {
    "bornEffect": "Eff_Monster_Common_Born",
    "canBakeMesh": true
  },
  "dither": {
    "showDitherDuration": 1.0
  },
  "equipController": {
    "attachPoints": {
      "equip01": "WeaponR",
      "equip02": "WeaponL"
    },
    "sheathPoint": ""
  },
  "billboard": {
    "$type": "ConfigCombatBillboard",
    "offsetType": "Character",
    "offset": {
      "x": -0.35,
      "y": 0,
      "z": 0
    },
    "radiusOffset": 0,
    "showHPBar": true,
    "size": "Big"
  },
  "combat": {
    "property": {
      "endureType": "Monster_Demiboss_Humanoid",
      "weight": 80 //weightLevel = 3
    },
    "combatLock": {
      "denyLockOn": false,
      "lockType": "Avatar&Monster_Lv4",
      "overrideRange": -1,
      "overrideNormalPri": -1,
      "overrideCombatPri": -1
    },
    "beHit": {
      "hitBloodEffect": "",
      "muteAllHit": false,
      "muteAllHitEffect": false,
      "muteAllHitText": false
    },
    "die": {
      "hasAnimatorDie": true,
      // "dieDisappearEffect": "Eff_Death_Sand_Eremite",
      "dieShaderData": "EremiteSandDie",
      "dieShaderEnableDurationTime": 1.0,
      "dieEndTime": 2.0,
      "dieForceDisappearTime": 8.0,
      "muteHitBox": true,
      "dieDenyLockOn": true,
      "dieIsGhostToEnemy": true,
      "dieIgnoreTriggerBullet": true,
      "muteBillboard": true,
      "mutePushCollider": true
    },
    "summon": {
      "summonTags": [
        {
          "maxNum": 1,
          "name": "Chrysopelea_Eremite_Grass_01",
          "summonTag": 25110401,
          "copyOwnerThreatList": true,
          "useOwnerDefendArea": true
        }
      ]
    },
    "animEvents": {
      "NormalAtk01": {
        "attackPattern": {
          "$type": "ConfigAttackCircle",
          "triggerType": "TriggerNoRepeat",
          "height": 2,
          "fanAngle": 180,
          "radius": 1.8,
          "born": {
            "$type": "ConfigBornBySelf",
            "offset": {
              "x": 0,
              "y": 0.0,
              "z": 1
            }
          }
        },
        "attackInfo": {
          "attackProperty": {
            "damagePercentage": 0.6,
            "strikeType": "Slash",
            "overrideByWeapon": false,
            "attackType": "Melee",
            "elementType": "Grass",
            "elementDurability": 25,
            "enBreak": 100
          },
          "hitPattern": {
            "onHitEffectName": "default",
            "hitImpulseType": "LV3",
            "canBeDefenceHalt": true,
            "muteHitText": false,
            "retreatType": "ByAttacker"
          }
        }
      },
      "NormalAtk02": {
        "attackPattern": {
          "$type": "ConfigAttackBox",
          "triggerType": "TriggerNoRepeat",
          "size": {
            "x": 2,
            "y": 5,
            "z": 2.5
          },
          "born": {
            "$type": "ConfigBornBySelf",
            "offset": {
              "x": 0.0,
              "y": 0.0,
              "z": 0.4
            }
          }
        },
        "attackInfo": {
          "attackProperty": {
            "damagePercentage": 0.7,
            "strikeType": "Slash",
            "overrideByWeapon": false,
            "attackType": "Melee",
            "elementType": "Grass",
            "elementDurability": 25,
            "enBreak": 100
          },
          "hitPattern": {
            "onHitEffectName": "default",
            "hitImpulseType": "LV4",
            "canBeDefenceHalt": true,
            "muteHitText": false,
            "retreatType": "ByAttacker"
          }
        }
      },
      "NormalAtk03_01": {
        "attackPattern": {
          "$type": "ConfigAttackCircle",
          "triggerType": "TriggerNoRepeat",
          "height": 2.2,
          "fanAngle": 180,
          "radius": 2,
          "born": {
            "$type": "ConfigBornBySelf",
            "offset": {
              "x": 0.0,
              "y": 0.0,
              "z": 0.0
            }
          }
        },
        "attackInfo": {
          "attackProperty": {
            "damagePercentage": 0.4,
            "strikeType": "Slash",
            "overrideByWeapon": false,
            "attackType": "Melee",
            "elementType": "Grass",
            "elementDurability": 25,
            "enBreak": 100
          },
          "hitPattern": {
            "onHitEffectName": "default",
            "hitImpulseType": "LV3",
            "canBeDefenceHalt": true,
            "muteHitText": false,
            "retreatType": "ByAttacker"
          }
        }
      },
      "BlinkAttack01": {
        "attackPattern": {
          "$type": "ConfigAttackBox",
          "triggerType": "TriggerNoRepeat",
          "size": {
            "x": 2,
            "y": 5,
            "z": 2.5
          },
          "born": {
            "$type": "ConfigBornBySelf",
            "offset": {
              "x": 0.0,
              "y": 0.0,
              "z": 0.4
            }
          }
        },
        "attackInfo": {
          "attackProperty": {
            "damagePercentage": 0.7,
            "strikeType": "Slash",
            "overrideByWeapon": false,
            "attackType": "Melee",
            "elementType": "Grass",
            "elementDurability": 25,
            "enBreak": 100
          },
          "hitPattern": {
            "onHitEffectName": "default",
            "hitImpulseType": "LV4",
            "canBeDefenceHalt": true,
            "muteHitText": false,
            "retreatType": "ByAttacker"
          }
        }
      }
    }
  },
  "stateLayers": {
    "defaultLayer": {
      "$type": "ConfigNormalStateLayer",
      "stateIDs": {
        "NormalIdle": {
          "$type": "ConfigMonsterStateIDInfo",
          "animatorStates": {
            "Standby": [],
            "Born": []
          },
          "canDoSkill": true,
          "canSyncMove": true,
          "resetAnimatorTriggerOnExit": ["DoSkill"]
        },
        "Standby_Weak": {
          "$type": "ConfigMonsterStateIDInfo",
          "animatorStates": {
            "Standby_Weak": []
          },
          "canDoSkill": true,
          "canSyncMove": true,
          "resetAnimatorTriggerOnEnter": ["Recover"],
          "resetAnimatorTriggerOnExit": ["DoSkill"]
        },
        "Swing": {
          "$type": "ConfigMonsterStateIDInfo",
          "animatorStates": {
            "Swing": []
          },
          "canDoSkill": true,
          "resetAnimatorTriggerOnEnter": [],
          "resetAnimatorTriggerOnExit": ["DoSkill"]
        },
        "NormalMove": {
          "$type": "ConfigMonsterStateIDInfo",
          "animatorStates": {
            "WalkForward": [],
            "WalkBack": [],
            "WalkRight": [],
            "WalkLeft": [],
            "Run": []
          },
          "canDoSkill": true,
          "canSteer": true,
          "canSyncMove": true,
          "resetAnimatorTriggerOnExit": ["DoSkill"]
        },
        "Turn": {
          "$type": "ConfigMonsterStateIDInfo",
          "animatorStates": {
            "TurnLeft": [],
            "TurnRight": []
          },
          "canDoSkill": true,
          "canSteer": true,
          "autoSteer": false,
          "canSyncMove": true,
          "resetAnimatorTriggerOnExit": ["DoSkill"]
        },
        "BeHit": {
          "$type": "ConfigMonsterStateIDInfo",
          "animatorStates": {
            "Hit_L": [],
            "Hit_H": []
          },
          "resetAnimatorTriggerOnEnter": ["BeHit"],
          "resetAnimatorTriggerOnExit": ["DoSkill"]
        },
        "BeHitThrow": {
          "$type": "ConfigMonsterStateIDInfo",
          "animatorStates": {
            "HitThrow": [],
            "HitThrowDrop": []
          },
          "resetAnimatorTriggerOnEnter": ["BeHit", "HitAir2HitDrop"],
          "resetAnimatorTriggerOnExit": ["DoSkill", "BeHit"],
          "setAnimatorBoolean": [
            {
              "$type": "ConfigAnimatorBoolean",
              "name": "AirDie"
            }
          ]
        },
        "BeHitThrowToStandby": {
          "$type": "ConfigMonsterStateIDInfo",
          "animatorStates": {
            "HitThrowToGround": []
          },
          "resetAnimatorTriggerOnEnter": ["BeHit", "HitAir2HitDrop"],
          "resetAnimatorTriggerOnExit": ["DoSkill", "BeHit"],
          "setAnimatorBoolean": [
            {
              "$type": "ConfigAnimatorBoolean",
              "name": "AirDie",
              "normalizeEnd": 0.62
            }
          ]
        },
        "Struggle": {
          "$type": "ConfigMonsterStateIDInfo",
          "animatorStates": {
            "Struggle": []
          },
          "resetAnimatorTriggerOnEnter": ["BeHit", "HitAir2HitDrop"],
          "resetAnimatorTriggerOnExit": ["DoSkill"]
        },
        "Die": {
          "$type": "ConfigMonsterStateIDInfo",
          "animatorStates": {
            "Die1": ["Monster_Eremite_Female_Standard_Dancer_Die"],
            "Die2": ["Monster_Eremite_Female_Standard_Dancer_Die"],
            "SwinDie_BS": [],
            "SwimDie": ["Monster_Eremite_SwimDie"],
            "SwimDie_AS": []
          }
        },
        "Die_RagDoll": {
          "$type": "ConfigMonsterStateIDInfo",
          "animatorStates": {
            "AirDie": ["Monster_Eremite_AirDie"]
          },
          "enableRagDoll": false
        },
        ///////////////////////////////////////////////////////////////////
        //
        // Skill Subs
        //
        ///////////////////////////////////////////////////////////////////
        "Alert": {
          "$type": "ConfigMonsterStateIDInfo",
          "animatorStates": {
            "Alert": ["Monster_Eremite_Female_Standard_Dancer_Alert"]
          },
          "autoSteer": true,
          "canDoSkill": false,
          "resetAnimatorTriggerOnExit": ["BeHit", "DoSkill"]
        },
        "SheathWeapon": {
          "$type": "ConfigMonsterStateIDInfo",
          "animatorStates": {
            "SheathWeapon": [
              "Monster_Eremite_Female_Standard_Dancer_ReturnToBorn"
            ]
          },
          "addEndure": 0,
          "massRatio": 20,
          "canDoSkill": false,
          "resetAnimatorTriggerOnEnter": ["SheathWeaponTrigger"],
          "resetAnimatorTriggerOnExit": [
            "BeHit",
            "DoSkill",
            "SheathWeaponTrigger"
          ]
        },
        "Improve": {
          "$type": "ConfigMonsterStateIDInfo",
          "animatorStates": {
            "Improve": ["Monster_Eremite_Female_Standard_Dancer_Improve"]
          },
          "resetAnimatorTriggerOnEnter": ["ForceImprove"],
          "resetAnimatorTriggerOnExit": ["BeHit", "DoSkill", "ForceImprove"],
          "addEndure": 0,
          "massRatio": 20
        },
        "Weak": {
          "$type": "ConfigMonsterStateIDInfo",
          "animatorStates": {
            "Weak_BS": [],
            "Weak_AS": []
          },
          "addEndure": 0.0,
          "resetAnimatorTriggerOnEnter": ["Weak"],
          "resetAnimatorTriggerOnExit": ["BeHit", "DoSkill", "Weak", "Recover"],
          "massRatio": 20
        },
        ///////////////////////////////////////////////////////////////////
        //
        // Attack Subs
        //
        ///////////////////////////////////////////////////////////////////
        "NormalAttack01": {
          "$type": "ConfigMonsterStateIDInfo",
          "animatorStates": {
            "NormalAttack01": [
              "Monster_Eremite_Female_Standard_Dancer_NormalAttack01"
            ]
          },
          "canSteer": true,
          "addEndure": 0.0,
          "resetAnimatorTriggerOnExit": ["BeHit", "DoSkill"]
        },
        "NormalAttack01_01": {
          "$type": "ConfigMonsterStateIDInfo",
          "animatorStates": {
            "NormalAttack01_01": [
              "Monster_Eremite_Female_Standard_Dancer_NormalAttack01_01"
            ]
          },
          "canSteer": true,
          "addEndure": 0.0,
          "resetAnimatorTriggerOnExit": ["BeHit", "DoSkill"]
        },
        "NormalAttack01_02": {
          "$type": "ConfigMonsterStateIDInfo",
          "animatorStates": {
            "NormalAttack01_02": [
              "Monster_Eremite_Female_Standard_Dancer_NormalAttack01_02"
            ]
          },
          "canSteer": true,
          "addEndure": 0.0,
          "resetAnimatorTriggerOnExit": ["BeHit", "DoSkill"]
        },
        "MeleeAttack01": {
          "$type": "ConfigMonsterStateIDInfo",
          "animatorStates": {
            "MeleeAttack01": [
              "Monster_Eremite_Female_Standard_Dancer_MeleeAttack01"
            ]
          },
          "canSteer": true,
          "addEndure": 0.0,
          "resetAnimatorTriggerOnExit": ["BeHit", "DoSkill"]
        },
        "RangeAttack01": {
          "$type": "ConfigMonsterStateIDInfo",
          "animatorStates": {
            "RangeAttack01": [
              "Monster_Eremite_Female_Standard_Dancer_RangeAttack01"
            ]
          },
          "canSteer": true,
          "addEndure": 0.0,
          "resetAnimatorTriggerOnExit": ["BeHit", "DoSkill"]
        },
        "ComboAttack01": {
          "$type": "ConfigMonsterStateIDInfo",
          "animatorStates": {
            "ComboAttack01": [
              "Monster_Eremite_Female_Standard_Dancer_ComboAttack01"
            ]
          },
          "canSteer": true,
          "addEndure": 0.0,
          "resetAnimatorTriggerOnEnter": ["CombotTrigger"],
          "resetAnimatorTriggerOnExit": ["BeHit", "DoSkill"]
        },
        "Blink": {
          "$type": "ConfigMonsterStateIDInfo",
          "animatorStates": {
            "Blink": ["Monster_Eremite_Female_Standard_Dancer_Blink"]
          },
          "canSteer": true,
          "addEndure": 0.0,
          "resetAnimatorTriggerOnExit": ["BeHit", "DoSkill"]
        },
        "Improve_Blink": {
          "$type": "ConfigMonsterStateIDInfo",
          "animatorStates": {
            "Improve_Blink": [
              "Monster_Eremite_Female_Standard_Dancer_Improve_Blink"
            ]
          },
          "canSteer": true,
          "addEndure": 0.0,
          "resetAnimatorTriggerOnExit": ["BeHit", "DoSkill"]
        },
        "BlinkAttack01": {
          "$type": "ConfigMonsterStateIDInfo",
          "animatorStates": {
            "BlinkAttack01": [
              "Monster_Eremite_Female_Standard_Dancer_BlinkAttack01"
            ]
          },
          "canSteer": true,
          "addEndure": 0.0,
          "resetAnimatorTriggerOnExit": ["BeHit", "DoSkill"]
        },
        "Blink_RangeAttack01": {
          "$type": "ConfigMonsterStateIDInfo",
          "animatorStates": {
            "Blink_RangeAttack01": [
              "Monster_Eremite_Female_Standard_Dancer_RangeAttack01"
            ]
          },
          "canSteer": true,
          "addEndure": 0.0,
          "resetAnimatorTriggerOnExit": ["BeHit", "DoSkill"]
        },
        "Personality01": {
          "$type": "ConfigMonsterStateIDInfo",
          "animatorStates": {
            "Personality01": []
          },
          "canSteer": true,
          "canDoSkill": true,
          "addEndure": 0.0,
          "resetAnimatorTriggerOnExit": ["BeHit", "DoSkill"]
        },
        "Personality02": {
          "$type": "ConfigMonsterStateIDInfo",
          "animatorStates": {
            "Personality02": []
          },
          "canSteer": true,
          "canDoSkill": true,
          "addEndure": 0.0,
          "resetAnimatorTriggerOnExit": ["BeHit", "DoSkill"]
        }
      }
    }
  },
  "abilities": [
    //////////////////////////////////////////////////////////////////////
    //////////////////////////////////////////////////////////////////////
    //
    // State Ability
    //
    //////////////////////////////////////////////////////////////////////
    //////////////////////////////////////////////////////////////////////
    {
      "abilityID": "SteerControl",
      "abilityName": "Monster_Eremite_Female_Standard_Dancer_StreeController"
    },
    {
      "abilityID": "FightControl",
      "abilityName": "Monster_Eremite_Female_Standard_Dancer_FightControl"
    },
    {
      "abilityID": "Improve",
      "abilityName": "Monster_Eremite_Female_Standard_Dancer_Improve"
    },
    {
      "abilityID": "Summon",
      "abilityName": "Monster_Eremite_Female_Standard_Dancer_Summon"
    },
    {
      "abilityID": "Weak",
      "abilityName": "Monster_Eremite_Female_Standard_Dancer_Weak"
    },
    {
      "abilityID": "ReturnToBorn",
      "abilityName": "Monster_Eremite_Female_Standard_Dancer_ReturnToBorn"
    },
    {
      "abilityID": "Alert",
      "abilityName": "Monster_Eremite_Female_Standard_Dancer_Alert"
    },
    //////////////////////////////////////////////////////////////////////
    //////////////////////////////////////////////////////////////////////
    //
    // Skill Ability
    //
    //////////////////////////////////////////////////////////////////////
    //////////////////////////////////////////////////////////////////////
    {
      "abilityID": "FindBlinkPoint",
      "abilityName": "Monster_Eremite_Female_Standard_Dancer_FindBlinkPoint"
    },
    {
      "abilityID": "Invisable",
      "abilityName": "Monster_Eremite_Female_Standard_Dancer_Invisable"
    },
    {
      "abilityID": "DoBlink",
      "abilityName": "Monster_Eremite_Female_Standard_Dancer_DoBlink"
    },
    {
      "abilityID": "Visable",
      "abilityName": "Monster_Eremite_Female_Standard_Dancer_Visable"
    },
    {
      "abilityID": "_WeaponHide",
      "abilityName": "Monster_Eremite_Female_Standard_Dancer_WeaponHide"
    },
    {
      "abilityID": "WeaponUnHide",
      "abilityName": "Monster_Eremite_Female_Standard_Dancer_WeaponUnHide"
    },
    {
      "abilityID": "RangeAttack01",
      "abilityName": "Monster_Eremite_Female_Standard_Dancer_RangeAttack01"
    },
    {
      "abilityID": "BoomerangLogic_Killed",
      "abilityName": "Monster_Eremite_Female_Standard_Dancer_BoomerangLogic_Killed"
    },
    {
      "abilityID": "TriggerWheelSurround",
      "abilityName": "Monster_Eremite_Female_Standard_Dancer_TriggerWheelSurround"
    },
    {
      "abilityID": "TriggerWheelSurround",
      "abilityName": "Monster_Eremite_Female_Standard_Dancer_WheelSurround_Killed"
    },
    {
      "abilityID": "TrapAlert",
      "abilityName": "Monster_Eremite_Female_Standard_Dancer_TrapAlert"
    },
    {
      "abilityID": "WeaponEffect_Open",
      "abilityName": "Monster_Eremite_Female_Standard_Dancer_WeaponEffect_Open"
    },
    {
      "abilityID": "WeaponEffect_Close",
      "abilityName": "Monster_Eremite_Female_Standard_Dancer_WeaponEffect_Close"
    },
    {
      "abilityID": "FindBlinkPoint_Away",
      "abilityName": "Monster_Eremite_Female_Standard_Dancer_FindBlinkPoint_Away"
    }
  ],
  "initialPoses": {
    "Default": {
      "initialPoseID": 1
    },
    "Swing": {
      "initialPoseID": 9001,
      "initialPoseParams": {
        "intParams": {
          "FreePoseMark": "9001"
        }
      }
    }
  },
  "aibeta": {
    "enable": true,
    "moveSetting": {
      "almostReachedDistanceRun": 1.5
    },
    "neurons": {
      "DefaultSetting": ["HIT"]
    },
    "aiCombat": {
      "combatRole": "FIGHTER"
    },
    "profiling": {},
    "sensing": {
      "settings": {
        "DefaultSetting": {
          "viewRange": 30.0,
          "feelRange": 8.0
        },
        "HighAlert": {
          "viewRange": 40.0,
          "feelRange": 10.0
        },
        "LowAlert": {
          "viewRange": 15.0,
          "feelRange": 6.0
        },
        "NeverCombat": {
          "enableVision": false,
          "feelRange": 0.0,
          "hearAttractionRange": 0.0
        }
      },
      "templates": {
        "DefaultTemplate": {
          "DefaultPoses": "DefaultSetting"
        },
        "NeverCombatTemplate": {
          "DefaultPoses": "NeverCombat"
        },
        "HighAlert": {
          "DefaultPoses": "HighAlert"
        },
        "LowAlert": {
          "DefaultPoses": "LowAlert"
        }
      }
    },
    "defendArea": {
      "defendRange": 50
    },
    "threat": {
      "clearThreatTargetDistance": 30,
      "clearThreatTimerByDistance": 1.75,
      "clearThreatEdgeDistance": 3.5,
      "viewThreatGrow": 35.0,
      "feelThreatGrow": 100.0,
      "threatDecreaseSpeed": 10.0,
      "resistTauntLevel": "Monster_TauntLevel_3",
      "clearThreatTimerByLostPath": 10,
      "viewAttenuation": [
        { "x": 10.0, "y": 2.0 },
        { "x": 15.0, "y": 0.8 },
        { "x": 20.0, "y": 0.5 },
        { "x": 25.0, "y": 0.3 },
        { "x": 30.0, "y": 0.2 }
      ]
    },
    "skillGroupCDConfigs": [
      {
        "$type": "ConfigAISkillGroupCD",
        "skillGroupCDID": 1,
        "skillGroupCDTime": 1
      },
      {
        "$type": "ConfigAISkillGroupCD",
        "skillGroupCDID": 2,
        "skillGroupCDTime": 2
      },
      {
        "$type": "ConfigAISkillGroupCD",
        "skillGroupCDID": 3,
        "skillGroupCDTime": 3
      },
      {
        "$type": "ConfigAISkillGroupCD",
        "skillGroupCDID": 4,
        "skillGroupCDTime": 25
      }
    ],
    "returnToBornTactic": {
      "enable": true,
      "defaultSetting": {
        "speedLevel": 0,
        "fadeoutBeginTime": 1,
        "fadeoutEndTime": 1.5
      }
    },
    "wanderTactic": {
      "enable": true,
      "condition": {
        "pose": [1]
      },
      "defaultSetting": {
        "speedLevel": 1,
        "cdMin": 5.0,
        "cdMax": 8.0,
        "distanceFromBorn": 15.0,
        "distanceFromCurrentMin": 3.5,
        "distanceFromCurrentMax": 9.5
      }
    },
    "investigateTactic": {
      "enable": true,
      "condition": {
        "pose": [1]
      }
    },
    "facingMoveTactic": {
      "enable": true,
      "condition": {
        "pose": [101, 102, 201]
      },
      "defaultSetting": {
        "speedLevel": 1,
        "rangeMin": 2,
        "rangeMax": 15,
        "restTimeMin": 1,
        "restTimeMax": 2,
        "facingMoveTurnInterval": 1.2,
        "obstacleDetectRange": 1,
        "facingMoveWeight": {
          "stop": 2,
          "forward": 6,
          "back": 0.5,
          "left": 3,
          "right": 3
        }
      },
      "specification": {
        "201": {
          "speedLevel": 1,
          "rangeMin": 0,
          "rangeMax": 14,
          "restTimeMin": 1,
          "restTimeMax": 1.5,
          "facingMoveTurnInterval": 1.5,
          "obstacleDetectRange": 1,
          "facingMoveWeight": {
            "stop": 0,
            "forward": 0.5,
            "back": 4,
            "left": 2,
            "right": 2
          }
        },
        "102": {
          "speedLevel": 1,
          "rangeMin": 0,
          "rangeMax": 14,
          "restTimeMin": 1,
          "restTimeMax": 1.5,
          "facingMoveTurnInterval": 1.5,
          "obstacleDetectRange": 1,
          "facingMoveWeight": {
            "stop": 0,
            "forward": 0.5,
            "back": 4,
            "left": 2,
            "right": 2
          }
        }
      }
    },
    "meleeChargeTactic": {
      "enable": true,
      "condition": {
        "pose": [101]
      },
      "defaultSetting": {
        "speedLevel": 1,
        "speedLevelInner": 1,
        "innerDistance": 0,
        "stopDistance": 20,
        "startDistanceMin": 15.0,
        "startDistanceMax": 99.0
      }
    },
    "network": {
      "syncSkill": true
    },
    "skillGCD": 1,
    "skills": {
      //Alert
      "101": {
        "name": "OnAlert",
        "faceTarget": true,
        "stateIDs": ["Alert"],
        "skillType": "OnAlert",
        "skillQueryingTime": 3,
        "triggerGCD": false,
        "ignoreGCD": true,
        "castCondition": {
          "pose": [1, 9001]
        }
      },
      "102": {
        "name": "OnAlert",
        "stateIDs": ["Alert"],
        "skillType": "OnNerve",
        "skillQueryingTime": 3,
        "faceTarget": true,
        "triggerGCD": false,
        "ignoreGCD": true,
        "castCondition": {
          "pose": [1, 9001]
        },
        "nerveTrigger": ["HIT"]
      },
      "201": {
        "cd": 5,
        "cdUpperRange": 2.0,
        "name": "NormalAttack01",
        "triggerGCD": true,
        "ignoreGCD": false,
        "skillGroupCDID": 3,
        "triggerCDOnStart": true,
        "skillType": "Combat",
        "flagSelfInZone": "11",
        "stateIDs": ["NormalAttack01"],
        "castCondition": {
          "pickRangeMin": 0,
          "pickRangeMax": 7,
          "pose": [101]
        }
      },
      "202": {
        "cd": 5,
        "cdUpperRange": 2.0,
        "name": "NormalAttack01_02",
        "triggerGCD": true,
        "ignoreGCD": false,
        "skillGroupCDID": 3,
        "triggerCDOnStart": true,
        "skillType": "Combat",
        "flagSelfInZone": "11",
        "stateIDs": ["NormalAttack01_02", "NormalAttack01_02"],
        "castCondition": {
          "pickRangeMin": 0,
          "pickRangeMax": 5,
          "pose": [101, 201, 102]
        }
      },
      "211": {
        "cd": 5,
        "cdUpperRange": 2.0,
        "initialCD": 3,
        "ignoreGCD": false,
        "triggerGCD": true,
        "name": "RangeAttack01",
        "skillType": "Combat",
        "flagSelfInZone": "11",
        "stateIDs": ["RangeAttack01"],
        "castCondition": {
          "pickRangeMin": 5.0,
          "pickRangeMax": 16.0,
          "pose": [101]
        }
      },
      "221": {
        "cd": 15,
        "cdUpperRange": 2.0,
        "initialCD": 5,
        "initialCDUpperRange": 0,
        "ignoreGCD": false,
        "triggerGCD": true,
        "priority": 2,
        "skillGroupCDID": 3,
        "name": "MeleeAttack01",
        "skillType": "Combat",
        "flagSelfInZone": "11",
        "stateIDs": ["MeleeAttack01"],
        "castCondition": {
          "pickRangeMin": 0.0,
          "pickRangeMax": 8.0,
          "pose": [101]
        }
      },
      "231": {
        "cd": 10,
        "cdUpperRange": 3,
        "initialCD": 5,
        "initialCDUpperRange": 3,
        "ignoreGCD": true,
        "triggerGCD": false,
        "name": "BlinkAttack01",
        "skillType": "Combat",
        "flagSelfInZone": "11",
        "triggerCDOnStart": true,
        "stateIDs": ["Blink", "BlinkAttack01"],
        "castCondition": {
          "pickRangeMin": 7,
          "pickRangeMax": 25,
          "pose": [101]
        }
      },
      "301": {
        "cd": 10,
        "cdUpperRange": 3,
        "initialCD": 5,
        "initialCDUpperRange": 3,
        "priority": 2,
        "ignoreGCD": false,
        "triggerGCD": true,
        "name": "Improve_Blink",
        "skillType": "Combat",
        "flagSelfInZone": "11",
        "triggerCDOnStart": true,
        "stateIDs": ["Improve_Blink", "Blink_RangeAttack01"],
        "castCondition": {
          "pickRangeMin": 0.0,
          "pickRangeMax": 3.0,
          "pose": [201, 102]
        }
      },
      "302": {
        "cd": 10,
        "cdUpperRange": 3,
        "initialCD": 5,
        "initialCDUpperRange": 3,
        "priority": 2,
        "ignoreGCD": false,
        "triggerGCD": true,
        "name": "Improve_Blink",
        "skillType": "Combat",
        "flagSelfInZone": "11",
        "triggerCDOnStart": true,
        "stateIDs": ["Improve_Blink", "Blink_RangeAttack01"],
        "castCondition": {
          "pickRangeMin": 20,
          "pickRangeMax": 50,
          "pose": [201, 102]
        }
      },
      "311": {
        "cd": 6,
        "cdUpperRange": 2.0,
        "name": "Improve_RangeAttack01",
        "triggerGCD": true,
        "ignoreGCD": false,
        "skillGroupCDID": 3,
        "skillType": "Combat",
        "flagSelfInZone": "11",
        "stateIDs": ["Improve_RangeAttack01"],
        "castCondition": {
          "pickRangeMin": 0.0,
          "pickRangeMax": 16.0,
          "pose": [201, 102]
        }
      },
      "401": {
        "cd": 10,
        "name": "Improve",
        "stateIDs": ["Improve"],
        "triggerGCD": false,
        "ignoreGCD": true,
        "triggerCDOnFail": false,
        "skillType": "Combat",
        "skillQueryingTime": 3,
        "priority": 2,
        "flagSelfInZone": "11",
        "flagSelfOnTemplateCollider": "11",
        "flagTargetReachable": "11",
        "flagTargetInZone": "11",
        "castCondition": {
          "pose": [111]
        }
      },
      "9001": {
        "cd": 100,
        "cdUpperRange": 35,
        "initialCD": 25,
        "skillGroupCDID": 4,
        "initialCDUpperRange": 10,
        "name": "Personality01",
        "stateIDs": ["Personality01"],
        "triggerGCD": false,
        "ignoreGCD": true,
        "skillType": "Free",
        "skillQueryingTime": 10,
        "castCondition": {
          "pose": [2, 1]
        }
      },
      "9002": {
        "cd": 100,
        "cdUpperRange": 35,
        "initialCD": 25,
        "skillGroupCDID": 4,
        "initialCDUpperRange": 10,
        "name": "Personality02",
        "stateIDs": ["Personality02"],
        "triggerGCD": false,
        "ignoreGCD": true,
        "skillType": "Free",
        "skillQueryingTime": 10,
        "castCondition": {
          "pose": [2, 1]
        }
      }
    }
  },
  "inputKeys": [
    {
      "keyID": 201,
      "inputKeyCode": 257 // 1
    },
    {
      "keyID": 202,
      "inputKeyCode": 258 // 2
    },
    {
      "keyID": 211,
      "inputKeyCode": 259 // 3
    },
    {
      "keyID": 212,
      "inputKeyCode": 260 // 4
    },
    {
      "keyID": 221,
      "inputKeyCode": 261 // 5
    },
    {
      "keyID": 231,
      "inputKeyCode": 262 // 6
    },
    {
      "keyID": 241,
      "inputKeyCode": 263 // 7
    },
    {
      "keyID": 401,
      "inputKeyCode": 264 // 8
    }
  ]
}
